,S2,S2_conf
"('init_infection', 'beta')",0.006555929639352254,0.030521184926714667
"('init_infection', 'LATM_t')",0.00705242140191914,0.03601642432020848
"('beta', 'LATM_t')",0.23388938170103873,0.19255121523261123
