src,dst
0,1
0,79
0,126
0,366
0,1815
0,2713
0,2717
0,3412
0,4767
0,4829
2,124
2,148
2,254
2,532
2,569
2,610
2,617
2,673
2,901
2,1061
2,1173
2,1263
2,1645
2,2189
2,2371
2,2621
2,2739
2,2786
2,2857
2,3431
2,3696
2,4103
2,4345
2,4841
2,4931
2,4940
3,3413
3,4140
5,295
5,1030
5,2247
5,4918
7,1578
7,1935
7,3528
9,233
9,1486
9,1647
9,1863
9,4298
12,609
12,4512
13,1385
13,1452
15,2867
18,464
18,977
18,1175
18,1543
18,1866
18,3119
18,4137
18,4228
21,463
21,1108
21,1277
21,1948
23,46
23,439
23,964
23,1547
23,2620
23,2660
23,3480
23,4222
24,850
24,1010
24,1127
24,1183
24,1424
24,1523
24,3018
24,3610
25,125
25,3736
27,1163
28,332
28,1663
28,4146
28,4560
29,445
29,1107
29,1224
29,2098
29,4396
31,4619
35,1314
35,1780
35,2822
36,1669
39,4125
41,256
41,312
41,657
41,663
41,3771
41,3981
42,624
42,1308
42,1381
42,2914
42,4464
42,4504
43,1461
43,2718
44,1944
45,2396
48,795
48,940
48,4858
48,4935
49,3795
50,1787
51,1948
52,841
52,2065
52,3772
53,69
53,3900
54,1387
54,3460
55,1385
56,293
56,4618
57,170
57,477
57,627
57,1582
57,2810
58,4883
60,84
61,481
61,563
61,724
61,2059
61,2580
62,332
62,1011
62,1850
62,3062
64,846
64,988
64,2153
65,1225
65,1509
65,2223
65,3295
65,4951
66,725
66,2051
66,2763
66,3541
66,3982
70,3010
71,767
71,2966
71,3325
76,942
76,1417
76,1888
76,2456
76,3127
76,3758
76,3815
77,106
77,2895
80,4365
81,3990
83,4801
85,4156
87,2485
88,153
88,216
88,3454
88,3736
88,4424
89,4
95,84
95,460
95,3176
95,4202
100,538
101,211
101,548
101,3010
102,754
102,3927
103,1375
103,1719
103,1785
103,2133
103,2309
103,2802
103,3379
103,3890
103,4696
104,2833
112,96
112,1168
113,85
113,1772
115,695
115,2569
115,3619
115,3986
117,3820
118,40
118,121
118,440
120,876
120,2532
120,3457
120,3461
120,3591
120,3714
120,4029
120,4830
124,687
124,4654
125,1050
127,519
127,520
127,659
127,1379
127,2111
127,3990
127,4019
127,4875
128,4999
132,344
132,659
132,1118
132,2637
132,4642
134,4170
134,4736
136,485
136,1067
136,1474
137,1308
137,2573
137,2579
138,218
138,1689
140,147
140,423
140,595
140,1049
140,1290
140,1629
140,2099
140,2836
140,3589
140,4254
141,3381
142,595
142,599
142,2802
142,2918
142,3595
142,4002
142,4309
143,3466
144,1349
145,1193
145,1670
145,1959
145,2653
145,2894
145,4054
145,4282
145,4734
146,2985
150,32
150,4272
154,525
154,2685
154,3739
155,530
155,780
155,2082
160,319
160,982
160,1101
160,1269
162,1132
162,1324
162,3922
162,4390
163,2186
163,2428
163,3927
165,780
166,3609
167,347
167,3282
168,34
170,747
171,1192
171,1730
172,130
172,408
172,630
172,2802
172,4799
173,3927
175,613
175,2713
176,3571
179,910
179,1021
179,1304
179,2330
179,3039
179,3870
179,4269
179,4392
180,842
180,3024
181,1629
181,3659
181,3706
183,194
183,1237
184,99
184,234
184,265
184,279
184,548
184,819
184,1728
184,1970
184,2083
184,3108
184,3267
184,3373
184,3484
187,871
187,3427
187,3927
187,4651
188,111
190,3821
191,226
191,1208
191,3862
192,4224
193,3709
194,778
194,816
194,4000
194,4505
194,4925
200,976
201,2072
203,522
203,753
203,2230
203,2261
203,4383
204,346
204,695
204,1630
204,2745
204,3460
204,3981
204,4388
205,2836
206,1254
206,2171
207,776
207,1175
207,3947
207,4833
208,2567
208,3335
210,1390
210,2826
210,3381
210,3408
210,3606
210,3789
212,3927
213,2284
214,770
214,2940
217,607
217,638
217,3487
217,4776
219,84
222,4704
223,2122
223,4948
224,2323
225,4217
231,836
232,151
232,166
232,1746
232,4743
235,1879
235,1919
236,253
236,1326
236,2494
236,2881
236,4064
236,4804
237,2069
237,4054
237,4115
238,3917
239,1874
240,332
240,488
241,533
241,4041
242,615
242,2627
242,3022
242,3469
242,4030
247,175
247,562
247,744
247,751
247,1341
247,4053
248,1629
250,2020
250,2984
251,837
251,2341
252,997
255,221
255,831
255,3843
257,93
257,684
257,715
257,2067
257,3194
257,4085
258,1024
258,1112
259,16
259,289
259,369
259,757
259,1497
259,1566
259,2037
259,2262
259,2460
259,2704
259,3839
259,4324
260,452
260,476
260,1775
261,422
261,1944
261,4834
261,4950
264,221
264,2179
264,3532
266,2127
266,4228
267,1259
267,2432
267,2695
269,148
269,1586
269,1849
269,1943
269,2108
269,3691
269,4497
269,4518
269,4683
270,2735
270,3381
270,3997
270,4282
270,4581
272,2637
273,161
273,3835
274,593
274,3381
274,4133
275,3115
275,4423
276,469
277,679
277,1078
280,1227
282,907
282,925
282,2291
282,2478
282,3129
282,3608
283,0
284,1544
284,4210
284,4650
285,82
285,1137
285,1457
287,317
287,2629
288,350
288,2864
288,2870
288,3658
290,4333
291,146
291,300
291,583
291,660
291,904
291,1453
291,1561
291,1799
291,1809
291,1841
291,2824
291,3718
291,4275
291,4856
292,1893
292,3027
294,536
297,1093
297,1297
298,844
298,1900
299,4829
302,597
302,789
302,3115
304,96
307,474
307,635
307,1544
307,1768
307,1995
307,3215
307,3594
307,3922
307,4218
309,684
309,3800
310,1785
310,2505
310,2804
311,783
311,2751
311,4429
313,513
313,4410
314,415
314,473
314,1604
314,4324
315,2157
315,3920
315,4214
316,3900
318,280
321,899
321,2936
322,369
322,599
322,1163
322,1226
322,1361
322,1579
322,1975
322,2424
322,2648
322,4095
322,4232
323,1942
324,539
324,609
324,1092
324,1466
324,3736
324,3921
324,4292
326,70
326,643
326,4883
328,1889
332,330
332,909
332,1245
332,1398
332,2793
332,2938
332,3081
332,3106
333,638
333,1335
333,4848
334,17
334,522
334,560
334,979
334,1347
334,1580
334,2027
334,2412
334,3861
334,3977
334,4709
334,4721
335,1995
335,2428
336,1313
336,1847
337,702
337,1417
337,1660
339,3120
339,4191
340,1
340,3873
341,3376
342,682
342,1655
342,3326
343,265
343,1096
343,2600
343,3757
344,1250
345,1062
345,1750
345,3727
345,4054
345,4506
348,2073
348,2216
348,4841
351,182
352,1539
353,1923
354,73
355,220
355,1541
355,2588
355,3521
355,3626
355,4343
355,4461
355,4904
358,198
358,206
358,311
358,612
358,1792
358,2292
358,2950
358,4183
358,4639
360,1265
360,1676
360,2484
361,836
361,2090
362,504
362,1662
362,2258
362,2562
362,3043
364,581
364,4202
367,2347
370,121
370,2216
370,2379
370,3466
371,273
372,4579
374,93
374,1691
374,2456
375,60
375,2159
375,2826
376,18
377,712
377,2908
378,329
378,2813
379,1341
380,192
382,772
382,3280
382,4465
383,85
383,2445
383,4427
383,4687
387,245
387,1342
388,1313
388,1623
388,2125
389,150
389,1255
390,3627
391,2034
392,68
392,895
392,1073
392,1777
392,2205
392,3736
392,3981
393,2424
393,3069
394,47
394,718
394,1263
398,4468
399,234
399,2298
399,3298
399,3989
399,4337
400,68
400,1629
402,152
402,621
402,1393
402,3970
402,4992
403,192
403,682
403,1166
403,1372
403,3249
407,1931
407,3661
407,4631
409,192
409,1279
410,683
410,807
410,1404
410,1644
410,3008
410,3536
411,6
411,126
414,497
414,1847
416,1220
417,46
417,626
418,1349
419,150
419,437
419,551
419,1100
419,1764
421,824
421,1366
421,1391
421,1847
421,4971
424,195
424,3015
424,4341
425,1519
425,2368
425,3758
426,576
426,1948
426,2419
426,3381
426,4083
427,1142
427,2438
427,2928
427,2946
428,3549
429,3232
431,770
431,3466
431,4302
432,105
432,1190
433,1550
433,1896
433,3165
434,1009
434,1498
434,3627
435,516
436,148
436,708
436,4933
442,776
442,2033
442,3584
442,4007
442,4432
444,1948
444,2078
444,4040
446,401
446,2386
446,2734
446,3271
447,844
447,2435
447,2448
447,2841
447,3721
447,4608
451,262
451,2472
451,3052
451,4058
451,4219
451,4627
454,4054
455,1948
456,1512
456,2290
456,3185
456,4692
457,2034
458,4202
461,755
462,1202
462,1350
462,2382
462,3122
463,765
463,1232
463,1485
463,2657
463,3400
463,3595
464,178
466,548
468,96
468,823
468,2809
468,3929
468,4260
471,1629
471,2251
472,1983
472,3821
474,1785
478,1955
478,2072
478,4522
479,246
479,1027
479,4808
479,4818
481,216
481,4090
484,1070
486,794
486,1629
486,1988
486,2533
486,3248
486,4082
486,4520
487,306
487,874
487,1665
487,3123
487,3653
488,359
488,363
488,2167
488,2553
488,2930
488,4171
489,1040
489,2580
489,2830
489,3928
490,20
490,192
490,268
490,963
490,1505
490,1778
490,2352
490,3613
491,196
492,20
492,75
492,554
492,918
492,1439
492,1530
492,1707
492,2525
492,2573
494,199
494,813
494,1777
494,1847
494,2376
494,3701
494,4017
494,4377
494,4463
495,16
495,506
495,2419
495,2495
495,3433
495,4618
496,771
496,3078
497,1473
497,1498
497,3998
498,1004
499,383
499,500
499,3045
499,4335
501,3367
501,4699
504,1544
504,2674
504,2802
504,3237
507,234
508,109
508,2880
510,10
510,512
510,2338
510,2771
510,4235
510,4260
514,734
514,2480
514,3998
514,4668
514,4939
515,791
515,2280
515,4365
516,59
517,278
517,2063
518,2317
523,464
523,644
523,818
523,1189
523,2390
523,2771
523,3443
523,3529
523,3710
524,2505
524,2656
524,4918
525,73
525,3019
525,3041
525,3353
525,3602
525,4896
526,166
526,565
526,2286
527,3046
528,226
528,741
528,1300
528,3242
528,3647
528,4143
528,4197
528,4835
529,1999
529,4123
529,4742
529,4966
533,848
535,2747
536,3218
537,196
537,417
537,483
537,3230
540,522
541,4964
542,197
543,3990
544,20
545,59
545,312
545,450
545,588
545,589
545,792
545,862
545,1259
545,1360
545,1652
545,2601
545,2793
545,2889
545,3188
545,4311
545,4504
545,4765
546,286
546,1065
546,3592
547,2092
547,4848
549,3736
550,559
550,1312
550,2361
550,3378
552,1293
552,4468
556,239
556,4111
557,227
557,1104
558,18
558,520
558,753
558,919
558,1482
558,1847
558,1862
558,2845
558,4285
561,3956
567,325
567,1941
567,3040
568,2870
570,551
570,677
572,3226
572,3777
573,428
578,803
578,883
578,899
578,2514
578,4949
579,3460
580,2359
580,2802
581,2184
582,658
582,2533
583,3627
584,369
584,3990
585,785
585,1291
585,2294
585,3033
585,3317
585,3700
588,868
589,530
591,1985
596,1012
596,3784
596,4841
598,317
598,776
598,1084
598,2768
598,3816
598,3906
600,82
600,4732
601,633
601,1277
601,2243
601,2649
601,2778
601,3608
601,4619
601,4857
602,953
603,1440
603,2607
603,3827
603,4545
604,3627
606,93
606,1459
606,4981
607,884
607,1394
607,3247
607,3436
607,4413
608,4557
609,4414
611,870
611,1554
611,1890
611,2413
611,2895
611,4342
611,4466
611,4572
613,801
613,2925
616,536
616,1052
618,441
618,1022
618,1223
618,1641
618,2577
619,308
619,428
620,369
622,1458
622,1854
625,1178
626,1415
626,3606
628,440
628,1592
628,3441
628,4773
632,2072
637,16
637,40
637,1092
637,2821
637,4348
640,973
640,1550
640,2702
640,2851
640,3195
640,4289
640,4331
640,4645
641,227
642,4830
643,1086
643,2955
646,848
646,1271
646,2020
646,3424
647,1034
649,2688
649,3463
649,3523
649,4303
651,1045
652,47
652,910
653,3260
656,551
658,3778
659,2837
661,3832
662,1143
662,3900
664,20
664,4454
664,4852
665,3555
669,1260
669,3280
670,3902
670,4371
670,4907
672,1234
672,1341
674,753
675,1527
676,368
678,215
678,764
678,2348
678,2913
678,3493
678,4590
684,239
684,373
684,395
684,438
684,882
684,1837
684,2394
684,2988
684,4585
687,164
687,1502
687,2210
687,3655
687,4558
688,1090
688,1624
688,4282
689,1217
689,2485
689,2678
689,3917
689,3974
690,278
690,3237
690,3490
690,4782
691,366
692,4333
693,844
693,2592
694,97
696,1848
696,3088
696,4841
696,4877
697,3037
698,273
698,960
698,2431
700,1349
700,3917
701,624
701,1573
701,1709
702,2609
704,192
704,234
704,1732
705,239
705,1413
705,2020
705,2104
705,2145
705,3067
707,1004
707,1879
707,3832
709,265
709,465
713,327
714,1500
714,1655
714,2855
714,3277
714,4070
714,4671
717,532
717,1751
717,2885
717,3466
719,835
719,1193
719,1448
719,1742
719,4596
720,888
720,1176
720,1253
720,1775
721,121
721,706
721,727
721,3118
721,3451
722,3802
723,997
723,2522
723,3651
726,984
726,1302
726,2690
726,3927
727,3133
728,17
728,2064
728,3632
728,3766
728,3919
730,3709
731,2021
731,2067
732,1655
732,2939
732,4530
733,94
733,784
733,792
733,2302
735,194
735,1847
735,3260
740,4890
749,1304
749,4324
750,4392
751,69
751,931
751,2212
751,4534
755,2336
755,4892
756,158
759,2279
759,2535
759,2819
759,3709
760,1520
760,2749
761,1016
761,3075
762,3115
763,3927
766,772
766,911
766,1237
766,1258
766,1371
766,1760
766,1822
766,1854
766,2124
768,1143
768,1203
768,2626
768,3523
769,4228
770,453
770,2679
770,4870
770,4935
771,96
771,323
771,631
771,827
771,836
771,1113
771,1197
771,1642
771,2097
771,2234
773,202
773,4255
774,752
774,2355
777,3409
778,301
787,73
787,2846
793,3738
793,3998
796,1981
796,2307
796,4086
797,3107
798,1103
798,2031
798,2094
798,2564
798,4191
799,59
799,2787
800,6
801,38
801,1185
801,1608
801,4055
801,4156
802,503
804,831
806,6
806,135
806,220
806,605
806,1802
806,2165
808,1180
809,331
809,957
809,2605
809,3005
809,3071
809,3795
810,131
811,3304
811,4054
812,2494
813,1520
814,1239
814,2110
814,2466
817,60
824,1205
824,2102
824,4256
824,4880
826,341
828,475
828,2067
828,4521
829,592
830,1215
830,3523
831,18
831,2543
833,31
833,3311
834,192
834,417
834,609
834,2816
834,4647
836,2869
840,1372
843,223
843,463
843,1420
843,2179
843,3039
843,4820
845,844
845,1474
845,4428
847,1757
847,2203
850,3460
851,532
851,1395
851,3901
852,2720
854,2105
854,3510
855,587
856,1791
856,2923
856,3851
856,4259
857,681
857,4611
859,239
859,3877
861,253
861,1145
861,4579
864,2457
865,609
865,4112
866,3627
869,1383
869,3233
870,368
872,926
872,2369
873,581
875,69
875,3166
875,3241
877,4843
878,235
879,339
879,1678
879,2980
879,3204
880,1629
881,92
884,2609
885,64
885,1031
887,3542
889,1579
889,2315
892,948
892,2246
892,3771
892,3947
893,265
896,2216
896,2623
898,1065
898,1277
899,794
899,2427
899,2567
899,3073
900,2460
901,3040
901,3271
906,4040
908,3771
909,3139
912,1879
913,1789
913,4231
914,680
914,1958
914,2126
914,4020
915,860
915,2696
916,544
916,920
916,1025
916,1745
916,3084
916,3416
916,3758
917,73
921,286
921,1167
921,1904
923,1652
925,2481
926,122
926,748
928,443
929,432
929,1048
929,1131
929,1821
929,3296
929,3776
929,4570
933,289
933,1284
933,2785
933,4790
934,532
934,572
934,1968
935,443
935,1743
937,4
937,1160
938,1606
939,2949
941,1817
943,2747
943,4592
945,330
946,1372
946,3218
946,3499
946,4154
947,3581
947,3832
949,705
950,239
950,1367
950,4226
952,594
954,710
954,2684
954,3093
955,286
955,2764
956,1104
958,4030
959,1081
962,3555
964,175
964,1573
964,2367
964,4209
965,114
965,2997
965,3229
965,4536
966,1256
966,3075
967,239
967,4781
968,818
969,2396
969,4634
969,4921
970,4260
971,548
972,20
972,538
972,4136
974,551
975,3827
980,215
980,1679
981,68
983,8
985,1193
985,2125
987,129
988,138
988,1847
988,4375
989,610
989,1372
990,525
990,1157
990,1473
990,2565
991,4291
992,739
995,368
995,786
995,1108
995,3670
995,4217
995,4515
996,146
996,198
997,4618
998,189
998,1178
998,1329
998,1458
998,2703
998,3147
999,2836
1000,60
1001,464
1001,565
1001,1304
1001,1471
1001,1645
1001,4830
1003,695
1003,1695
1004,844
1006,644
1007,485
1007,4184
1008,577
1008,2674
1009,605
1009,4985
1013,82
1013,461
1013,1277
1013,1506
1013,2597
1013,2740
1013,3737
1014,1863
1015,1833
1015,2343
1015,2662
1016,2102
1017,317
1017,1044
1017,2660
1018,31
1018,2252
1018,3738
1018,3878
1020,4936
1023,188
1023,209
1023,1180
1023,4012
1026,263
1029,899
1029,1664
1029,2751
1030,648
1030,2015
1032,3990
1033,365
1033,2779
1033,3327
1034,97
1036,406
1036,644
1036,3672
1039,10
1039,1046
1039,2817
1039,4221
1040,146
1040,4004
1040,4817
1041,293
1042,197
1042,227
1042,1926
1042,4054
1042,4655
1045,3106
1047,73
1047,2032
1047,3746
1051,1608
1051,4596
1053,551
1053,639
1053,776
1054,228
1054,1863
1055,64
1055,262
1055,587
1055,3859
1056,520
1058,2643
1058,4505
1063,3386
1064,836
1064,2346
1066,2759
1066,3917
1066,4296
1066,4364
1068,2633
1068,3280
1070,1223
1070,4952
1071,177
1071,508
1071,2154
1071,2451
1071,3448
1071,4983
1072,1043
1072,1552
1074,3381
1076,10
1076,2470
1076,3270
1077,1847
1078,312
1079,227
1079,1368
1081,982
1081,1921
1083,189
1085,636
1085,1503
1087,2713
1088,1686
1088,1785
1089,1754
1089,2951
1089,3955
1089,4944
1091,18
1091,2494
1091,3158
1091,4240
1093,3990
1094,844
1097,8
1097,26
1098,461
1098,1341
1098,1847
1098,3110
1099,1180
1102,2609
1102,2630
1102,3061
1106,602
1106,1075
1106,1194
1106,1473
1106,3905
1106,4629
1107,1836
1108,63
1108,773
1108,3515
1110,152
1110,4297
1110,4551
1111,1539
1112,1090
1112,1336
1112,1465
1112,2026
1112,3876
1112,3956
1112,4040
1112,4953
1114,31
1114,443
1114,532
1114,1284
1114,2990
1114,3233
1114,4200
1115,681
1115,4466
1117,1282
1117,2807
1117,3196
1117,3947
1117,4077
1118,3089
1120,6
1120,63
1120,754
1120,1236
1120,2136
1120,2482
1120,4306
1120,4477
1121,1689
1123,754
1124,59
1124,1216
1124,1488
1125,3743
1125,4360
1129,1385
1129,3075
1130,3398
1133,883
1134,744
1135,295
1135,2205
1135,2557
1136,73
1136,627
1136,867
1136,1037
1136,1042
1136,1600
1136,1863
1136,2640
1136,2650
1136,2842
1136,4175
1136,4423
1139,169
1139,940
1139,1275
1139,1838
1139,4423
1139,4470
1140,863
1140,1334
1140,2005
1140,2293
1140,3969
1141,2458
1141,4916
1144,1302
1144,1913
1146,3990
1147,724
1148,4504
1149,37
1149,2399
1151,615
1151,1193
1151,1242
1152,525
1153,130
1153,2218
1154,1352
1156,17
1160,1597
1160,1736
1160,1922
1160,2017
1160,3218
1161,84
1161,982
1161,1438
1161,1533
1161,1654
1161,2595
1162,944
1162,3007
1162,3316
1162,4318
1164,844
1165,1622
1165,3947
1167,86
1167,508
1167,822
1167,936
1167,1105
1167,4417
1169,111
1169,4199
1169,4241
1170,1178
1170,3288
1171,147
1171,1365
1174,1104
1174,3479
1176,505
1176,890
1176,1395
1176,4031
1177,96
1177,3657
1177,3757
1179,2126
1179,3358
1182,607
1182,3128
1183,3539
1184,1074
1184,1628
1186,1510
1186,1576
1186,2382
1187,561
1187,3279
1191,1944
1191,2859
1193,2121
1193,3303
1193,3440
1193,3588
1193,4848
1195,325
1196,381
1197,116
1197,338
1197,1122
1197,1181
1197,1431
1197,1817
1197,2608
1197,2925
1198,780
1199,68
1199,3402
1201,3947
1204,551
1204,3224
1206,1652
1207,330
1209,341
1210,592
1210,844
1211,4054
1212,123
1212,592
1214,516
1214,1626
1214,1949
1214,2840
1214,4682
1214,4753
1218,1313
1219,513
1219,2428
1219,3192
1219,3993
1220,882
1220,2789
1220,2915
1220,3031
1220,3708
1221,1273
1221,1857
1221,3510
1221,4759
1222,522
1228,2505
1229,522
1230,1065
1230,3732
1230,3744
1231,752
1231,2683
1231,3222
1233,79
1233,2279
1233,3881
1235,609
1238,2777
1238,4231
1241,471
1241,680
1241,894
1241,2085
1241,2887
1241,3106
1243,515
1243,771
1244,1262
1244,1806
1246,2261
1248,166
1248,1430
1248,1566
1248,1865
1248,4161
1249,599
1251,69
1252,1082
1255,59
1255,465
1257,3956
1259,466
1259,708
1259,875
1259,2010
1259,2252
1259,3329
1260,164
1260,245
1260,805
1260,1069
1260,1419
1260,2000
1260,2035
1260,3388
1261,1331
1261,3739
1263,384
1265,518
1267,907
1267,4482
1268,2438
1270,99
1270,2335
1270,2814
1272,1661
1272,3578
1272,3916
1272,4999
1274,3608
1281,295
1281,2682
1281,3538
1283,902
1283,1953
1283,2536
1283,2667
1283,3222
1283,4394
1283,4671
1285,548
1285,2199
1285,2757
1285,4001
1286,1142
1286,1752
1286,3049
1287,8
1287,1341
1287,1473
1287,1971
1287,3989
1288,10
1288,551
1288,770
1288,940
1288,1327
1288,2938
1288,3360
1288,4242
1289,569
1297,404
1298,3096
1299,818
1304,1294
1306,715
1306,758
1306,1886
1306,2397
1306,2440
1306,3771
1306,3987
1308,176
1308,1295
1309,3554
1310,227
1311,1027
1314,2910
1314,4419
1315,1193
1315,2976
1316,1266
1316,4904
1317,1606
1317,2638
1318,3555
1319,438
1320,882
1322,982
1323,1263
1324,185
1324,448
1324,550
1326,2591
1328,3919
1330,330
1330,425
1330,683
1330,1811
1330,3449
1331,522
1332,2899
1333,2999
1337,927
1337,1865
1338,3843
1338,3917
1340,1761
1340,2504
1343,152
1344,82
1344,182
1344,2056
1345,3442
1346,979
1347,2147
1347,2559
1347,4783
1348,166
1348,368
1348,515
1348,2493
1348,2619
1348,4565
1348,4752
1350,93
1353,1938
1353,2685
1355,4596
1356,46
1356,1004
1357,216
1357,1563
1357,1706
1357,2297
1357,2462
1357,2528
1357,3162
1357,3272
1358,1658
1358,1668
1358,1674
1358,1741
1358,1994
1358,2021
1358,3138
1358,4653
1358,4862
1359,1390
1362,2617
1362,3152
1368,725
1368,3418
1368,4442
1370,1456
1370,2944
1372,907
1373,1351
1374,871
1374,1389
1376,1009
1376,1566
1376,2131
1377,1340
1377,2658
1378,823
1379,157
1379,644
1379,1038
1379,1683
1379,3302
1379,3676
1379,4479
1380,4146
1382,1012
1382,1116
1382,2609
1382,4054
1382,4279
1382,4411
1384,3765
1385,1277
1385,2900
1385,4227
1386,1112
1387,2370
1388,312
1389,78
1389,317
1389,386
1389,525
1389,891
1389,2544
1396,606
1396,1004
1397,148
1399,1543
1399,4423
1400,4878
1401,1295
1401,4698
1402,1717
1403,1535
1405,2966
1406,226
1407,919
1409,1868
1409,2747
1410,4054
1411,443
1412,758
1414,1084
1415,96
1415,634
1416,1520
1416,3460
1416,3884
1418,1723
1418,2109
1418,3091
1422,2159
1422,2728
1422,4921
1423,976
1423,2360
1423,4708
1423,4830
1425,3271
1426,1303
1426,2570
1426,4054
1427,1089
1427,3180
1427,3661
1428,369
1428,1433
1429,303
1432,116
1432,1607
1432,4372
1432,4895
1433,200
1433,538
1433,961
1433,1172
1433,2106
1433,2249
1433,2461
1433,4716
1434,3434
1434,3990
1435,816
1435,3096
1436,4307
1436,4918
1437,1424
1437,1779
1437,4267
1439,149
1441,209
1441,2354
1441,4194
1441,4600
1442,770
1443,92
1444,1854
1444,1855
1444,3940
1446,1302
1446,2387
1447,368
1447,3238
1447,4250
1447,4316
1449,784
1449,2329
1450,685
1450,1370
1450,2765
1451,633
1454,114
1455,748
1455,2314
1455,2331
1456,1558
1456,3320
1458,1765
1460,3080
1461,1
1461,131
1461,159
1461,182
1461,202
1461,3731
1461,4354
1461,4955
1462,1065
1462,3057
1463,2182
1463,2754
1463,3900
1463,4455
1464,48
1467,273
1467,382
1467,1390
1467,1571
1467,2444
1467,3530
1467,3964
1467,4193
1468,1119
1468,2747
1469,729
1469,926
1469,3560
1470,727
1470,3558
1472,680
1473,4420
1474,798
1474,1912
1474,4593
1474,4805
1475,753
1475,1842
1475,2510
1475,2691
1475,2772
1475,4365
1476,3472
1477,627
1477,2895
1478,1483
1479,206
1479,2733
1479,2745
1480,581
1484,93
1486,1653
1491,406
1493,1263
1494,1132
1494,2448
1495,31
1495,1049
1495,1871
1496,1536
1496,1737
1496,3917
1501,459
1501,1693
1507,1847
1508,696
1508,1961
1508,2642
1508,2898
1508,3215
1508,3504
1511,239
1511,312
1511,1991
1511,2384
1511,2599
1511,3671
1512,778
1512,1292
1512,4623
1512,4700
1513,2948
1513,4037
1516,4382
1517,192
1518,592
1518,1011
1518,4388
1522,312
1525,1313
1527,1445
1527,1655
1527,2646
1528,1863
1529,2773
1530,1055
1531,3565
1532,425
1532,4885
1534,548
1534,3330
1535,1341
1535,2244
1537,1515
1537,4433
1538,1245
1540,1847
1542,4340
1542,4999
1544,167
1544,1582
1544,3845
1544,4674
1545,4143
1546,3555
1548,944
1548,4421
1549,1057
1549,1754
1549,4399
1550,1544
1550,1880
1550,1917
1550,2952
1550,3485
1551,554
1551,1793
1551,2338
1551,4754
1553,4298
1553,4433
1555,3736
1556,4916
1557,93
1557,3286
1558,17
1558,135
1558,401
1558,537
1558,1340
1558,1955
1558,2039
1558,2346
1560,2393
1560,3827
1562,67
1563,4330
1565,513
1565,3010
1567,480
1567,1643
1568,3288
1570,402
1570,2275
1570,4636
1572,166
1572,1107
1572,1774
1572,2013
1572,2723
1572,3105
1572,4443
1574,166
1575,1445
1575,1524
1575,3242
1577,1502
1577,4084
1579,645
1579,794
1579,1136
1579,1256
1581,1605
1581,4567
1582,753
1583,3106
1584,382
1587,3956
1588,836
1590,4842
1591,329
1591,1075
1591,1621
1591,2151
1591,2668
1591,3157
1591,3745
1591,3996
1591,4994
1593,1277
1594,2027
1598,265
1598,1858
1598,2139
1598,3217
1599,105
1599,2112
1599,2421
1599,2464
1599,3111
1599,3334
1599,3738
1599,4253
1601,1021
1603,386
1605,3460
1606,2364
1606,4365
1609,1067
1610,67
1610,2153
1610,3414
1611,780
1611,1879
1614,1788
1615,62
1615,1785
1615,4102
1615,4968
1616,1043
1616,1137
1616,3825
1617,3169
1618,2364
1619,3271
1619,4125
1620,654
1620,1224
1620,1893
1620,3474
1623,356
1623,4438
1625,2323
1625,4442
1627,654
1629,58
1629,2879
1630,3246
1630,3271
1630,4035
1633,1750
1633,1847
1636,3460
1637,2434
1637,3917
1638,4126
1639,131
1639,738
1640,18
1640,239
1640,2852
1641,482
1641,703
1641,903
1641,2225
1643,152
1646,2438
1648,1520
1651,164
1655,4842
1656,1805
1656,2123
1656,2129
1656,2216
1656,3163
1656,3967
1656,4324
1657,818
1657,4516
1660,1019
1660,2934
1660,3759
1663,3604
1667,38
1672,1253
1672,4935
1673,1180
1675,1992
1675,4569
1677,1863
1677,2007
1677,3026
1677,3276
1677,3904
1677,4408
1677,4918
1680,317
1680,1861
1680,4008
1681,2432
1682,1027
1682,1825
1682,2221
1682,2275
1684,1498
1685,979
1687,1632
1688,186
1688,2058
1688,2537
1688,3079
1688,3179
1688,3582
1689,3010
1690,1163
1690,4051
1690,4148
1690,4502
1692,3555
1692,4202
1694,791
1694,1466
1695,82
1695,1247
1695,1564
1695,2351
1696,330
1697,1594
1698,727
1699,506
1699,2119
1699,3400
1700,1040
1700,1606
1701,1307
1704,1652
1705,18
1705,1490
1708,1313
1708,1370
1708,2792
1710,1176
1710,4914
1712,1074
1712,3274
1712,4885
1713,592
1715,1372
1716,754
1716,2783
1716,3218
1716,3963
1718,3504
1721,2020
1721,2030
1721,2109
1722,2966
1724,2536
1725,1178
1725,1482
1726,1167
1727,607
1729,312
1731,303
1731,1392
1733,754
1735,843
1735,2439
1738,19
1738,254
1738,385
1738,465
1738,780
1738,839
1739,312
1741,6
1741,3679
1744,2363
1744,2899
1744,3846
1747,97
1747,3091
1747,4854
1748,887
1748,3608
1749,621
1753,1785
1755,1719
1755,2839
1758,3211
1759,2004
1759,4466
1762,4842
1763,565
1766,3945
1767,1277
1767,2981
1767,3245
1770,951
1770,2391
1770,3575
1771,4496
1775,1175
1775,4109
1776,818
1776,1854
1781,215
1783,3888
1786,1167
1790,60
1791,606
1791,2712
1794,422
1795,356
1795,1947
1795,2036
1795,2858
1795,2892
1796,2026
1797,1792
1798,2714
1798,3288
1798,3460
1798,4823
1800,192
1800,420
1800,951
1800,1915
1800,2803
1800,3519
1800,3875
1800,3900
1800,4988
1801,2550
1801,3917
1803,1730
1804,607
1804,1369
1804,1711
1804,3135
1806,1796
1807,522
1807,4457
1808,3584
1809,4254
1809,4486
1812,369
1813,844
1816,1500
1818,1255
1819,3472
1819,3540
1819,4228
1820,30
1820,3554
1823,3848
1824,2052
1824,2832
1824,3917
1827,1089
1829,1811
1829,3638
1830,563
1831,649
1832,3998
1835,1178
1836,1629
1839,31
1839,4837
1840,1927
1844,1900
1845,1717
1853,870
1853,1550
1856,927
1859,986
1859,1928
1859,2731
1860,1852
1860,3965
1862,177
1862,1771
1862,2698
1864,1389
1869,1120
1869,2784
1869,3258
1869,4144
1870,1178
1871,3945
1871,4580
1873,308
1873,437
1873,516
1873,1180
1873,1717
1873,3063
1873,3152
1873,4552
1875,2501
1877,2397
1881,68
1881,2127
1883,752
1884,654
1884,4308
1887,1259
1889,643
1890,138
1890,2876
1891,1247
1892,1284
1895,215
1897,1313
1897,3826
1897,3991
1897,4938
1898,1043
1899,574
1899,2345
1899,4043
1901,329
1902,536
1905,169
1907,1105
1907,1756
1907,4987
1910,482
1910,3346
1910,3403
1911,381
1913,1389
1916,4254
1918,369
1920,736
1921,186
1923,189
1923,1313
1923,3642
1923,3737
1923,3860
1924,1530
1925,4935
1926,2237
1927,3400
1928,1669
1929,3827
1929,4998
1930,2264
1932,4964
1933,2851
1933,4696
1934,1242
1935,1458
1936,73
1936,1175
1939,1909
1939,3988
1940,1757
1944,727
1944,907
1944,2560
1944,3004
1944,4539
1945,317
1945,1002
1945,1188
1945,1363
1945,1778
1945,2087
1945,2181
1945,3149
1945,4808
1946,369
1947,4212
1951,2662
1956,566
1956,663
1956,2645
1956,3771
1956,4186
1956,4620
1957,1354
1960,1304
1962,926
1962,3050
1963,194
1963,1306
1963,3115
1963,3287
1964,464
1964,2113
1964,4859
1965,1406
1966,920
1966,3146
1966,4185
1967,1390
1969,1931
1969,3002
1969,3269
1969,3510
1969,4400
1972,2536
1972,3501
1973,10
1973,34
1973,2325
1974,3280
1976,239
1977,3827
1977,4049
1978,146
1978,3981
1979,927
1979,1292
1979,2385
1980,577
1980,2574
1981,59
1982,1278
1983,97
1983,4441
1985,2201
1985,2396
1986,511
1986,765
1986,3324
1987,1369
1989,1277
1989,2406
1990,515
1992,4598
1993,3424
1993,4238
1997,3990
1998,2403
1998,2609
1998,4573
2001,3661
2003,752
2003,905
2003,1492
2003,2884
2006,733
2009,1313
2009,3336
2011,1196
2011,3066
2013,595
2013,1782
2013,2352
2013,3382
2014,544
2014,2494
2014,3676
2014,4363
2014,4839
2015,2487
2018,1277
2019,1785
2019,2644
2019,4596
2019,4966
2021,1950
2022,79
2023,1597
2023,1714
2024,1043
2025,3900
2027,1080
2027,1408
2028,3476
2028,3699
2029,738
2029,2364
2034,305
2034,480
2034,1641
2037,534
2037,773
2037,790
2037,3804
2037,3915
2038,4841
2040,2057
2041,565
2041,2719
2042,957
2043,562
2044,3358
2044,4614
2045,1606
2046,1750
2047,3917
2047,4401
2048,1785
2048,3631
2053,853
2053,3076
2054,1005
2054,2886
2054,4050
2055,3693
2057,627
2057,825
2057,1293
2057,2164
2057,4145
2057,4351
2058,1325
2058,1826
2058,3036
2060,216
2061,1622
2066,3353
2068,14
2068,3914
2070,1223
2070,2634
2070,4467
2071,1500
2071,3436
2072,281
2072,320
2072,3139
2074,644
2074,2449
2075,563
2075,2602
2076,2099
2078,685
2078,1223
2078,1950
2078,3404
2078,3563
2079,2074
2080,335
2080,3786
2081,97
2081,2700
2084,226
2085,564
2085,2778
2088,1043
2089,617
2091,894
2093,3627
2093,4771
2095,1403
2096,575
2096,2101
2096,3932
2098,100
2099,823
2100,79
2103,2505
2106,109
2110,2639
2110,3900
2111,781
2114,1073
2115,1695
2116,3789
2117,1312
2118,33
2118,2152
2120,695
2121,1367
2128,440
2130,178
2132,1520
2132,3051
2132,3096
2132,3280
2133,2511
2134,296
2134,452
2134,530
2134,739
2134,1075
2134,3623
2134,4841
2135,795
2135,3068
2138,530
2140,1711
2140,3260
2140,3374
2143,903
2144,1880
2144,3044
2146,920
2146,2530
2148,315
2148,3159
2148,3617
2149,4870
2150,1865
2155,320
2155,844
2156,1145
2158,919
2160,1723
2161,2004
2162,1811
2164,303
2164,3121
2166,3460
2168,63
2168,443
2168,464
2168,681
2168,710
2168,821
2168,1631
2168,1735
2168,2062
2168,3212
2168,3957
2168,4705
2169,930
2170,178
2170,4970
2172,2824
2172,3846
2173,3917
2174,397
2174,4294
2175,4371
2176,135
2176,249
2176,860
2176,1296
2176,1734
2176,3080
2177,1754
2178,195
2178,1119
2179,2065
2179,4522
2180,1143
2183,620
2185,2424
2187,3917
2188,31
2188,1592
2188,2906
2188,2948
2188,3525
2190,1988
2191,633
2191,4556
2192,186
2192,4689
2193,2747
2195,3981
2196,754
2197,198
2200,1067
2202,475
2204,1004
2204,3415
2206,599
2207,1521
2208,1458
2208,3356
2208,4303
2208,4964
2211,1857
2213,1824
2213,2829
2214,2092
2215,2899
2215,4712
2216,239
2216,2604
2219,2105
2220,3827
2221,4044
2221,4481
2222,4353
2224,1226
2224,4714
2226,1073
2226,4165
2226,4796
2227,2097
2229,1887
2231,221
2232,2485
2233,752
2234,1331
2235,1547
2238,1215
2239,951
2239,3562
2240,82
2240,2455
2241,1506
2242,753
2242,3182
2245,129
2246,1740
2246,2308
2248,1948
2250,536
2253,1798
2254,1879
2256,2282
2259,476
2259,1900
2260,492
2264,40
2264,734
2265,1650
2266,1038
2267,1604
2267,2314
2267,3468
2268,887
2269,346
2269,850
2269,3315
2269,4965
2270,2176
2271,1260
2272,959
2273,1324
2273,2126
2273,2414
2274,818
2274,4124
2276,17
2276,2442
2277,1277
2278,79
2278,110
2278,239
2278,779
2278,1128
2278,1906
2281,4260
2282,1473
2283,1664
2283,2614
2283,4881
2284,2073
2287,2092
2288,609
2289,3718
2290,1392
2290,4673
2295,1055
2296,2464
2299,1180
2300,3219
2300,3391
2301,1293
2302,3022
2302,3949
2303,744
2304,667
2304,1882
2304,2428
2305,3303
2306,1533
2310,1692
2311,551
2311,2401
2312,610
2312,2997
2313,2775
2316,566
2316,1445
2316,2194
2316,2209
2316,3097
2318,85
2318,1650
2320,3979
2321,1223
2322,1629
2322,3313
2324,3001
2324,3981
2324,4499
2326,3159
2326,3218
2327,98
2328,1030
2328,2334
2328,2495
2332,1351
2333,1938
2333,3419
2334,571
2334,1200
2334,1277
2334,1649
2334,1754
2334,1834
2334,2141
2334,2420
2334,3716
2334,3762
2334,3953
2334,4598
2337,3137
2337,3917
2337,4446
2340,899
2340,4816
2342,638
2344,605
2344,3551
2347,2218
2349,2802
2352,178
2352,459
2352,2749
2352,3807
2352,4467
2356,296
2357,982
2361,1877
2361,3618
2361,3903
2362,1978
2363,782
2363,843
2363,2548
2363,3441
2365,695
2366,10
2366,2836
2369,341
2369,2558
2372,3709
2373,2833
2374,300
2374,3705
2375,64
2377,320
2377,3844
2380,55
2380,4339
2381,16
2381,979
2381,4874
2385,502
2385,2008
2385,3917
2385,4719
2388,671
2388,1256
2388,1585
2388,1852
2388,1971
2388,2954
2388,3348
2389,303
2392,3555
2394,736
2394,1872
2394,3152
2395,926
2396,1544
2398,368
2398,1180
2402,2230
2404,139
2404,1580
2406,60
2406,4936
2407,1431
2408,69
2408,639
2409,2874
2410,1075
2411,312
2411,3605
2415,110
2415,1612
2415,1785
2415,2073
2415,2358
2415,2790
2415,4911
2416,4842
2417,2113
2418,724
2422,1065
2422,4607
2423,2427
2425,1225
2426,2067
2429,1051
2430,108
2430,858
2430,1738
2430,1851
2430,2499
2430,3784
2430,3981
2432,229
2432,699
2432,1810
2432,2136
2432,2585
2432,3668
2432,4387
2432,4537
2433,312
2433,3980
2433,4746
2436,34
2437,1340
2441,2536
2441,4384
2442,2870
2443,1263
2444,1180
2444,1308
2444,4739
2446,8
2447,1250
2450,1237
2452,2405
2452,4233
2452,4365
2453,1242
2453,1937
2453,3629
2454,1867
2459,3627
2460,1894
2460,2341
2460,4989
2463,1040
2465,192
2465,2666
2468,1215
2469,633
2471,2179
2473,724
2475,1775
2475,4386
2476,2099
2477,166
2479,633
2479,3178
2481,211
2481,1264
2481,2654
2483,1865
2485,3828
2488,2609
2489,2107
2489,2284
2490,3828
2491,166
2492,2258
2493,1908
2494,150
2495,412
2495,1882
2495,2424
2495,2474
2496,475
2496,1653
2496,3197
2496,3233
2496,3944
2496,4378
2496,4828
2496,4878
2498,3517
2498,4579
2500,2427
2503,2432
2506,3900
2507,584
2508,2963
2508,3370
2508,4054
2508,4139
2509,281
2509,2686
2512,1811
2512,4375
2513,3242
2515,4324
2516,2992
2517,3917
2518,493
2518,1639
2518,2163
2519,844
2520,1671
2520,1847
2520,2921
2520,3630
2520,3665
2523,4841
2526,216
2527,303
2527,3150
2529,2074
2531,1084
2531,2428
2531,4694
2531,4727
2532,2319
2534,759
2536,565
2538,2291
2538,3751
2539,3661
2539,4134
2540,1277
2541,2895
2542,150
2544,654
2544,746
2544,1465
2545,1777
2546,79
2546,3199
2547,536
2549,1703
2549,2671
2551,4618
2552,4811
2554,480
2554,4974
2555,663
2557,516
2557,765
2559,1280
2561,1390
2561,3594
2563,335
2566,3709
2567,1367
2567,3682
2568,2673
2574,105
2575,1351
2576,2153
2576,2828
2576,4081
2576,4894
2578,2221
2578,2967
2580,4738
2581,1653
2583,330
2584,4830
2587,3917
2588,3548
2589,263
2589,765
2589,3085
2590,899
2592,4096
2593,1879
2594,131
2594,135
2594,1592
2594,3709
2596,1473
2598,2004
2598,3599
2599,47
2599,395
2599,575
2599,1784
2599,2120
2599,2400
2599,4884
2603,1307
2603,4161
2606,169
2610,20
2611,592
2611,2109
2611,2364
2611,3907
2611,4025
2611,4324
2612,708
2613,381
2613,944
2613,3868
2613,4883
2615,994
2615,3411
2615,3796
2616,1550
2620,441
2624,836
2625,2669
2625,3292
2625,4980
2626,480
2626,1028
2626,1589
2626,2378
2626,3828
2628,797
2628,1666
2629,516
2631,2428
2631,4926
2632,511
2632,4528
2635,1635
2636,1775
2637,1276
2637,2775
2641,1143
2641,3186
2641,3586
2642,524
2642,1582
2647,3233
2651,1684
2651,2708
2652,4055
2655,2824
2659,982
2659,2015
2659,3915
2659,4018
2659,4405
2660,3353
2661,752
2661,3512
2663,1335
2663,3462
2663,3579
2664,323
2665,795
2665,3086
2669,1650
2670,565
2672,2145
2675,1935
2676,772
2677,1483
2677,4146
2678,1526
2678,3117
2678,3627
2680,2363
2681,2064
2681,4895
2684,1312
2687,1815
2689,2030
2692,1051
2692,3368
2694,94
2695,2788
2695,3058
2697,931
2699,2836
2701,3381
2705,75
2706,384
2707,1104
2709,3821
2711,239
2711,1996
2711,2618
2715,2714
2716,158
2718,1702
2720,1096
2721,4434
2722,1644
2722,2916
2724,265
2725,475
2725,2263
2726,63
2727,565
2729,2491
2730,92
2732,2623
2732,4813
2736,2521
2737,233
2737,3863
2738,1357
2738,3450
2738,3712
2741,1343
2743,2548
2744,1339
2746,3981
2748,3990
2750,4
2750,2799
2752,465
2753,736
2753,4426
2755,3451
2755,4352
2756,1239
2756,3635
2758,864
2758,3808
2760,1582
2761,312
2762,312
2766,4842
2767,2293
2770,2250
2770,3553
2773,475
2774,186
2776,1074
2780,1686
2780,1789
2781,185
2781,3364
2781,4422
2791,174
2791,1642
2791,1876
2794,3177
2795,1847
2795,2074
2795,3349
2796,2782
2800,1277
2801,1073
2805,2092
2806,1975
2806,2847
2808,2662
2809,158
2809,1085
2809,1354
2809,1847
2809,2086
2809,2782
2809,4110
2810,1109
2810,2228
2810,2536
2810,3690
2812,3627
2815,420
2818,2639
2820,3738
2822,548
2823,592
2823,3354
2823,3778
2825,1112
2827,807
2827,2548
2831,4935
2833,1278
2835,1520
2835,4934
2836,1370
2836,4848
2838,2691
2844,930
2846,4602
2846,4967
2847,4
2847,59
2847,72
2847,449
2847,503
2847,1138
2847,2217
2847,2572
2847,2833
2847,4039
2847,4748
2848,1748
2849,617
2853,843
2859,1597
2860,882
2861,3269
2862,3627
2863,4560
2863,4978
2865,3650
2867,609
2868,2396
2869,84
2869,1370
2869,4244
2870,233
2871,2686
2872,748
2873,151
2873,2012
2873,2293
2873,3216
2874,1536
2875,97
2877,1775
2878,2510
2882,863
2883,1019
2888,1456
2888,1840
2890,2884
2891,551
2893,1512
2896,1260
2897,897
2897,2904
2899,753
2899,3240
2900,986
2900,1126
2900,1730
2900,2485
2900,2793
2900,3587
2900,4466
2900,4770
2900,4882
2901,129
2901,276
2901,2039
2901,3391
2901,4442
2902,347
2902,4861
2903,1263
2904,508
2904,1012
2904,1305
2907,3381
2908,4841
2909,1381
2911,460
2912,2990
2912,4317
2913,716
2914,586
2914,927
2914,2182
2914,3458
2914,4098
2917,4848
2919,1539
2920,1081
2922,776
2924,149
2925,2236
2925,4333
2926,599
2927,1597
2929,3249
2931,934
2931,2329
2932,993
2932,1952
2932,2821
2932,4143
2933,2485
2935,251
2935,341
2935,1885
2935,3709
2935,4198
2935,4498
2937,2536
2939,1544
2941,574
2942,3627
2943,1486
2943,2793
2945,239
2947,1280
2949,2910
2953,369
2956,765
2957,2199
2959,3970
2960,1043
2960,3460
2960,4163
2961,1137
2962,2478
2964,150
2964,788
2964,789
2964,3144
2964,3345
2964,3650
2965,1105
2965,3985
2966,475
2966,3981
2968,3812
2968,4054
2969,515
2969,3243
2970,4734
2972,2884
2973,197
2974,2222
2975,823
2975,3960
2977,157
2978,2386
2979,1909
2982,2906
2982,4395
2983,1433
2985,14
2985,276
2985,397
2985,2622
2985,2802
2985,3544
2986,273
2987,4741
2989,59
2989,4612
2990,2228
2991,1631
2992,1750
2994,4347
2995,775
2995,2501
2995,4061
2996,2480
2998,465
3000,1075
3001,871
3001,987
3001,2142
3003,93
3003,3760
3008,2789
3008,3621
3009,2205
3011,73
3012,1178
3013,3049
3014,67
3014,1082
3016,1349
3016,3024
3017,1075
3018,408
3019,1595
3020,610
3021,771
3023,516
3024,1773
3024,4337
3025,1863
3027,131
3028,3608
3029,368
3029,4787
3030,443
3031,20
3031,46
3032,3569
3033,940
3035,1193
3035,3717
3035,4023
3037,1606
3038,1519
3046,126
3047,1223
3048,1652
3053,2176
3053,4195
3053,4626
3053,4961
3054,59
3056,925
3058,4827
3059,301
3059,922
3059,1022
3059,1158
3059,1632
3059,2023
3059,4577
3060,368
3064,1717
3069,1614
3072,1351
3072,2660
3074,816
3077,4186
3078,2654
3079,1105
3082,738
3083,97
3083,2623
3083,3865
3086,243
3086,273
3086,335
3086,745
3086,824
3086,1164
3086,1364
3086,2222
3086,3283
3086,4286
3087,73
3087,4403
3090,3494
3090,4324
3091,4860
3092,329
3094,3827
3094,3858
3095,3956
3098,2923
3099,1788
3099,3770
3100,1879
3101,34
3102,1747
3102,3305
3103,1872
3104,3981
3112,2201
3113,708
3114,2159
3116,3045
3121,1521
3121,4054
3122,1140
3124,3541
3125,4874
3126,1351
3130,668
3130,4680
3131,94
3131,532
3131,2057
3131,4912
3134,1660
3136,959
3139,3378
3141,2109
3141,4701
3142,107
3143,327
3145,4092
3146,1641
3148,903
3148,4736
3151,1239
3152,521
3152,753
3152,1903
3152,3959
3153,565
3154,3769
3154,3927
3154,4334
3154,4712
3155,397
3156,3288
3160,1872
3161,3147
3164,644
3167,2106
3167,4188
3168,2765
3168,4275
3168,4578
3169,64
3170,295
3171,764
3172,365
3172,871
3174,831
3175,506
3175,4546
3177,1952
3181,166
3181,1998
3183,265
3184,650
3184,4104
3184,4625
3185,771
3185,3947
3187,1968
3188,475
3189,265
3190,464
3191,1263
3193,84
3193,4836
3196,3091
3198,795
3198,3774
3198,4945
3200,1043
3201,2548
3201,3310
3202,2708
3203,1482
3205,1027
3207,1084
3208,658
3209,2347
3210,312
3211,677
3211,4633
3213,2686
3214,3196
3216,864
3216,1065
3216,1190
3216,3580
3220,465
3221,221
3223,3987
3225,4504
3227,429
3228,86
3231,3998
3232,4437
3232,4754
3234,4612
3235,246
3235,329
3235,1278
3235,2774
3235,2867
3235,3659
3235,4057
3236,1645
3236,4005
3239,18
3244,4333
3250,4878
3251,221
3251,312
3251,4662
3252,503
3253,3022
3253,3583
3254,200
3254,1659
3255,280
3255,4842
3256,16
3256,3444
3256,3999
3257,1971
3259,470
3259,2537
3260,686
3260,3749
3261,79
3262,1021
3263,3927
3264,4442
3265,3510
3265,4484
3266,2821
3268,697
3270,1030
3270,1878
3270,2710
3271,2145
3273,882
3275,10
3278,587
3281,1854
3284,3226
3285,2847
3288,3273
3288,3515
3289,988
3290,3597
3290,3840
3291,1066
3292,369
3292,1116
3292,1359
3292,4246
3293,1741
3293,2749
3294,397
3297,2412
3299,871
3299,3715
3300,151
3300,3849
3301,3079
3306,84
3307,2637
3308,2176
3309,2623
3312,1935
3313,2654
3314,166
3318,1524
3319,2733
3321,265
3321,3917
3322,3157
3323,782
3328,944
3330,167
3330,2388
3331,1382
3332,3372
3332,3498
3332,4964
3333,2368
3334,4661
3337,186
3337,592
3337,3707
3338,4324
3339,971
3340,564
3341,312
3341,1208
3341,3662
3342,1984
3342,2948
3343,1826
3344,1037
3347,2536
3350,265
3352,3466
3355,221
3357,1614
3359,1473
3360,853
3361,114
3362,1253
3363,1193
3363,2145
3365,520
3366,3401
3369,74
3369,92
3369,281
3369,615
3369,1635
3369,4649
3371,239
3374,742
3374,2292
3375,152
3377,1894
3380,94
3380,3926
3382,1879
3383,1547
3384,3288
3385,4037
3386,280
3386,3891
3387,551
3389,1417
3390,512
3390,4393
3391,3442
3393,166
3394,147
3395,4798
3396,663
3397,104
3398,2080
3399,2821
3401,1163
3405,2772
3406,6
3407,1349
3408,1717
3408,4054
3409,4736
3410,820
3410,3911
3410,4024
3417,90
3417,1059
3417,1486
3417,1954
3417,2335
3417,4039
3420,1023
3421,2106
3422,31
3423,4260
3424,518
3425,3096
3426,1711
3428,511
3429,3010
3429,3673
3430,1445
3432,737
3432,1596
3432,4555
3433,1569
3433,1909
3433,3006
3437,467
3438,3404
3441,1301
3442,752
3445,323
3446,2765
3447,182
3447,3386
3452,1785
3453,1854
3453,2928
3455,910
3455,1296
3455,3055
3455,4684
3456,1586
3459,325
3461,988
3464,1349
3465,330
3465,1544
3465,2744
3466,2330
3467,1038
3470,105
3471,2536
3471,4691
3473,644
3475,843
3477,3460
3478,942
3481,920
3483,1730
3483,1741
3485,2981
3486,2787
3488,1372
3488,4298
3491,3956
3492,2033
3495,758
3496,1520
3497,576
3498,1867
3500,925
3500,4155
3502,3998
3503,2284
3505,182
3505,1559
3505,4433
3506,2123
3506,3805
3507,2604
3508,1539
3509,3222
3511,1626
3513,91
3513,737
3513,1180
3513,2582
3514,1438
3514,4553
3514,4667
3516,1828
3516,3795
3518,738
3520,2335
3523,459
3523,3439
3524,2106
3526,1582
3527,1057
3531,644
3533,98
3533,1179
3533,1417
3535,1099
3535,2856
3535,3752
3535,4187
3536,234
3536,244
3536,930
3536,1027
3536,1040
3536,1695
3536,1900
3536,2536
3536,4460
3536,4557
3537,649
3541,3990
3544,623
3545,697
3546,627
3547,1850
3549,1970
3550,2341
3550,3899
3552,386
3552,3603
3557,2156
3558,192
3558,1533
3558,3132
3559,566
3561,3551
3562,1074
3562,2850
3565,395
3566,563
3566,1023
3566,2291
3566,3245
3567,3990
3568,1040
3568,1225
3568,1703
3569,1843
3569,2662
3569,3042
3569,3930
3570,467
3572,2360
3572,4252
3573,2065
3573,3606
3576,500
3577,1995
3579,1327
3580,1277
3582,979
3584,575
3584,3590
3584,4738
3585,46
3587,75
3587,1413
3593,1349
3596,882
3597,3807
3598,2874
3600,3827
3601,2719
3603,396
3607,4918
3608,4830
3611,2485
3611,3970
3612,265
3613,332
3614,1711
3616,386
3616,4409
3618,4490
3620,1760
3622,2928
3624,1750
3625,2609
3627,1012
3628,1544
3633,2640
3634,4261
3634,4333
3636,2719
3637,79
3639,341
3640,417
3641,329
3643,2538
3644,3071
3645,359
3646,2751
3648,3830
3648,4811
3649,1826
3649,4924
3652,2438
3654,1010
3655,1481
3656,467
3657,320
3657,4380
3660,2627
3662,220
3662,1301
3662,3073
3662,3615
3663,4030
3663,4976
3664,695
3666,139
3666,1351
3666,2353
3666,3395
3666,3695
3666,3927
3666,3970
3666,4910
3667,850
3667,3742
3667,4851
3669,1095
3669,4638
3674,515
3675,1602
3677,3589
3678,3271
3680,2159
3681,1498
3682,2502
3683,944
3684,1580
3685,1281
3686,901
3687,1372
3688,2466
3689,189
3692,332
3693,1136
3694,1224
3696,133
3697,1653
3698,1143
3699,1352
3699,3792
3701,509
3702,1768
3703,1359
3703,4379
3704,73
3711,565
3713,844
3716,4904
3717,1331
3719,910
3719,1127
3720,1143
3721,1301
3722,644
3723,3173
3724,566
3724,4483
3725,3233
3726,1650
3729,480
3730,3317
3731,780
3732,1825
3733,658
3734,1193
3735,475
3735,4632
3736,2700
3740,576
3740,695
3741,338
3742,1730
3743,84
3743,230
3743,653
3743,820
3743,1090
3747,3519
3748,2790
3750,2567
3753,2159
3754,957
3755,1847
3756,1349
3761,1095
3761,2789
3761,4656
3763,3900
3767,1863
3768,1947
3769,1559
3773,887
3773,2958
3773,3435
3775,1756
3777,2004
3778,1421
3778,2769
3779,2950
3780,2448
3781,2135
3781,4058
3782,114
3782,216
3782,2056
3782,2599
3782,3070
3783,586
3783,934
3783,1352
3783,1487
3783,4239
3783,4886
3785,2799
3787,773
3788,1594
3790,3594
3791,4324
3793,465
3794,753
3795,3335
3796,3927
3798,1563
3798,3280
3798,4923
3799,2834
3800,194
3801,369
3802,581
3803,1652
3803,4865
3806,2854
3809,1260
3810,2218
3811,317
3811,4710
3813,3424
3814,1254
3817,987
3818,3271
3819,2108
3820,1847
3821,2122
3822,1942
3822,4893
3823,2855
3824,506
3824,4406
3826,50
3826,320
3826,430
3826,629
3826,739
3826,832
3826,1814
3826,2673
3826,4054
3827,1181
3829,3206
3830,590
3830,1005
3830,3246
3830,4671
3831,522
3833,1383
3834,293
3836,2674
3838,606
3839,2077
3839,2866
3841,2485
3842,3460
3843,2586
3843,3122
3843,4397
3847,3377
3847,3764
3848,3947
3850,964
3852,3302
3853,166
3854,3248
3855,1375
3857,2424
3858,3765
3858,3932
3859,2486
3859,3543
3864,312
3866,84
3867,312
3869,2696
3869,3673
3871,1596
3872,657
3873,564
3873,592
3873,4371
3874,2799
3874,3769
3879,119
3879,158
3879,599
3879,1515
3880,1474
3882,2472
3883,2905
3883,3057
3883,4524
3883,4614
3885,2749
3886,504
3886,509
3886,849
3886,2524
3886,4203
3886,4324
3887,265
3887,924
3887,1933
3888,3303
3889,3820
3891,713
3891,897
3891,1240
3891,1996
3891,2628
3891,2854
3891,3990
3892,2315
3893,595
3894,650
3895,1838
3895,4489
3896,3709
3898,841
3898,2119
3908,910
3909,3736
3910,1315
3912,263
3917,221
3918,2713
3919,18
3919,37
3919,47
3919,746
3919,1168
3919,1785
3919,2285
3919,2798
3919,4665
3920,2243
3923,4716
3924,4333
3925,897
3931,1943
3933,1389
3934,1871
3935,2642
3936,1635
3937,715
3937,1552
3938,1668
3938,4599
3939,1810
3939,2145
3941,17
3942,1433
3943,925
3943,4641
3946,2669
3948,3185
3948,4245
3950,2993
3951,3392
3952,2505
3953,1506
3954,2623
3956,2428
3958,3804
3961,3106
3962,123
3962,2364
3968,67
3971,942
3972,312
3973,1092
3975,3061
3976,1632
3978,2354
3979,3079
3983,4140
3984,1375
3986,2571
3991,1307
3992,819
3992,3827
3992,4247
3993,1331
3994,1070
3995,1263
3997,994
3997,3489
3998,1586
4003,1613
4003,4287
4006,944
4006,1521
4009,3947
4010,3710
4011,3535
4011,3897
4011,3981
4014,2686
4015,550
4016,2494
4019,1734
4021,3784
4022,2793
4025,2648
4025,4322
4026,4202
4027,1180
4028,438
4028,3990
4028,4554
4030,2833
4033,1968
4034,1604
4035,3990
4036,771
4038,1363
4040,1150
4042,2396
4045,1180
4046,352
4046,1043
4046,1197
4046,2521
4046,2693
4046,3728
4046,4323
4047,1985
4048,1208
4049,107
4052,464
4054,1880
4056,2821
4059,2567
4060,2494
4062,903
4063,1321
4063,1828
4063,3439
4063,4643
4065,2139
4066,169
4067,1900
4068,2147
4069,1336
4069,4646
4071,906
4071,1307
4071,1720
4071,2409
4071,3746
4072,979
4072,4376
4073,2448
4074,592
4074,850
4074,1613
4074,1879
4074,4842
4075,551
4076,1919
4078,667
4078,3501
4079,4468
4086,2993
4087,432
4088,3655
4089,1474
4089,2597
4091,1192
4092,574
4092,3947
4094,1089
4097,1717
4099,516
4100,1629
4101,2345
4103,40
4103,932
4104,4153
4104,4305
4105,850
4105,2383
4106,1321
4107,3989
4111,406
4111,4172
4113,604
4114,743
4114,4127
4116,82
4117,2216
4118,408
4118,4664
4119,2528
4120,4172
4121,2485
4122,1175
4125,1535
4126,4984
4128,934
4129,1978
4130,3736
4131,2142
4132,320
4134,1728
4135,2428
4138,1143
4140,1366
4140,4277
4141,4477
4142,1858
4142,2163
4142,3790
4142,4237
4145,215
4145,608
4145,655
4145,1237
4145,1846
4145,2662
4147,794
4149,3185
4150,1042
4151,2102
4152,1389
4157,4096
4158,2628
4159,1302
4160,79
4162,1417
4164,1797
4164,2092
4164,4337
4165,752
4165,1040
4165,2797
4165,4731
4166,3627
4167,565
4167,3508
4168,3345
4169,119
4173,435
4174,1750
4176,158
4177,3462
4178,1639
4179,2109
4180,3568
4181,2537
4182,4738
4186,1815
4189,1519
4190,924
4191,192
4191,3981
4192,765
4196,1389
4196,3206
4196,4703
4200,4291
4201,586
4204,368
4204,4928
4205,1262
4206,202
4206,780
4206,2049
4206,3351
4206,4777
4208,3515
4211,548
4211,2460
4213,386
4215,4567
4216,4092
4219,3055
4220,1293
4223,475
4225,2826
4229,464
4229,630
4230,525
4231,3388
4234,1825
4236,1944
4242,3800
4243,3604
4248,2431
4248,4093
4249,3627
4251,3987
4254,413
4257,3536
4258,1872
4260,82
4260,368
4260,405
4260,815
4260,1792
4260,1840
4260,1875
4260,2556
4260,2780
4260,3140
4260,3856
4260,4612
4262,752
4263,2348
4264,2182
4265,16
4265,2354
4266,4053
4268,2580
4270,1255
4271,84
4273,182
4274,306
4276,47
4277,357
4277,2742
4277,2899
4278,895
4280,1178
4281,3460
4281,4720
4282,1498
4283,3584
4284,2182
4286,952
4287,1060
4289,574
4289,1035
4290,94
4293,1779
4293,2393
4295,838
4295,1769
4295,2852
4295,4453
4299,3485
4300,3367
4301,557
4301,3990
4304,3218
4305,1106
4305,2513
4307,2361
4310,2153
4310,4398
4312,621
4313,2406
4314,2528
4315,2137
4315,2497
4315,3485
4317,2424
4319,2793
4320,2153
4321,3977
4322,666
4322,4540
4323,2004
4325,1398
4326,3851
4327,459
4328,3707
4329,2532
4332,4612
4333,2163
4334,420
4336,166
4338,3917
4339,227
4339,1368
4339,1504
4339,1914
4339,2178
4339,2874
4339,4676
4340,1689
4344,844
4346,3795
4347,14
4347,3501
4349,33
4349,1602
4349,2002
4349,2050
4349,3762
4349,4373
4349,4621
4349,4723
4350,2485
4355,667
4357,93
4358,4336
4359,1090
4361,1331
4362,4340
4366,1043
4366,4404
4366,4838
4367,1143
4368,2601
4369,902
4370,2821
4371,1276
4371,4462
4372,4733
4374,1629
4374,4039
4381,3615
4382,632
4384,1993
4385,369
4386,11
4386,1624
4386,4560
4389,280
4391,1761
4392,1499
4400,702
4400,1757
4400,2438
4402,156
4402,369
4406,349
4406,762
4407,1193
4407,1213
4407,1877
4412,73
4415,2719
4416,4318
4418,82
4419,738
4420,1090
4423,636
4425,1226
4429,957
4430,8
4431,837
4434,480
4434,4508
4434,4847
4435,1016
4436,2505
4437,743
4437,2016
4439,781
4440,2774
4444,2108
4445,464
4446,3460
4448,4842
4449,553
4450,3693
4450,4478
4451,182
4452,4848
4454,2438
4456,2948
4457,711
4458,4198
4459,93
4463,1478
4468,3833
4471,4317
4471,4890
4472,3381
4473,1078
4474,4233
4474,4609
4475,1193
4476,2336
4480,82
4481,2257
4485,3435
4487,706
4488,2080
4488,4226
4491,1683
4492,1043
4493,239
4494,2984
4495,3460
4500,555
4500,892
4500,1383
4500,2777
4500,2859
4500,3693
4500,4726
4501,3619
4504,2852
4505,408
4507,1357
4509,4125
4510,1223
4511,2988
4513,130
4513,3248
4514,626
4517,3315
4518,2179
4519,515
4523,1175
4524,234
4524,753
4524,1589
4525,4090
4525,4610
4526,2021
4527,480
4527,1178
4527,1847
4527,2971
4527,3966
4527,4763
4529,3670
4531,2456
4531,4386
4532,99
4533,794
4535,2548
4535,3797
4537,614
4538,19
4541,368
4541,789
4541,2287
4541,4207
4541,4827
4542,1566
4543,3435
4543,4058
4544,1137
4547,3583
4548,3245
4549,306
4549,1155
4549,1159
4549,1634
4549,2747
4549,4080
4550,559
4555,668
4559,2976
4561,1719
4562,1850
4563,234
4563,773
4564,3990
4565,1717
4566,1769
4568,1278
4571,4935
4574,2749
4575,135
4576,4341
4582,1331
4583,1847
4584,3679
4586,79
4587,4848
4588,312
4589,2405
4591,1216
4593,26
4594,2145
4595,791
4596,2567
4597,2309
4597,2789
4598,1756
4598,3574
4598,4618
4601,4467
4603,2802
4604,3699
4605,3298
4606,4555
4613,239
4614,3709
4615,82
4615,4706
4615,4935
4616,4520
4617,934
4621,395
4622,1398
4624,3963
4625,886
4627,68
4627,347
4627,467
4627,1520
4627,1668
4627,2834
4627,4826
4628,2178
4630,1968
4635,1341
4635,2467
4637,3944
4640,368
4642,1370
4644,343
4646,644
4648,1262
4648,1489
4648,2016
4648,2999
4648,3482
4648,4108
4648,4503
4652,1669
4655,226
4655,1689
4655,1785
4655,2350
4655,3556
4657,3266
4658,871
4659,4489
4660,543
4663,227
4666,2127
4669,192
4670,4841
4672,1877
4675,221
4677,1850
4678,4387
4678,4972
4679,2460
4681,1163
4685,1043
4686,2016
4688,3956
4690,1392
4693,121
4695,1582
4696,99
4697,2536
4699,1952
4702,3990
4703,626
4704,2793
4707,2981
4711,715
4713,3084
4715,1664
4717,3716
4718,911
4722,2496
4724,536
4725,3661
4727,3109
4728,4080
4729,538
4730,4988
4735,2548
4737,2371
4737,3979
4740,119
4740,1008
4740,1879
4740,2074
4740,4202
4740,4356
4740,4955
4741,1596
4744,4999
4745,868
4747,18
4749,1717
4750,133
4751,3280
4755,970
4756,2905
4757,97
4758,1354
4760,716
4761,1720
4762,1785
4764,1394
4766,2159
4768,2908
4769,615
4772,1136
4773,3564
4774,3461
4775,1236
4777,3927
4778,531
4778,1666
4779,82
4779,475
4779,680
4780,22
4780,2811
4780,4032
4780,4499
4784,4530
4785,28
4785,384
4785,1074
4785,4629
4786,597
4788,2580
4789,1730
4791,147
4792,659
4793,4054
4794,788
4794,2843
4795,4752
4797,565
4800,4175
4801,3123
4802,4050
4803,2018
4806,771
4807,4964
4809,3435
4810,1381
4812,3827
4814,3795
4815,3795
4819,368
4821,4460
4822,40
4824,1143
4825,3283
4825,3417
4827,1514
4829,3619
4831,794
4832,221
4833,738
4839,1524
4839,3435
4840,520
4840,1217
4841,3381
4842,371
4843,734
4844,1635
4845,4700
4846,2151
4848,553
4848,2394
4849,536
4850,280
4850,1004
4853,3288
4855,3281
4863,1458
4864,16
4866,1919
4867,4650
4868,1364
4869,341
4870,1336
4871,518
4872,1030
4873,650
4876,1512
4878,1723
4879,1874
4887,1043
4887,2255
4887,4013
4888,1877
4889,2739
4891,3079
4897,169
4898,2455
4899,2275
4900,43
4901,4804
4902,658
4902,1021
4903,3442
4905,997
4906,850
4908,3391
4909,464
4911,67
4911,889
4911,3392
4911,3534
4911,3608
4911,4502
4913,2127
4915,895
4916,530
4917,464
4919,2984
4920,3123
4922,1119
4924,650
4927,818
4928,30
4928,130
4928,221
4928,325
4928,844
4928,978
4928,2339
4928,3034
4928,3837
4928,4469
4929,626
4930,1655
4931,1280
4932,2384
4937,2847
4941,4754
4942,2967
4943,1137
4943,3993
4946,2900
4947,771
4947,2900
4949,3173
4949,4447
4954,2015
4955,369
4956,633
4957,1042
4958,4275
4959,67
4960,1618
4962,2218
4963,2487
4969,1070
4973,317
4975,323
4976,182
4976,566
4976,1973
4976,3065
4976,3522
4976,3709
4976,3913
4976,4288
4977,1628
4979,1796
4982,816
4984,754
4986,3861
4990,4496
4991,1512
4991,4671
4993,778
4995,239
4995,271
4995,764
4995,2198
4995,3260
4996,1563
4997,1178
4999,1227
