src,dst
0,1
2,173
2,282
2,295
2,930
2,1090
2,1487
2,1838
2,1924
2,2228
2,2304
2,2436
3,78
3,497
3,860
3,1173
3,1326
3,1596
3,2369
3,4424
4,18
4,296
4,587
4,1106
4,1295
4,2000
4,2661
4,4087
5,160
5,2668
7,20
7,21
7,273
7,608
7,895
7,909
7,1291
7,2775
7,3107
7,3795
7,4554
8,670
8,1197
8,1400
8,2934
8,3327
8,4981
9,106
9,1328
9,2162
9,2551
9,3625
9,4823
10,6
10,500
10,571
10,889
10,1484
10,1897
10,2489
10,2609
10,2831
10,3217
12,1712
12,3128
12,4085
14,4253
17,386
17,792
17,1188
17,1615
23,216
23,2536
23,3914
25,1008
25,1280
25,1704
25,2036
25,2051
25,2089
25,4121
26,1243
26,4863
29,160
29,1234
29,2973
29,4624
30,91
30,118
30,147
30,547
30,605
30,892
30,1111
30,1400
30,1605
30,1700
30,2106
30,2172
30,2525
30,2924
30,3793
30,4160
30,4433
30,4943
30,4953
34,2758
34,4211
35,536
35,1271
35,2089
35,2295
35,2941
39,171
39,499
39,1066
39,1190
39,2281
39,3390
39,3938
39,4325
43,2866
44,4607
49,2434
52,2943
52,4141
53,2007
53,4041
53,4612
58,539
60,94
60,108
60,155
60,160
60,184
60,596
60,1425
60,1449
60,1482
60,1522
60,1695
60,1900
60,2211
60,2501
60,2858
60,4663
61,175
61,289
61,1469
61,1500
61,1799
61,2661
61,3178
61,3784
62,246
62,2715
62,4311
63,67
63,189
63,409
63,697
63,1846
63,2577
63,2961
63,4104
64,1211
64,1824
64,2317
64,2432
64,4506
65,3452
66,55
66,2668
66,2677
66,4193
70,1743
70,2067
70,3524
73,22
74,999
74,1094
74,4475
74,4854
75,1094
75,2067
77,1391
77,3552
77,3692
77,3752
79,472
79,613
80,214
80,1551
80,1694
82,2715
83,996
83,2300
83,3947
84,206
84,316
84,320
84,441
84,454
84,491
84,621
84,638
84,773
84,1023
84,1294
84,1454
84,2090
84,2908
84,3257
84,3845
85,239
85,501
85,502
85,672
85,2109
85,2868
85,3115
85,4858
86,2621
87,1613
87,2138
90,130
90,4494
97,6
97,19
97,366
97,537
97,611
97,661
97,820
97,938
97,1188
97,1191
97,1196
97,1279
97,1519
97,1549
97,1756
97,1858
97,2441
97,3236
97,3690
98,2422
98,3033
99,90
99,165
99,402
99,528
99,591
99,626
99,707
99,846
99,1084
99,1113
99,1162
99,1225
99,1696
99,1713
99,2076
99,3718
99,4166
99,4201
99,4546
99,4676
99,4710
99,4955
100,1783
100,2174
100,3163
102,3512
103,771
103,1800
103,4708
104,2496
104,4141
105,4475
109,1002
110,210
110,1522
111,491
111,1014
111,4711
112,2045
113,2140
113,2507
119,2015
119,2501
120,4762
121,3802
122,133
122,1040
122,1044
122,1543
122,2515
122,3960
122,4657
124,368
124,1056
124,2622
124,4607
124,4619
125,14
125,57
125,163
125,1336
125,1339
125,1897
125,2059
125,3982
126,661
127,4982
128,962
128,1812
128,3284
134,212
134,389
134,696
134,2583
134,2661
134,2936
134,3285
134,4123
135,287
135,1105
135,1295
135,1640
135,2440
135,4398
135,4823
136,3313
136,3906
136,4064
137,2688
137,4230
137,4447
139,891
139,1924
141,20
141,1271
141,2515
143,633
143,2760
145,4253
146,471
146,1309
146,3330
146,3452
146,4128
147,2934
148,1393
149,672
149,2537
150,239
150,452
150,802
150,1010
150,1387
150,1996
150,2106
150,2809
150,3769
150,4945
151,283
151,2764
151,3133
152,247
152,256
152,448
152,4789
153,14
153,381
153,1827
153,2826
156,1004
156,3115
156,3153
156,3161
156,3285
156,4269
156,4771
158,14
158,980
158,4889
161,18
161,37
161,174
161,510
161,1081
161,4365
161,4553
161,4592
164,319
164,2904
165,585
165,709
165,742
165,3735
165,3892
165,4630
165,4972
166,311
166,4573
166,4758
167,56
167,409
167,4709
168,583
169,410
170,409
170,592
170,716
170,837
170,840
170,930
170,1461
170,1500
170,2853
176,2017
176,3291
177,271
177,2044
177,2512
177,2685
177,4900
178,4193
179,636
179,3033
181,35
184,4955
186,129
186,648
186,755
186,1277
187,263
187,481
187,1047
187,4626
188,420
188,461
188,1007
188,1330
188,2245
188,3687
188,4688
191,2228
191,3071
193,37
193,481
193,572
193,1038
193,1719
193,2045
193,2500
193,3240
194,43
194,56
194,1169
194,1229
194,1538
194,1587
194,2339
194,3005
194,3372
194,3769
194,4633
196,574
196,1100
199,1094
199,3064
199,4574
200,3122
200,3596
200,4690
202,263
202,309
202,1078
202,3274
202,4322
202,4822
203,22
203,144
203,368
203,908
203,3095
203,3177
204,33
204,1055
204,1908
204,2006
204,2448
204,3026
205,1191
206,1504
208,232
208,395
208,1822
208,2202
208,4373
209,228
209,238
209,472
209,630
209,1174
209,1490
209,1689
209,1934
209,2194
209,2456
209,3670
209,4302
211,866
211,896
213,732
213,742
213,1645
213,2706
213,3641
213,4962
217,2046
218,93
218,830
218,873
218,1195
218,1387
218,1417
218,2715
218,2959
218,3235
218,3672
218,4438
218,4769
219,56
219,216
219,376
219,409
219,1311
219,1342
219,1959
219,2283
219,2963
219,3369
219,3669
219,3732
220,2337
222,18
222,48
222,943
222,1094
222,1946
222,3499
223,556
223,1455
223,2221
223,2716
223,2966
224,1333
224,2458
224,4387
224,4947
226,308
226,560
226,602
226,816
226,1251
226,1365
226,2223
226,2413
227,636
227,1223
227,1799
227,2245
227,2283
227,3640
229,362
229,1758
229,3527
230,163
230,1430
230,1684
230,2157
230,3971
230,4264
231,1455
231,1779
231,2790
233,2684
234,1086
234,1223
234,1269
234,3990
234,4089
234,4738
235,13
239,90
239,3531
240,279
240,683
240,997
240,3240
240,4487
241,832
241,1190
241,1294
241,1296
241,1678
241,2073
241,3383
241,3896
241,4725
242,2216
243,23
243,116
243,400
243,425
243,450
243,603
243,1026
243,1210
243,1484
243,1578
243,2126
243,2276
243,2906
243,3061
243,3302
247,909
247,1934
247,3512
248,1242
248,2317
248,2367
248,2534
248,2987
248,4502
249,884
249,2411
249,3625
250,270
250,740
250,1180
250,1532
250,1537
250,2583
250,3378
250,3413
251,118
251,1296
251,2893
252,6
252,106
252,195
252,400
252,409
252,1207
252,1319
252,1399
252,1551
252,3693
252,3917
252,4157
254,699
254,1232
254,1406
254,1522
254,2247
254,2348
254,2678
254,4389
257,3512
258,31
258,332
258,336
258,1046
258,1256
258,1325
258,1900
258,2197
258,3179
258,3392
258,3583
258,4094
260,46
260,4253
261,238
261,791
261,3637
262,802
262,2326
262,2500
262,4619
263,4141
263,4377
263,4696
264,2338
264,2447
264,4617
265,216
266,294
272,15
272,51
272,2283
272,4325
274,502
274,539
274,1563
274,2283
274,2447
275,2564
276,918
276,1871
277,267
277,301
277,792
277,1737
277,3288
277,3997
277,4905
280,175
280,3006
280,3063
283,269
283,1134
283,1780
283,4022
284,3618
284,4473
286,243
286,2225
288,3128
288,4664
292,67
301,2000
304,22
304,576
304,1062
305,3917
306,1
306,493
306,719
306,1139
306,1401
306,2303
306,2955
307,1756
307,2070
307,2577
307,2864
307,3346
307,3380
307,3554
312,256
312,269
312,513
312,539
312,885
312,895
312,1632
312,1785
312,1839
312,1847
312,1942
312,2230
312,2391
312,2721
312,3547
312,4099
312,4407
313,462
315,15
315,1053
315,2207
318,896
318,1004
318,1221
318,3178
318,3878
320,16
320,1191
320,1348
320,2752
322,38
322,88
322,1862
322,3512
324,160
324,2245
324,2364
324,2765
324,4222
326,76
326,436
326,813
326,1139
326,1180
326,1373
326,1612
326,1726
326,1812
326,2072
326,2103
326,2283
326,2775
326,3085
326,4828
327,819
327,1691
327,1720
327,2179
327,3549
327,4051
327,4876
328,315
328,499
328,670
328,716
328,820
328,1196
328,1230
328,1261
328,1331
328,1400
328,1953
328,1969
328,2162
328,2431
328,2631
328,3155
328,3450
328,3621
328,4438
328,4475
332,269
333,998
333,1327
333,2609
333,4619
334,2328
334,4694
334,4722
335,1924
336,628
337,661
337,1970
337,2544
337,2984
337,3542
337,3989
337,4471
338,2577
340,56
340,1195
340,2067
342,749
343,366
343,454
343,1991
343,3130
343,4422
344,244
344,351
344,409
344,1762
344,2479
344,4135
346,1042
347,212
347,4588
348,183
348,1173
350,1700
350,2796
352,112
352,256
352,765
353,192
353,1836
353,1982
353,3248
353,3579
354,2934
355,1381
356,23
356,1565
356,2881
356,3274
356,4925
363,77
363,1500
363,1623
363,2115
363,2221
364,2435
364,2976
364,3999
364,4121
365,933
365,1507
365,1875
365,2113
365,2192
365,4360
367,228
368,522
368,533
368,540
368,1647
368,1739
368,3474
368,4165
368,4428
369,4692
370,2283
370,4616
371,174
372,1722
372,2802
373,106
373,317
373,331
373,1732
373,4155
374,1845
374,2044
374,2703
374,2785
374,3663
374,3772
374,4817
377,438
378,269
378,2889
378,3270
378,3575
379,506
380,188
380,256
380,1487
380,3440
382,22
382,1710
382,2870
382,3079
382,3911
382,4271
382,4719
383,1636
383,1799
383,1872
383,2255
383,2462
383,2475
384,12
386,35
386,188
386,655
386,1836
386,2022
386,3576
387,207
387,1647
387,4664
391,46
391,144
391,273
391,1986
391,2424
393,1164
393,1260
393,1458
393,1647
393,3083
393,3533
393,4521
397,410
397,655
397,1001
397,1350
397,3386
397,3596
397,3964
398,1210
398,1284
398,2082
398,2501
399,882
399,1653
399,1818
401,175
401,775
403,95
403,2007
404,1651
404,1675
404,3938
406,511
406,662
406,1041
406,1299
406,4430
406,4619
407,319
408,358
408,843
408,859
408,999
408,1047
408,1742
410,299
410,2004
410,4239
410,4399
410,4578
410,4617
411,2358
412,15
412,195
412,414
412,698
412,925
412,4355
412,4461
415,722
417,205
417,636
417,1539
417,3202
418,1522
418,1813
418,2851
419,1274
419,1472
419,2231
419,2313
421,32
421,73
421,828
421,1810
421,3073
421,3462
421,4516
422,73
422,358
422,705
422,771
422,1060
422,1676
422,1827
422,3619
422,3990
424,144
424,1213
424,1749
424,3344
424,4279
427,1045
427,1241
427,2715
428,796
430,243
431,592
431,774
432,1462
432,3184
432,4077
432,4285
433,195
433,574
433,2231
433,3061
433,4620
434,263
434,1507
434,4026
434,4364
434,4767
435,1466
435,4588
437,1027
438,3722
439,129
439,3802
440,2690
442,3257
442,3618
442,4349
442,4735
442,4907
443,44
443,574
443,1181
444,446
444,1958
444,2312
444,2760
444,3148
444,3174
445,274
445,1879
447,2144
451,984
451,1011
451,1177
451,2122
451,2462
451,2577
451,4306
453,1998
454,55
454,57
454,1012
455,23
455,47
455,289
455,905
455,967
455,2179
455,2444
455,2760
455,3376
455,3481
455,3501
455,3781
455,3823
457,358
457,2158
459,2144
460,18
460,240
460,1385
460,2138
460,3999
463,681
463,2783
463,2813
463,3424
464,311
464,4006
465,4819
466,449
466,930
466,1042
467,302
467,314
467,1097
467,1115
467,1195
467,1283
467,1939
467,1996
467,2654
467,4227
468,302
468,2537
468,2591
470,15
470,426
470,450
470,490
470,723
470,760
470,780
470,1232
470,2534
470,2544
470,4109
470,4275
470,4346
470,4531
473,1169
473,1379
474,991
474,2309
474,2313
475,1347
475,1604
475,2337
477,1045
477,1613
477,3285
478,630
478,685
478,1038
478,1191
478,3723
478,3961
478,4471
479,212
479,851
479,1336
479,1387
479,2059
479,2475
483,117
483,776
483,2775
483,4859
486,791
486,820
486,1387
486,3051
486,3178
486,3458
486,4285
487,38
487,1624
487,1735
487,4902
488,215
488,454
488,630
488,2199
489,655
489,810
489,922
489,1331
489,1466
489,1893
489,3855
489,3902
489,4609
489,4849
492,396
493,456
495,197
497,639
497,1169
497,1454
497,1547
497,2391
498,3938
503,240
503,526
503,1085
503,1226
503,1246
503,1669
503,2045
503,2934
503,3313
503,4524
504,88
504,747
504,871
504,1256
504,1532
504,1794
504,2920
504,2932
504,2944
504,3507
504,3625
504,3847
504,4466
505,1379
505,3274
505,3938
507,2556
508,4232
509,593
509,968
509,2010
509,2466
509,2870
509,2916
509,3317
509,4510
509,4903
511,197
511,285
511,1196
511,1233
511,1506
511,3475
512,2802
513,1911
514,57
514,339
514,1954
514,3710
516,68
516,239
516,384
516,506
516,595
516,1132
516,1173
516,1309
516,1355
516,1544
516,3224
516,3274
516,3512
516,4455
518,44
521,1233
523,1223
523,3892
523,4720
524,592
524,1454
525,1713
525,1902
525,2875
525,3694
525,4772
526,2775
526,3727
526,4755
529,775
529,4275
530,1818
530,2164
532,232
532,3281
535,1192
539,301
539,1090
540,210
540,506
541,1647
542,655
542,1935
543,108
543,2904
544,1233
545,625
545,1102
545,1500
545,1542
548,1522
549,4131
549,4540
549,4779
550,174
550,902
550,1001
550,1617
550,2111
550,2454
550,3865
550,3940
550,4084
550,4535
551,990
551,1065
552,298
553,132
553,3328
554,217
555,765
557,3769
559,3980
562,57
562,751
562,2323
562,2359
562,3688
564,558
564,592
564,593
564,719
564,1743
564,2044
564,4397
564,4633
565,56
566,345
566,1500
566,3874
567,765
567,775
567,853
567,2170
567,2231
567,2292
567,4397
567,4586
567,4671
567,4890
568,973
568,2313
568,3034
568,3343
568,4348
570,1744
570,4253
577,46
577,4121
579,246
579,2086
579,3990
579,4863
580,1366
580,2220
580,2772
580,3127
580,4899
582,232
582,409
582,1314
582,2413
582,2446
582,2715
582,3067
582,3294
582,4975
583,1133
583,1252
583,2707
584,2668
584,4827
586,311
590,3917
592,4297
594,1080
594,1129
594,1217
595,23
595,37
595,69
595,245
595,1318
595,1615
595,1859
595,2205
595,3283
595,3394
597,1184
597,1503
597,1708
598,291
598,2433
598,2501
600,2386
602,2852
602,3518
604,510
604,3305
605,3750
606,1757
606,2346
607,3240
609,3436
610,2650
610,3999
610,4460
612,253
612,1204
612,1250
612,1770
612,2130
612,3330
615,1309
615,2874
615,3085
615,4946
616,824
616,1642
616,4204
617,316
618,599
618,1430
618,2965
619,45
619,163
619,1014
619,1257
619,3381
619,4213
620,2756
622,993
622,2152
622,2492
622,3313
623,4120
624,67
624,563
624,576
625,320
625,2130
625,2328
625,3254
625,3492
627,2057
631,4193
634,978
634,2000
634,3513
635,2764
635,4152
637,1387
637,2536
640,1097
640,4001
640,4333
643,35
643,183
643,1958
643,1998
644,533
645,1223
647,15
647,613
647,747
647,1063
647,1281
647,1708
647,3122
649,319
649,509
650,576
650,1192
650,2458
651,1360
651,3013
652,409
653,117
653,944
653,2005
653,2105
653,2297
653,2397
654,1196
654,4003
655,2715
655,3825
655,4340
656,22
656,583
656,3358
656,4318
657,3245
658,129
658,508
658,2183
658,2775
658,3486
658,3656
658,4955
659,502
659,4870
664,962
664,1046
664,1073
664,1195
664,1547
667,374
669,3418
671,345
673,2187
674,1403
674,2602
675,963
675,4184
676,12
676,197
676,765
676,1216
677,4074
678,457
680,671
680,809
680,1517
680,3843
682,207
682,216
682,1051
682,1178
684,15
684,291
684,528
684,1087
684,1456
684,1617
684,1806
684,1969
684,2126
684,2826
684,3728
684,3866
684,4726
684,4979
687,37
687,558
687,683
687,1229
687,1265
687,1400
687,2725
687,4667
687,4875
690,127
690,861
690,938
690,952
690,1706
690,1743
690,1795
690,1891
690,4618
690,4699
690,4952
691,117
691,376
691,1501
693,45
693,1204
693,1618
693,2108
693,3799
694,1
694,4339
694,4674
694,4708
695,2458
696,57
696,142
696,180
696,195
696,210
696,539
696,601
696,625
696,768
696,823
696,1007
696,1025
696,1094
696,1243
696,1648
696,1710
696,2260
696,2428
696,2501
696,2518
696,2577
696,2717
696,3134
696,3196
696,3330
696,3654
696,3749
696,4054
696,4374
696,4409
696,4465
696,4543
696,4629
697,2192
697,3344
700,228
700,510
700,998
702,239
702,388
702,1131
702,3720
702,4589
703,1119
708,947
708,2444
712,414
712,1357
712,1784
712,4460
713,1023
713,1743
713,3852
713,4475
713,4550
713,4871
714,228
714,2147
714,2358
714,3448
714,3665
714,4221
717,996
717,1090
717,1176
718,950
718,4950
720,1385
720,1484
720,1745
720,1879
720,2101
720,3178
720,4293
720,4838
721,1240
721,1732
721,2825
721,3579
722,157
723,2441
723,3278
724,37
724,1042
725,847
725,2458
726,148
727,50
727,212
727,2253
728,301
728,332
729,2706
729,3434
730,710
730,1301
731,683
731,910
733,716
733,1005
733,2164
733,2213
733,2232
733,2624
733,2637
733,3464
733,4609
734,1430
735,595
735,3317
735,4253
735,4349
735,4743
736,480
737,3006
738,44
738,269
738,1343
738,1870
738,3942
738,4104
738,4110
739,155
739,815
739,906
739,2511
739,3615
739,4490
742,2954
744,367
744,1081
744,1189
744,4570
744,4829
745,4355
746,1243
746,2622
749,4212
750,1387
750,2130
750,3385
753,2237
754,253
754,1510
754,2130
754,3738
756,3283
757,46
757,476
757,2027
758,1198
758,4079
759,2339
759,2760
763,761
764,610
764,2458
766,106
767,78
767,1775
767,4475
768,1233
768,4170
768,4438
769,24
769,563
769,1442
769,1551
769,1832
769,1926
769,2089
777,456
777,3138
778,2775
779,2621
779,2765
779,4479
781,665
781,4442
782,1584
782,1998
782,3057
783,56
783,3313
783,4633
785,175
785,1360
786,163
786,528
786,963
786,1620
786,2322
786,3487
786,3670
786,4047
787,3211
787,4447
788,583
788,866
788,2463
788,2802
788,3374
788,3776
788,4175
788,4525
788,4759
793,67
797,195
797,381
799,613
800,14
800,3154
801,1156
803,269
803,3546
804,162
804,253
804,499
804,583
804,3396
804,4260
805,2091
807,2602
807,4733
808,2283
810,319
810,636
810,1046
812,2805
813,73
813,345
813,476
813,677
813,876
813,1300
813,2036
813,2674
813,3486
813,3814
813,4193
814,1699
814,3222
817,556
817,689
817,1494
817,1995
817,2339
817,2919
818,2228
819,4349
823,4950
824,2510
824,2580
824,3341
825,613
825,2367
825,3612
825,3938
825,3975
825,4807
826,390
827,114
827,1187
829,207
829,679
831,57
831,302
831,2853
835,228
836,2044
837,1191
837,1366
837,1674
837,2433
838,77
838,216
838,222
838,329
838,811
838,2080
838,3606
842,1960
844,851
844,1662
844,1676
844,2106
844,3337
845,747
845,1933
845,1998
845,2325
849,195
852,160
852,1656
852,2775
854,747
854,1037
854,2775
854,2979
854,4207
854,4668
855,1830
855,2765
858,67
859,21
859,4153
859,4304
860,794
860,1172
860,2185
860,3187
860,3455
862,1615
863,1398
863,1403
863,3194
865,73
867,132
867,655
867,3368
867,3794
868,56
868,1279
868,1632
868,1743
868,1823
868,2043
868,2432
868,3078
868,3642
868,4535
868,4809
872,534
872,1007
872,1879
872,2437
872,3315
872,4407
874,2424
874,3938
874,4102
877,174
878,1442
881,427
881,1897
882,795
882,3376
886,144
886,3813
886,4423
887,4037
890,2025
891,1509
894,1215
894,3116
894,3305
894,3779
896,2309
898,2548
898,3273
900,71
900,1273
900,4831
902,765
902,1672
903,23
904,462
904,1593
904,3061
904,4873
907,3248
912,308
913,583
914,15
916,449
916,1995
916,2007
916,2078
916,2227
916,2785
916,3976
916,4291
917,797
919,22
919,3896
920,253
921,15
921,302
921,482
921,1163
921,1196
921,1600
921,3801
926,1274
926,2372
926,2474
927,2715
927,3196
927,3409
927,4840
929,569
929,578
929,869
929,1544
929,1790
932,216
932,3454
933,641
934,2733
934,3452
934,4632
935,959
935,1879
935,2106
935,4706
935,4745
937,2967
938,837
938,2328
938,4529
939,2549
941,2283
942,791
946,4258
948,15
948,132
948,965
948,1568
948,1625
948,3115
948,3512
948,4923
949,1994
949,2176
951,243
951,1509
952,426
952,1521
953,160
953,663
953,2155
953,3740
953,4593
953,4907
955,2766
955,4047
958,3813
960,1537
960,2532
960,4153
961,2283
964,1090
964,1300
964,3089
965,15
966,2913
970,660
970,693
970,1356
970,1455
970,2818
970,3170
970,3365
970,3627
970,4316
971,36
972,884
972,975
972,1122
972,1246
972,1960
972,4061
972,4182
972,4605
972,4856
972,4950
974,1897
974,2312
974,4588
976,3552
979,409
980,214
980,282
980,2000
980,4762
981,396
981,2051
981,2253
982,132
983,44
983,621
984,539
984,1169
984,1621
984,2788
984,3761
984,4611
984,4798
985,210
985,1183
985,1224
985,2090
985,2096
985,2796
985,4619
987,879
988,228
988,2093
989,118
989,454
989,619
989,1284
989,1495
989,1602
989,2278
989,3449
989,4170
989,4245
990,1245
990,1801
990,1827
990,2277
990,3480
992,127
992,701
992,1655
992,2684
992,2786
992,4710
994,2830
995,1807
997,2059
997,3208
997,3300
997,4325
997,4885
1000,588
1000,2802
1001,287
1001,4695
1002,2892
1002,3321
1003,246
1003,1481
1003,2358
1003,2521
1003,3818
1004,2313
1006,3999
1009,506
1009,3948
1009,4669
1015,1613
1017,2458
1018,454
1018,2338
1018,2959
1018,3376
1018,3570
1018,4200
1019,621
1019,711
1019,1227
1019,1943
1019,1956
1019,2146
1019,2283
1019,3225
1019,3938
1019,4212
1019,4343
1020,896
1021,44
1021,2328
1021,3769
1021,3922
1021,4396
1022,22
1022,1076
1022,1890
1024,319
1025,76
1025,2235
1025,3894
1027,1403
1027,2196
1027,2802
1028,72
1028,148
1028,1484
1028,4245
1028,4597
1028,4986
1029,4119
1030,2330
1030,2957
1030,3305
1030,3797
1031,1294
1031,2911
1031,4333
1032,38
1032,2095
1032,2659
1034,1484
1036,4317
1039,1186
1039,2110
1039,2487
1039,3102
1039,3531
1040,850
1040,1606
1048,38
1048,1758
1048,1821
1049,452
1049,901
1049,1326
1049,1797
1049,2283
1049,2793
1049,2866
1049,4161
1050,3409
1053,3278
1053,4390
1054,1879
1057,1551
1057,1799
1057,4464
1060,3923
1061,81
1065,325
1067,319
1069,311
1069,851
1069,1188
1069,1332
1069,1501
1069,4618
1070,1427
1070,1707
1070,1966
1070,3338
1072,449
1074,1405
1074,1409
1074,1471
1074,1950
1074,2732
1074,3395
1074,4515
1074,4588
1074,4668
1075,709
1075,1209
1077,458
1077,2622
1077,2781
1077,2806
1077,3349
1077,3704
1077,4198
1077,4654
1079,1788
1079,2277
1080,710
1080,1803
1080,3001
1080,3803
1080,3937
1082,126
1082,1632
1082,2144
1082,2992
1082,3911
1082,4675
1083,802
1086,67
1086,319
1086,413
1086,614
1086,762
1086,931
1086,1040
1086,2706
1086,2720
1086,2929
1086,2945
1086,2968
1086,2992
1087,1592
1087,1852
1089,1099
1089,2328
1091,572
1092,4755
1093,345
1094,1408
1094,1485
1094,3999
1095,22
1095,1503
1095,3766
1095,3872
1095,4257
1098,790
1098,1899
1101,747
1101,831
1101,910
1103,44
1104,4821
1106,2241
1107,409
1107,1462
1108,10
1108,683
1108,2020
1108,4483
1109,1055
1110,328
1110,1307
1110,1779
1110,1857
1110,2382
1110,3035
1110,3691
1111,321
1111,1812
1111,3456
1112,1778
1114,221
1114,417
1114,1260
1114,1430
1114,4457
1118,3551
1118,4371
1119,4044
1119,4431
1120,1100
1120,4049
1121,4709
1123,267
1124,2185
1125,3938
1126,6
1126,1162
1126,1245
1126,2841
1127,468
1127,501
1127,1403
1127,2064
1127,2880
1127,4052
1128,351
1128,2856
1130,1085
1130,1718
1130,3469
1132,4342
1133,4573
1135,212
1135,1284
1135,1894
1136,22
1137,56
1138,228
1138,4953
1141,81
1141,613
1141,638
1141,896
1141,2845
1141,3274
1141,3446
1141,3754
1141,3803
1141,4485
1141,4969
1142,609
1143,46
1143,160
1143,409
1143,1840
1143,2892
1143,2995
1143,3920
1144,243
1144,4955
1144,4987
1145,4438
1147,1237
1147,1610
1147,3589
1148,898
1148,2045
1149,740
1150,663
1151,115
1151,1627
1151,2744
1151,4948
1153,3532
1155,195
1155,823
1155,1917
1155,2139
1155,3831
1156,1495
1156,2333
1156,3695
1156,4552
1158,2170
1158,2313
1158,2337
1158,2885
1159,1052
1160,3958
1161,1246
1161,3604
1161,3922
1164,228
1164,591
1164,828
1164,1616
1164,2180
1164,2441
1164,2965
1164,3046
1164,3424
1164,4257
1165,73
1165,89
1165,1811
1165,2736
1165,4015
1165,4521
1166,2283
1167,2239
1167,3991
1168,3125
1170,37
1170,1219
1170,2258
1170,3200
1171,630
1171,2411
1171,2682
1171,4887
1174,73
1174,2313
1174,2689
1174,3596
1175,246
1175,1284
1177,101
1177,238
1177,4312
1178,2090
1179,820
1179,1113
1179,3043
1179,3965
1179,4178
1181,628
1181,791
1181,2000
1182,587
1182,1266
1185,37
1189,1355
1189,3462
1190,866
1190,2578
1190,4325
1191,4710
1192,1547
1194,2411
1195,256
1195,1207
1195,1998
1195,2074
1199,2853
1201,206
1201,938
1202,1581
1204,2727
1205,59
1205,4633
1206,246
1206,1682
1208,3178
1209,527
1210,3006
1210,4245
1212,73
1212,369
1212,775
1212,1007
1212,4607
1214,1174
1214,4034
1214,4678
1217,846
1217,3122
1218,2518
1220,367
1220,2071
1220,2764
1222,531
1223,2317
1225,496
1225,4126
1226,23
1226,2058
1226,2115
1226,2284
1226,2809
1226,3191
1226,3848
1227,1961
1227,4333
1228,1223
1228,1273
1228,4521
1231,2036
1234,519
1234,555
1234,625
1234,813
1234,983
1234,4521
1235,1368
1235,4618
1236,771
1238,775
1241,256
1241,2090
1243,2374
1243,4153
1244,1722
1244,2489
1247,1026
1247,1204
1247,1207
1247,1457
1247,1617
1247,1906
1247,2581
1247,3158
1247,3214
1247,3896
1247,4470
1253,1732
1254,663
1254,1430
1254,1887
1254,4202
1255,454
1255,1519
1255,2417
1255,2538
1255,3097
1255,3648
1255,3765
1257,212
1258,1356
1258,1640
1258,2975
1258,3720
1259,228
1259,663
1262,2328
1263,2245
1263,2338
1267,396
1267,4708
1267,4853
1268,689
1268,2544
1269,228
1269,2007
1269,4460
1270,837
1270,1071
1270,3274
1270,4298
1271,630
1271,4119
1272,1336
1272,3318
1275,1005
1275,1284
1275,3271
1275,3667
1278,2007
1282,217
1282,556
1282,2179
1282,2358
1282,2775
1282,2827
1286,56
1286,81
1286,273
1286,319
1286,517
1286,681
1286,1430
1286,2455
1286,3999
1288,846
1288,908
1288,1697
1288,2000
1288,2062
1288,2525
1288,2852
1288,3166
1288,4980
1290,389
1290,749
1290,2187
1290,3004
1290,4727
1293,267
1294,716
1297,856
1297,1530
1298,358
1298,1357
1298,2758
1298,3685
1298,4775
1301,1556
1302,239
1302,4480
1303,267
1303,374
1303,499
1303,2152
1303,2963
1304,1140
1305,4905
1308,409
1308,747
1308,4064
1308,4309
1309,632
1309,1332
1309,2672
1309,3959
1309,4410
1310,2517
1310,3376
1313,990
1313,2097
1314,432
1314,4195
1316,6
1317,569
1318,2438
1321,1233
1322,45
1322,2316
1323,28
1323,1369
1323,2906
1323,4144
1324,33
1324,520
1324,2192
1324,2530
1329,290
1329,1068
1329,1484
1329,3136
1329,3535
1329,4104
1330,207
1330,2351
1334,3999
1335,1327
1335,1552
1335,2655
1336,309
1336,954
1336,2007
1336,3747
1336,3909
1336,4475
1337,709
1337,1100
1337,4470
1340,627
1340,846
1340,1980
1340,2884
1340,3538
1340,3753
1343,924
1343,3098
1344,2757
1344,4517
1345,162
1346,1246
1349,228
1349,2273
1349,3565
1349,3908
1349,4101
1349,4173
1352,367
1352,3671
1353,3720
1358,631
1359,106
1359,3574
1360,3853
1360,3892
1360,3987
1361,106
1361,3016
1362,2346
1363,103
1364,705
1365,295
1365,1223
1367,917
1367,3312
1367,4681
1371,295
1371,374
1372,2067
1372,2407
1374,428
1375,1632
1375,2038
1375,2715
1375,3087
1376,3552
1376,3732
1377,133
1377,1634
1378,1223
1378,1246
1378,3841
1379,662
1380,630
1380,3565
1380,4415
1381,237
1381,2458
1384,1430
1384,4618
1386,316
1386,1395
1386,2395
1386,2831
1386,4868
1387,558
1387,1995
1387,2216
1387,2690
1387,2802
1388,2748
1388,3303
1388,4332
1390,56
1390,3726
1390,4319
1392,351
1392,3732
1394,969
1395,2924
1397,77
1397,396
1397,679
1397,846
1397,4074
1397,4796
1399,1446
1399,3506
1402,1373
1404,774
1404,3428
1404,4757
1410,1701
1410,2325
1410,2417
1410,3998
1410,4325
1412,507
1416,4489
1418,1033
1419,806
1420,2686
1421,474
1423,748
1425,1403
1426,177
1426,1078
1426,2277
1426,2875
1426,3472
1426,4535
1426,4692
1427,1551
1427,2068
1427,3427
1428,195
1429,575
1429,2458
1429,3211
1429,4715
1431,592
1433,747
1434,1109
1434,1356
1434,2934
1435,1169
1436,12
1436,832
1436,1474
1436,2026
1436,3520
1436,4407
1436,4422
1437,1875
1437,2222
1437,3103
1437,4126
1438,1668
1439,1360
1440,71
1440,1342
1440,2478
1440,2896
1443,4475
1444,925
1445,1655
1445,2549
1446,1832
1446,2489
1447,138
1447,216
1447,325
1447,608
1447,969
1447,1815
1447,3917
1447,3962
1450,3757
1451,293
1451,2709
1451,2738
1451,3178
1451,3658
1452,316
1452,3114
1453,256
1453,2554
1455,2870
1459,311
1460,3999
1460,4212
1461,3030
1461,3038
1463,32
1463,596
1464,973
1464,1571
1464,4255
1464,4893
1468,1195
1470,273
1472,957
1473,3718
1473,4141
1473,4714
1475,2167
1475,4448
1476,1224
1477,2577
1477,3519
1477,4058
1478,2983
1478,3139
1479,38
1479,307
1479,2068
1479,3941
1480,752
1480,1056
1480,1624
1480,2377
1480,2424
1480,2544
1480,3212
1480,4475
1480,4588
1483,641
1483,2281
1483,3683
1486,576
1486,1694
1486,1915
1488,1078
1488,1629
1489,210
1490,73
1490,1459
1491,298
1492,3283
1493,1229
1495,993
1496,11
1496,638
1496,1411
1496,1656
1496,4245
1497,2244
1497,2328
1497,3833
1499,212
1500,68
1501,72
1502,2045
1504,436
1504,1113
1505,409
1505,1764
1505,2140
1505,3829
1508,246
1510,38
1510,1599
1510,2762
1511,67
1512,506
1513,195
1513,243
1513,1424
1513,1968
1513,2046
1513,2763
1513,3115
1513,4932
1514,68
1514,423
1514,574
1514,595
1514,1200
1514,2210
1514,2358
1514,2522
1514,3305
1514,3729
1514,4664
1515,999
1516,1749
1516,2563
1516,3803
1516,4741
1517,74
1517,1578
1518,172
1518,409
1520,1169
1520,2017
1522,765
1523,1429
1523,1957
1524,93
1525,1059
1525,2795
1526,499
1526,1547
1526,4561
1527,1207
1527,1924
1527,2150
1527,2226
1528,35
1531,999
1531,2346
1534,4432
1535,1469
1535,3961
1536,2539
1540,4991
1541,775
1543,790
1543,2900
1545,671
1545,4366
1546,821
1546,2501
1546,2703
1548,4817
1550,2448
1553,1342
1553,2336
1554,35
1554,160
1556,4180
1557,441
1557,576
1557,578
1557,589
1557,670
1557,683
1557,834
1557,1163
1557,1742
1557,2693
1557,2771
1557,3033
1557,3368
1557,3534
1557,3995
1557,4663
1558,1042
1560,345
1560,1455
1560,4496
1561,506
1562,588
1562,2242
1562,3278
1564,92
1566,1086
1566,2356
1566,3252
1566,3990
1566,4275
1567,201
1567,625
1567,1561
1567,1851
1567,2992
1567,3494
1567,3534
1569,1408
1569,2007
1572,2384
1572,2411
1573,267
1573,3488
1574,2124
1576,2219
1577,630
1579,902
1580,1647
1580,3892
1581,160
1581,198
1581,587
1581,3021
1582,409
1583,574
1585,410
1586,1012
1588,1239
1588,3059
1590,339
1590,2800
1594,1850
1594,2044
1595,118
1598,1065
1598,3387
1601,699
1601,1989
1601,2098
1601,2643
1601,2934
1601,2991
1601,3968
1603,4818
1604,679
1606,576
1607,269
1608,3999
1609,345
1609,3402
1611,879
1611,1090
1611,3793
1611,3991
1613,18
1613,1016
1613,1415
1613,3243
1613,3769
1613,4376
1614,67
1614,73
1614,1534
1615,319
1615,4471
1620,689
1622,81
1622,2420
1622,3141
1626,4407
1628,4692
1631,679
1631,2283
1631,2925
1631,4262
1632,210
1633,671
1633,747
1636,301
1636,2078
1637,1195
1638,1827
1639,2458
1641,132
1641,2170
1641,3452
1641,4955
1643,303
1644,823
1644,2404
1644,2494
1644,2696
1644,4959
1646,896
1646,1786
1647,3125
1647,3387
1647,3736
1650,991
1654,1122
1658,33
1658,663
1658,761
1659,212
1659,537
1659,2613
1659,4545
1660,183
1660,4139
1660,4573
1661,4045
1663,115
1663,376
1663,452
1663,1885
1663,2270
1663,2870
1663,3658
1663,4052
1663,4657
1664,2278
1664,2554
1665,1
1666,2339
1666,3462
1666,4674
1667,1651
1667,4345
1670,216
1670,1647
1670,4466
1671,11
1671,1225
1671,1544
1671,2279
1671,2458
1671,4635
1673,129
1673,290
1673,1484
1673,2197
1673,2573
1673,3203
1673,3589
1673,3859
1673,4558
1677,2753
1677,2764
1679,1656
1679,2732
1680,221
1680,4741
1683,325
1683,1251
1683,1343
1683,2991
1683,3100
1686,263
1687,409
1688,4371
1690,996
1690,1134
1690,3022
1690,4271
1691,28
1692,760
1692,909
1692,2456
1693,12
1693,583
1693,741
1693,1124
1693,1812
1693,3783
1693,4475
1694,4631
1698,2802
1699,1551
1699,1578
1700,1674
1701,1124
1702,1693
1702,2409
1703,409
1704,1861
1705,597
1705,1798
1705,3359
1705,3588
1705,4069
1705,4253
1705,4618
1709,4071
1709,4995
1710,1732
1710,4511
1711,428
1711,3162
1711,3190
1711,3438
1711,4431
1713,146
1713,2164
1713,3282
1713,4296
1715,4206
1715,4325
1716,36
1716,117
1716,269
1716,374
1716,491
1716,610
1716,751
1716,1058
1716,1251
1716,1342
1716,1500
1716,2019
1716,2577
1716,2722
1716,2790
1716,2799
1716,2977
1716,3080
1716,3424
1716,3429
1716,3987
1716,4823
1716,4993
1717,4342
1719,4659
1720,511
1720,3122
1721,3148
1721,3220
1722,513
1722,917
1722,1299
1722,1430
1723,790
1724,636
1724,2187
1724,2314
1725,1400
1725,2109
1725,3313
1725,4696
1727,631
1727,923
1727,1707
1727,2389
1727,3819
1729,6
1729,1504
1730,351
1730,869
1730,2011
1730,2044
1731,246
1731,1812
1731,3489
1731,4381
1731,4455
1733,2760
1734,1408
1734,4548
1735,3330
1737,1591
1738,129
1740,2010
1742,345
1742,456
1742,1088
1742,1320
1742,1897
1742,2313
1744,2031
1744,3889
1746,409
1748,4936
1749,160
1749,479
1750,775
1751,840
1754,115
1754,747
1754,1498
1754,3148
1754,3749
1759,1396
1760,3225
1761,349
1761,2695
1761,4639
1763,2607
1765,1363
1765,4499
1767,358
1767,1534
1767,1924
1767,2754
1768,2362
1768,4863
1769,4059
1771,1422
1771,2780
1773,3532
1774,589
1774,1106
1774,1681
1774,2931
1774,3671
1776,4164
1777,409
1778,638
1778,4071
1782,47
1782,92
1782,115
1782,146
1782,195
1782,205
1782,269
1782,821
1782,895
1782,969
1782,1002
1782,1038
1782,1173
1782,1207
1782,1728
1782,2237
1782,2259
1782,2604
1782,2858
1782,3509
1782,3567
1782,3875
1782,4016
1782,4145
1782,4222
1784,1462
1786,688
1787,367
1787,3725
1789,123
1789,301
1789,1042
1791,1324
1791,2169
1791,4955
1793,46
1793,3946
1796,1171
1796,2718
1796,2902
1799,1257
1799,1735
1799,3573
1799,3790
1801,197
1801,765
1801,879
1802,144
1802,1522
1802,3006
1804,381
1804,1788
1805,1046
1806,796
1806,2870
1806,3922
1808,374
1809,1775
1809,2424
1809,3010
1812,2421
1812,4121
1814,225
1814,2055
1814,2100
1814,4411
1816,44
1816,432
1816,1923
1816,2064
1816,2208
1817,1353
1818,3938
1819,982
1820,4141
1825,3437
1825,4588
1825,4793
1828,910
1828,2130
1829,114
1829,4955
1831,1104
1831,2395
1831,2474
1831,4105
1833,882
1834,95
1834,1507
1834,2032
1834,2585
1834,3360
1834,3848
1835,4682
1837,1818
1840,2090
1841,24
1841,1900
1843,2277
1843,2309
1843,4229
1844,1033
1849,1289
1849,3172
1853,22
1853,341
1853,1106
1853,1736
1853,2682
1853,4644
1854,1139
1854,3512
1855,576
1855,3351
1856,1466
1858,850
1860,511
1860,2128
1860,4357
1862,791
1862,3278
1863,4664
1864,374
1864,386
1864,679
1864,1414
1864,1989
1864,2503
1865,2948
1865,4929
1866,345
1866,2285
1867,267
1867,291
1867,321
1867,375
1867,480
1867,1023
1867,1169
1867,1515
1867,1522
1867,2067
1867,2870
1867,3599
1867,4189
1868,3938
1871,295
1873,2668
1873,2704
1873,4121
1873,4122
1873,4781
1874,23
1874,90
1874,195
1874,329
1874,357
1874,784
1874,882
1874,1041
1874,1779
1874,1806
1874,2337
1874,2455
1874,2931
1874,3199
1874,3749
1874,3895
1874,3911
1874,4047
1874,4151
1876,255
1876,671
1876,820
1876,4079
1876,4475
1877,1190
1877,3274
1878,2083
1878,2394
1880,1720
1880,2165
1881,12
1881,57
1882,1957
1883,2611
1883,2617
1883,4100
1884,319
1884,402
1884,850
1884,2365
1886,606
1888,3744
1888,4506
1889,1127
1895,1122
1896,3761
1896,4401
1898,228
1898,2240
1900,1171
1900,2924
1900,4913
1901,3618
1903,1544
1904,4767
1909,402
1913,1132
1914,546
1916,19
1918,4253
1919,20
1919,895
1919,4264
1920,648
1920,3624
1921,73
1922,2246
1922,3990
1924,377
1924,806
1924,1454
1927,115
1927,649
1927,4005
1928,1329
1928,2670
1930,21
1930,1596
1931,22
1932,2574
1932,4234
1934,2637
1934,3268
1935,32
1935,267
1936,630
1936,840
1936,1460
1936,1509
1937,1192
1938,1002
1940,1045
1940,1522
1940,4936
1941,3285
1944,569
1945,301
1945,2007
1945,4142
1947,144
1948,513
1949,2335
1949,3026
1950,1195
1950,1382
1950,4151
1952,1192
1953,301
1955,718
1956,206
1957,1381
1959,67
1960,106
1960,1229
1960,3586
1962,2544
1962,3931
1963,3127
1963,3351
1964,1195
1965,1016
1971,583
1973,4475
1974,576
1975,3711
1976,1274
1976,2130
1976,3498
1976,4728
1977,131
1977,2030
1977,2152
1977,2260
1978,495
1979,2017
1979,2596
1981,1315
1981,1576
1981,3491
1981,4747
1982,24
1982,2283
1983,92
1983,432
1983,2402
1983,3805
1983,4755
1984,1763
1986,6
1986,3541
1987,476
1988,1210
1988,2275
1990,3501
1992,1116
1993,576
1993,2910
1994,274
1997,377
1997,2405
1998,777
1999,405
2000,1943
2000,2959
2000,3755
2001,28
2007,1980
2007,3808
2008,426
2008,2582
2008,2784
2008,4149
2009,671
2010,1266
2010,1311
2010,2090
2012,36
2014,2168
2014,3769
2015,1007
2015,1326
2015,2371
2015,2992
2015,3764
2015,3850
2015,3974
2016,2171
2016,4391
2018,2494
2020,705
2023,4253
2023,4607
2024,636
2024,693
2025,537
2028,2045
2028,3769
2034,2501
2035,596
2036,614
2037,89
2039,1287
2040,1500
2040,2300
2040,2493
2040,3142
2040,3684
2041,1700
2042,377
2042,1662
2042,2669
2046,1924
2048,2313
2049,37
2049,56
2049,182
2049,423
2049,681
2049,2294
2049,2601
2049,3367
2050,472
2050,3093
2050,3526
2053,1318
2054,374
2056,46
2057,906
2057,1517
2059,511
2060,798
2061,126
2063,295
2065,4710
2066,67
2066,3127
2067,175
2069,872
2069,2090
2069,3274
2071,3555
2075,129
2075,857
2077,2183
2081,107
2084,1957
2085,3349
2085,4755
2090,1237
2091,1045
2092,240
2093,140
2093,715
2093,1647
2093,1753
2093,3244
2093,3753
2094,1787
2094,3828
2095,4808
2099,3033
2102,246
2102,281
2104,311
2104,1139
2104,1323
2104,3595
2107,16
2107,683
2112,160
2112,2257
2112,4862
2115,133
2115,2174
2116,1908
2116,2798
2117,144
2117,1857
2117,2198
2117,3061
2118,1879
2119,1210
2121,429
2121,494
2121,513
2121,1117
2121,1178
2121,4071
2123,872
2124,1246
2124,2763
2124,3527
2124,3591
2124,4513
2125,157
2125,3174
2127,531
2127,2220
2127,3376
2128,3558
2128,3880
2128,4475
2129,497
2129,4957
2130,569
2130,1043
2130,2188
2130,2249
2130,2399
2130,2713
2130,3033
2130,3076
2130,3409
2131,526
2131,2605
2132,15
2133,23
2133,1656
2133,2201
2133,4333
2134,575
2134,3625
2135,38
2135,2328
2136,4113
2137,3769
2137,4503
2138,316
2140,930
2141,791
2141,1700
2141,1851
2141,2956
2141,3131
2143,899
2143,931
2143,1682
2143,3286
2144,148
2145,269
2145,2346
2145,2425
2148,1897
2148,4941
2149,875
2149,4458
2151,1294
2151,2602
2153,1347
2153,1438
2153,1810
2153,2892
2153,4443
2154,1743
2156,768
2156,1624
2156,4699
2159,2120
2159,2852
2159,4970
2163,192
2165,1001
2165,1188
2165,2669
2165,3832
2166,425
2166,1033
2166,2192
2167,4067
2168,201
2168,761
2168,1217
2168,1219
2168,1714
2168,1924
2168,2400
2168,2792
2168,3493
2168,4197
2170,19
2170,3749
2173,1900
2173,4438
2174,360
2174,2641
2175,2358
2177,1906
2178,611
2178,4990
2179,369
2179,1582
2179,2187
2179,4079
2180,1632
2180,3809
2180,4955
2181,144
2182,3178
2183,735
2184,269
2184,4710
2186,776
2186,1094
2186,1970
2186,4836
2187,837
2187,2625
2187,4438
2191,3231
2194,392
2194,536
2194,4608
2194,4983
2195,2550
2195,3159
2195,3769
2200,339
2203,747
2203,956
2203,1906
2203,2109
2203,4648
2204,4279
2207,2554
2209,409
2209,1995
2210,93
2210,206
2210,294
2210,583
2210,831
2210,861
2210,880
2210,997
2210,1351
2210,1373
2210,1455
2210,1869
2210,1957
2210,2327
2210,2328
2210,2885
2210,3028
2210,3050
2210,3058
2210,3092
2210,3196
2210,3490
2210,3929
2210,3939
2210,4426
2210,4434
2210,4818
2212,873
2214,1059
2215,4373
2216,1393
2216,3176
2216,3804
2217,221
2217,4924
2226,1960
2229,572
2229,2283
2229,3351
2229,4272
2230,2337
2231,274
2231,4121
2233,701
2233,837
2233,3306
2233,4447
2233,4988
2234,1838
2236,1086
2236,2563
2236,2746
2238,2898
2238,3178
2241,1632
2243,73
2248,606
2250,3317
2251,206
2251,2799
2251,3787
2252,1742
2254,452
2254,3849
2259,232
2261,859
2261,2535
2262,67
2263,4741
2264,771
2264,3083
2264,4301
2264,4770
2265,108
2265,4109
2266,2543
2269,502
2272,1790
2272,2914
2272,4693
2274,636
2275,374
2280,46
2280,1507
2280,4824
2282,4627
2283,3625
2283,3769
2288,236
2288,1744
2288,3124
2288,4190
2290,2170
2292,1140
2293,4077
2296,681
2298,747
2298,1459
2299,74
2299,2005
2299,3783
2300,572
2301,748
2302,77
2305,6
2305,957
2305,4239
2306,90
2307,1215
2307,2527
2307,4080
2308,3999
2309,43
2309,2952
2309,3026
2309,4628
2310,572
2310,1704
2310,4140
2311,1193
2311,4019
2315,197
2315,3481
2317,1318
2317,2789
2318,636
2318,2052
2318,3450
2318,4089
2318,4664
2318,4935
2318,4989
2320,1450
2321,1139
2324,247
2329,1788
2331,2185
2331,3038
2331,3105
2334,1515
2338,385
2340,180
2341,2019
2341,2475
2341,3081
2342,1547
2344,441
2345,4407
2346,377
2346,1080
2347,1602
2349,4106
2349,4633
2350,40
2350,3592
2352,267
2352,450
2352,4598
2354,3033
2356,1743
2356,2797
2357,480
2358,683
2360,428
2361,2043
2363,1041
2366,174
2366,596
2367,4753
2367,4928
2368,3452
2370,846
2373,1046
2375,311
2376,1064
2376,1387
2376,4854
2376,4989
2377,2268
2379,4047
2380,1661
2380,1868
2381,1838
2383,2286
2383,4193
2385,44
2385,4389
2385,4882
2386,2153
2387,1972
2387,2764
2392,2424
2393,1509
2394,999
2395,1387
2396,416
2396,1318
2396,1432
2396,2648
2397,177
2397,428
2397,563
2397,1454
2397,1868
2397,2007
2397,2797
2397,3355
2397,3737
2397,4239
2397,4658
2397,4817
2398,1994
2400,692
2400,715
2400,2614
2403,41
2403,4990
2406,896
2408,1041
2408,3331
2410,569
2410,3512
2411,792
2412,114
2414,1059
2415,339
2415,1484
2416,55
2416,3629
2416,3981
2419,1632
2423,1257
2426,555
2427,68
2427,402
2427,4779
2429,2954
2430,450
2430,2830
2433,3793
2435,45
2435,197
2435,1280
2435,1522
2435,2838
2438,983
2438,1721
2439,1106
2440,414
2442,308
2443,709
2443,2757
2445,1942
2446,1735
2448,295
2450,1357
2451,2153
2452,1094
2452,2706
2453,3512
2454,3196
2457,748
2457,3512
2458,2391
2458,4274
2458,4696
2459,2277
2460,4193
2460,4703
2464,57
2465,2602
2465,3219
2467,2756
2468,1284
2468,1617
2468,2420
2468,2796
2468,2947
2469,1519
2471,131
2471,2153
2471,4607
2471,4744
2473,747
2476,4618
2477,511
2477,2515
2479,4705
2481,301
2482,1124
2483,668
2485,3938
2486,2489
2490,14
2491,686
2491,1403
2492,44
2492,144
2492,506
2492,1459
2492,1840
2492,1861
2492,3405
2492,3938
2492,4126
2495,775
2495,1292
2495,4125
2497,2802
2498,2122
2498,2921
2499,930
2499,4276
2499,4323
2501,246
2501,1851
2501,4921
2502,674
2504,999
2504,2593
2504,2798
2504,3976
2505,4359
2506,2179
2506,4955
2508,1892
2509,1295
2513,4505
2514,1879
2516,368
2516,2950
2518,3397
2518,3494
2519,228
2519,1578
2521,2045
2523,1722
2523,4863
2523,4998
2524,1851
2524,2577
2526,4663
2528,531
2528,1169
2528,3040
2528,3987
2529,1924
2531,129
2531,3436
2533,3257
2535,3753
2537,1274
2538,1570
2539,499
2540,1961
2541,1968
2542,4955
2543,2831
2544,2558
2545,1241
2546,236
2546,1370
2546,2594
2546,3447
2546,4349
2547,2975
2548,3589
2549,1932
2549,4300
2553,1792
2553,1961
2555,44
2556,3723
2557,2550
2558,3317
2559,3113
2559,3351
2559,4459
2560,1912
2560,4394
2561,106
2562,15
2562,28
2562,129
2562,246
2562,282
2562,450
2562,506
2562,591
2562,646
2562,991
2562,1139
2562,1448
2562,1627
2562,1957
2562,2447
2562,2505
2562,2711
2562,3378
2562,3701
2562,3896
2562,4407
2562,4663
2562,4692
2562,4723
2564,2521
2565,2221
2565,2856
2567,367
2567,2670
2567,3494
2568,409
2568,1139
2568,1466
2568,4407
2569,96
2572,1657
2572,2822
2574,973
2575,22
2575,56
2575,1623
2575,1753
2576,1318
2579,301
2579,4910
2584,686
2584,3938
2584,4253
2584,4694
2588,2021
2589,2010
2590,225
2592,1812
2592,3802
2594,32
2594,114
2594,159
2594,660
2594,1357
2594,1562
2594,2257
2594,3311
2594,3635
2594,3883
2594,4384
2594,4665
2595,4521
2596,381
2596,917
2597,1848
2598,44
2598,4232
2599,1046
2600,2271
2603,1790
2606,2544
2608,606
2608,1846
2610,396
2610,950
2610,4086
2612,2739
2612,3206
2615,240
2615,1065
2615,4817
2616,240
2618,1403
2618,3744
2618,3938
2619,1806
2620,2934
2621,583
2621,1756
2621,2289
2622,2809
2622,3603
2622,4382
2623,239
2623,315
2623,776
2623,1094
2626,4343
2627,1615
2627,4535
2628,1332
2629,1672
2630,2802
2631,101
2631,1619
2631,3277
2632,1956
2633,2765
2633,3368
2635,1090
2635,4366
2636,4121
2637,301
2637,314
2637,359
2637,870
2637,2052
2637,2411
2637,2586
2637,3181
2637,3562
2637,4186
2640,847
2642,131
2642,449
2642,892
2642,969
2642,1912
2642,2898
2642,3630
2642,3777
2644,4878
2644,4905
2645,813
2646,293
2649,663
2649,4233
2651,3163
2652,38
2653,1207
2658,126
2658,840
2658,2857
2660,2552
2660,3780
2660,3836
2662,527
2663,185
2663,2434
2664,3452
2665,246
2666,1432
2666,4762
2667,160
2667,4501
2668,348
2671,1533
2671,1907
2673,1732
2673,2047
2675,243
2675,3340
2676,776
2676,1924
2679,345
2679,3989
2680,1016
2680,2793
2680,3351
2680,3407
2680,3868
2680,4177
2680,4689
2681,4475
2683,2882
2687,1533
2691,269
2691,591
2691,633
2691,709
2691,1124
2691,2914
2691,2969
2691,4371
2692,2580
2692,3980
2694,1037
2694,3817
2694,4607
2698,90
2698,4619
2699,2044
2699,4377
2700,1924
2702,246
2702,374
2702,1124
2702,2120
2705,2038
2707,3768
2708,2830
2710,1090
2714,999
2719,301
2721,3478
2722,144
2722,278
2722,1396
2723,1106
2724,614
2724,2339
2724,3308
2726,4642
2727,581
2727,1479
2728,2672
2729,450
2730,67
2731,46
2734,12
2734,3421
2735,1779
2737,2291
2737,2580
2737,2809
2737,4134
2738,93
2738,198
2738,423
2738,770
2738,899
2738,1041
2738,1046
2738,1812
2738,2514
2738,2566
2738,2584
2738,2621
2738,4209
2738,4573
2740,1074
2740,3274
2740,4016
2741,288
2742,993
2742,3753
2743,591
2745,3990
2746,1007
2746,1689
2746,2044
2746,4433
2746,4892
2747,239
2750,631
2750,1587
2750,3258
2751,358
2751,1210
2751,3448
2751,4551
2755,1776
2756,1139
2758,1011
2759,345
2761,2830
2764,897
2764,930
2764,2931
2764,3074
2765,16
2765,3459
2765,3977
2767,1354
2767,1407
2768,2661
2769,1038
2770,699
2770,3353
2770,3769
2773,2892
2773,3534
2774,409
2774,1318
2774,4698
2775,240
2777,2337
2778,56
2778,106
2778,177
2778,423
2778,553
2778,1116
2778,1752
2778,2187
2778,2367
2778,2458
2778,2804
2778,2968
2778,3234
2778,3248
2778,3501
2778,4412
2781,499
2782,583
2782,3638
2786,212
2787,228
2790,154
2790,2715
2790,4238
2790,4253
2791,986
2794,190
2794,298
2794,1251
2794,3514
2795,1409
2796,19
2796,638
2800,747
2800,1223
2801,896
2803,930
2803,4261
2805,655
2806,2319
2807,1271
2808,1210
2808,4973
2810,283
2811,707
2811,3431
2811,4573
2812,1985
2816,351
2816,4817
2817,2059
2818,3642
2819,309
2820,3278
2821,2221
2822,2474
2823,106
2824,2614
2828,81
2828,572
2829,794
2829,3053
2829,3114
2831,118
2832,4460
2834,3743
2834,4777
2835,1366
2835,2913
2835,3344
2837,4619
2839,4470
2840,2334
2841,3896
2842,27
2842,93
2842,118
2842,1694
2842,4065
2842,4964
2843,16
2843,56
2843,78
2843,210
2843,246
2843,256
2843,298
2843,348
2843,409
2843,469
2843,559
2843,670
2843,1336
2843,1338
2843,1353
2843,1629
2843,1758
2843,1929
2843,2544
2843,2605
2843,2630
2843,2809
2843,3290
2843,3476
2843,3561
2843,4063
2843,4337
2844,2317
2846,727
2847,699
2847,2365
2848,2786
2849,269
2849,3671
2849,3793
2850,820
2853,3033
2854,1744
2855,2388
2856,3811
2858,2388
2858,2789
2859,1846
2860,4989
2861,1552
2861,3114
2862,4607
2863,4377
2864,3323
2864,4664
2867,325
2867,3209
2867,4883
2869,389
2869,1826
2869,3034
2869,3052
2870,2054
2870,2142
2871,1775
2871,4271
2872,1186
2873,1732
2873,2494
2876,192
2877,993
2877,1294
2878,3122
2881,148
2881,893
2881,2943
2886,291
2887,169
2888,699
2888,4977
2890,31
2890,546
2890,2109
2890,2571
2890,3882
2890,4866
2890,4967
2891,1243
2893,2656
2894,962
2895,1417
2895,1630
2897,2290
2903,3458
2904,441
2904,1649
2904,1737
2904,1861
2904,2470
2904,3602
2905,1171
2905,4202
2905,4838
2907,2407
2909,1360
2909,2527
2912,1861
2913,1045
2915,174
2917,253
2917,2064
2917,2923
2918,106
2921,2885
2921,3757
2924,1100
2926,101
2926,349
2926,468
2926,589
2926,749
2926,1169
2926,1495
2926,2657
2926,2999
2927,278
2928,1758
2928,2853
2933,2384
2935,2507
2937,556
2937,1982
2937,2950
2937,4687
2938,775
2939,319
2940,3257
2942,1284
2946,1610
2946,1651
2946,1758
2946,1794
2946,2238
2946,2328
2946,4600
2947,310
2947,389
2947,888
2947,1026
2947,1169
2947,2059
2947,2428
2948,936
2948,1509
2948,1967
2948,3976
2949,319
2953,11
2953,1587
2953,3423
2954,396
2954,2328
2954,3716
2960,2779
2960,4469
2962,243
2962,846
2962,1681
2963,679
2963,772
2963,930
2963,931
2963,1104
2963,1321
2963,1559
2963,2401
2963,2799
2963,3007
2963,3310
2963,4670
2963,4710
2963,4794
2964,228
2967,2073
2967,2253
2967,4822
2969,114
2969,409
2969,837
2969,2313
2969,2353
2969,3407
2969,4815
2969,4953
2970,3512
2971,67
2973,969
2974,4755
2975,2003
2975,2228
2978,48
2978,221
2978,839
2978,1635
2978,2046
2978,2779
2978,4521
2980,1957
2982,67
2982,760
2982,887
2982,3023
2982,3625
2983,3132
2983,4247
2985,298
2985,351
2985,649
2985,4800
2985,4907
2986,43
2988,1315
2989,2273
2990,302
2992,35
2992,246
2992,2287
2992,2355
2992,2520
2992,4176
2993,2090
2994,1632
2995,1612
2995,3330
2995,3546
2997,1207
2998,274
2998,3590
3000,2339
3002,4253
3003,41
3003,244
3003,263
3003,267
3003,269
3003,686
3003,1124
3003,1193
3003,1229
3003,1327
3003,1622
3003,3300
3003,3563
3003,3748
3003,4014
3003,4407
3003,4556
3003,4601
3004,160
3008,528
3009,4047
3010,3859
3011,1587
3012,3769
3012,4804
3012,4897
3014,1982
3017,251
3017,538
3017,3607
3018,301
3019,2455
3019,4741
3019,4983
3020,24
3020,2328
3021,536
3024,2211
3025,2975
3027,45
3028,2908
3029,576
3032,3749
3032,4404
3032,4927
3033,1662
3033,2622
3036,160
3036,820
3036,1226
3036,1522
3036,2160
3039,1326
3041,2209
3042,2432
3043,1407
3043,2809
3043,3398
3044,4595
3045,462
3045,526
3045,4892
3047,1676
3047,2067
3047,3655
3047,3730
3047,4137
3048,414
3049,2470
3054,2809
3054,4580
3056,396
3056,2892
3061,237
3061,1113
3062,2287
3065,2967
3066,56
3068,2713
3070,1795
3075,163
3075,1239
3075,1807
3075,2954
3075,3763
3075,4165
3077,2259
3077,3986
3078,502
3079,2672
3081,4462
3081,4920
3082,1012
3083,749
3083,2291
3083,3217
3083,4141
3084,106
3085,377
3086,1314
3086,3038
3089,180
3089,339
3090,469
3091,232
3091,2161
3091,2358
3091,4246
3093,3786
3093,4886
3094,4031
3095,1225
3095,1960
3099,2424
3101,1287
3101,3474
3102,655
3104,4475
3106,18
3108,409
3108,2885
3108,3711
3110,78
3110,458
3110,663
3110,2488
3110,4500
3111,3051
3112,175
3114,1630
3114,3646
3117,374
3117,4090
3118,4859
3119,225
3119,1849
3119,1950
3119,2776
3119,2802
3121,2222
3121,3226
3123,1186
3125,1790
3125,3676
3126,67
3128,361
3128,2818
3134,90
3134,1243
3134,2634
3134,3907
3134,4360
3134,4416
3135,924
3137,381
3138,1207
3140,4863
3143,1642
3143,1836
3144,399
3145,4619
3146,1234
3148,2489
3149,2130
3150,351
3151,1795
3152,638
3156,2313
3157,4071
3158,221
3158,416
3158,666
3158,1924
3158,2206
3158,3756
3158,3765
3160,1295
3161,636
3161,706
3161,1050
3161,1336
3161,2797
3161,3577
3161,3751
3161,3892
3161,4096
3161,4253
3164,1038
3165,1998
3167,1747
3167,1958
3168,2763
3168,4587
3171,3359
3173,2544
3173,4513
3175,576
3180,1620
3182,19
3182,3700
3183,796
3188,683
3192,1327
3193,2617
3195,701
3197,1139
3198,71
3198,269
3198,3248
3201,228
3202,4746
3204,1301
3205,57
3205,1630
3206,4253
3207,3896
3213,279
3213,1858
3213,3987
3215,1924
3216,1845
3218,384
3218,1164
3218,3228
3221,2919
3223,1430
3227,311
3229,846
3229,3596
3229,4444
3230,316
3231,2284
3231,2633
3231,4284
3233,4557
3237,2690
3238,432
3238,1284
3238,4799
3239,1065
3241,295
3242,409
3242,1625
3242,2789
3247,281
3249,1086
3250,2617
3253,1849
3255,2044
3255,3162
3257,4470
3258,256
3258,294
3258,1360
3258,4079
3259,1217
3261,4633
3262,2753
3263,142
3263,3968
3263,4231
3264,1501
3265,4573
3266,3512
3267,2830
3269,2036
3269,4437
3272,1807
3275,4771
3276,311
3276,1383
3276,3792
3277,77
3279,776
3280,791
3280,1176
3283,820
3284,613
3284,2489
3284,3034
3285,715
3285,1915
3285,3138
3289,2458
3292,790
3295,1280
3296,1707
3296,3230
3297,2090
3297,4016
3298,1907
3299,3246
3309,67
3309,3432
3311,1096
3313,38
3313,1597
3313,2328
3313,2617
3313,2749
3313,3069
3313,3818
3313,4696
3314,246
3315,4142
3316,776
3319,1544
3320,2934
3322,40
3324,1081
3325,789
3325,851
3325,1174
3326,2424
3329,630
3331,2236
3331,2972
3332,1471
3332,4339
3333,45
3333,1115
3333,3782
3334,1519
3335,24
3336,709
3336,2255
3338,89
3339,1455
3341,917
3341,4212
3342,1954
3345,1095
3346,1408
3348,89
3348,747
3348,1181
3348,1530
3348,1803
3348,3409
3348,4073
3348,4088
3349,295
3350,3961
3352,1482
3354,132
3356,3057
3357,3749
3359,1303
3361,872
3362,2090
3363,727
3363,1157
3363,3313
3364,747
3366,1090
3367,2433
3369,3917
3370,195
3371,1565
3374,1995
3375,3990
3376,2267
3377,1456
3379,2140
3379,3360
3379,3941
3379,4213
3382,1529
3383,68
3383,2440
3383,3833
3384,816
3387,1466
3389,1090
3389,3914
3392,2237
3392,3163
3392,4647
3393,1113
3399,601
3400,3990
3401,2534
3403,1190
3403,3867
3404,68
3404,1500
3404,4385
3405,611
3406,1005
3406,3589
3408,495
3410,3105
3411,2622
3414,1169
3415,2164
3415,3360
3417,1969
3419,2204
3420,1849
3422,339
3422,2763
3422,3754
3424,1756
3424,2775
3425,432
3425,3368
3426,3568
3430,4333
3432,715
3432,1037
3433,3174
3434,1981
3434,2411
3435,791
3435,2255
3435,4203
3438,609
3439,3373
3441,2734
3442,1910
3443,743
3443,791
3443,1897
3443,1994
3443,2411
3443,3196
3443,4976
3444,396
3444,1071
3444,1902
3444,2638
3444,3984
3447,2271
3452,2775
3452,3621
3453,1676
3455,175
3457,115
3458,118
3458,451
3458,2764
3458,2786
3459,2256
3460,572
3460,1417
3460,1960
3460,3822
3461,282
3461,864
3461,2057
3461,2672
3461,3628
3461,3807
3461,4407
3462,1838
3462,3938
3463,237
3464,2179
3465,2587
3466,595
3467,376
3467,440
3467,2440
3467,2554
3467,3232
3467,3613
3467,4141
3468,3040
3470,351
3471,1797
3473,428
3473,4342
3473,4983
3477,1462
3477,4263
3479,595
3480,225
3482,906
3483,130
3484,2411
3484,4602
3485,510
3485,2359
3485,4621
3496,2795
3497,719
3497,3504
3498,132
3498,1156
3500,606
3501,185
3502,1030
3503,1012
3506,282
3506,1799
3506,4811
3507,4460
3508,1417
3510,2295
3511,32
3511,232
3511,4931
3512,1008
3512,2870
3514,1403
3515,2500
3517,1090
3521,595
3521,879
3521,2005
3521,3147
3521,3305
3522,2428
3523,12
3523,1243
3525,1783
3527,114
3527,246
3527,256
3527,327
3527,1755
3527,1783
3527,2489
3527,2496
3527,2552
3527,2553
3527,3109
3528,3990
3529,3148
3530,456
3530,481
3530,984
3531,2870
3532,232
3532,4968
3533,2090
3536,1430
3536,3016
3536,4151
3537,4588
3539,2283
3540,2669
3543,2455
3543,2527
3543,4958
3544,3671
3545,106
3545,549
3545,2007
3546,1795
3546,2313
3548,846
3548,4841
3550,2520
3556,4607
3557,2684
3559,1427
3560,820
3562,2150
3562,3516
3562,4636
3564,2278
3565,3085
3566,837
3567,869
3567,1354
3567,1529
3567,1907
3567,3287
3571,367
3572,2760
3578,1035
3579,709
3581,613
3582,45
3582,4652
3585,2507
3587,2870
3589,2654
3593,539
3594,4892
3595,3376
3597,1207
3598,282
3599,2775
3600,2257
3601,2101
3605,665
3607,1472
3608,2706
3609,2992
3610,214
3610,1100
3610,2833
3610,3230
3611,184
3611,216
3611,665
3611,1312
3611,1630
3611,2096
3611,2337
3611,3373
3611,4081
3611,4438
3611,4966
3612,1414
3612,1467
3612,3246
3614,76
3616,1996
3617,2594
3618,3063
3618,4804
3620,3555
3622,776
3623,1490
3624,1409
3626,2478
3626,4314
3629,1839
3631,2458
3632,962
3633,663
3633,4642
3634,1430
3635,1207
3636,1387
3639,2923
3642,293
3642,377
3642,2480
3643,495
3644,813
3645,14
3647,1001
3648,3938
3649,495
3650,2048
3651,409
3651,847
3651,4325
3652,454
3653,3981
3656,107
3656,2813
3657,4618
3658,482
3658,1539
3658,1907
3659,651
3659,3698
3660,20
3660,4244
3661,851
3661,1674
3661,4147
3661,4462
3662,1169
3663,311
3663,833
3663,856
3663,887
3663,938
3663,1968
3663,2091
3663,2922
3663,4618
3664,1626
3666,597
3668,38
3668,245
3673,246
3674,683
3674,4239
3675,2802
3676,272
3676,3671
3676,4256
3676,4830
3677,246
3677,2489
3678,42
3678,2967
3678,3941
3678,4192
3679,2242
3679,2800
3680,1757
3680,4042
3680,4153
3681,426
3682,4162
3682,4199
3682,4242
3682,4863
3683,1455
3683,4008
3686,2441
3687,95
3687,2090
3687,2183
3687,2527
3687,3568
3689,1615
3692,174
3692,228
3692,243
3692,735
3692,3293
3692,3673
3694,1339
3695,1625
3696,1879
3697,2093
3697,4290
3699,3132
3702,1381
3703,24
3703,4984
3705,2480
3706,311
3706,4183
3707,279
3708,246
3708,2701
3708,4030
3709,847
3711,2441
3712,2109
3713,583
3713,4668
3715,1625
3716,1146
3716,2661
3717,969
3718,12
3718,1353
3721,2090
3724,341
3724,1422
3724,3026
3724,3060
3724,4619
3725,1284
3725,2897
3725,2988
3725,3733
3725,4623
3725,4858
3729,414
3729,4863
3731,3067
3732,253
3732,1958
3734,308
3735,2016
3735,2756
3735,3003
3739,2775
3739,4211
3739,4661
3741,1321
3742,837
3744,485
3744,502
3744,1403
3744,2193
3744,2291
3744,2981
3744,3955
3745,1195
3746,2744
3747,37
3747,220
3747,993
3747,3965
3747,4060
3758,92
3759,3174
3759,4017
3759,4632
3760,316
3760,775
3760,4864
3761,3273
3762,4433
3764,752
3767,1226
3770,2407
3771,2617
3772,103
3773,282
3773,4015
3775,794
3776,905
3778,3284
3780,2750
3785,95
3785,4812
3786,3596
3789,1552
3790,243
3791,311
3796,984
3798,2100
3800,648
3801,388
3801,2562
3801,2587
3801,2930
3803,2346
3805,1
3805,561
3805,1230
3805,1652
3805,3100
3805,3846
3806,4121
3808,1094
3809,146
3809,798
3809,2218
3809,3022
3810,3305
3812,409
3812,1379
3812,2400
3813,428
3813,2224
3815,2409
3816,847
3820,4044
3820,4127
3821,1551
3824,38
3824,142
3824,405
3824,774
3824,1294
3824,1383
3824,1666
3824,1763
3824,2114
3824,2684
3824,3584
3824,3826
3824,3859
3824,4699
3827,2448
3830,3201
3832,2090
3834,930
3835,1495
3837,3395
3838,330
3838,1851
3838,2192
3839,2668
3840,2501
3841,165
3841,662
3841,1646
3841,1741
3841,1838
3841,2170
3841,2317
3841,2434
3841,2456
3841,3006
3841,3096
3842,1301
3843,2991
3844,3045
3845,14
3845,183
3845,1647
3849,1663
3850,957
3850,4685
3851,1314
3854,129
3856,4245
3857,816
3858,936
3859,56
3859,290
3859,351
3859,426
3859,481
3859,831
3859,837
3859,1249
3859,1332
3859,1575
3859,1722
3859,1766
3859,2763
3859,3072
3859,3562
3859,4343
3859,4816
3860,228
3861,268
3862,3765
3863,1131
3863,1264
3864,3060
3865,2882
3866,923
3866,3063
3868,2002
3869,1500
3869,4719
3870,1957
3870,4136
3871,345
3871,2866
3873,601
3873,1056
3873,1094
3873,2697
3873,2712
3873,3341
3873,3376
3876,2593
3877,228
3879,138
3881,671
3884,331
3884,1624
3884,2826
3884,4961
3885,15
3886,597
3887,1615
3888,501
3890,28
3890,2045
3891,1484
3892,1819
3893,3896
3893,4032
3896,237
3897,165
3898,2411
3899,1294
3900,636
3901,1890
3903,2411
3903,4419
3904,4438
3910,1385
3910,1657
3911,2220
3912,506
3913,3040
3915,3793
3915,4142
3916,3128
3917,3612
3918,2204
3919,71
3921,106
3924,2067
3925,154
3925,3690
3925,4617
3926,1503
3927,56
3927,2515
3928,46
3930,2139
3932,3938
3933,1210
3934,358
3935,1624
3936,68
3936,1233
3938,4588
3943,2139
3943,3416
3944,1430
3944,2975
3945,3769
3946,1868
3947,820
3947,1570
3949,3558
3949,4991
3950,351
3951,3504
3952,991
3952,3737
3953,880
3954,291
3956,2007
3957,1041
3959,246
3961,1707
3963,2348
3965,409
3965,977
3965,2367
3965,3996
3966,3914
3967,74
3969,1708
3970,1763
3971,31
3971,2661
3972,2420
3973,144
3976,2818
3978,57
3979,381
3979,3737
3980,73
3980,2809
3980,2929
3983,859
3984,4016
3986,840
3987,2448
3992,665
3992,4194
3993,762
3994,1090
4002,1071
4004,414
4004,601
4004,2076
4005,1059
4005,1459
4005,1534
4006,704
4006,4354
4007,1438
4009,3359
4010,1
4011,2287
4012,1169
4012,1223
4012,1225
4012,2754
4012,3589
4013,1097
4014,1924
4014,4512
4017,2144
4017,3568
4018,819
4018,1647
4018,1943
4020,3063
4021,1648
4023,538
4024,22
4024,1360
4025,2258
4026,1203
4027,1551
4028,2059
4028,4103
4029,1647
4030,3500
4030,4814
4031,2005
4033,4180
4033,4622
4034,16
4034,3805
4035,2684
4036,569
4038,146
4039,4030
4040,522
4044,1442
4044,2882
4044,3985
4046,1257
4046,1465
4047,1133
4047,1336
4048,1998
4049,2501
4050,747
4053,174
4055,1186
4056,390
4056,723
4057,1870
4059,77
4059,4575
4062,1630
4062,3055
4063,73
4063,268
4063,1233
4063,1329
4063,1351
4063,1672
4063,2258
4063,2570
4063,2806
4063,2892
4063,3495
4063,4745
4063,4753
4066,345
4068,2669
4072,846
4075,270
4075,1399
4075,1795
4075,2444
4075,3744
4076,2059
4078,3317
4081,638
4081,1861
4081,4187
4081,4191
4081,4209
4081,4804
4082,55
4083,1285
4083,1342
4083,4924
4089,915
4089,3892
4091,506
4091,2411
4091,4702
4092,2409
4092,2789
4092,3242
4092,3580
4093,1467
4095,1454
4097,1794
4098,348
4100,2388
4105,2390
4107,637
4108,1387
4110,129
4111,3718
4112,89
4112,866
4112,1318
4112,2690
4113,950
4114,1191
4114,4906
4115,3988
4115,4640
4116,3938
4118,1722
4119,20
4119,192
4119,638
4119,869
4119,1555
4119,1985
4119,2253
4119,2617
4119,2901
4119,2981
4119,4071
4120,185
4120,973
4121,4153
4124,57
4124,1013
4124,1373
4129,4588
4130,1469
4130,2554
4130,3451
4130,4481
4132,1183
4133,1922
4137,491
4137,1169
4138,174
4143,295
4143,4819
4145,3196
4146,1704
4148,2563
4150,1192
4154,1052
4154,1848
4154,2323
4155,1276
4156,2433
4158,2343
4159,1708
4163,841
4163,1094
4163,2211
4164,595
4167,1982
4167,2208
4167,2395
4167,2834
4167,3398
4167,3469
4168,2279
4169,843
4169,1519
4171,1529
4172,495
4174,715
4177,44
4177,67
4177,90
4177,246
4177,300
4177,792
4177,1441
4177,1961
4177,4095
4177,4291
4179,50
4180,3990
4181,2684
4184,2139
4185,1980
4185,3304
4188,977
4192,4498
4194,936
4194,1287
4194,2343
4194,3256
4196,2281
4199,237
4199,246
4199,507
4199,510
4199,661
4199,897
4199,1005
4199,1742
4199,1756
4199,3015
4199,3196
4199,3351
4199,4371
4199,4388
4199,4753
4202,6
4202,40
4202,105
4202,345
4202,480
4202,798
4202,1338
4202,1379
4202,1661
4202,1861
4202,1951
4202,2449
4202,2815
4202,3085
4202,3189
4202,3719
4202,4008
4204,216
4204,374
4204,422
4204,802
4204,1283
4204,1555
4204,1803
4204,2189
4204,2336
4204,2775
4204,4513
4205,1133
4205,2922
4208,807
4209,144
4209,389
4209,909
4209,4825
4210,33
4211,3368
4212,2283
4214,875
4214,3125
4214,4295
4215,2432
4216,3533
4217,101
4218,573
4218,4460
4219,1223
4220,38
4223,4664
4224,88
4225,461
4226,4077
4227,774
4228,1223
4231,3948
4235,1229
4235,1799
4236,3990
4237,73
4237,969
4239,2328
4240,1062
4241,1897
4243,536
4243,591
4243,2899
4243,4634
4246,78
4248,1261
4248,2544
4249,89
4250,243
4251,2959
4252,269
4253,3527
4253,4379
4254,506
4254,1357
4254,2885
4257,930
4259,4041
4263,15
4263,76
4263,4718
4265,3131
4266,301
4266,3134
4267,1127
4268,319
4270,1200
4271,491
4271,1665
4273,1484
4273,4370
4274,4609
4275,1925
4275,2477
4277,2647
4278,132
4278,875
4278,3210
4279,1026
4279,4734
4282,1849
4283,3203
4285,228
4285,491
4286,331
4286,2474
4287,1229
4287,1934
4287,2809
4288,3938
4289,3756
4290,476
4290,2910
4291,4851
4292,57
4299,2773
4301,177
4303,1053
4305,4632
4307,3380
4308,2634
4308,2758
4310,1366
4314,2943
4314,4470
4315,22
4315,2577
4317,93
4320,1454
4321,727
4324,2067
4326,1943
4327,2237
4327,3753
4328,1064
4328,4547
4329,1454
4330,184
4330,2087
4330,2587
4331,1900
4331,4627
4332,1519
4334,3723
4335,108
4335,409
4335,3376
4335,3418
4336,55
4338,3074
4340,462
4341,963
4342,533
4343,850
4344,2919
4346,1618
4346,4827
4347,2534
4350,522
4351,2809
4352,1790
4353,693
4353,1152
4353,4294
4356,2897
4358,1656
4362,352
4363,2668
4364,195
4364,684
4364,994
4364,1154
4364,1858
4364,3031
4364,4126
4366,2518
4367,641
4367,2706
4367,4389
4368,911
4368,3398
4369,2016
4369,4383
4371,1207
4372,601
4373,409
4373,2046
4378,2522
4380,38
4386,2539
4387,2923
4389,775
4392,630
4393,601
4395,1849
4400,1399
4400,4896
4402,93
4402,3999
4403,1812
4405,3228
4406,374
4407,228
4408,1605
4409,2472
4413,116
4417,246
4417,4915
4418,3074
4420,511
4421,2765
4425,2780
4427,4339
4429,4632
4433,31
4435,499
4435,4780
4436,4936
4439,2312
4440,201
4441,1875
4441,2101
4445,1498
4446,4573
4447,349
4447,534
4448,4141
4449,160
4449,2283
4449,2346
4449,2534
4449,3347
4449,4313
4451,1788
4452,2655
4452,4272
4453,129
4454,1780
4456,2139
4460,299
4460,319
4460,484
4460,2277
4460,2904
4460,3251
4460,3914
4460,4414
4460,4566
4460,4664
4463,828
4467,2448
4468,3033
4472,36
4474,1068
4474,1432
4474,3569
4474,4833
4476,631
4476,2753
4477,13
4477,851
4477,883
4477,1190
4477,1246
4477,1459
4477,1507
4477,1651
4477,1661
4477,1851
4477,3178
4477,4361
4477,4719
4478,308
4482,1495
4483,1905
4484,1467
4486,2496
4488,4955
4489,2179
4491,1125
4492,3586
4493,2773
4495,3231
4495,3445
4495,4375
4497,2359
4503,606
4503,857
4503,2879
4503,4510
4503,4974
4504,3673
4505,146
4505,282
4505,3132
4505,3412
4505,4043
4506,269
4507,481
4507,4879
4509,2534
4510,3711
4514,3208
4518,46
4518,319
4518,589
4518,2507
4518,2883
4518,3905
4519,1517
4520,432
4521,1042
4522,747
4523,32
4526,1887
4527,2489
4528,1442
4530,146
4531,1587
4531,2067
4531,4762
4532,4200
4533,3062
4534,3006
4534,3388
4536,1064
4536,1407
4537,3429
4538,3980
4539,4110
4541,2073
4542,1312
4544,2830
4545,269
4548,2339
4549,917
4553,3178
4555,4591
4559,195
4559,1383
4559,4732
4560,409
4561,1387
4562,4246
4563,297
4563,1791
4563,2156
4563,2190
4563,2639
4563,2999
4564,209
4564,394
4564,2378
4564,3331
4564,3512
4565,3512
4565,4588
4567,1665
4568,395
4568,456
4568,846
4568,848
4568,1196
4568,1277
4568,1778
4568,3148
4568,3245
4568,4549
4568,4804
4569,115
4571,3447
4572,245
4572,2831
4576,174
4576,653
4576,2437
4576,2647
4577,3089
4579,35
4579,3625
4581,3768
4582,3553
4583,1301
4584,2216
4584,3186
4584,4269
4584,4619
4585,96
4585,499
4585,1225
4585,1905
4585,2017
4585,4077
4590,1742
4591,4290
4593,2279
4593,2806
4593,2843
4594,174
4595,62
4595,385
4595,3667
4596,2826
4599,22
4604,1038
4605,212
4605,945
4605,1035
4605,1454
4605,2411
4606,4213
4609,308
4609,482
4609,1354
4610,1915
4613,4397
4614,106
4615,216
4615,389
4615,405
4615,1403
4615,4407
4615,4709
4616,2474
4621,351
4625,4165
4627,3063
4628,129
4628,2418
4633,1879
4637,16
4637,4649
4638,2517
4639,506
4640,2109
4641,3064
4643,45
4644,1002
4644,1033
4644,1782
4644,2683
4644,3788
4644,4258
4645,2258
4646,345
4650,68
4651,2313
4652,68
4653,4501
4654,2189
4655,4516
4656,416
4656,928
4656,2785
4658,569
4659,887
4660,4863
4661,116
4661,2036
4662,1309
4662,2913
4663,2950
4664,3163
4664,4680
4665,441
4665,1640
4665,1685
4665,3230
4665,4475
4666,2718
4668,1666
4669,668
4669,887
4669,4760
4670,3714
4672,578
4673,3735
4677,3230
4679,3803
4682,3576
4683,2139
4684,1141
4685,386
4685,1248
4685,4505
4686,301
4691,67
4691,2507
4695,175
4695,220
4695,1981
4695,3082
4695,3391
4695,4001
4695,4740
4695,4891
4697,3719
4700,511
4700,775
4700,1403
4700,2230
4700,2284
4700,2343
4700,2756
4700,2882
4700,4258
4700,4371
4701,1907
4703,386
4704,3931
4707,2286
4710,4200
4712,3641
4713,1970
4716,978
4716,1924
4716,4047
4716,4508
4717,267
4717,4952
4718,4139
4720,22
4720,1403
4721,76
4721,323
4722,2313
4724,3148
4729,301
4729,747
4729,871
4729,1663
4729,1781
4729,2836
4729,2958
4729,3754
4730,893
4730,1065
4730,3096
4731,4607
4736,998
4737,3456
4738,902
4739,311
4739,811
4739,2044
4739,4256
4740,1140
4741,630
4741,1097
4741,1233
4741,1299
4741,2079
4741,2461
4741,2619
4741,3128
4742,67
4742,532
4742,1529
4742,1910
4742,3505
4747,4232
4748,636
4749,3129
4749,3999
4750,636
4751,409
4752,197
4753,4823
4754,47
4754,106
4754,4280
4756,3946
4759,317
4759,1026
4761,3984
4763,1300
4764,491
4765,1251
4766,2646
4767,2187
4768,4212
4771,1653
4773,791
4774,1600
4774,4867
4776,2441
4778,495
4781,1589
4782,118
4782,515
4782,1306
4782,3829
4783,2898
4784,2662
4785,1509
4786,2089
4787,3843
4788,195
4790,4244
4792,2074
4793,4509
4795,44
4795,93
4795,96
4795,129
4795,159
4795,162
4795,240
4795,480
4795,670
4795,798
4795,930
4795,1042
4795,1090
4795,1122
4795,1233
4795,1294
4795,1772
4795,1869
4795,2067
4795,2123
4795,2468
4795,2950
4795,3037
4795,3088
4795,3120
4795,3351
4795,3460
4795,3625
4795,3938
4795,3958
4795,4415
4795,4791
4795,4936
4797,1547
4800,967
4801,2587
4802,2005
4803,4193
4804,765
4805,38
4805,377
4805,683
4805,843
4805,847
4805,1647
4805,2996
4805,3553
4805,3990
4805,4741
4806,4121
4810,3220
4811,595
4811,925
4811,2332
4811,3281
4811,3307
4811,3774
4811,4070
4813,3294
4819,1764
4820,2494
4823,15
4823,374
4823,573
4823,1005
4823,1403
4823,1821
4823,2088
4823,4450
4826,2622
4828,638
4829,663
4829,940
4829,1707
4829,3260
4830,327
4830,426
4830,462
4830,591
4830,2313
4830,2853
4832,2029
4832,4597
4834,892
4835,1306
4837,501
4839,441
4842,106
4843,3185
4844,267
4845,2703
4846,1642
4847,519
4848,1200
4849,2013
4850,1277
4851,583
4851,748
4852,287
4857,1551
4858,3283
4860,1779
4861,89
4863,3033
4865,259
4865,1246
4865,1266
4865,1350
4865,1605
4865,2122
4865,3833
4865,4245
4865,4855
4866,298
4866,648
4866,1900
4866,3284
4869,3284
4872,2518
4874,209
4877,23
4877,55
4877,129
4877,575
4877,1186
4877,1341
4877,1645
4877,3163
4877,3512
4880,1530
4881,48
4884,1277
4888,54
4888,468
4888,606
4888,1746
4888,1969
4894,116
4895,160
4896,76
4896,90
4896,228
4896,267
4896,319
4896,499
4896,910
4896,1071
4896,1192
4896,1283
4896,1555
4896,1693
4896,2638
4896,2668
4896,2715
4896,3122
4896,3169
4896,4000
4896,4117
4897,491
4897,790
4897,1178
4897,2021
4897,2484
4898,285
4898,986
4898,4696
4898,4825
4901,106
4901,563
4901,4755
4902,108
4902,269
4902,1396
4902,2798
4902,4433
4904,3373
4906,1708
4907,606
4908,3301
4908,3583
4909,1438
4911,4481
4912,56
4914,1676
4915,4475
4915,4978
4916,2906
4917,384
4918,1960
4918,3095
4919,2395
4921,709
4921,1002
4921,1344
4921,1655
4921,2458
4921,2471
4921,4161
4921,4603
4922,748
4923,369
4925,340
4926,2076
4930,4391
4933,377
4934,3313
4937,3999
4938,3776
4939,3089
4940,4407
4942,1685
4943,106
4944,3720
4945,213
4945,4253
4949,2017
4950,1078
4951,162
4951,197
4951,281
4951,301
4951,303
4951,636
4951,1081
4951,1413
4951,1827
4951,2814
4951,2865
4951,2951
4951,3106
4951,3128
4951,3313
4951,4414
4951,4475
4951,4808
4953,402
4953,709
4953,1420
4953,1842
4953,1932
4953,2686
4953,2856
4953,3990
4954,4620
4955,358
4956,1456
4960,207
4961,490
4963,1233
4965,579
4971,291
4972,450
4972,962
4972,1892
4972,2190
4972,4234
4972,4764
4974,655
4975,180
4975,596
4975,1284
4975,2471
4976,73
4976,81
4976,154
4976,215
4976,293
4976,533
4976,642
4976,1195
4976,1454
4976,1459
4976,1806
4976,1823
4976,2033
4976,3185
4976,3233
4976,3344
4976,4152
4976,4281
4983,822
4983,1409
4983,4193
4985,106
4992,2866
4994,2059
4995,629
4996,631
4996,1389
4996,2103
4996,3158
4996,3191
4996,3818
4996,3999
4997,1714
4999,2494
4999,4121
