src,dst
0,1
4,1891
4,3843
5,7
5,2904
5,4078
6,739
6,4375
6,4587
6,4609
6,4960
9,89
9,376
9,474
9,838
9,4447
9,4567
9,4612
10,44
10,1305
10,2197
10,2272
10,2390
10,2523
10,2897
10,2999
10,3035
10,3783
11,218
11,287
11,895
11,2792
11,2903
11,4530
12,160
12,170
12,192
12,290
12,549
12,588
12,615
12,646
12,751
12,1090
12,1157
12,1969
12,2280
12,2771
12,3241
12,3804
12,4227
12,4490
13,918
13,1085
13,1292
13,1847
13,2813
13,2931
13,3594
14,104
14,376
14,3052
15,3700
16,341
16,540
16,2644
16,3315
16,3395
16,3424
16,3644
16,4293
17,3052
18,431
18,969
18,1924
18,4105
19,215
19,600
19,1759
19,2472
19,3228
19,3501
20,25
20,35
20,65
20,498
20,1339
23,3429
25,3863
29,3404
30,106
30,2716
30,4066
34,198
34,638
34,845
34,2202
40,484
40,566
40,2242
40,2914
40,3529
41,622
41,767
41,949
41,1175
41,1804
41,2915
41,4514
43,423
43,1165
46,19
46,89
46,161
46,170
46,518
46,548
46,673
46,828
46,1178
46,1710
46,2655
46,2700
46,4017
46,4892
47,532
47,663
47,763
47,1113
47,2156
47,3086
47,4444
51,105
51,157
51,233
51,402
51,765
51,1049
51,1314
51,1455
51,1818
51,2043
51,2575
51,3512
51,4931
52,1565
52,2282
52,2530
52,3780
52,4137
54,4211
55,333
55,1192
55,2069
55,2595
55,3767
55,4112
57,2623
58,171
59,3089
59,3098
61,45
61,288
61,423
62,276
62,2844
64,309
64,671
64,4250
64,4626
64,4823
66,2368
66,2974
66,3121
66,4632
66,4829
69,945
71,850
71,1326
71,4457
73,839
73,1308
76,2050
78,282
78,580
78,2032
78,2699
78,2796
78,3530
80,1564
80,2332
80,4181
81,714
81,779
81,827
81,1094
81,1166
81,1265
81,1503
81,2634
81,3398
81,3725
81,4625
81,4763
82,322
82,3047
83,1414
83,2106
84,2578
84,3620
85,251
85,691
85,3026
85,3318
87,407
87,493
87,633
87,979
87,1305
87,3544
87,3898
87,4312
87,4545
92,3315
94,369
94,968
94,1210
94,1296
94,1976
94,2346
94,2606
94,2758
94,3281
94,4590
94,4908
95,1380
95,3672
96,818
96,1136
98,893
99,32
99,236
99,447
99,1551
99,2104
99,2605
99,3804
99,4283
99,4326
99,4338
99,4707
101,1061
101,1309
101,1339
101,3753
102,38
102,1361
102,2259
102,3067
102,3500
102,3540
106,464
112,4
112,295
112,1286
112,1501
112,1503
112,1535
112,1947
112,2778
112,4193
112,4896
113,3369
114,977
114,2230
114,4700
117,1716
119,4839
120,2197
120,2531
120,3071
120,3675
120,3807
120,3987
121,811
121,1421
121,4535
122,1248
123,53
123,295
123,714
123,1267
123,2056
124,374
124,1529
124,3165
126,32
126,3729
127,732
127,915
127,1740
127,3052
128,415
128,702
128,1440
128,1489
128,1868
128,4152
130,2965
132,316
132,1457
132,3174
132,3372
132,3538
132,3685
133,3052
134,569
134,718
134,761
134,1170
134,1580
134,1679
134,2623
134,3702
134,3729
134,4594
134,4901
136,3231
137,86
139,896
139,1113
139,1489
139,2755
139,3594
140,3207
142,1624
142,4561
144,1363
144,1796
144,3561
144,3704
144,4227
145,3670
145,4672
147,16
147,873
148,1831
150,1980
151,855
151,1222
154,4086
154,4131
155,74
156,188
156,1068
156,3085
156,3527
164,1733
164,1929
164,2792
164,3970
164,4386
165,4898
169,1013
172,1611
172,1718
172,2050
172,4051
176,3808
176,4373
177,55
177,532
177,536
177,878
177,1742
177,2172
177,2196
177,2624
177,3572
177,4359
177,4574
178,3299
180,3865
182,1303
183,385
183,550
183,609
183,1180
183,1782
183,1972
183,2006
183,3610
183,4671
184,86
184,198
184,765
184,968
186,338
186,1834
186,1911
186,2542
186,3054
186,3698
186,4004
186,4069
189,278
189,688
189,1884
189,2704
189,3236
189,4307
191,2
191,811
191,927
191,1074
191,2556
191,4505
194,78
194,1895
194,4458
194,4701
195,362
195,3414
197,3635
198,39
200,885
200,967
200,986
200,1980
200,2545
200,3472
200,4154
201,222
201,423
201,1334
201,1609
201,1813
201,4173
202,1551
204,26
204,1075
204,1125
204,2344
204,4031
208,3216
209,451
209,904
210,63
210,2022
210,2230
211,590
211,1080
211,3281
211,4274
211,4707
213,6
213,499
213,1672
213,1997
213,3510
213,4899
215,16
215,1336
217,1503
217,1640
217,1789
220,199
220,484
221,582
221,1222
221,2381
221,2466
221,2603
221,4028
221,4927
223,4051
224,4
224,1007
224,2466
224,2713
224,2807
224,3244
225,754
226,378
226,672
226,1185
226,1253
226,1534
226,3127
226,3173
226,3196
226,3827
226,4195
228,1885
228,2277
228,2911
228,4003
228,4189
229,203
229,222
229,540
229,2035
229,3610
230,160
230,550
230,896
231,515
231,770
231,3094
231,4715
232,3352
233,37
236,2086
236,3050
236,3052
238,37
238,193
238,332
238,663
238,943
238,1167
238,1189
238,2366
238,2416
238,4854
240,116
240,1108
240,2291
240,3979
241,58
241,72
241,562
241,1043
241,2014
241,2338
241,2576
241,2623
241,3932
241,4058
242,1370
242,1518
242,2369
242,3337
243,1028
243,1413
243,1529
243,1656
243,2313
244,118
245,37
245,48
245,2187
245,2343
245,2595
245,3541
246,161
249,1338
249,2815
249,3853
249,4824
250,597
250,4543
252,363
252,4131
253,548
253,1001
253,4101
255,2051
255,2920
257,1363
258,646
258,2640
258,3452
258,4856
259,461
259,592
259,789
259,2277
260,37
260,216
260,860
260,2654
261,12
261,285
261,947
261,2997
261,3048
261,4227
263,1858
263,2115
265,311
265,374
265,530
265,595
267,109
267,588
267,4358
269,893
269,1100
269,1554
269,1881
269,2380
269,3192
269,4974
271,3759
271,4391
272,862
272,943
272,1369
272,1589
272,1888
272,1893
272,2295
272,2553
272,3086
272,3886
272,4242
272,4266
272,4636
272,4916
272,4969
273,1145
273,4319
273,4561
274,206
275,1071
275,3441
275,4856
276,869
276,2040
276,2127
276,4134
277,108
277,3470
280,508
280,688
280,1714
280,1936
280,2316
280,3815
280,4143
281,2488
282,351
282,940
282,981
282,1443
282,1724
282,1808
282,2150
282,2369
282,2373
282,2528
282,2669
282,3161
282,4199
282,4315
282,4474
284,4286
286,4609
289,1942
289,2468
290,495
290,1550
290,3251
290,3364
294,79
294,3584
296,735
297,484
298,4216
300,1369
301,959
301,1385
301,1503
302,175
302,2462
303,2167
305,735
305,2219
312,648
312,968
312,1580
312,1823
312,1826
312,1866
312,2413
312,2571
312,2579
312,2810
312,3437
313,3292
314,569
314,907
314,3313
314,4798
321,199
323,78
324,2143
326,664
326,2578
328,38
328,53
329,1773
331,1827
331,2880
334,3529
334,4223
335,1168
335,1305
335,2704
335,3032
335,3533
335,4410
336,45
336,3152
336,3474
337,3308
338,497
338,801
338,1303
338,2106
338,3023
338,4100
338,4183
339,4070
340,3729
345,566
347,408
348,1888
348,2204
348,3414
348,4353
348,4425
349,1616
349,2206
353,309
353,356
353,523
353,987
353,1339
353,1506
353,1922
353,2277
353,2295
353,2303
353,4028
353,4049
353,4774
353,4965
354,1192
354,3923
355,100
355,536
355,3996
355,4239
360,12
360,2098
360,3568
366,2518
366,3670
367,845
367,1370
367,1960
368,170
368,1739
368,3157
368,3585
368,3779
372,347
372,800
372,2208
372,4356
373,91
373,2269
373,2838
373,2847
373,4464
374,270
374,547
374,1072
374,2415
375,519
375,588
375,756
375,845
375,847
375,2546
375,2965
375,3012
375,3980
375,4135
375,4418
375,4934
377,64
378,2010
379,1128
382,4362
386,1741
386,2643
386,2704
386,3037
387,125
387,358
387,2973
387,4069
387,4288
387,4604
387,4655
388,831
388,1329
388,3268
388,4009
388,4152
388,4286
391,532
391,751
391,2268
391,2342
391,2573
391,2623
391,2845
392,327
392,739
392,876
392,1027
392,1650
392,1856
392,2515
392,2595
392,2963
392,3919
392,4084
392,4443
393,586
393,850
393,971
393,1136
393,3015
393,3411
394,74
394,701
394,1449
394,3144
394,4216
394,4714
394,4729
396,19
396,448
396,816
396,4285
396,4802
397,3308
398,152
398,555
398,865
398,1031
398,1112
398,1132
398,1260
398,1705
398,1812
398,2098
398,2130
398,2347
398,2975
398,3751
398,4121
398,4163
398,4844
401,1151
401,2207
404,309
404,457
404,2438
404,2535
404,3442
404,4071
411,1068
411,1582
411,2393
412,842
412,1055
412,2121
412,3017
412,4415
414,236
416,1032
417,402
417,700
418,406
418,2121
418,4070
420,1602
421,2399
422,1236
422,1619
422,2596
422,4064
425,481
425,806
426,254
426,821
426,1001
426,4200
426,4661
428,518
428,1699
428,1716
428,2450
428,4391
430,466
430,490
430,731
430,1134
430,1192
430,1792
430,1956
430,1980
430,4773
431,27
431,152
431,550
431,718
434,3072
435,20
435,597
435,1876
436,70
437,3352
437,4649
439,1248
439,3450
439,3702
440,2207
441,12
441,168
441,358
441,498
441,1296
441,1510
441,1538
441,1803
441,1854
441,1940
441,2124
441,2155
441,2273
441,2342
441,2672
441,2714
441,2820
441,3051
441,3611
441,3965
441,4327
443,2965
443,3947
444,4061
445,747
445,951
445,3302
445,3330
445,4695
449,915
449,2048
449,2294
449,3627
449,4445
449,4664
451,640
453,734
453,1340
453,2285
453,2565
453,2846
453,3601
455,951
456,31
458,3825
458,4898
462,330
462,4025
464,692
464,1797
464,1822
465,2623
465,4478
467,1531
467,1997
468,895
468,2083
468,2657
468,4227
471,4882
473,74
473,309
473,1377
473,3015
475,178
476,2613
477,588
478,1574
478,2864
479,16
479,78
479,2230
480,433
480,2420
483,2613
485,89
485,3331
486,254
487,79
487,588
488,686
488,729
488,837
488,1766
488,2728
489,67
489,362
489,2861
491,78
492,70
492,701
492,1563
492,2330
492,2660
492,2757
493,153
493,175
493,201
493,248
493,270
493,466
493,687
493,735
493,1739
493,3245
494,4543
495,27
495,146
495,1129
495,2210
495,3464
495,4116
499,6
499,979
500,2243
500,2379
501,504
501,1018
501,1206
501,1666
503,3231
503,4383
506,1273
506,2589
506,3971
506,4248
507,2628
507,2965
508,42
508,1159
508,3744
509,612
509,3330
510,2050
511,870
511,1872
512,155
512,782
514,3490
516,1911
516,2093
516,2382
516,4299
517,3317
521,3231
521,4131
522,547
522,3408
522,3452
524,1495
524,1592
526,1032
526,2368
526,3327
527,27
530,371
530,864
530,1721
530,3591
530,4723
532,634
532,2013
532,2723
532,3597
533,116
534,1052
534,1441
534,1966
534,2085
534,3702
535,519
536,1579
537,737
537,1719
537,2277
537,2916
538,4216
539,309
541,1503
543,230
543,4417
546,1370
546,2245
548,1339
551,378
551,395
551,1378
551,1888
551,2850
551,4244
551,4721
553,26
553,460
554,1325
554,3119
556,415
556,2017
556,2779
556,2792
557,201
558,4126
559,74
559,961
559,2659
559,3937
559,4834
561,3399
561,4065
561,4548
564,157
565,54
565,1664
565,2060
565,2951
565,3452
565,3551
565,3766
565,4654
566,685
566,2378
566,3975
566,4749
568,1742
568,2234
570,248
570,820
570,1162
570,2305
570,2681
572,309
572,3602
572,3846
575,433
575,887
575,1442
575,1866
575,2064
581,42
581,652
581,1363
581,1711
581,4477
584,3256
587,1439
587,2547
589,2335
591,270
591,423
591,1336
591,1689
591,2569
591,4583
593,415
594,198
596,429
596,482
596,2207
596,2322
597,31
597,70
597,303
597,835
597,1343
597,2247
597,4150
597,4882
599,234
599,495
599,681
599,2002
599,2650
599,3527
599,3693
601,78
601,433
603,405
603,870
604,2965
606,89
608,155
609,718
611,4421
611,4707
614,129
614,235
614,1563
614,1933
616,851
616,1300
616,1652
616,4143
617,72
617,624
618,151
618,1192
619,2016
619,4087
620,1100
620,3466
620,3664
620,3754
620,3781
620,4064
620,4079
620,4106
621,225
621,450
621,1432
623,1785
623,4087
626,50
626,1781
627,1617
628,1370
628,1681
628,2169
628,4379
630,541
636,1054
637,166
637,725
637,1197
637,4889
639,1322
639,2487
639,4192
640,642
640,773
640,3101
641,638
641,824
644,56
645,1087
645,1135
645,1773
645,2358
645,2816
645,3352
647,170
647,1729
647,3959
648,3911
648,4710
649,70
649,1165
649,1901
649,4562
650,4159
651,792
653,27
653,2064
653,2881
655,318
655,1847
655,3601
658,160
658,995
659,159
659,459
659,1017
659,2525
659,2616
659,4472
659,4779
660,1916
662,1244
662,3934
665,1080
667,3292
668,28
668,4306
670,588
670,1544
673,1366
674,208
674,232
674,472
674,656
674,1144
674,1779
674,3124
675,3559
676,389
676,629
676,718
676,1461
676,2350
676,4944
678,544
681,33
681,311
681,680
681,703
681,1644
681,1645
681,2521
681,4339
681,4429
681,4598
682,21
682,2453
684,170
684,293
684,457
687,1881
689,2875
689,3322
693,103
693,547
693,1067
693,1602
693,3399
693,4141
695,1151
697,1002
697,2368
698,446
699,79
699,1696
699,2943
699,3231
699,3505
699,3698
700,796
704,1047
704,3121
704,4767
705,484
705,1758
705,4422
705,4653
706,8
707,1100
707,2728
708,516
708,897
708,935
708,1073
708,1077
708,1926
708,4136
708,4467
708,4934
709,2480
710,1155
710,1587
710,2261
710,4131
711,680
711,4531
712,37
713,664
713,784
713,849
713,2149
713,2502
714,1352
714,2623
714,3726
715,3345
716,692
716,2634
716,3384
716,3396
716,3767
717,1526
720,2062
720,3514
720,3918
720,4735
720,4940
720,4963
721,743
721,2833
722,2927
722,3275
722,3429
722,3717
723,566
723,867
723,1401
723,4237
724,661
724,2810
726,39
726,2038
726,2591
728,3851
738,27
738,2581
738,4042
740,730
741,1565
742,690
742,1234
745,232
745,256
745,356
745,750
745,1725
745,2736
745,3042
745,3097
745,3390
745,3481
745,3550
746,1431
746,1604
746,1777
746,4020
748,573
748,677
748,1012
748,2101
748,2948
748,3604
748,4569
753,1580
753,4812
755,63
757,532
757,1160
758,105
758,1459
758,2352
758,2972
758,3356
758,3865
760,1166
760,1503
760,2508
761,4508
766,280
766,1391
766,3074
766,3478
766,4699
768,295
769,685
769,4894
770,1879
772,311
772,1021
772,2387
774,1997
775,613
775,1997
775,2242
775,3582
776,78
780,152
780,819
780,2011
780,2459
780,3573
785,402
785,2277
785,4379
786,29
786,195
786,2092
786,3331
787,1549
787,2653
787,2746
787,3322
787,3801
790,35
790,3668
791,1033
792,625
792,1057
792,1306
792,3720
792,4004
793,105
793,4131
794,174
794,452
794,520
794,2144
794,2262
794,2595
794,2842
794,4866
797,469
799,361
799,902
799,4547
802,751
804,78
806,3292
807,4868
809,78
809,103
809,853
809,2912
809,4519
810,383
810,876
810,1368
810,2356
810,3725
812,3094
815,254
815,1071
815,1247
815,1867
815,3699
815,3997
816,664
816,3359
817,1013
817,1553
817,2400
817,2886
818,988
818,3264
822,362
822,475
822,1490
822,2583
822,2727
823,91
823,880
823,3074
823,3168
823,3425
823,4984
825,675
826,317
826,1503
830,3630
832,159
832,1172
832,2957
832,4575
834,577
834,2444
836,601
843,1046
843,2145
844,117
844,151
844,2962
846,692
846,1202
846,1703
846,2551
846,2800
848,914
848,941
848,1170
848,2547
848,3328
850,783
850,1756
850,2055
850,3101
850,3368
850,3536
850,4248
854,65
854,530
854,728
854,1996
854,4203
854,4816
856,166
856,1348
856,2318
856,3086
857,163
857,1933
858,279
858,1980
858,2200
858,4175
859,652
861,79
861,1980
861,3228
861,3593
861,3683
861,3897
861,4019
864,807
864,3829
866,1123
866,1192
866,4258
868,576
868,1819
868,2553
870,739
871,613
872,638
876,232
877,1488
877,1948
877,2016
879,874
879,1968
879,4064
881,2050
882,574
882,995
884,4087
886,773
888,2743
888,4608
888,4759
890,3231
891,711
891,896
891,1093
891,4522
892,152
893,460
893,1033
894,735
894,1065
894,1525
894,1970
895,376
898,3932
899,887
900,292
900,405
900,520
900,1100
900,1222
900,1324
900,2660
900,3564
900,4796
901,735
901,1848
901,4064
903,633
903,3716
903,4265
905,519
905,2166
906,702
906,1486
906,1924
910,357
910,638
910,1106
910,1291
910,1362
910,1480
910,1545
910,2135
910,3831
910,3945
911,3792
913,279
913,1008
913,1589
913,1831
913,1951
913,3170
913,3716
914,2980
917,577
917,1129
917,1468
917,3267
919,691
921,361
922,31
923,3001
924,4714
925,361
926,86
926,3033
926,3230
926,3728
926,3804
926,4507
929,1920
929,3767
931,374
932,518
934,4866
936,909
936,2302
936,2463
938,1888
943,621
943,1151
943,1869
944,613
944,3352
946,86
946,3183
948,542
948,1320
948,2559
948,4868
952,613
952,2859
957,293
958,218
958,2581
958,4063
960,4898
962,2070
962,2716
963,293
963,2726
963,4003
964,45
964,602
964,2466
964,3287
965,1886
965,3456
965,3724
965,4022
965,4131
965,4461
970,328
970,980
970,1105
970,1864
970,4070
970,4169
970,4351
971,1551
974,1363
975,151
978,3108
984,70
984,1238
987,135
990,905
990,1383
990,2369
990,2423
992,763
992,4059
993,469
993,1077
993,4708
996,529
996,792
996,1953
996,2000
996,3084
996,3127
996,3330
999,2362
1001,237
1002,762
1002,3314
1003,295
1003,3805
1003,4599
1004,374
1005,117
1009,1616
1010,4636
1011,889
1011,4476
1013,2150
1014,2461
1016,308
1016,4282
1017,4948
1019,729
1020,342
1020,520
1020,1545
1020,1646
1020,2203
1020,4963
1021,90
1021,3225
1022,446
1022,3622
1028,433
1029,56
1030,1068
1030,1382
1030,3025
1030,4706
1031,44
1031,4691
1034,29
1034,3094
1034,4707
1035,4288
1036,1705
1036,2450
1036,3591
1036,3757
1037,675
1038,586
1039,155
1039,1433
1039,1453
1039,1943
1039,2296
1039,2996
1039,3074
1039,3931
1039,4184
1040,3196
1041,303
1042,829
1043,279
1043,2731
1044,26
1044,4888
1045,1159
1048,403
1048,996
1048,1339
1048,1442
1048,2815
1048,3446
1048,3581
1050,579
1050,1188
1051,214
1054,4498
1056,70
1056,4747
1058,841
1058,1327
1058,3552
1060,376
1062,93
1063,4131
1064,3804
1066,2244
1066,4577
1068,499
1068,1754
1069,1109
1069,4358
1070,89
1070,1148
1070,3848
1072,2265
1076,399
1076,744
1076,3228
1076,4424
1076,4999
1079,1073
1080,588
1080,1473
1080,3253
1081,878
1081,1339
1081,4541
1083,2912
1083,4355
1084,828
1088,870
1089,91
1089,1405
1091,3086
1092,3601
1093,1381
1094,67
1094,117
1094,1095
1094,2679
1094,3352
1095,1806
1095,2049
1095,2656
1095,2761
1095,3162
1095,3280
1095,4056
1095,4775
1096,199
1097,949
1097,1933
1098,78
1099,54
1102,1028
1103,362
1103,3110
1107,32
1107,1204
1107,2428
1110,736
1111,1066
1111,2066
1115,2335
1115,3118
1115,3478
1116,374
1116,1824
1116,2181
1116,4694
1117,199
1117,2129
1119,493
1120,232
1120,2965
1122,669
1124,536
1124,2352
1126,54
1126,1794
1127,100
1127,3281
1127,4131
1131,914
1131,2839
1131,3964
1131,4159
1133,37
1133,1263
1133,1997
1137,447
1137,3978
1137,4840
1138,1132
1138,3988
1139,1259
1139,3263
1140,1530
1140,3975
1141,100
1141,1328
1143,36
1143,37
1143,1742
1143,1778
1143,3809
1144,4927
1146,2022
1146,3385
1147,1043
1148,544
1148,813
1150,2149
1150,3151
1150,4275
1153,2332
1153,3934
1154,163
1156,3660
1158,2399
1158,3019
1158,3614
1161,1228
1161,2251
1161,4572
1163,602
1163,1772
1163,2792
1164,470
1164,3624
1167,729
1171,234
1172,1503
1173,54
1173,303
1173,3797
1175,390
1175,1151
1175,1361
1175,2857
1175,4445
1175,4537
1176,714
1176,2381
1176,3291
1176,4181
1177,739
1177,1424
1177,1439
1177,3145
1177,3821
1181,26
1181,531
1181,664
1181,2879
1181,3416
1183,2962
1183,4038
1186,858
1186,981
1186,1166
1186,2031
1186,2228
1186,2419
1186,3488
1186,3908
1186,4032
1186,4104
1186,4362
1186,4479
1187,1639
1189,90
1190,4248
1191,1312
1191,1535
1191,3354
1191,4022
1191,4349
1193,198
1195,4459
1196,254
1198,1136
1198,2477
1199,609
1201,1026
1202,3607
1203,3317
1205,2207
1205,2938
1205,3836
1207,161
1207,3338
1208,832
1208,1411
1208,1533
1209,1135
1209,1454
1209,1729
1211,685
1213,3151
1214,2683
1215,735
1216,78
1216,1335
1216,3249
1216,4082
1217,663
1218,2230
1219,3101
1221,2368
1224,358
1225,330
1227,1540
1227,1831
1229,330
1232,44
1232,3181
1233,1977
1233,2308
1233,2479
1233,3090
1235,4143
1237,770
1238,227
1238,916
1238,1501
1238,1857
1238,1882
1238,2068
1238,2113
1238,2697
1238,3006
1238,3439
1238,3837
1238,4124
1238,4756
1239,291
1239,4219
1240,361
1240,1113
1240,1847
1240,2118
1240,2584
1240,4253
1240,4373
1241,4581
1242,4927
1243,199
1243,432
1243,3567
1246,91
1246,609
1246,942
1246,2711
1246,3078
1246,4633
1246,4953
1249,2244
1249,3998
1250,4445
1251,248
1251,2391
1252,4425
1254,595
1254,2366
1254,2493
1254,3875
1255,686
1256,2854
1256,4626
1257,415
1261,864
1262,325
1262,849
1262,995
1262,2077
1264,4471
1266,771
1266,3052
1268,814
1269,719
1270,221
1270,2349
1270,3241
1270,4923
1271,474
1272,2845
1274,158
1278,544
1278,3429
1280,361
1282,254
1283,940
1283,3352
1283,3367
1283,3374
1285,4131
1286,545
1287,4868
1288,4131
1290,1626
1294,691
1295,1082
1295,4851
1298,135
1299,3153
1301,496
1302,2701
1303,413
1303,1684
1304,239
1305,1006
1305,2527
1305,2830
1305,3703
1307,532
1308,88
1308,3330
1310,50
1310,424
1311,191
1313,3295
1315,597
1315,954
1316,149
1317,1165
1318,198
1318,2577
1318,2790
1318,3990
1319,4227
1321,54
1321,1517
1321,2759
1328,730
1328,864
1328,3839
1328,4008
1330,2881
1331,63
1332,3249
1333,330
1337,1104
1337,4899
1341,27
1344,597
1345,151
1346,338
1346,3702
1351,742
1351,3399
1351,4607
1352,613
1354,1430
1354,1662
1354,2184
1354,3512
1355,54
1356,472
1356,4649
1357,950
1357,1654
1357,2187
1357,4698
1359,447
1359,1752
1360,1080
1364,187
1364,728
1364,2623
1364,3058
1364,4518
1365,1461
1365,2044
1365,2064
1365,4376
1367,547
1370,519
1371,3232
1372,2121
1373,143
1373,452
1373,876
1373,1230
1373,2600
1373,3517
1373,4552
1373,4750
1374,433
1376,905
1379,1033
1381,400
1381,686
1381,2817
1381,4064
1383,1769
1386,1395
1386,1877
1387,2912
1389,1361
1390,1220
1392,191
1392,3015
1393,109
1393,950
1393,966
1393,1284
1393,1860
1393,1952
1393,1983
1393,3427
1393,4056
1394,2728
1396,4707
1397,3228
1397,3753
1397,4342
1398,74
1399,4898
1400,2392
1400,2398
1400,3966
1402,544
1402,2151
1403,4391
1403,4826
1406,1568
1406,2321
1407,3089
1407,3184
1408,4096
1408,4708
1409,35
1409,50
1409,2908
1409,4268
1412,729
1414,203
1414,661
1414,692
1414,1200
1414,1429
1414,1650
1414,2103
1414,3272
1416,1833
1416,4609
1418,131
1418,4401
1419,831
1419,3060
1420,2996
1421,2012
1422,542
1424,1482
1424,1555
1424,1716
1424,3753
1425,91
1425,700
1425,4831
1426,869
1426,1975
1426,2246
1427,2207
1427,4015
1428,3352
1432,549
1433,138
1435,2830
1437,170
1437,2205
1443,22
1443,105
1443,1157
1443,1468
1443,1496
1443,2297
1443,2470
1443,3643
1443,3712
1443,4098
1443,4395
1445,89
1445,1626
1445,1932
1448,1375
1448,4674
1452,3429
1456,2863
1456,4131
1457,3354
1457,3729
1458,1380
1460,1064
1460,1507
1462,1417
1463,1017
1463,2583
1463,3960
1465,3479
1466,236
1466,1062
1466,1220
1467,706
1467,1498
1467,1895
1469,1757
1469,4206
1470,530
1470,1583
1470,2309
1470,2436
1470,2619
1470,3966
1472,495
1472,2644
1472,2970
1472,4525
1476,4894
1477,1977
1477,3630
1477,3964
1478,1056
1479,673
1479,864
1481,1505
1483,50
1483,3461
1483,4781
1484,991
1484,1218
1485,3803
1492,50
1493,1339
1494,65
1497,146
1498,629
1498,727
1498,3977
1498,4631
1499,1006
1499,1617
1499,2496
1499,3468
1500,3770
1500,4422
1504,1380
1504,4004
1505,350
1505,2912
1508,433
1512,143
1515,885
1516,851
1518,352
1519,2097
1519,3280
1520,2083
1521,72
1521,3098
1523,56
1523,107
1523,531
1523,1035
1523,2573
1523,3061
1523,3860
1524,1487
1525,3003
1527,574
1527,1546
1527,1735
1527,3316
1528,464
1530,788
1532,44
1536,2813
1537,638
1539,45
1539,858
1539,1514
1539,1803
1539,3276
1539,4797
1539,4956
1541,77
1541,166
1541,248
1541,365
1541,423
1541,519
1541,625
1541,719
1541,1223
1541,1383
1541,1734
1541,2062
1541,2766
1541,4670
1542,4131
1543,218
1543,3015
1545,1276
1547,2197
1547,2627
1548,56
1552,303
1552,319
1552,1964
1552,3752
1552,4263
1556,4963
1558,235
1558,1559
1560,159
1562,3090
1563,2120
1563,2607
1563,2951
1563,4059
1566,310
1567,1018
1570,383
1570,2018
1570,3052
1570,3298
1571,945
1571,1755
1572,175
1573,3052
1575,1598
1575,2106
1576,65
1576,3311
1576,3344
1577,1230
1578,2243
1578,2330
1578,3343
1578,4807
1579,3031
1581,531
1584,749
1584,982
1584,3691
1584,4307
1585,681
1586,1888
1586,2188
1588,852
1588,956
1588,1552
1588,2082
1588,2821
1588,3641
1588,3721
1590,1852
1590,2012
1590,2106
1590,2689
1591,548
1592,867
1592,1796
1592,2894
1592,4891
1593,110
1593,1348
1593,3292
1593,4155
1595,379
1595,1851
1595,1971
1595,2729
1595,2752
1595,3828
1595,4145
1597,1192
1599,3151
1600,668
1600,828
1600,4311
1601,1015
1602,60
1602,472
1602,920
1602,1118
1602,1289
1602,1921
1602,3631
1603,1998
1607,2581
1608,714
1608,915
1608,2587
1608,3291
1610,364
1612,195
1612,254
1612,555
1612,939
1612,1329
1612,1731
1612,2945
1612,3609
1613,78
1613,682
1613,2457
1613,3623
1615,1424
1615,2232
1617,665
1617,991
1617,2586
1619,2239
1619,3188
1620,105
1621,103
1623,332
1623,1265
1624,1713
1624,3535
1625,1526
1627,1383
1628,1881
1628,2251
1628,2933
1629,2050
1631,853
1631,976
1631,993
1631,1028
1631,2183
1631,2393
1631,3872
1631,4130
1631,4431
1631,4690
1632,160
1633,207
1633,2943
1633,4117
1636,198
1637,45
1638,22
1638,3868
1641,1129
1641,1910
1643,1353
1648,146
1649,281
1649,1192
1649,1942
1649,2146
1649,2855
1649,2954
1649,3295
1652,347
1652,1404
1653,4065
1654,3498
1655,1425
1657,374
1657,2319
1659,798
1660,927
1660,2794
1660,3279
1661,1654
1663,2544
1664,780
1664,3473
1665,798
1665,1462
1665,2737
1666,295
1666,2109
1666,3200
1666,3607
1667,4581
1668,484
1669,1411
1669,1626
1669,2581
1669,3284
1670,2623
1671,419
1673,374
1674,12
1674,4758
1674,4845
1677,205
1677,1082
1677,1730
1677,3018
1678,1642
1678,1815
1679,158
1679,168
1679,798
1679,1053
1679,1639
1679,1896
1679,2990
1682,4898
1685,4824
1686,621
1686,2578
1686,4675
1687,1565
1688,916
1690,4004
1692,1363
1693,371
1693,1781
1693,2639
1693,2942
1694,29
1694,3214
1695,1503
1697,363
1697,595
1697,4526
1700,971
1700,3173
1700,3444
1700,4227
1701,2083
1701,3011
1702,2107
1702,3553
1704,798
1706,996
1706,2751
1706,3628
1707,1157
1709,1888
1713,1032
1714,1321
1714,4227
1715,254
1715,4248
1716,70
1717,278
1718,1448
1718,1551
1722,1046
1722,1142
1722,4707
1723,3127
1725,126
1725,592
1725,985
1725,2335
1725,2518
1725,2728
1726,3946
1726,4963
1727,323
1728,3634
1728,4543
1732,4609
1734,2626
1737,1474
1737,4448
1738,376
1738,1887
1738,2332
1738,2489
1738,2565
1741,692
1742,222
1742,386
1742,1281
1743,889
1743,2362
1744,278
1744,3266
1745,1538
1745,2795
1746,530
1748,1104
1749,1384
1749,1831
1750,706
1750,2402
1750,3796
1750,4444
1750,4870
1751,927
1757,181
1757,754
1757,3998
1758,171
1758,2053
1758,2099
1758,2301
1758,2805
1758,4746
1760,663
1761,519
1762,1991
1762,3530
1764,1000
1764,1162
1764,3001
1765,4394
1767,56
1768,116
1768,1028
1768,4002
1770,309
1771,2461
1774,155
1775,97
1776,1071
1780,4714
1782,1226
1782,1353
1783,950
1784,1735
1784,4847
1786,548
1787,2216
1788,1157
1790,264
1791,718
1791,2534
1792,4363
1793,1075
1793,2676
1793,3255
1794,1015
1795,1551
1795,1949
1797,31
1797,1377
1797,2912
1797,3060
1797,3207
1797,4546
1798,382
1798,4038
1800,519
1802,718
1805,351
1805,1849
1805,2152
1805,2292
1807,573
1809,1144
1811,1739
1813,621
1816,466
1820,2494
1825,4237
1827,751
1828,904
1828,1582
1830,878
1835,1118
1835,3811
1836,1222
1837,1383
1837,1806
1838,567
1838,2698
1839,356
1839,544
1839,2074
1839,2761
1840,451
1840,4740
1843,97
1843,2063
1843,2163
1844,1025
1847,690
1853,117
1853,4205
1855,1361
1855,2256
1855,3516
1855,4663
1858,3334
1858,4329
1861,1614
1861,3238
1862,638
1862,3252
1862,4233
1863,160
1865,1486
1866,149
1869,3012
1870,2572
1870,2735
1870,3197
1871,24
1871,2177
1871,3273
1871,4920
1873,1082
1873,4237
1873,4376
1874,208
1874,3052
1875,24
1875,671
1875,785
1875,2442
1875,3989
1878,1919
1880,1370
1880,2674
1880,3011
1882,4780
1883,550
1886,943
1887,307
1889,504
1892,3138
1892,4362
1893,117
1893,691
1893,4251
1894,1162
1897,1129
1900,629
1902,427
1903,187
1903,1958
1903,2836
1904,2203
1904,4887
1905,4395
1906,828
1907,1782
1908,1849
1909,2
1909,78
1909,1197
1911,173
1912,1431
1913,3641
1913,4222
1914,233
1915,1450
1915,3711
1917,1220
1919,912
1919,3362
1919,4491
1921,8
1921,371
1921,1349
1921,1363
1921,2188
1921,2667
1921,3376
1921,3420
1921,3758
1921,4482
1921,4516
1925,990
1926,419
1926,4872
1927,325
1928,1222
1928,2925
1931,1168
1934,719
1935,833
1937,1166
1937,4344
1938,389
1939,668
1941,447
1941,714
1942,642
1943,1658
1943,2059
1944,3702
1945,125
1945,3707
1946,2777
1947,251
1947,870
1947,915
1947,1475
1947,3174
1950,954
1954,234
1954,466
1954,4133
1955,1463
1955,2833
1957,469
1957,2074
1957,2323
1957,2680
1957,4131
1957,4663
1958,764
1958,945
1958,1899
1958,2397
1959,912
1959,2449
1961,1284
1962,1716
1963,1747
1965,318
1965,4062
1967,318
1967,1736
1973,1141
1974,201
1978,885
1979,3530
1980,1605
1981,634
1981,1130
1982,832
1982,1639
1984,552
1984,1626
1984,4898
1985,1281
1985,1380
1985,1434
1986,1654
1987,117
1987,455
1987,2701
1988,3379
1988,4139
1988,4965
1990,2229
1991,283
1993,248
1993,2910
1993,3570
1995,798
1995,2385
1995,2918
1995,3387
1995,4007
1995,4913
1999,1813
1999,4543
2001,4383
2003,362
2004,634
2005,292
2006,38
2006,254
2006,633
2006,777
2006,1162
2006,2506
2006,2550
2006,2694
2006,2708
2006,2920
2006,3159
2006,3512
2006,4297
2007,3352
2008,4275
2009,1821
2011,1475
2011,1487
2011,3579
2012,927
2015,311
2016,1197
2016,2226
2016,2384
2019,423
2020,26
2020,307
2020,577
2020,920
2020,1174
2020,1234
2020,1279
2020,1380
2020,1565
2020,1845
2020,2186
2020,2276
2020,2369
2020,3215
2020,4563
2020,4954
2021,996
2021,3996
2022,1980
2025,45
2026,3427
2028,2757
2028,4684
2029,1172
2029,4714
2033,1712
2034,632
2035,778
2035,1670
2036,330
2039,279
2039,1462
2039,1970
2039,2830
2039,4835
2041,1228
2042,566
2043,362
2043,1247
2043,2424
2045,107
2046,1947
2047,343
2047,407
2047,954
2047,2362
2047,2533
2047,2866
2047,3741
2047,4810
2050,232
2051,578
2051,4131
2054,633
2054,2724
2057,838
2058,2817
2061,835
2063,210
2064,744
2064,4602
2065,1067
2067,1716
2071,4131
2072,27
2073,54
2073,470
2073,1220
2075,215
2075,433
2075,1589
2076,1966
2076,3578
2077,598
2077,1245
2077,2890
2077,3725
2077,4318
2078,586
2078,990
2080,1157
2081,112
2081,3436
2081,3947
2082,2115
2082,2159
2084,1182
2084,1888
2084,3685
2084,4196
2085,1046
2085,1511
2087,42
2088,3077
2089,1247
2090,531
2091,1890
2091,2157
2091,2594
2091,3582
2095,2197
2096,4514
2104,2685
2104,3929
2105,1162
2105,4143
2106,56
2108,1806
2108,2479
2110,56
2111,415
2112,37
2112,762
2114,1482
2116,1281
2116,3543
2116,3572
2117,1742
2117,4906
2120,1142
2120,1754
2120,3370
2122,2016
2123,1732
2123,2930
2123,3692
2126,2965
2127,1949
2127,4643
2128,1841
2128,3442
2131,433
2131,2165
2132,493
2132,1471
2133,173
2133,2129
2134,1758
2134,2101
2134,4290
2135,2125
2135,2195
2135,2311
2135,3254
2135,3661
2135,4095
2136,107
2137,820
2137,870
2137,2289
2138,252
2140,2000
2141,621
2141,2202
2142,44
2143,4376
2146,4714
2148,4362
2153,1551
2153,3399
2153,4376
2154,160
2158,405
2160,943
2161,3389
2161,3467
2162,295
2162,3171
2162,4393
2164,2704
2165,74
2168,1265
2170,733
2170,2646
2171,663
2173,1949
2175,39
2175,2926
2176,376
2176,1602
2176,3708
2177,1431
2177,3115
2177,3990
2178,3086
2179,390
2179,1810
2179,3280
2180,311
2182,2720
2182,4882
2185,718
2185,3739
2187,645
2187,991
2189,1166
2189,3342
2190,4383
2191,407
2191,2773
2192,56
2192,4340
2193,1969
2197,4879
2198,536
2198,2955
2198,3081
2198,4558
2198,4597
2201,782
2201,3364
2209,78
2209,4771
2211,895
2211,4403
2212,590
2214,219
2215,1563
2216,251
2216,1300
2216,4589
2217,423
2217,586
2217,1574
2218,48
2220,2466
2220,2603
2221,2334
2221,4471
2221,4738
2222,1971
2223,586
2223,895
2224,1104
2224,3365
2225,523
2227,1622
2229,3702
2231,2050
2231,2369
2231,3669
2233,3318
2235,532
2237,718
2240,198
2241,3015
2242,251
2245,219
2245,1618
2245,3587
2248,4227
2249,2000
2250,217
2250,3888
2251,536
2252,4514
2253,1368
2254,2127
2258,64
2259,433
2260,1384
2262,463
2262,2888
2263,1868
2263,3047
2266,2100
2267,178
2267,2205
2267,2409
2267,4010
2267,4976
2268,167
2268,1446
2268,3044
2268,4707
2271,2852
2271,3022
2271,3626
2271,4227
2275,1248
2277,1930
2278,691
2279,2027
2281,1424
2281,3774
2281,4517
2281,4623
2283,464
2284,3151
2286,2147
2286,2827
2286,3122
2287,597
2287,4194
2287,4592
2288,239
2290,199
2290,1423
2293,896
2295,4434
2298,266
2298,2504
2298,2833
2298,3534
2298,3934
2298,4954
2299,2941
2300,78
2301,199
2301,4149
2304,530
2304,3308
2306,4581
2307,733
2310,4367
2312,219
2313,2116
2314,520
2317,940
2319,973
2320,151
2323,215
2324,691
2325,2082
2325,3876
2326,1018
2327,729
2327,4406
2328,22
2331,2064
2333,2001
2334,1735
2334,2023
2334,2433
2334,2660
2334,2756
2336,125
2337,409
2338,666
2339,837
2339,4437
2340,2669
2340,3055
2340,3399
2341,4859
2345,3594
2346,3013
2348,3923
2348,4898
2351,1336
2353,1725
2354,1247
2354,1484
2354,1561
2354,1829
2354,1933
2354,4998
2355,3178
2357,2920
2360,2368
2360,3508
2360,3655
2360,4022
2361,733
2361,1182
2361,1503
2361,1635
2361,1949
2361,3141
2361,3935
2362,1884
2362,2098
2363,170
2365,1159
2365,2602
2367,4826
2368,155
2368,3665
2369,347
2370,429
2371,2287
2372,1785
2374,1824
2374,2525
2376,2097
2377,1068
2378,328
2378,1166
2378,2364
2378,3448
2381,549
2381,1129
2383,1385
2388,976
2389,1383
2394,33
2394,111
2395,3127
2396,976
2399,643
2399,694
2399,1172
2399,1825
2399,2638
2399,3185
2399,3553
2399,4227
2401,718
2403,452
2403,632
2403,4686
2403,4867
2404,3692
2404,4515
2405,771
2406,2251
2407,1851
2407,4171
2408,2792
2410,573
2411,207
2412,1496
2414,4714
2417,415
2418,295
2419,361
2419,3265
2419,3992
2421,135
2422,338
2422,433
2422,540
2422,997
2422,2194
2422,2654
2422,4688
2422,4928
2425,835
2426,117
2427,3089
2429,835
2430,432
2430,4248
2431,705
2431,1654
2431,1859
2431,4963
2432,131
2435,2287
2437,482
2439,2048
2439,3227
2439,4464
2440,751
2440,1293
2441,3865
2442,555
2442,2584
2442,4131
2443,1675
2443,3256
2446,973
2446,1679
2446,2564
2446,3948
2446,4320
2448,1689
2448,2150
2448,2338
2451,2792
2452,1535
2452,3465
2454,4629
2454,4959
2455,1823
2456,320
2456,547
2456,2266
2456,2637
2456,4260
2456,4270
2458,1432
2459,607
2459,1490
2461,665
2461,2364
2464,1568
2465,1708
2469,829
2469,1444
2469,1903
2469,2819
2469,3486
2471,1895
2471,4051
2473,2013
2474,3839
2474,4374
2475,2712
2475,3231
2476,2045
2476,3201
2477,2051
2478,2701
2480,1263
2481,4695
2482,1834
2482,3987
2482,4970
2484,1513
2484,3412
2484,4900
2485,1579
2485,3247
2485,4669
2486,831
2487,2595
2487,4052
2488,474
2488,1680
2490,811
2490,1855
2490,1998
2490,2280
2490,2687
2490,2818
2490,4361
2491,295
2491,350
2491,755
2491,1265
2491,4131
2494,2197
2494,2716
2494,2924
2494,3246
2495,2186
2496,513
2496,4707
2497,484
2497,1842
2498,2205
2499,2645
2499,3630
2500,155
2501,3127
2502,2155
2502,3983
2502,4723
2503,2558
2503,3060
2503,4003
2503,4110
2505,74
2506,1440
2507,1179
2507,1806
2509,279
2510,2125
2511,16
2511,2719
2511,4272
2512,1130
2513,384
2513,752
2513,3020
2514,915
2517,629
2517,2939
2518,1823
2519,518
2519,1652
2520,914
2520,2849
2520,3098
2522,845
2524,2302
2524,3228
2526,395
2529,310
2534,460
2536,2037
2536,2900
2536,4545
2537,519
2538,1223
2539,3670
2540,1949
2541,905
2541,4308
2543,747
2543,2874
2544,1517
2545,2561
2546,4659
2548,2534
2549,1605
2552,1328
2552,3577
2552,4954
2554,1775
2554,2516
2554,2753
2554,4527
2555,4568
2557,663
2557,4590
2560,1980
2563,16
2565,24
2565,105
2565,883
2565,4499
2566,1486
2567,64
2567,4357
2568,895
2568,2434
2568,4304
2570,1166
2572,2037
2572,3105
2573,525
2573,803
2573,2030
2573,2857
2573,4279
2574,547
2579,702
2579,994
2579,1424
2579,1758
2579,2181
2579,2960
2579,4914
2580,513
2581,1222
2582,359
2582,2893
2584,4367
2585,105
2586,293
2588,652
2588,1639
2590,466
2592,1450
2593,496
2593,1459
2593,2773
2593,3689
2593,4029
2595,536
2597,1849
2598,2169
2598,4917
2599,493
2599,634
2601,408
2604,1035
2606,185
2606,747
2606,1395
2606,3654
2608,629
2608,3730
2609,350
2609,979
2609,3134
2610,643
2611,29
2611,75
2611,466
2611,2760
2612,976
2613,988
2614,2548
2614,3567
2614,4581
2615,1129
2617,1168
2618,1144
2619,989
2619,1305
2619,1720
2619,1992
2619,3112
2620,1444
2621,2301
2622,966
2622,1074
2622,1634
2622,2450
2622,3890
2623,579
2625,2273
2629,567
2629,909
2629,2692
2630,853
2630,3530
2631,728
2632,1531
2633,26
2635,2
2641,2433
2642,93
2642,160
2642,3974
2642,4687
2646,2460
2646,4166
2647,498
2648,1121
2649,3032
2651,166
2651,1680
2651,3440
2652,2467
2654,1008
2654,1501
2657,191
2657,1475
2658,1299
2658,2113
2660,1223
2661,764
2661,3013
2663,146
2664,1336
2665,2516
2666,3194
2666,3670
2668,731
2670,1377
2675,299
2675,705
2675,3675
2676,308
2676,928
2676,1275
2676,3099
2676,3971
2677,1580
2681,1323
2682,1526
2682,1846
2682,2264
2683,4070
2684,801
2684,2654
2686,2528
2686,4805
2687,214
2687,1329
2687,4545
2688,2122
2688,4783
2690,2147
2691,1998
2692,838
2692,2749
2692,4068
2696,1309
2700,347
2701,935
2702,2830
2703,438
2703,3942
2705,536
2705,567
2705,1735
2706,2523
2707,2208
2709,89
2709,4296
2710,1529
2710,2048
2710,4786
2712,3517
2717,2359
2718,842
2718,4816
2721,735
2722,638
2722,3062
2725,63
2728,462
2728,983
2728,2149
2729,729
2729,3072
2730,2442
2731,1232
2731,2329
2731,3702
2732,2113
2733,1949
2734,908
2734,2644
2735,2040
2738,2273
2739,363
2740,1730
2741,2946
2742,1385
2742,4420
2743,1157
2744,4237
2745,837
2748,217
2750,4708
2753,654
2753,1264
2753,1342
2753,3240
2753,3902
2753,4384
2753,4635
2754,945
2754,2903
2757,939
2757,1814
2758,3076
2762,199
2762,239
2762,361
2763,2050
2763,3601
2764,254
2764,832
2764,834
2764,1347
2764,2563
2764,2645
2764,2726
2764,2748
2764,3072
2764,3640
2764,4310
2764,4737
2767,460
2768,4943
2769,904
2770,96
2770,933
2770,1361
2770,1606
2770,1736
2770,3289
2770,3461
2770,4174
2770,4739
2772,1296
2774,811
2774,2051
2775,2066
2776,1106
2776,2922
2780,814
2781,1551
2782,1136
2782,1231
2782,3928
2783,191
2783,632
2783,2263
2783,2636
2783,4240
2784,2436
2785,1363
2785,2623
2786,2209
2787,640
2788,3292
2788,4806
2789,2077
2791,1740
2793,3012
2793,3322
2797,2939
2798,448
2798,1508
2799,328
2801,544
2803,3313
2804,833
2806,1184
2806,2098
2806,4143
2809,3339
2811,902
2812,1032
2813,362
2817,1443
2817,3322
2822,1024
2822,2261
2825,135
2826,1971
2828,378
2828,523
2828,1644
2828,1923
2830,1568
2830,2274
2831,1405
2832,427
2833,3090
2834,382
2834,4237
2835,1414
2837,613
2840,1710
2840,3115
2840,4621
2841,4216
2843,4181
2844,239
2844,841
2844,1323
2844,4761
2851,91
2853,1382
2854,1432
2854,3583
2856,943
2856,4873
2857,427
2857,4187
2857,4503
2858,1174
2860,2040
2862,528
2862,1447
2865,2074
2866,586
2867,413
2868,12
2869,3196
2869,4480
2870,4458
2871,442
2871,3263
2872,1735
2873,566
2875,1947
2876,1000
2880,752
2880,936
2880,1801
2882,6
2882,1033
2882,2174
2882,4077
2883,2350
2884,508
2885,536
2886,4803
2887,3094
2891,1383
2892,782
2892,1336
2892,2052
2895,4346
2898,801
2899,851
2899,1518
2901,466
2902,744
2902,3132
2905,1589
2906,1664
2906,3495
2907,2680
2909,2492
2912,542
2913,831
2913,2178
2913,2839
2915,885
2917,55
2921,79
2921,3764
2923,2070
2928,811
2929,2127
2929,4680
2932,1062
2934,773
2934,831
2935,2155
2936,2302
2937,725
2937,1383
2940,295
2940,2595
2941,1085
2941,4905
2943,45
2944,4062
2946,75
2946,2149
2947,2830
2947,3847
2949,712
2950,170
2950,735
2950,1464
2952,105
2953,3865
2956,1545
2958,2457
2964,1377
2965,1699
2966,116
2966,3211
2967,2273
2969,1970
2969,3961
2971,735
2971,779
2971,1817
2971,2143
2972,566
2977,190
2978,531
2979,198
2981,2229
2981,4795
2982,1368
2983,1033
2983,1490
2983,1675
2985,1281
2985,4471
2986,2379
2988,1222
2989,131
2989,1178
2989,4148
2989,4819
2991,376
2991,4580
2992,1511
2993,851
2993,1557
2994,1151
2994,3069
2998,52
2998,701
2998,833
2998,2824
3000,6
3001,3077
3001,3129
3002,1300
3004,419
3004,3938
3004,4361
3005,405
3005,1121
3005,3647
3005,4444
3007,755
3007,3403
3008,750
3009,2542
3010,1013
3014,542
3014,728
3014,3231
3014,3921
3015,3452
3016,4131
3021,573
3021,3127
3021,3636
3024,1503
3024,2205
3024,3148
3027,1377
3028,1824
3029,56
3029,423
3029,4487
3030,265
3036,1529
3038,1810
3038,2206
3038,4102
3039,3567
3040,54
3040,3553
3042,389
3042,395
3042,993
3042,1082
3042,1588
3042,4234
3042,4794
3043,295
3045,1868
3046,72
3047,115
3047,2697
3049,1411
3050,2609
3050,4579
3051,4915
3053,1602
3056,3012
3057,280
3059,89
3062,1101
3064,1833
3064,1867
3064,4419
3065,2487
3066,808
3066,831
3066,2236
3066,2517
3066,3397
3066,3492
3066,4276
3068,502
3068,560
3068,1580
3068,4963
3072,3170
3073,1434
3075,4227
3079,1514
3079,3271
3080,212
3080,433
3080,1438
3080,1503
3080,1509
3080,2024
3080,4131
3082,1198
3083,4683
3083,4746
3087,631
3088,1195
3090,44
3090,4297
3091,971
3091,1353
3091,4600
3092,1716
3092,2113
3093,111
3094,1066
3094,1513
3094,1696
3095,74
3095,1451
3096,161
3100,1308
3102,2124
3102,3702
3103,513
3104,100
3106,2578
3107,2683
3108,1496
3111,632
3112,2747
3112,4431
3113,3157
3114,1028
3114,3151
3114,3193
3117,2318
3121,1028
3121,1823
3121,3910
3121,4693
3123,17
3125,752
3126,1932
3127,1683
3128,67
3130,161
3131,466
3132,2671
3133,1159
3135,1247
3139,1606
3142,519
3142,870
3143,1129
3146,2946
3147,3330
3149,75
3150,105
3153,2504
3153,4411
3154,2330
3154,3709
3155,4471
3157,2996
3157,4142
3157,4164
3157,4208
3160,2613
3161,536
3163,3099
3163,3310
3164,571
3164,3686
3166,1777
3167,2195
3169,1165
3171,1509
3171,2976
3175,1735
3175,3676
3176,1334
3176,2547
3176,3034
3177,3086
3179,1327
3179,4555
3180,728
3182,778
3182,2204
3185,309
3185,602
3186,2753
3187,2466
3189,1529
3189,3816
3189,4076
3190,3702
3191,117
3191,1891
3191,3601
3191,4924
3192,679
3192,1947
3192,3539
3193,378
3194,306
3195,496
3195,1718
3198,1157
3202,2092
3203,4543
3204,19
3204,1220
3204,1303
3204,1510
3204,3469
3204,4229
3205,4543
3206,2502
3208,35
3209,2434
3209,3067
3210,785
3212,1076
3212,1423
3213,12
3213,2077
3217,2077
3218,2381
3219,1530
3220,1370
3220,4935
3222,129
3222,2082
3222,4799
3223,739
3223,3524
3224,3165
3226,2595
3228,129
3229,44
3229,505
3229,1415
3231,1796
3232,1563
3233,862
3234,221
3235,371
3237,2711
3238,2624
3239,231
3239,3282
3240,135
3240,344
3240,451
3240,998
3240,1212
3240,2139
3240,2238
3240,2616
3240,2995
3240,3119
3240,3497
3240,3855
3240,4346
3242,2040
3243,2971
3245,991
3245,1082
3245,1195
3245,4708
3248,1305
3250,927
3251,1188
3254,247
3255,2102
3255,3461
3258,2516
3259,605
3259,3756
3260,2751
3261,1602
3261,4876
3262,1015
3264,190
3269,356
3270,3330
3273,248
3274,2205
3277,2316
3277,3527
3278,3272
3279,4131
3281,875
3281,4118
3283,4070
3285,2815
3285,3954
3285,4836
3286,4023
3287,3322
3288,2255
3288,2890
3288,4744
3289,149
3293,4126
3294,862
3294,1868
3294,2332
3294,4026
3294,4685
3294,4929
3295,762
3295,3589
3295,4591
3295,4989
3296,2594
3297,343
3297,1410
3298,805
3300,519
3301,3663
3303,504
3303,839
3305,2316
3306,1144
3306,3998
3308,32
3309,905
3310,706
3310,1362
3312,814
3313,2569
3315,410
3317,251
3318,578
3318,3426
3319,347
3320,914
3321,3452
3322,835
3323,22
3323,44
3323,4083
3324,2487
3325,433
3325,2434
3326,1626
3329,1032
3332,2678
3333,2854
3335,159
3335,199
3335,669
3335,3941
3336,105
3338,3557
3339,555
3340,762
3341,953
3341,2971
3341,4814
3342,1179
3345,111
3346,3060
3347,39
3347,4946
3348,1425
3349,20
3350,1077
3351,3966
3352,2070
3353,589
3355,1046
3355,3315
3356,683
3357,382
3358,2133
3360,44
3361,2256
3363,2144
3364,907
3364,4446
3366,1370
3369,107
3371,4131
3373,4143
3375,4069
3377,519
3377,3172
3378,2726
3379,1304
3380,1135
3380,3722
3382,2939
3383,45
3386,3388
3388,2971
3389,1495
3391,2150
3392,173
3392,3738
3393,2695
3394,804
3400,167
3400,3743
3401,1721
3401,3840
3402,1347
3405,788
3406,406
3406,2673
3406,3221
3407,3557
3409,2172
3409,4198
3410,2274
3413,3861
3415,1370
3416,359
3417,325
3417,1598
3418,2773
3419,152
3421,4471
3422,2212
3422,3580
3423,803
3425,358
3425,4107
3427,2545
3428,2050
3429,692
3430,336
3430,1152
3430,2968
3430,4489
3431,573
3431,4190
3432,3322
3433,1008
3434,37
3434,365
3434,2213
3435,2656
3438,2954
3443,3724
3445,93
3447,567
3449,1222
3451,2753
3453,107
3454,705
3455,4963
3457,3248
3458,477
3458,4471
3459,27
3460,26
3460,1026
3460,1568
3460,1642
3460,3280
3460,3682
3460,3791
3462,287
3463,1248
3464,116
3464,188
3474,1008
3475,4954
3476,2329
3477,2496
3480,1162
3482,311
3483,1606
3484,3263
3485,3364
3487,378
3487,3818
3488,70
3489,1644
3490,45
3491,1296
3493,3140
3494,1162
3496,744
3497,4789
3498,1779
3499,1448
3503,1336
3504,303
3506,3452
3507,4302
3508,1716
3508,4958
3509,2672
3511,1877
3512,1265
3513,3120
3515,2207
3516,108
3516,304
3516,996
3516,1128
3516,1430
3516,1916
3516,2147
3516,2274
3516,2315
3516,2445
3516,2896
3518,567
3518,2483
3518,2760
3519,547
3520,158
3520,1077
3521,1105
3522,3469
3523,2701
3523,3975
3523,4842
3526,36
3526,4011
3528,1898
3529,105
3531,1739
3531,2124
3532,1777
3537,1461
3537,4982
3538,1377
3538,4024
3538,4751
3540,103
3540,875
3540,1381
3540,1442
3540,1712
3540,2662
3540,4061
3542,1626
3545,49
3545,2672
3545,4349
3546,1431
3547,4248
3548,1907
3549,595
3553,2939
3555,1057
3555,3835
3556,338
3558,2463
3559,1228
3560,104
3562,2930
3563,191
3566,4143
3569,573
3571,283
3571,696
3571,755
3571,3158
3574,828
3574,4964
3575,3527
3575,3737
3576,2995
3576,4261
3586,4708
3590,4288
3591,1101
3591,4235
3592,2817
3594,2121
3595,384
3596,295
3598,2434
3599,515
3600,1758
3603,816
3603,2516
3604,1072
3605,2294
3606,233
3608,413
3610,1545
3612,293
3613,1997
3614,2459
3614,3952
3615,3591
3616,2208
3617,161
3618,2894
3618,4633
3619,638
3621,4876
3625,504
3626,1129
3627,390
3629,2369
3629,3051
3630,954
3631,571
3631,753
3631,828
3631,930
3631,1502
3631,2492
3631,3907
3632,754
3633,2624
3633,3903
3635,2875
3637,2845
3638,4448
3639,167
3641,1565
3642,1557
3642,3249
3645,1080
3648,325
3648,2746
3649,230
3649,4004
3650,364
3650,4286
3650,4416
3651,3786
3651,4616
3653,3516
3655,729
3655,887
3655,1850
3656,541
3657,3249
3658,100
3659,895
3660,56
3662,552
3662,2533
3663,199
3666,1821
3667,679
3670,729
3671,552
3671,795
3672,2085
3673,254
3674,1461
3677,2130
3678,166
3678,323
3678,1630
3678,2467
3678,3894
3679,3443
3680,1192
3681,170
3684,3364
3685,381
3685,852
3685,1691
3685,1799
3685,3760
3685,4407
3687,318
3690,2438
3695,48
3695,427
3695,1124
3695,2040
3695,3257
3696,1617
3697,1812
3700,3594
3700,4147
3705,1529
3706,187
3706,423
3713,705
3714,2305
3715,1031
3718,318
3723,1145
3727,1514
3728,309
3728,1192
3730,657
3730,3443
3731,976
3732,2747
3733,74
3733,370
3733,805
3733,828
3733,1170
3733,1383
3733,1450
3733,1462
3733,1526
3733,1698
3733,1977
3733,3318
3733,4248
3733,4454
3733,4934
3734,152
3735,407
3736,2516
3737,402
3737,1264
3737,1842
3737,2695
3737,2877
3737,3292
3737,3307
3737,3335
3737,3381
3737,4254
3737,4804
3737,4994
3742,1082
3742,3746
3742,4712
3745,3429
3746,4441
3747,318
3748,1385
3749,1997
3750,278
3752,2
3754,3553
3755,1651
3756,152
3756,203
3756,405
3756,1439
3756,2199
3756,3116
3757,577
3757,1265
3757,1358
3757,4365
3761,2257
3761,4543
3762,3839
3765,3387
3767,3109
3768,3512
3769,566
3771,4131
3772,2000
3773,1009
3774,1596
3774,2037
3775,977
3776,733
3777,35
3778,912
3778,1522
3778,3702
3782,166
3784,4143
3785,1125
3786,895
3787,1997
3788,3354
3788,4439
3789,788
3790,972
3790,1789
3792,853
3793,37
3793,4161
3794,311
3794,876
3794,2433
3795,3074
3799,1303
3800,4568
3802,1328
3803,2381
3803,4074
3806,1027
3810,2431
3810,2645
3813,831
3814,78
3817,2886
3818,2862
3818,3101
3818,4094
3819,605
3819,1821
3820,663
3823,470
3824,3502
3826,1130
3826,1716
3826,4813
3829,937
3830,972
3832,2491
3833,470
3834,1377
3836,233
3838,56
3840,1000
3841,2181
3842,2335
3842,4394
3842,4839
3844,3572
3845,56
3849,3274
3850,1823
3852,135
3852,3203
3852,3740
3852,4237
3854,985
3857,3058
3858,151
3859,362
3859,4636
3861,547
3862,459
3862,2556
3864,2230
3864,3993
3865,221
3866,915
3866,1753
3867,403
3869,1241
3871,4227
3871,4641
3874,536
3874,563
3874,1994
3875,1085
3875,1916
3877,519
3878,751
3878,2716
3878,3943
3878,4869
3879,2692
3880,1226
3881,3229
3882,3700
3883,1135
3884,400
3884,1568
3884,3063
3885,105
3885,222
3885,291
3885,4689
3885,4884
3886,781
3886,867
3886,1182
3886,1747
3887,2270
3889,668
3891,831
3891,4385
3891,4544
3892,1753
3893,358
3893,4866
3893,4880
3895,292
3895,4070
3896,188
3900,2350
3901,1580
3904,2623
3905,595
3905,4239
3906,323
3909,1609
3911,4167
3912,3998
3913,3151
3914,3553
3916,62
3916,4456
3917,179
3917,199
3918,4509
3920,151
3920,549
3920,2054
3920,4275
3920,4431
3922,2811
3922,3009
3922,4501
3923,351
3923,3763
3924,3452
3924,4704
3925,1888
3925,2375
3926,2133
3927,2256
3930,2074
3932,2623
3933,972
3936,31
3936,346
3937,454
3937,1436
3939,1606
3940,2273
3942,3471
3942,3701
3944,3928
3949,550
3950,3610
3951,603
3952,2748
3953,3032
3956,1932
3957,832
3958,1296
3962,3514
3963,692
3966,2040
3967,3317
3968,3599
3969,942
3969,4080
3969,4533
3969,4787
3972,3359
3973,2683
3973,3161
3974,37
3976,173
3981,1013
3982,2985
3983,118
3983,429
3983,668
3983,1831
3983,3565
3984,413
3984,811
3984,1763
3984,2386
3984,4241
3984,4362
3985,187
3986,2261
3986,2355
3991,1490
3995,1424
3999,1180
4000,1032
4000,2777
4000,3890
4001,55
4005,295
4006,1997
4009,3536
4012,1431
4014,1094
4015,3825
4016,3169
4018,2412
4021,45
4027,3888
4027,4921
4028,405
4029,37
4029,206
4029,1989
4029,2532
4029,4544
4030,4131
4030,4457
4034,146
4034,3374
4035,1314
4036,315
4036,2386
4037,3314
4038,1465
4038,2332
4038,3129
4038,4348
4039,988
4040,2048
4041,1517
4043,858
4043,2329
4043,4944
4044,3910
4045,642
4045,2150
4046,3578
4047,433
4048,2431
4049,1526
4050,2954
4055,1465
4057,3582
4060,3530
4064,309
4066,318
4067,798
4069,927
4072,138
4073,2761
4075,2392
4078,2516
4079,27
4079,198
4079,369
4079,516
4079,4605
4081,65
4085,831
4088,1557
4088,1647
4089,3311
4090,820
4091,4708
4093,2243
4097,3003
4099,328
4103,1336
4108,1616
4109,1195
4111,2751
4113,3292
4114,1134
4114,1383
4115,1223
4115,4679
4119,685
4120,2602
4122,2948
4123,2672
4123,3525
4125,2650
4126,3702
4127,3156
4127,4275
4128,1622
4129,17
4131,2939
4132,750
4133,103
4133,1104
4133,1297
4133,2728
4138,1777
4138,3099
4141,2823
4143,56
4144,577
4146,1644
4148,39
4148,518
4148,2094
4148,2715
4148,2848
4148,2864
4151,419
4153,1832
4153,3197
4156,1377
4157,4004
4158,3127
4160,1910
4162,254
4165,4107
4168,3215
4169,117
4170,995
4171,1622
4172,2919
4175,2295
4176,279
4177,1339
4178,8
4179,178
4180,4288
4180,4769
4181,175
4181,3594
4182,310
4185,3848
4186,1078
4186,1277
4186,1308
4186,2115
4188,3580
4191,4053
4193,1569
4197,519
4199,976
4199,1309
4201,2954
4202,4022
4204,4581
4205,1026
4205,2562
4206,58
4206,567
4206,1023
4206,2678
4207,1145
4209,2996
4210,2133
4211,1997
4212,3996
4214,3822
4215,519
4217,615
4218,126
4218,801
4218,4352
4218,4858
4220,3946
4220,4236
4221,2048
4224,2342
4224,4885
4225,1739
4226,25
4226,187
4226,722
4226,1076
4226,2119
4226,4248
4227,1731
4228,833
4228,1826
4228,4937
4230,1123
4231,3315
4232,199
4232,2412
4232,4754
4235,1405
4235,2881
4235,2948
4235,3429
4237,1135
4237,1766
4237,4431
4238,3152
4239,91
4239,1114
4239,3406
4243,1407
4245,3899
4246,765
4247,3124
4249,67
4250,2845
4252,295
4253,198
4253,1078
4255,808
4256,536
4257,629
4258,309
4259,1566
4262,979
4264,739
4264,3290
4264,3304
4267,1339
4271,2318
4273,2737
4275,1383
4275,4898
4278,982
4278,1293
4278,1559
4278,2079
4278,3041
4278,3554
4278,3601
4278,3874
4278,4677
4280,2051
4280,4753
4282,1424
4284,1361
4287,828
4287,4726
4288,22
4291,93
4292,652
4294,170
4295,415
4298,1435
4300,1329
4301,3652
4302,390
4303,1651
4303,1918
4303,2630
4304,1339
4305,1113
4309,2996
4313,3019
4314,839
4316,198
4317,979
4321,828
4323,2436
4323,4364
4323,4455
4324,138
4324,2569
4324,4216
4325,4349
4328,1808
4330,56
4331,1782
4332,3702
4333,371
4334,771
4335,950
4336,90
4336,640
4337,2933
4338,2939
4341,4362
4343,3313
4344,631
4345,3330
4347,1966
4348,1708
4350,162
4350,270
4350,701
4350,1245
4350,2839
4350,4445
4354,67
4358,4213
4358,4318
4360,50
4362,262
4362,955
4362,1382
4363,173
4363,547
4363,2388
4365,97
4365,519
4365,1086
4365,1258
4365,2814
4365,2984
4365,4054
4366,1856
4366,3588
4368,74
4369,447
4370,311
4371,1713
4372,2064
4374,4092
4374,4430
4377,2672
4378,2584
4379,178
4379,4463
4380,4237
4381,3280
4382,4723
4387,1276
4388,111
4388,1526
4388,1598
4388,1642
4388,3172
4388,4269
4389,3753
4390,1602
4392,588
4393,68
4395,105
4396,531
4397,1949
4398,4112
4399,2516
4400,1806
4402,1903
4402,4778
4404,4063
4405,3709
4408,702
4408,4382
4409,26
4412,481
4413,3120
4414,33
4416,567
4416,1475
4416,1570
4416,1594
4416,2829
4416,4023
4416,4454
4417,4340
4421,828
4422,2831
4423,3865
4426,1190
4427,65
4428,1366
4432,2209
4433,914
4433,4622
4435,889
4436,93
4437,863
4438,1336
4440,2097
4442,195
4443,3199
4445,415
4448,3194
4449,3691
4450,3524
4451,3780
4452,831
4453,1336
4454,4133
4460,2127
4462,153
4465,2521
4466,2716
4468,22
4469,549
4470,39
4470,583
4470,1603
4470,2919
4471,840
4472,585
4472,4277
4473,870
4474,1593
4475,943
4477,2027
4477,2535
4480,3502
4480,3769
4481,1370
4482,105
4482,1491
4483,3330
4484,230
4485,318
4485,390
4485,410
4485,446
4485,642
4485,719
4485,751
4485,1614
4485,1929
4485,2447
4485,2670
4485,3229
4485,3652
4485,4498
4486,1546
4488,1620
4492,1598
4493,152
4493,736
4493,2013
4493,3308
4493,4825
4493,4862
4494,4467
4494,4872
4495,3527
4496,3292
4497,803
4498,1796
4500,2295
4502,2044
4503,1350
4504,100
4504,1025
4506,270
4510,811
4511,1868
4512,638
4513,54
4513,1296
4513,2231
4513,2870
4513,3636
4513,4538
4514,264
4514,2516
4518,135
4520,2903
4521,2542
4522,4367
4523,3512
4524,2450
4527,4288
4528,198
4529,713
4531,190
4531,885
4531,889
4531,986
4532,433
4534,1503
4535,2693
4536,466
4539,2821
4542,342
4542,669
4542,2810
4542,4833
4543,634
4546,4707
4547,22
4547,178
4547,222
4547,814
4547,3120
4547,3364
4547,3694
4547,3915
4547,4281
4547,4540
4547,4684
4549,2545
4550,280
4551,125
4551,642
4553,1369
4554,1589
4556,3599
4556,3920
4556,4881
4557,196
4557,1652
4557,2243
4558,1190
4558,3625
4559,2890
4560,4349
4561,1711
4563,574
4563,3423
4563,4033
4563,4037
4563,4314
4563,4581
4564,330
4564,550
4564,3315
4565,4479
4566,405
4568,759
4568,3753
4570,268
4570,4346
4571,2890
4573,1136
4574,635
4576,914
4578,532
4581,863
4582,216
4584,1565
4585,2603
4586,638
4587,141
4587,1895
4587,4140
4587,4639
4588,1129
4590,4431
4592,285
4593,419
4595,3899
4596,268
4598,161
4598,536
4598,1169
4598,1841
4598,2050
4598,2133
4598,3263
4598,4053
4601,1363
4602,22
4602,3619
4603,4411
4606,1222
4609,1877
4610,4269
4611,2086
4613,158
4614,3308
4615,1502
4617,419
4618,2294
4619,1514
4620,889
4624,295
4624,4135
4627,4126
4628,72
4630,3094
4632,3225
4634,1274
4636,2802
4637,3172
4638,3086
4640,914
4640,1194
4640,2124
4640,2943
4644,1554
4645,2113
4646,853
4647,1894
4648,1487
4651,21
4651,409
4651,3330
4651,3572
4652,3725
4656,902
4657,50
4658,1851
4660,833
4662,3691
4665,2434
4666,1118
4667,2254
4668,3290
4670,216
4670,4919
4671,3646
4673,4200
4676,1368
4678,782
4681,407
4681,3354
4681,3899
4682,4248
4684,2187
4685,36
4685,1531
4688,3
4688,2434
4688,2548
4692,739
4696,2124
4697,292
4702,664
4702,4966
4703,2692
4705,287
4705,484
4705,1064
4705,2516
4705,3688
4705,3798
4705,3822
4705,3955
4705,4304
4705,4422
4707,555
4708,1059
4708,2533
4708,2541
4709,1526
4711,1932
4713,1450
4714,70
4714,666
4714,1384
4714,2340
4716,762
4717,4689
4718,3023
4719,573
4720,714
4722,3601
4723,2
4724,3140
4724,3196
4724,4131
4725,3032
4725,4061
4727,3529
4728,79
4728,438
4728,3359
4730,1340
4731,352
4732,3660
4733,2660
4734,1000
4736,2939
4736,4883
4737,362
4737,576
4737,4837
4737,4909
4738,2338
4739,22
4739,493
4739,4289
4741,1876
4742,3127
4743,452
4745,1594
4746,1071
4748,362
4750,386
4751,603
4751,4852
4752,8
4755,74
4757,1338
4760,875
4762,1013
4764,4096
4765,1651
4766,3052
4768,4927
4770,4714
4772,105
4776,1566
4777,3928
4782,384
4782,625
4782,4376
4784,736
4785,1526
4788,2683
4790,3920
4791,356
4791,4849
4792,27
4793,3136
4793,4754
4799,1000
4799,1474
4799,3870
4799,4560
4799,4609
4800,1165
4801,4011
4802,996
4802,1385
4802,2987
4802,3364
4802,4131
4803,725
4805,605
4805,2270
4808,1864
4809,2
4811,107
4811,280
4811,2359
4815,97
4817,2924
4818,1224
4818,2243
4818,3873
4818,4297
4819,658
4820,1475
4821,2262
4822,2634
4824,4227
4826,657
4827,2130
4828,3641
4830,853
4832,654
4838,2878
4838,3352
4841,2862
4843,865
4846,1136
4848,733
4850,1675
4850,3533
4852,1264
4852,3710
4853,744
4855,850
4857,552
4860,2701
4861,50
4861,690
4861,857
4861,1006
4861,1421
4861,1566
4861,1598
4861,1676
4861,1971
4861,2767
4861,2808
4861,2889
4861,3856
4861,4642
4861,4997
4863,2129
4864,4934
4865,2771
4866,126
4868,3137
4871,985
4874,4237
4875,4707
4876,2335
4876,3665
4877,2244
4878,1423
4882,4714
4886,1404
4887,644
4888,1149
4888,1388
4888,3812
4890,167
4891,1303
4892,3512
4893,347
4895,1166
4897,2066
4902,807
4903,3739
4904,32
4904,2341
4907,2736
4910,2397
4911,3018
4912,2672
4918,3469
4922,4629
4924,233
4925,3281
4926,629
4930,4066
4932,221
4933,166
4934,4122
4936,2172
4936,4942
4937,2548
4938,1568
4939,107
4941,325
4941,1485
4941,2765
4941,2791
4941,3070
4943,654
4945,1753
4949,540
4950,37
4951,295
4951,380
4951,600
4951,1898
4951,2116
4951,2961
4952,2152
4954,870
4954,4013
4955,1779
4957,3291
4959,1230
4959,3719
4959,4947
4961,838
4962,4434
4963,268
4963,610
4965,111
4967,374
4968,3807
4971,1970
4972,351
4973,4266
4973,4980
4975,446
4977,2720
4978,996
4979,1433
4979,4650
4981,2083
4981,2959
4981,3077
4982,907
4983,1606
4985,433
4985,1747
4986,1604
4986,1983
4987,4087
4988,1405
4990,2382
4991,4543
4992,31
4992,4322
4993,706
4994,3994
4995,702
4996,3702
