src,dst
0,1
3,90
3,446
3,467
3,637
3,1820
3,2487
3,2664
3,3671
6,72
6,541
6,789
6,940
6,1070
6,2398
6,2739
6,2977
6,3355
6,4037
6,4639
6,4642
9,5
9,51
9,130
9,811
9,1994
9,2990
9,3111
9,3636
9,4167
9,4358
11,2613
11,2975
11,3592
11,4094
12,69
12,197
12,630
12,2078
12,3175
13,36
13,147
13,202
13,307
13,349
13,460
13,640
13,1402
13,1427
13,1573
13,2080
13,2300
13,2423
13,3358
13,3676
13,3698
13,4136
13,4479
13,4825
16,68
16,69
16,257
16,415
16,1160
16,1389
16,1774
16,1864
16,2346
16,2409
16,3439
16,4236
18,459
18,609
18,619
18,1104
18,1160
18,1367
18,2012
18,2533
18,4446
21,19
21,36
21,206
21,220
21,231
21,351
21,767
21,831
21,1116
21,1239
21,1352
21,2012
21,2032
21,2233
21,2360
21,2399
21,2610
21,2920
21,4022
21,4148
21,4247
22,79
22,1229
22,1302
22,2770
22,3060
22,3378
22,3550
22,4304
22,4863
25,28
25,368
25,721
25,1217
25,1231
25,2599
25,2770
25,3027
25,4047
25,4060
27,888
27,926
27,3494
28,823
28,3033
28,3794
29,473
29,2259
29,2796
29,4534
30,3106
32,2205
35,4014
38,2820
39,108
39,650
39,699
39,737
39,762
39,1036
39,1143
39,1367
39,1652
39,2475
39,2773
39,3070
39,3735
39,3974
39,4178
42,74
42,195
42,266
42,695
42,775
42,851
42,1124
42,1482
42,2582
43,512
43,1774
43,2680
45,202
45,1201
45,3021
46,1274
46,4112
49,4519
50,778
53,147
53,3287
53,3844
53,4092
53,4405
54,131
54,459
54,873
54,1310
54,2217
55,76
58,452
58,2995
58,3303
58,3386
58,4484
58,4627
59,44
59,51
59,263
59,429
59,825
59,1633
59,2453
59,3045
59,3132
59,4707
60,387
60,963
60,1530
60,1628
60,1963
60,2075
60,2155
60,3294
60,4084
61,1415
62,778
62,3752
64,2014
64,2371
66,5
66,51
66,4337
67,8
67,171
68,121
68,190
68,624
68,985
68,1177
68,2106
68,2331
74,1266
74,1604
75,2677
75,3534
76,2538
78,61
78,123
78,533
78,2245
78,2699
78,4109
80,257
80,996
80,1093
80,1183
80,1285
80,1312
80,2254
80,2647
80,3160
80,3201
80,3308
80,3758
80,4705
80,4893
82,17
82,451
82,790
82,3093
83,4951
84,842
84,1123
84,1235
84,2322
84,4788
85,36
85,65
85,127
85,440
85,574
85,634
85,1023
85,1394
85,1557
85,1726
85,2827
85,3343
85,3347
85,3588
85,4443
85,4894
86,228
86,3724
87,150
87,2457
87,2570
87,3110
87,3587
88,3624
89,2352
92,8
92,966
92,1336
92,1663
92,1666
92,2259
92,3122
92,3198
92,3254
92,3772
92,4133
92,4323
92,4519
94,1451
94,2135
94,3577
95,4995
96,2053
97,69
98,584
98,4530
99,539
99,600
99,1261
99,1341
99,1450
99,1661
100,4392
100,4644
102,77
102,148
102,331
102,2330
102,4220
102,4893
103,733
103,1115
103,1262
103,1553
103,1998
103,2225
103,2562
103,3468
103,4556
104,4112
106,63
106,427
106,721
106,788
106,794
106,1412
106,3173
106,3618
106,3955
106,4106
106,4245
106,4817
109,72
109,690
110,79
110,157
110,181
110,348
110,601
110,1196
110,1489
110,1539
110,1913
110,2442
110,2544
110,3762
112,36
112,190
112,503
112,663
112,703
112,1201
112,1713
112,2114
112,2217
112,2796
112,2854
112,4439
112,4948
113,57
113,4000
115,105
115,408
115,906
115,1164
115,2204
115,4522
116,40
116,1085
116,1352
116,2853
116,2996
116,3410
116,3587
116,3896
116,4851
117,182
117,495
117,1587
117,3003
117,3752
117,4225
117,4567
118,213
118,636
118,813
118,1301
118,1313
118,1980
118,4648
119,513
119,2903
119,3106
119,3137
119,3715
120,1422
120,3490
120,4445
123,285
125,24
125,177
125,848
125,881
125,887
125,1266
125,1339
125,2359
125,2714
125,3522
125,3698
128,2056
133,28
133,299
133,366
133,768
133,941
133,1036
133,1090
133,1121
133,1185
133,1619
133,1955
133,2161
133,2610
133,2839
133,2849
133,3004
133,3138
133,3294
133,3990
133,4063
133,4200
133,4330
133,4407
133,4599
133,4972
134,88
134,1923
134,2371
134,2743
134,4475
135,36
138,594
138,2533
141,296
141,388
141,853
141,1197
141,1854
141,2186
141,3562
141,3739
141,4514
142,129
142,186
142,223
142,248
142,713
142,1176
142,2319
142,2397
142,2714
142,2879
142,3592
142,4159
144,695
144,948
145,72
145,1898
145,2505
145,2595
145,4174
145,4648
146,4393
149,121
149,794
149,1460
149,2692
150,1265
150,2393
151,1927
151,2739
151,3239
151,4360
152,8
152,108
152,222
152,504
152,846
152,1004
152,1276
152,1524
152,1526
152,2291
152,2300
152,2393
152,2470
152,3527
152,4133
152,4187
152,4366
152,4452
152,4670
152,4792
154,147
154,570
154,1913
154,2500
154,2588
154,3105
154,3378
156,303
156,572
156,711
156,1008
158,103
158,105
158,245
158,663
158,726
158,1010
158,1351
158,1464
158,1785
158,2303
158,2308
158,2744
158,3110
158,4002
158,4406
158,4636
160,150
160,165
160,316
160,377
160,855
160,885
160,938
160,1174
160,1336
160,1625
160,2479
160,2806
160,3249
160,3368
160,3469
160,3707
161,137
163,635
163,822
163,919
163,1206
163,1280
163,1452
163,1499
163,1621
163,1657
163,1958
163,2616
163,2673
163,2879
163,4071
163,4908
163,4957
164,864
164,3833
164,4542
165,127
165,516
165,974
165,1477
165,1605
165,1866
165,2272
165,3064
165,3137
165,3390
165,3521
165,3869
165,4055
165,4226
165,4372
165,4400
166,265
166,1129
166,1176
166,1354
166,1950
166,2169
166,2225
166,3699
166,4893
168,650
168,1409
168,1774
168,3286
168,4405
168,4474
169,345
169,574
169,643
169,993
169,1969
169,2209
169,3625
170,8
170,1055
170,3294
170,3646
172,228
172,2857
172,3444
174,40
174,707
174,778
174,1023
174,1125
174,2149
174,2982
174,4544
175,641
176,516
176,637
176,648
177,553
177,1261
177,1602
180,158
180,2377
180,4439
183,384
183,1772
183,3974
184,823
185,892
185,3393
187,2512
188,503
188,699
188,1071
188,1412
188,1720
188,3353
188,3407
188,3823
188,3952
188,4362
188,4533
188,4619
189,1055
191,36
191,179
191,450
191,1784
191,3592
191,4590
192,158
192,444
192,1548
192,4732
193,1350
193,3323
193,4591
193,4877
194,437
194,2939
196,3624
198,51
198,1893
198,2168
198,2922
198,3202
199,4501
201,15
201,389
201,590
201,803
201,805
201,902
201,1242
201,1565
201,1639
201,1643
201,2070
201,3387
201,3835
201,4358
203,128
203,4882
204,413
204,419
204,660
204,3698
204,4174
205,77
205,384
205,536
205,1812
205,2307
205,4967
208,17
208,148
208,267
208,419
208,780
208,790
208,971
208,1084
208,1643
208,1844
208,3997
208,4387
208,4525
209,901
209,1434
209,1482
209,3439
211,154
211,213
211,735
211,855
211,921
211,2705
213,61
213,1521
213,2422
215,2257
215,2977
215,2997
215,3698
215,3992
215,4405
216,1070
216,1299
216,3294
216,3420
216,3439
216,3485
217,3807
218,44
219,1511
219,3663
220,2734
221,1433
222,1479
224,249
224,592
224,1285
224,2751
224,2849
224,3089
224,4153
225,140
225,932
225,2286
225,3259
225,3751
227,148
227,2039
227,2853
227,3106
227,4314
227,4979
229,1887
230,3330
232,3406
232,4538
233,24
235,105
235,347
235,873
235,1440
235,2418
235,4538
235,4546
235,4608
237,708
239,1955
240,932
241,2812
242,3284
246,873
247,2715
249,10
249,148
249,1237
249,1441
249,3871
250,128
250,755
250,2409
251,2169
251,2436
251,3242
252,4392
254,4528
256,2213
257,821
257,2423
257,3592
258,1733
258,3420
258,3724
259,757
261,652
261,3699
262,1045
262,1681
262,3060
262,3592
263,36
263,267
263,631
263,1409
263,4405
264,35
264,36
264,71
264,105
264,177
264,288
264,429
264,678
264,1639
264,1686
264,2186
264,2245
264,2712
265,1
265,197
265,280
265,281
265,751
265,931
265,999
265,1616
265,2358
265,2373
265,2644
265,2677
265,2977
265,3294
265,3590
265,4266
265,4537
267,4754
269,171
269,356
269,361
269,969
269,1823
269,2110
269,3191
271,36
272,8
272,973
272,1004
272,4127
273,419
273,609
273,816
273,1364
273,2344
273,2615
273,2752
273,3587
273,4203
273,4405
274,126
274,1163
274,1412
274,2096
274,3513
274,4242
276,1055
276,4878
277,253
277,578
278,266
279,2209
282,253
283,4174
284,72
284,716
284,1221
284,2313
284,2770
284,2944
284,3294
284,3493
284,4092
284,4504
284,4600
286,37
286,44
286,4560
287,150
287,1295
287,3038
287,3692
287,4247
287,4257
290,172
290,1410
291,322
291,1914
291,3256
291,4444
293,82
293,350
293,716
293,928
293,1237
293,1497
293,1508
293,1780
293,2370
293,2428
293,2800
293,3244
293,3308
294,466
294,720
294,901
294,1055
294,1083
294,1470
294,1536
294,1701
294,2215
294,3042
294,3372
294,3752
294,4238
294,4706
294,4857
295,32
295,396
295,973
295,1281
295,3323
295,3764
295,4330
296,393
296,724
296,1324
296,2133
296,4094
296,4705
297,8
297,1404
297,1598
297,1694
297,2115
297,3330
298,2176
300,181
300,1256
300,3654
301,2
301,171
301,531
302,497
302,2421
302,3426
312,75
312,601
312,1601
312,3542
312,3583
313,155
313,546
313,696
313,1039
313,3528
313,3587
313,3708
313,4813
314,1848
314,2611
315,41
315,75
315,148
315,207
315,752
315,1033
315,2232
315,3603
315,4521
317,36
317,637
317,950
317,1333
317,1550
317,2947
317,4174
317,4812
318,2751
320,68
320,240
320,811
320,2714
320,3294
320,3411
320,3865
320,3918
320,4602
320,4908
322,23
324,40
324,1261
324,1959
324,2143
325,61
325,580
325,1578
326,65
326,1177
326,2706
330,778
330,1126
330,1261
330,1652
330,1732
330,2446
330,3930
330,4354
330,4590
330,4775
331,3
331,570
331,1774
331,2381
332,4172
333,603
333,902
333,1603
333,2141
333,2751
333,4158
335,17
335,130
335,140
335,145
335,778
335,1341
335,1415
335,1596
335,1705
335,2398
335,2504
335,2879
335,3059
335,3335
335,4094
335,4750
336,171
338,469
338,2359
339,96
339,253
339,1446
339,2357
339,3845
339,4276
339,4890
339,4927
341,157
341,2371
341,3301
341,4269
342,758
342,1201
342,3629
343,77
343,88
343,2550
343,4400
345,42
346,65
346,371
346,427
346,510
346,586
346,637
346,680
346,878
346,892
346,1138
346,1233
346,1833
346,2273
346,2430
346,2605
346,2715
346,3568
346,3602
346,3609
346,3639
346,3661
346,3752
346,4218
346,4270
346,4313
354,7
354,26
354,127
354,180
354,289
354,435
354,524
354,558
354,566
354,652
354,943
354,1281
354,1475
354,1539
354,1619
354,1697
354,1864
354,2091
354,2183
354,2284
354,2462
354,2519
354,2684
354,2715
354,2934
354,3177
354,3420
354,3517
354,3953
354,3959
354,4094
354,4224
354,4975
355,395
355,4337
357,119
357,350
357,562
357,796
357,1455
357,1549
357,1939
357,2137
357,2204
357,2582
357,2898
357,3018
357,3307
357,4461
357,4502
358,696
358,922
358,2260
358,2363
358,2458
359,41
359,761
359,2114
359,4004
362,1539
362,2959
364,2021
365,121
365,1668
365,2393
365,2543
365,2872
365,3349
365,4972
367,508
367,2156
369,3294
370,131
370,158
370,159
370,280
370,292
370,637
370,714
370,1010
370,1084
370,1359
370,1716
370,1758
370,1771
370,2032
370,2072
370,2393
370,2642
370,2922
370,3152
370,3210
370,3516
370,3625
370,3822
371,4530
374,44
374,3023
374,4608
376,2281
379,346
379,473
379,1045
379,1466
379,2220
379,3390
379,4269
379,4587
381,349
381,502
381,1576
381,2281
381,4393
382,639
382,985
382,1372
382,1793
382,2505
382,3132
382,3865
382,4517
383,248
383,3732
385,1048
385,1309
386,334
386,664
386,1661
386,3285
386,4624
390,213
391,28
391,832
391,1412
391,1564
391,1955
391,1981
391,2832
391,3428
391,3505
391,4294
391,4488
391,4551
395,3194
395,3415
397,2903
397,3132
397,3308
397,4641
398,2386
398,2894
398,3997
399,3714
401,243
401,402
401,1141
404,243
405,1302
406,35
406,460
406,635
406,1865
406,2056
406,2722
406,3665
406,3813
406,3996
406,4439
407,2359
407,2361
407,4094
408,742
408,1713
409,353
410,131
410,1910
414,3
414,3573
414,4347
416,159
416,2796
416,4361
417,1265
417,1829
417,2669
417,3264
420,637
420,760
421,369
423,1080
423,1747
423,1944
423,2835
423,4671
425,44
425,475
425,594
425,977
425,1080
425,1384
425,2674
430,2713
432,888
432,921
434,348
436,24
436,4953
438,282
438,2862
438,3286
442,121
442,472
442,506
442,684
442,698
442,843
442,1264
442,1473
442,2536
442,2645
442,2712
442,3188
442,3279
442,3323
442,3613
442,4037
442,4267
442,4705
442,4716
443,42
443,127
443,1706
443,2562
443,2727
443,4228
443,4255
443,4337
443,4877
445,1475
445,1793
445,4893
447,4133
448,366
448,1201
448,1418
448,2178
448,2384
453,1831
453,3294
453,3807
454,44
454,88
454,714
454,732
454,981
454,1643
454,2016
454,2469
454,3167
454,3231
454,3688
454,4624
456,207
456,368
456,394
456,2309
457,408
457,1600
457,3211
457,3549
458,72
458,88
458,114
458,755
458,1364
458,1955
460,3923
460,4365
461,1960
463,3459
464,353
466,147
466,435
466,655
466,709
466,1917
466,2097
466,2632
466,3192
466,3262
466,3384
466,3698
466,3911
469,361
470,36
470,724
470,1420
470,3698
470,3703
471,42
471,2332
472,3728
472,3813
474,15
474,513
474,581
474,2312
474,2916
477,368
477,2318
478,266
478,455
479,1340
479,2337
479,4174
480,40
480,159
480,197
480,896
480,1055
480,1285
480,1367
480,1793
480,1944
480,1986
480,2715
480,3398
480,3941
484,88
484,1154
484,1440
484,2988
484,3928
485,687
485,966
485,3411
488,1256
488,1420
488,2049
488,4529
488,4608
491,822
491,949
491,1893
493,684
493,2760
493,4010
493,4779
494,2977
495,213
495,1003
495,1944
495,2080
495,2172
495,3138
495,3323
496,36
496,127
496,282
496,363
496,600
496,902
496,954
496,1489
496,1717
496,1999
496,2152
496,2421
496,2598
496,2791
496,2809
496,2915
499,3728
499,4140
499,4423
500,915
500,1137
500,1184
500,1876
500,2208
500,2292
500,2853
500,3666
500,3939
500,4085
502,1281
505,577
505,921
505,2888
505,4641
507,285
507,654
507,3708
509,3161
509,3752
510,1709
511,1055
511,2359
511,3837
513,3343
513,3384
514,2281
515,3106
518,4094
518,4741
519,119
519,487
519,3009
519,4594
520,1354
520,3721
520,3765
521,2
521,1276
521,1602
521,1705
521,1864
521,1923
521,2849
521,3064
521,3246
521,3804
521,4997
522,1600
523,3807
526,527
526,691
526,783
526,1383
526,1881
526,3078
526,4328
528,68
528,573
528,949
528,1036
528,1557
528,3343
528,4635
529,20
529,333
529,1349
529,3496
533,4169
534,460
534,635
534,778
534,1910
534,2107
534,2200
534,2771
534,3344
535,1544
535,3457
539,905
539,1483
539,1568
539,1986
539,2044
539,3390
539,3642
539,3923
540,4191
541,892
541,1240
541,2995
544,159
544,630
544,1384
544,2253
544,3386
544,3909
544,4269
545,36
545,210
545,248
545,349
545,654
545,736
545,757
545,789
545,1954
545,1960
545,2634
545,3468
545,3807
545,3813
545,4191
545,4893
547,373
547,525
547,1146
547,1450
547,1600
547,2271
547,2318
547,2653
547,3927
548,993
548,1395
549,1713
552,96
552,350
552,823
552,950
552,1329
552,2388
552,2719
552,3153
552,4322
555,778
555,1727
555,4337
556,36
556,340
556,1659
556,2751
556,4647
557,2
557,612
557,1312
557,1616
561,4997
562,1875
563,1368
563,3030
564,256
568,23
568,26
568,190
568,197
568,236
568,720
568,760
568,1322
568,1415
568,1580
568,1808
568,1902
568,1914
568,2381
568,2788
568,2982
568,3134
568,3232
568,3573
568,3698
568,3797
568,3909
568,4367
568,4523
569,1998
569,3067
569,3404
569,3750
569,4045
569,4652
570,813
571,225
572,1077
572,3390
572,3843
573,47
575,8
575,122
575,131
575,187
575,1532
575,1579
575,1686
575,2168
575,2359
576,1420
576,2523
576,2710
576,3847
576,4933
578,472
582,19
582,158
582,450
582,1350
582,1497
582,2194
582,2521
582,3833
582,4390
582,4941
587,147
587,2186
588,753
588,816
588,3807
588,4565
589,61
589,4756
591,318
591,1606
593,207
595,17
596,388
596,2772
596,4951
597,2422
597,2964
597,3048
597,3064
597,3661
597,3723
597,3998
597,4706
597,4709
598,147
598,4164
599,289
600,159
600,181
600,435
600,495
600,633
600,699
600,788
600,1024
600,1093
600,1312
600,2278
600,2539
600,2624
600,3397
600,3779
600,3801
600,4006
600,4057
600,4452
600,4512
600,4519
600,4530
600,4934
602,19
602,150
602,603
602,1302
602,1821
602,3303
603,4269
604,910
604,1001
604,1541
604,2456
604,4860
605,3833
606,52
606,1539
606,3765
606,4846
607,4860
608,632
610,253
610,2444
610,2872
610,3782
611,2124
614,3347
616,1314
616,1855
618,3444
620,2156
622,2633
626,213
626,4203
627,4510
627,4818
628,50
628,403
630,61
634,1954
635,130
635,1210
635,1430
635,2787
636,190
636,1010
636,1013
636,1826
636,3936
636,4500
636,4897
637,3723
640,328
640,1655
640,2493
640,3171
640,3278
641,323
642,292
642,512
644,4683
645,48
645,140
645,2249
646,65
646,159
646,255
646,468
646,1832
646,2071
646,4363
647,745
647,1097
647,2683
649,75
649,153
649,368
649,659
649,735
649,2277
649,2605
649,2809
649,2879
649,3018
649,4920
651,637
653,1655
653,2124
657,88
658,892
658,1261
658,3588
658,3755
661,621
661,1633
661,2853
661,3323
665,4014
670,248
671,972
671,1625
671,3317
671,4923
672,88
672,897
672,1113
672,1510
672,1651
672,3494
672,4198
672,4357
672,4490
672,4968
674,533
674,686
674,2781
674,4705
675,2604
675,3950
676,1036
676,1783
676,3278
676,3413
676,3692
679,1994
681,333
681,896
681,1692
681,2976
681,3277
681,3411
681,3942
681,4530
683,960
685,31
685,1798
685,1854
685,2993
685,4185
686,2739
687,3080
688,609
688,3944
689,19
689,808
689,1093
689,2401
689,4250
689,4295
689,4527
692,266
692,873
692,3686
693,88
693,585
693,892
693,910
694,4951
695,349
695,426
695,428
695,516
695,760
695,856
695,858
695,1893
695,2059
695,3543
695,4244
697,3764
698,554
698,1188
698,1566
699,412
699,811
699,3647
700,880
700,3689
700,4709
704,408
704,1055
704,2082
704,2598
704,3980
705,31
705,1664
705,1804
705,2330
706,347
706,1276
706,1856
706,2925
706,3851
710,1078
710,3573
711,412
711,727
711,2263
711,4000
712,4337
715,197
717,88
717,469
718,449
719,36
719,2645
721,449
721,2110
722,7
723,1643
723,1893
725,5
725,150
725,1333
725,1752
725,4403
725,4542
728,1033
731,3688
733,3936
734,3330
734,3981
738,105
738,1010
738,2156
738,2245
740,4028
741,180
742,4269
745,147
745,1226
748,403
748,3230
754,360
754,816
754,1649
754,2496
754,3421
755,207
755,478
755,613
755,1994
755,2562
756,17
756,1607
756,4937
758,3503
759,1055
759,2855
763,373
763,577
763,3577
763,4890
764,2198
764,2544
764,2743
764,3080
764,4066
765,550
765,586
765,1162
765,1467
765,1588
765,2419
765,3326
765,3717
765,3900
766,10
766,2156
766,2808
767,24
769,105
769,172
769,3187
770,72
770,580
770,851
770,1123
770,1316
770,3456
771,61
771,4194
771,4709
772,121
772,2638
773,172
774,752
774,1473
774,2211
774,3148
774,3874
774,3919
774,4411
776,17
776,48
776,105
776,419
776,498
776,2410
776,2664
776,2686
776,3617
779,25
782,2780
784,137
784,694
784,1045
784,1317
784,1774
784,2681
784,3638
786,70
791,501
791,2940
798,1395
799,16
799,248
799,695
799,901
799,1353
799,2681
799,2683
799,2955
799,3816
799,3876
800,4112
801,3420
802,1058
802,1412
802,3407
802,4381
802,4400
803,1953
803,2115
803,2679
803,4258
804,3064
807,265
807,1953
807,2502
810,3192
813,243
814,3646
815,119
816,1115
816,4870
817,868
818,451
818,3865
819,1345
819,2156
823,778
823,1740
824,793
825,2463
825,2525
825,3131
825,4086
825,4615
826,40
826,187
826,2302
827,696
827,2611
827,4531
827,4976
828,69
828,691
828,858
828,1296
828,1621
828,2277
828,2631
828,3431
829,121
829,257
829,1044
829,1154
829,1259
829,1955
829,2421
829,2811
829,2940
829,3182
833,1281
833,3923
833,4140
833,4203
834,1933
834,1992
834,4236
835,3242
835,3656
835,4129
836,98
836,685
836,1440
836,3602
838,512
838,1003
838,1010
838,2559
838,2909
839,5
839,31
839,1089
840,1125
840,1594
840,3251
840,4959
841,2536
841,3138
842,886
842,1203
842,2186
842,2352
842,4954
843,71
843,150
843,455
843,526
843,1414
843,2508
843,2800
843,4928
844,892
847,249
847,490
847,1118
847,1246
847,1261
847,1707
847,2353
847,2884
847,3111
847,3406
847,3688
847,4314
848,877
849,503
849,960
849,1364
849,1430
849,2893
849,4027
852,61
852,353
852,1753
852,2219
852,2793
852,3629
852,4722
854,949
854,3390
856,1036
856,2466
856,4764
857,3330
857,4775
858,73
859,1531
860,868
860,4642
861,1910
861,3294
862,735
864,206
864,1898
866,3294
867,972
869,1668
870,154
870,1141
873,644
873,1394
873,3870
874,35
874,167
874,357
874,1354
874,4468
876,3503
877,1279
877,1751
877,3730
879,197
879,1929
882,1278
882,4636
883,744
883,3458
887,121
887,356
887,960
887,2896
887,3027
887,3764
888,177
888,3545
889,1661
889,1916
889,3742
891,180
892,580
893,157
894,36
894,3688
897,720
897,1167
898,2939
900,1590
900,2787
900,3828
903,450
903,508
903,884
903,1428
903,2264
903,2524
903,2840
903,3376
907,69
907,284
907,349
907,419
907,873
907,1360
907,1594
907,2359
907,2751
907,2917
907,2945
907,3138
907,3503
907,3885
908,8
908,468
908,1428
908,2793
909,2262
909,4093
911,42
911,1002
912,16
912,2787
913,3431
913,4624
918,371
918,1075
922,74
922,2494
922,2888
922,4171
923,2883
923,3732
924,334
924,1047
924,4092
925,1107
925,1445
925,1571
925,2939
925,4450
927,243
927,299
927,340
927,560
927,1197
928,51
928,585
928,762
928,895
928,1312
928,2052
928,2081
928,2202
929,3278
930,1986
930,2939
933,140
934,1330
935,50
936,1205
936,1288
936,3107
937,1682
937,3406
939,430
939,1264
939,1428
939,1492
939,1656
939,2147
939,2153
939,2345
939,3633
939,4588
942,88
942,3544
944,830
945,1045
947,153
947,3323
948,360
949,8
949,214
949,460
949,2094
952,35
952,255
952,311
952,352
952,1283
952,1284
952,1954
952,2186
952,2248
953,579
955,4648
956,856
958,140
960,508
960,4123
960,4492
964,351
965,3201
967,699
968,586
968,2605
970,15
970,44
970,483
970,724
970,1889
970,2605
970,3048
970,3145
970,3724
970,4313
972,1461
972,2564
972,2817
972,3155
972,3251
972,3936
972,4561
972,4654
975,366
975,730
975,2156
975,2282
976,2260
976,2771
976,3126
978,153
978,2787
978,3184
978,4706
980,4377
982,1720
982,3340
982,3480
982,3573
982,3680
982,3870
982,4295
982,4448
982,4788
983,360
986,585
986,811
986,1254
986,3080
986,3557
987,51
987,1694
989,3106
990,197
990,498
990,1213
990,4174
994,412
995,793
998,3638
998,4501
999,531
999,743
999,752
999,1496
999,1718
999,2302
999,2319
999,3231
999,3773
999,4915
1000,429
1000,1149
1000,3066
1000,3562
1000,4193
1000,4608
1000,4624
1001,147
1001,1982
1001,2872
1001,4813
1001,4894
1002,4086
1004,140
1004,495
1004,1499
1005,65
1005,742
1005,1017
1005,2482
1006,732
1006,1430
1006,3573
1006,3775
1007,347
1009,1
1009,3294
1009,3969
1011,34
1011,155
1011,412
1011,466
1011,811
1011,3035
1011,4031
1012,432
1012,4966
1015,72
1015,419
1015,880
1015,945
1015,2446
1015,3594
1016,186
1016,1133
1016,2201
1016,2472
1016,3722
1016,4549
1017,1923
1017,2453
1017,2605
1018,260
1018,1910
1019,1649
1020,328
1021,2853
1022,573
1022,2894
1022,4144
1022,4448
1022,4893
1023,157
1023,1262
1023,2633
1023,3538
1023,3925
1026,96
1028,888
1028,4664
1029,8
1029,1774
1031,1261
1031,2873
1031,3818
1032,2872
1033,640
1033,2889
1033,2922
1033,4516
1034,350
1035,116
1035,2718
1037,3764
1039,1264
1039,2312
1039,4330
1040,592
1040,1336
1041,567
1041,792
1041,1239
1041,1473
1041,1652
1041,2302
1041,2868
1041,3697
1042,820
1046,2393
1047,139
1048,147
1048,752
1050,369
1050,1395
1051,197
1052,75
1052,1675
1053,2189
1054,1707
1054,1851
1054,3060
1054,3399
1054,3770
1056,1726
1057,757
1057,2621
1059,14
1059,843
1059,2423
1059,3323
1059,3784
1060,365
1061,202
1061,2277
1061,4576
1062,1944
1062,2533
1063,1887
1063,2307
1063,3701
1063,4244
1065,874
1065,4439
1066,1410
1066,1829
1066,3698
1067,1417
1067,4709
1068,207
1068,1492
1068,2320
1068,3808
1069,3004
1074,18
1074,3356
1076,4676
1077,3294
1079,371
1080,439
1080,1395
1080,3308
1081,668
1081,880
1081,2350
1081,2359
1081,3278
1081,3833
1081,4130
1082,2002
1084,24
1084,127
1084,999
1084,1055
1084,1606
1084,4538
1089,111
1089,787
1089,2745
1091,1312
1091,3865
1094,708
1096,131
1096,585
1096,735
1098,8
1100,352
1103,415
1103,466
1103,1316
1103,4686
1104,72
1104,2096
1104,2744
1104,3640
1105,615
1106,349
1106,3060
1107,2894
1108,543
1108,687
1108,822
1108,1321
1109,473
1109,1354
1109,1988
1111,3925
1112,892
1112,1055
1112,2277
1114,40
1114,3763
1115,61
1115,186
1115,429
1115,431
1115,577
1115,960
1115,1261
1115,1264
1115,2714
1115,3295
1115,3414
1115,4174
1115,4352
1117,121
1118,228
1118,1177
1118,2632
1118,4646
1122,730
1122,3420
1122,4563
1127,121
1127,720
1127,1479
1127,1692
1127,2605
1127,2777
1127,4239
1128,296
1128,743
1129,631
1130,128
1130,202
1130,308
1130,625
1130,729
1130,757
1130,938
1130,1900
1130,2132
1130,2209
1130,2217
1130,2252
1130,2853
1130,2902
1130,2982
1130,3027
1130,3122
1130,3135
1130,3589
1131,727
1132,71
1132,4203
1134,35
1135,354
1135,513
1135,1430
1135,1960
1136,25
1136,465
1136,2129
1136,2357
1136,2747
1136,2867
1136,3696
1136,3829
1136,4681
1139,2359
1142,1176
1142,1406
1142,1573
1142,4894
1144,4857
1145,61
1145,2879
1145,3420
1145,4046
1147,1099
1148,350
1150,3099
1151,349
1151,708
1151,2242
1151,2577
1151,2607
1151,4384
1152,37
1152,574
1152,735
1152,1164
1152,4668
1153,350
1153,1180
1153,1371
1153,1964
1153,2610
1153,2714
1153,3181
1153,3447
1153,3820
1153,3964
1153,4016
1153,4382
1154,121
1154,210
1154,1796
1154,2455
1155,3764
1156,171
1156,538
1156,713
1156,1104
1156,3687
1156,4172
1158,207
1159,37
1159,553
1159,1255
1159,2307
1159,3027
1159,4169
1159,4360
1164,3013
1164,3123
1164,3292
1165,1819
1165,3308
1166,2611
1167,1637
1168,121
1168,3916
1170,1893
1171,354
1173,3290
1175,1098
1177,148
1177,1064
1177,1416
1177,2021
1177,2260
1177,3833
1177,4211
1177,4776
1178,323
1178,2156
1179,1574
1179,2371
1179,3138
1179,4860
1180,3473
1181,1353
1181,3013
1182,3290
1186,816
1187,3444
1193,2956
1193,3510
1194,8
1194,2217
1195,4880
1196,128
1196,1411
1197,816
1197,2035
1198,1717
1198,2977
1199,892
1200,2423
1202,254
1202,631
1202,1659
1202,4250
1204,2446
1205,663
1205,1405
1207,1531
1207,1687
1207,1924
1207,3656
1208,309
1208,3163
1208,3573
1208,4483
1208,4767
1208,4827
1209,121
1209,966
1211,5
1211,2715
1212,2352
1212,2610
1214,1683
1214,3587
1216,40
1216,4624
1218,150
1220,1433
1225,63
1225,177
1226,1886
1226,2421
1228,388
1228,3573
1230,1405
1230,2023
1230,2305
1230,3154
1230,3723
1231,1001
1231,2120
1232,816
1232,1102
1232,1872
1232,1960
1232,3077
1232,3525
1232,4345
1234,2156
1236,439
1236,1511
1238,630
1238,1281
1238,1342
1238,2393
1238,3080
1238,4742
1239,4241
1241,121
1241,136
1241,3150
1241,3833
1241,4235
1243,3278
1245,3294
1245,3441
1247,478
1247,4099
1248,3592
1248,4645
1248,4845
1250,44
1250,1176
1250,1409
1250,3169
1251,131
1251,147
1251,441
1251,1289
1251,1832
1251,2122
1251,4775
1252,426
1252,1581
1252,3688
1254,55
1254,981
1254,1621
1254,1980
1254,2060
1254,2225
1254,2503
1254,4590
1258,10
1258,19
1258,70
1258,580
1258,788
1258,823
1258,1220
1258,2605
1258,2741
1258,3420
1258,3612
1258,4094
1258,4176
1258,4311
1261,4014
1269,2205
1271,979
1271,1085
1271,1954
1271,2932
1271,3060
1271,3501
1272,3198
1275,1879
1275,2582
1275,2611
1275,3807
1277,2359
1277,2972
1281,8
1281,71
1281,482
1281,1115
1281,1706
1281,1999
1281,4462
1282,36
1285,52
1285,114
1285,226
1285,353
1285,585
1285,1119
1285,1201
1285,1222
1285,1364
1285,1643
1285,1785
1285,2038
1285,2048
1285,2281
1285,2841
1285,3228
1285,3565
1285,3584
1285,3723
1285,4417
1285,4742
1285,4924
1286,1101
1287,263
1287,2240
1291,633
1291,2181
1291,2822
1292,4203
1293,172
1293,1999
1293,4188
1294,17
1297,4619
1298,2012
1303,1669
1303,2235
1303,2982
1303,4642
1304,3398
1304,4023
1305,673
1305,3270
1305,4523
1306,3122
1306,3347
1307,2817
1308,2592
1311,72
1311,2115
1311,3323
1313,412
1315,3807
1318,62
1320,2416
1320,2902
1320,3444
1323,253
1323,2977
1324,446
1324,744
1325,4734
1326,492
1326,981
1326,1003
1326,1249
1326,2490
1326,3004
1328,1694
1328,3111
1328,4174
1328,4951
1330,503
1330,1596
1330,2532
1330,2665
1332,2618
1336,223
1337,896
1337,1497
1337,2034
1337,4714
1343,1703
1343,3753
1343,4060
1344,1023
1346,3033
1346,4757
1348,969
1350,1084
1352,1994
1354,37
1355,777
1355,3573
1356,2012
1357,36
1357,781
1357,979
1357,1339
1357,1393
1357,1933
1358,172
1358,583
1358,902
1358,1237
1358,1553
1358,1880
1358,2409
1358,4273
1358,4447
1358,4608
1358,4681
1358,4877
1360,793
1361,248
1361,3414
1362,641
1362,2214
1364,2805
1365,1231
1366,506
1366,1468
1367,552
1367,788
1367,1677
1367,2879
1367,3060
1367,3390
1368,268
1368,434
1368,951
1368,2086
1368,2532
1368,3198
1368,3787
1369,1923
1369,2688
1369,3816
1369,4390
1370,892
1370,1669
1370,2176
1374,1020
1375,2120
1375,2612
1375,3294
1376,4385
1377,1433
1378,778
1379,24
1379,40
1379,1715
1379,1846
1379,2972
1379,3531
1379,3675
1380,119
1381,1785
1382,4174
1385,3997
1386,502
1386,901
1386,2301
1386,2310
1386,3597
1386,4911
1387,121
1387,2281
1388,949
1388,3592
1388,3868
1390,347
1390,612
1390,1104
1390,2229
1391,144
1391,349
1391,422
1391,585
1391,1738
1391,2002
1391,2129
1392,630
1393,4692
1394,2715
1395,1140
1396,17
1396,845
1396,3681
1397,3132
1397,3420
1398,282
1398,2028
1398,2414
1400,504
1400,1719
1401,266
1401,337
1401,349
1401,510
1401,1262
1401,1785
1401,4748
1403,354
1403,1137
1403,1458
1403,3051
1403,3311
1404,72
1404,144
1404,148
1404,303
1404,527
1404,2009
1404,2339
1404,3126
1404,3193
1404,4681
1404,4752
1407,1333
1407,3200
1407,4325
1408,1141
1409,309
1412,2008
1413,207
1413,3229
1413,3915
1415,1422
1417,1020
1417,1237
1419,249
1419,334
1419,1373
1419,2521
1421,652
1424,569
1424,3390
1425,2723
1425,3927
1425,4604
1425,4863
1426,1848
1426,3688
1426,4705
1427,1023
1428,172
1428,792
1428,2334
1428,2618
1428,4478
1430,2462
1430,3323
1431,1367
1435,2739
1436,645
1436,2236
1437,613
1437,796
1438,4519
1439,129
1439,147
1439,651
1439,1283
1439,3320
1442,1629
1443,2262
1444,3833
1446,4448
1448,822
1448,1596
1449,19
1449,119
1449,1055
1453,129
1453,624
1454,816
1454,2107
1454,2209
1454,2739
1454,3286
1456,1792
1456,1903
1456,2176
1457,355
1457,993
1461,1335
1461,2171
1461,2468
1461,2711
1461,3585
1462,3294
1463,214
1469,1652
1469,2951
1472,581
1472,637
1472,1543
1474,362
1474,4405
1478,296
1478,2766
1480,1801
1480,4000
1481,822
1481,3518
1482,35
1482,1944
1482,2066
1482,3798
1484,460
1484,1045
1484,2984
1484,4877
1485,3061
1485,3347
1485,3390
1485,4344
1486,984
1486,1209
1486,2359
1486,3646
1486,3732
1486,4519
1486,4985
1488,3180
1490,961
1490,3752
1490,4961
1491,1663
1491,3923
1493,345
1493,395
1493,486
1493,957
1493,2011
1494,68
1495,1324
1498,777
1499,2590
1501,75
1501,478
1501,981
1501,1944
1501,4917
1502,638
1502,999
1502,2446
1502,2744
1502,3046
1502,3521
1503,450
1504,1875
1504,1992
1504,3299
1505,837
1507,2277
1509,439
1509,466
1509,3290
1509,4571
1511,363
1511,1030
1511,1312
1511,1920
1511,2936
1515,384
1516,91
1517,8
1517,3263
1517,3415
1519,3110
1519,3332
1519,3384
1519,3440
1519,4845
1520,179
1520,796
1520,4191
1520,4452
1522,4683
1523,190
1525,3080
1525,3181
1527,687
1527,1087
1527,3689
1528,1048
1528,3752
1529,1758
1531,351
1531,668
1531,4410
1531,4685
1534,4361
1535,2972
1538,18
1538,2499
1538,3084
1538,3221
1540,69
1540,1774
1540,2243
1540,3034
1540,4203
1540,4673
1542,854
1543,1647
1544,1156
1546,1531
1547,1086
1547,1978
1547,2629
1547,2710
1547,2840
1547,2927
1547,2966
1547,4282
1547,4526
1554,74
1554,2550
1554,3524
1555,25
1556,1987
1558,1266
1559,460
1559,619
1559,872
1559,1372
1559,2412
1559,2433
1559,2908
1559,3820
1559,4568
1561,1125
1561,1704
1561,4126
1561,4236
1562,253
1563,3484
1567,699
1569,352
1569,874
1570,3064
1572,2096
1573,991
1573,2604
1573,3388
1577,1493
1584,123
1584,1482
1584,3294
1584,4452
1587,981
1587,985
1587,2555
1587,3286
1587,4817
1589,387
1589,904
1589,4190
1593,228
1595,222
1595,727
1595,3867
1595,4228
1597,2176
1599,895
1608,331
1608,1025
1608,1506
1608,4351
1609,3198
1609,4138
1609,4823
1610,677
1611,3804
1611,4133
1612,993
1614,2135
1614,4452
1615,351
1615,1259
1615,2723
1615,4619
1615,4886
1616,292
1616,3390
1617,248
1617,516
1618,16
1618,40
1618,1299
1620,1887
1620,4855
1622,1312
1623,1285
1623,1412
1624,3661
1625,8
1625,172
1625,1153
1625,1237
1625,2065
1625,3766
1625,3792
1625,4771
1626,508
1626,531
1626,2200
1626,3443
1627,2274
1627,3420
1629,103
1630,2204
1631,2903
1632,498
1634,29
1634,93
1634,384
1634,579
1634,590
1634,4233
1635,4000
1635,4028
1636,3110
1638,148
1638,2307
1642,1143
1642,1666
1642,3153
1642,4079
1643,2468
1643,2713
1643,3138
1643,3323
1644,7
1644,822
1644,4119
1645,873
1647,3203
1650,957
1650,3938
1653,72
1653,1994
1653,4252
1656,1295
1656,1713
1656,1732
1656,3096
1658,413
1658,3611
1658,3764
1660,2800
1662,202
1662,413
1662,487
1662,711
1662,1055
1662,1354
1662,3598
1664,4043
1665,3879
1667,3384
1670,3813
1671,932
1672,460
1672,1968
1672,2268
1672,3420
1673,2686
1673,2751
1673,4364
1674,3752
1675,105
1679,1289
1679,3082
1679,4059
1679,4735
1684,3584
1685,4517
1686,88
1686,403
1686,418
1686,902
1686,4146
1688,16
1688,380
1688,1284
1688,2110
1688,2443
1688,2508
1688,2813
1688,4334
1689,577
1689,3411
1689,3739
1689,4405
1690,172
1693,25
1694,1774
1694,3503
1696,3828
1698,340
1698,1048
1698,1429
1698,1929
1698,2358
1698,2427
1698,2486
1698,3698
1698,4640
1698,4835
1699,902
1699,1115
1701,1643
1708,4775
1709,1055
1710,1747
1710,1923
1710,4212
1710,4855
1710,4899
1711,601
1712,147
1713,2947
1714,207
1714,1061
1718,4267
1722,1107
1722,1399
1722,1459
1722,1497
1723,207
1723,2580
1724,128
1724,1742
1724,3754
1725,4337
1727,2808
1729,61
1729,2424
1730,171
1731,3444
1734,2736
1734,4712
1735,107
1735,2007
1735,4096
1735,4268
1735,4649
1736,1430
1736,2072
1736,2119
1736,2707
1736,4083
1736,4357
1736,4833
1737,612
1738,4527
1739,1261
1743,585
1743,4623
1744,1177
1744,3278
1744,4566
1746,868
1746,3336
1748,1312
1749,353
1750,157
1750,721
1754,252
1754,4175
1755,1013
1757,3420
1757,4485
1758,51
1759,111
1759,504
1759,1302
1759,2019
1759,3363
1760,202
1760,263
1760,2868
1761,1887
1761,1998
1761,3667
1761,3744
1761,3830
1761,4112
1762,873
1762,3700
1763,513
1763,1851
1763,3529
1765,40
1765,433
1765,585
1765,887
1765,1668
1765,1700
1765,1802
1765,2013
1765,2207
1765,2446
1765,2551
1765,3111
1765,4199
1766,119
1766,180
1766,281
1766,375
1766,481
1766,1355
1767,1557
1767,2612
1769,1354
1770,23
1772,562
1773,1354
1775,1143
1776,1553
1777,378
1777,748
1777,1055
1777,2377
1777,3882
1777,4309
1778,1253
1778,3439
1779,1235
1781,180
1781,427
1781,3125
1781,3961
1782,1836
1782,3411
1782,4238
1785,1412
1786,1265
1787,843
1787,874
1787,2407
1787,3224
1788,4
1788,52
1788,760
1789,119
1789,1832
1789,2034
1789,2437
1789,3976
1789,4630
1790,44
1790,280
1790,388
1790,655
1790,778
1790,1268
1790,1511
1790,1741
1790,1983
1790,2106
1790,2337
1790,2668
1790,3058
1790,4204
1790,4893
1791,377
1794,1694
1794,2879
1794,3396
1794,4505
1798,1911
1798,3972
1798,4893
1800,1273
1800,1532
1800,2560
1800,3603
1800,4078
1803,8
1803,4704
1805,920
1806,3420
1807,36
1809,1910
1811,93
1811,2678
1811,2738
1811,3484
1811,3607
1811,3793
1811,4946
1814,733
1814,1184
1815,1470
1815,3974
1817,1101
1818,4351
1822,2796
1825,778
1827,3946
1828,2873
1828,3566
1829,1405
1830,253
1830,949
1830,2204
1830,3305
1834,1285
1834,1543
1835,213
1835,678
1835,1592
1835,1960
1835,2364
1835,4479
1838,1256
1838,4201
1839,148
1841,1994
1843,1176
1843,2918
1843,3225
1845,639
1845,3720
1846,2021
1846,3588
1847,148
1847,1002
1848,72
1848,3395
1849,4390
1850,373
1850,1377
1850,1514
1850,1968
1850,2467
1850,3468
1850,3494
1852,1319
1855,2746
1856,655
1857,742
1857,2459
1857,2787
1857,4392
1857,4461
1858,365
1859,2835
1860,1177
1860,2802
1861,23
1861,238
1861,750
1861,792
1861,2118
1862,498
1863,892
1864,1713
1868,1654
1869,645
1869,1377
1869,4269
1870,2359
1871,640
1871,1033
1871,4146
1873,248
1873,360
1873,3197
1873,4452
1874,635
1876,794
1876,3704
1877,1143
1882,1354
1883,455
1884,96
1884,3303
1885,3080
1888,643
1890,949
1890,2776
1890,4982
1891,669
1891,3107
1894,871
1895,207
1896,121
1896,159
1896,415
1896,1064
1896,1582
1897,38
1897,147
1897,455
1897,1497
1897,1823
1897,2044
1897,2096
1897,2244
1897,3076
1897,3810
1897,4524
1898,348
1898,1080
1898,1143
1898,1167
1898,3391
1899,8
1900,404
1905,2751
1905,4808
1907,1177
1908,1267
1909,948
1912,2307
1912,4351
1912,4588
1913,1259
1914,1888
1914,3138
1914,3656
1915,4163
1916,1823
1918,140
1918,2525
1918,3997
1919,1168
1921,2397
1921,2574
1921,2604
1922,1409
1923,794
1923,1483
1923,4140
1924,1056
1926,1273
1926,3367
1926,3940
1926,4145
1926,4758
1928,4224
1930,1476
1930,3323
1930,3483
1932,36
1932,2267
1932,4702
1933,1965
1934,309
1934,2612
1934,3429
1934,4773
1935,1312
1935,4301
1936,394
1936,1621
1936,2960
1936,4861
1936,4929
1938,131
1938,572
1938,1001
1940,1639
1941,785
1942,150
1944,1473
1944,1910
1944,3723
1944,3995
1944,4361
1945,171
1945,938
1945,3316
1948,682
1948,1241
1948,1960
1948,2359
1948,2393
1948,3204
1948,3562
1948,4191
1949,460
1949,4067
1950,2544
1951,1967
1951,3005
1952,51
1955,1363
1955,3306
1956,1353
1956,1713
1957,8
1957,536
1957,1352
1957,1628
1957,2169
1957,3196
1957,4436
1958,890
1959,207
1959,248
1959,439
1959,1566
1959,2359
1959,3103
1959,3111
1959,3251
1959,3621
1959,4742
1959,4868
1961,2618
1962,2186
1965,74
1965,1473
1966,4709
1967,949
1969,1599
1969,1694
1969,3002
1970,2812
1971,698
1971,1848
1971,2582
1971,3820
1971,4104
1972,600
1973,69
1973,127
1973,1099
1973,1172
1973,1666
1973,1910
1973,2521
1973,2805
1973,3023
1973,3372
1974,105
1974,197
1974,2528
1974,4467
1975,580
1975,1262
1975,2398
1975,2551
1975,3022
1976,2725
1976,3294
1977,931
1977,2690
1978,4479
1979,739
1980,1164
1981,101
1981,327
1981,892
1981,1648
1981,3833
1981,3905
1984,625
1984,837
1984,2800
1985,14
1985,1110
1985,1201
1985,1832
1985,3474
1985,4232
1986,1023
1986,2493
1986,4174
1986,4591
1987,1055
1989,226
1989,388
1990,439
1992,2533
1993,793
1993,1892
1993,2274
1993,2394
1993,2618
1993,2816
1993,4337
1994,478
1994,580
1994,2697
1994,4624
1995,2186
1995,2533
1995,3638
1995,4496
1996,858
1997,988
1999,20
2000,105
2001,673
2001,2120
2002,855
2002,1432
2002,3201
2002,3848
2003,1740
2005,37
2005,349
2005,1160
2005,3470
2006,581
2006,1652
2008,1652
2008,2782
2013,682
2018,949
2020,1541
2020,3883
2021,57
2021,546
2021,2069
2021,2351
2021,2933
2021,3190
2021,4642
2022,613
2024,172
2024,4311
2025,282
2026,96
2026,1924
2027,394
2027,795
2027,3099
2027,3420
2027,3925
2027,4677
2029,656
2030,796
2031,574
2031,2568
2031,3189
2031,3723
2033,4893
2036,187
2036,352
2036,694
2036,972
2036,1027
2036,2002
2036,2897
2036,4215
2036,4519
2036,4981
2037,240
2037,1364
2037,2189
2037,4639
2041,3688
2044,2128
2044,2695
2045,42
2045,4530
2046,23
2046,450
2046,2245
2046,2393
2046,4693
2050,1477
2051,3294
2052,373
2052,1044
2052,4122
2054,735
2055,3587
2056,2605
2057,581
2057,1598
2058,742
2058,3220
2058,4165
2058,4488
2061,408
2061,3053
2061,4289
2064,349
2064,973
2065,3826
2068,777
2068,2605
2069,68
2073,1740
2074,77
2074,354
2074,429
2074,542
2074,636
2074,655
2074,749
2074,972
2074,1192
2074,1434
2074,1475
2074,1537
2074,1629
2074,1923
2074,2400
2074,3383
2074,3638
2074,3750
2074,3761
2074,3925
2074,3949
2074,4094
2074,4124
2074,4494
2074,4526
2077,664
2077,1661
2083,4269
2085,19
2087,2446
2088,711
2088,3294
2088,3902
2089,1115
2090,3231
2092,2614
2093,137
2093,139
2093,413
2093,1201
2093,1853
2093,2359
2093,2462
2093,3323
2093,4618
2093,4766
2095,1288
2097,2115
2098,8
2098,36
2099,1141
2099,4839
2100,4794
2101,655
2101,1415
2105,16
2108,822
2109,1654
2109,2010
2109,2123
2109,3184
2109,3347
2110,3457
2111,3603
2111,3752
2112,4775
2113,356
2116,380
2116,695
2116,1487
2116,2924
2116,4679
2116,4731
2117,384
2117,4311
2117,4775
2117,4877
2118,1279
2118,1734
2124,1253
2125,581
2125,616
2125,1440
2125,1686
2125,2565
2125,3813
2126,892
2126,1073
2127,938
2130,4460
2130,4857
2131,788
2131,2153
2134,3390
2135,23
2135,147
2135,280
2135,440
2135,635
2135,869
2135,1785
2136,735
2137,158
2138,40
2138,228
2139,2872
2141,61
2141,256
2141,551
2142,411
2142,702
2142,775
2142,919
2142,1163
2142,1333
2142,1373
2142,3138
2142,4029
2142,4684
2146,1336
2146,1465
2146,1832
2148,387
2151,1992
2157,148
2158,531
2159,858
2159,948
2159,2156
2159,2769
2159,4517
2162,1747
2162,2776
2163,2178
2164,3347
2165,1160
2165,1774
2165,1982
2165,2245
2166,574
2169,350
2170,318
2173,487
2173,2484
2174,2544
2174,3350
2174,4488
2175,542
2175,1254
2175,1341
2178,3295
2180,3740
2180,4112
2182,3787
2182,4224
2184,119
2186,1101
2187,72
2187,2550
2188,1840
2189,631
2189,2686
2189,4675
2190,3100
2190,3435
2191,1159
2191,3441
2195,837
2195,2967
2196,809
2196,896
2196,1893
2196,4050
2197,206
2199,466
2201,3004
2201,4890
2205,40
2205,147
2205,959
2205,1434
2205,1753
2205,3420
2205,3760
2206,1832
2209,144
2210,1482
2210,3864
2212,1240
2216,1353
2216,4092
2217,144
2217,874
2217,928
2217,1302
2218,1784
2218,2559
2218,3288
2218,3819
2221,562
2222,116
2223,2115
2224,635
2224,3695
2226,3201
2227,2680
2228,1075
2228,3132
2229,797
2229,1089
2229,2248
2229,4272
2234,1654
2237,4405
2238,2796
2239,3294
2246,669
2247,1654
2247,2834
2250,554
2250,2511
2250,3616
2250,4956
2251,252
2251,4287
2252,4972
2253,2820
2255,3
2256,119
2256,651
2260,476
2260,687
2261,846
2261,1922
2263,450
2265,19
2267,80
2267,1372
2267,2866
2267,3383
2267,3553
2269,254
2270,214
2272,1855
2275,2917
2276,5
2278,1797
2279,450
2279,1333
2279,2546
2280,1923
2280,2706
2280,3360
2280,4132
2281,3587
2283,1261
2284,2079
2285,1177
2286,19
2286,170
2286,1944
2286,2421
2286,3915
2286,4452
2289,15
2290,1663
2290,3573
2293,1080
2293,1764
2294,656
2294,1428
2294,1607
2295,1201
2295,3505
2295,3602
2296,8
2296,4543
2297,3145
2297,4851
2299,1273
2299,3712
2299,4049
2300,2121
2302,17
2302,37
2302,68
2302,158
2302,253
2302,460
2302,583
2302,652
2302,668
2302,735
2302,796
2302,877
2302,1257
2302,1262
2302,1312
2302,1429
2302,1539
2302,1908
2302,2155
2302,2233
2302,2313
2302,2359
2302,3357
2302,3521
2302,3647
2302,3752
2302,3757
2302,3813
2302,4172
2302,4267
2302,4277
2302,4321
2304,2179
2306,862
2306,3646
2310,1364
2314,1055
2314,1199
2314,1983
2316,2185
2321,1440
2323,2982
2323,3536
2324,949
2324,4510
2325,2036
2325,2155
2326,1812
2327,20
2327,375
2328,811
2333,265
2333,307
2333,1088
2333,1331
2333,1571
2333,2395
2333,3138
2333,3587
2333,3752
2335,1141
2335,1156
2335,1492
2335,1543
2335,3153
2337,69
2339,2564
2339,3000
2340,581
2341,1717
2342,744
2342,4021
2342,4642
2343,1992
2346,1508
2348,243
2348,1354
2348,3656
2348,4035
2349,702
2352,71
2352,822
2352,2518
2352,2725
2352,3739
2353,4
2353,17
2354,354
2354,2277
2356,917
2357,1652
2357,2565
2357,2671
2360,1633
2362,2868
2362,2949
2365,1544
2366,2421
2368,495
2368,3513
2369,88
2372,3587
2372,3804
2373,973
2374,1092
2375,210
2376,1935
2378,119
2379,93
2380,4527
2382,1999
2383,2536
2383,4473
2383,4497
2384,2249
2385,3107
2387,1629
2387,2755
2387,4245
2389,130
2389,2605
2390,4166
2392,1156
2392,2471
2392,2956
2393,4642
2396,858
2397,527
2397,1442
2397,3777
2399,871
2402,352
2403,2014
2403,3503
2404,613
2405,1330
2406,609
2406,2785
2408,2002
2410,2200
2411,195
2411,640
2411,730
2411,1124
2411,1514
2411,2156
2411,4519
2412,2665
2413,1090
2415,309
2417,243
2418,2946
2420,4351
2421,150
2422,41
2422,69
2422,128
2422,439
2422,462
2422,724
2422,921
2422,977
2422,1219
2422,1518
2422,1751
2422,2735
2422,2845
2422,3193
2422,3606
2422,4501
2422,4508
2422,4893
2424,503
2424,2792
2424,3967
2424,4387
2425,4322
2426,265
2429,916
2430,743
2430,1652
2430,3903
2431,687
2431,1774
2434,823
2434,3656
2435,2329
2438,296
2438,1003
2438,1532
2438,3107
2439,2217
2440,2715
2440,2938
2440,3436
2440,4125
2441,147
2445,2359
2446,353
2447,4191
2448,248
2448,780
2448,3206
2449,874
2449,1261
2449,3536
2450,35
2450,74
2450,2108
2451,1927
2452,1163
2452,1220
2454,1235
2454,1354
2454,2209
2454,2861
2458,2855
2458,3856
2460,207
2460,695
2461,3358
2461,4860
2465,3055
2465,4520
2468,72
2468,749
2468,778
2468,961
2468,1471
2468,1512
2468,2204
2468,2277
2468,3294
2468,3303
2468,3984
2468,4390
2468,4463
2473,306
2473,380
2473,1001
2473,1295
2473,1963
2473,2071
2473,2124
2473,2816
2473,2940
2473,4135
2473,4191
2473,4519
2474,14
2474,222
2476,4893
2477,641
2479,159
2479,2231
2479,4172
2479,4517
2481,392
2482,57
2482,1412
2482,1512
2482,1654
2482,1676
2482,1954
2482,2359
2482,2582
2482,2943
2482,3415
2482,3462
2482,3570
2482,4418
2482,4619
2482,4642
2483,72
2483,2446
2483,3178
2485,1299
2485,3331
2491,93
2492,44
2495,1983
2495,2611
2498,4588
2501,972
2505,1191
2506,4236
2507,1350
2509,1606
2509,2181
2509,4728
2510,345
2510,3682
2510,3809
2510,4894
2511,1249
2511,4331
2511,4719
2513,4642
2514,1162
2514,1273
2515,1694
2515,3751
2515,3922
2515,3961
2516,1070
2517,228
2518,400
2520,8
2520,296
2520,2546
2520,3323
2522,121
2522,1960
2526,2070
2527,2071
2527,4082
2529,220
2530,16
2532,412
2532,1261
2532,3764
2532,4486
2533,36
2533,228
2533,471
2533,538
2533,1244
2533,3573
2534,69
2534,1355
2534,2359
2535,3344
2536,14
2536,366
2536,2673
2536,3345
2536,3956
2536,4895
2537,282
2537,1543
2537,4192
2537,4826
2538,645
2538,3995
2538,4094
2540,4337
2541,3420
2542,4191
2545,2262
2547,2739
2548,65
2552,916
2556,62
2556,848
2556,1184
2556,2812
2558,1001
2561,36
2561,308
2561,2462
2563,1239
2565,1768
2565,2359
2566,685
2566,776
2566,4092
2569,180
2569,1184
2571,3807
2571,4860
2572,1446
2573,932
2575,207
2576,23
2576,202
2576,228
2576,310
2576,721
2576,1266
2576,1354
2576,1616
2576,2639
2576,2799
2576,3064
2576,4337
2576,4482
2576,4683
2576,4913
2578,1557
2578,4695
2578,4941
2579,393
2579,2586
2579,4951
2583,1411
2583,1445
2583,1447
2583,2962
2583,3158
2583,4058
2584,3201
2585,1492
2585,1720
2587,2277
2588,3065
2589,1055
2589,4847
2590,1744
2591,254
2592,139
2593,733
2593,4174
2594,1998
2596,2879
2597,4505
2600,1338
2601,1514
2602,1099
2603,896
2603,3955
2605,969
2605,1240
2605,3236
2606,1713
2607,3364
2608,1939
2609,75
2610,1994
2611,1524
2612,1086
2612,2017
2612,3022
2614,2947
2617,1231
2618,3936
2619,4972
2620,91
2620,902
2620,3688
2621,924
2622,757
2622,1337
2622,2079
2622,3732
2622,3738
2622,4672
2623,2853
2625,4951
2626,16
2626,44
2626,140
2626,321
2626,356
2626,450
2626,544
2626,550
2626,559
2626,613
2626,628
2626,659
2626,820
2626,902
2626,960
2626,981
2626,1176
2626,1253
2626,1482
2626,1513
2626,1864
2626,1886
2626,2084
2626,2367
2626,2393
2626,3181
2626,3231
2626,3278
2626,3570
2626,3627
2626,3766
2626,4829
2626,4855
2627,345
2627,729
2628,36
2630,655
2631,2814
2631,3708
2635,350
2636,2989
2636,4191
2637,435
2637,2393
2640,1465
2640,4965
2641,4637
2643,2669
2644,1586
2646,2145
2646,2267
2646,3056
2648,466
2648,1377
2650,68
2650,3278
2651,577
2652,643
2654,1405
2655,4789
2656,1680
2657,2483
2658,1354
2658,3719
2659,69
2661,1944
2661,2662
2663,1924
2665,72
2665,77
2665,253
2665,322
2665,354
2665,368
2665,449
2665,478
2665,531
2665,585
2665,635
2665,1014
2665,1235
2665,2042
2665,2200
2665,2205
2665,3688
2665,3723
2665,3728
2665,3816
2666,36
2666,186
2666,1747
2666,4269
2667,147
2669,72
2669,492
2669,695
2669,1124
2669,1745
2669,2557
2669,2831
2669,3296
2669,3698
2669,4448
2669,4626
2670,781
2672,1146
2672,2169
2677,1475
2677,2792
2679,8
2679,716
2679,3294
2679,3413
2680,601
2682,1350
2682,2607
2682,2852
2682,3080
2687,2997
2688,71
2688,1600
2689,18
2689,48
2689,129
2689,291
2689,355
2689,368
2689,384
2689,472
2689,1482
2689,1840
2689,2604
2689,2821
2689,4636
2689,4782
2689,4999
2691,1157
2693,147
2693,148
2693,613
2693,695
2693,897
2693,1904
2693,1946
2693,2154
2693,2156
2693,2288
2693,2359
2693,3371
2693,3527
2693,4538
2694,355
2694,4431
2696,2204
2698,28
2700,3823
2702,635
2703,8
2704,775
2704,1887
2704,1937
2704,3027
2708,323
2708,333
2708,1721
2708,1933
2708,2150
2708,2189
2708,2615
2708,3292
2708,3497
2708,4412
2709,114
2716,619
2717,842
2719,3815
2720,4269
2721,2061
2724,1732
2726,299
2728,5
2728,424
2728,865
2728,1560
2728,2194
2728,3420
2728,3662
2729,760
2730,2879
2731,917
2731,3591
2731,4832
2732,148
2732,380
2732,2193
2732,2332
2732,3990
2737,865
2737,2854
2739,249
2739,527
2739,1285
2739,1545
2739,2015
2739,2432
2739,2464
2739,2544
2739,2701
2739,2712
2739,2782
2739,3106
2739,3303
2739,3415
2739,3555
2739,3708
2739,4313
2740,737
2742,73
2748,4530
2749,1893
2750,265
2751,796
2753,131
2753,353
2753,1338
2753,4690
2754,1568
2756,44
2756,1944
2756,2869
2756,3635
2756,4791
2757,2645
2758,28
2758,1261
2758,2115
2758,2393
2758,4962
2759,2245
2761,2847
2761,3100
2762,4997
2764,2217
2765,435
2767,758
2768,1389
2770,1416
2770,3698
2770,3865
2774,779
2774,3291
2778,207
2779,2562
2779,2732
2779,4974
2780,1016
2780,2568
2780,2828
2780,3908
2783,36
2783,114
2783,202
2783,282
2783,299
2783,512
2783,777
2783,899
2783,1011
2783,1524
2783,1717
2783,1922
2783,1923
2783,1947
2783,2035
2783,3080
2783,3520
2783,3803
2783,3967
2783,4203
2783,4935
2784,1314
2784,3552
2785,28
2785,36
2785,237
2785,373
2785,1012
2785,1038
2785,1092
2785,1184
2785,1393
2785,1524
2785,2102
2785,3846
2785,4421
2785,4893
2786,17
2786,71
2786,625
2786,1115
2786,3858
2786,4422
2789,350
2789,1157
2789,1459
2790,1249
2790,2582
2791,475
2792,435
2792,932
2794,1694
2795,2544
2796,743
2797,669
2800,2728
2800,3137
2800,3748
2801,4212
2803,2244
2804,2370
2806,4131
2807,2616
2810,2032
2812,753
2812,1500
2812,1878
2812,2103
2812,2217
2812,3762
2812,4262
2812,4642
2817,1201
2818,1321
2819,3186
2819,4997
2823,1751
2824,2414
2825,69
2825,783
2825,979
2825,2887
2826,3193
2826,4231
2827,159
2827,690
2827,3699
2827,3828
2829,4742
2830,1093
2831,2645
2832,615
2832,2186
2833,40
2833,4409
2835,2618
2835,3278
2835,3448
2836,1686
2838,3013
2840,3659
2842,1726
2842,2771
2843,1124
2844,2233
2846,426
2846,1350
2846,2393
2846,2520
2846,3274
2846,3764
2848,1016
2850,23
2851,584
2851,690
2851,3442
2851,3455
2856,3807
2858,742
2859,437
2860,248
2860,655
2860,656
2860,1090
2860,1116
2860,1698
2860,2044
2860,2714
2860,3424
2860,4327
2860,4373
2861,718
2861,1616
2863,3181
2863,4642
2864,2185
2865,910
2865,3130
2866,393
2866,1049
2866,3794
2870,150
2870,2359
2870,3962
2873,51
2873,57
2873,334
2873,361
2873,2977
2873,3711
2873,4580
2874,3494
2875,81
2876,787
2877,1906
2877,2395
2877,2668
2878,2898
2880,1733
2881,793
2881,1933
2881,2832
2881,3812
2882,2503
2885,988
2885,2496
2885,3645
2886,10
2888,1968
2888,2693
2889,2331
2890,36
2890,1261
2890,2738
2891,946
2891,1734
2891,2260
2891,3691
2892,213
2894,1414
2894,3541
2894,4298
2895,4105
2898,600
2898,985
2898,2531
2899,1189
2899,1196
2899,3755
2900,88
2901,1786
2901,3361
2901,3406
2904,2639
2905,180
2906,148
2906,806
2906,1201
2906,1433
2906,2156
2906,2604
2907,577
2910,36
2911,148
2911,157
2911,280
2911,1124
2911,2839
2912,959
2913,1411
2913,2377
2917,450
2917,601
2919,2039
2919,3645
2922,993
2923,2015
2923,3315
2926,234
2928,88
2928,1030
2928,1482
2928,2203
2928,2212
2928,3931
2928,4229
2930,1875
2931,296
2935,3420
2939,8
2939,1363
2939,2605
2939,3463
2941,348
2942,1115
2942,2636
2943,1262
2947,1867
2948,1167
2950,4405
2951,904
2952,93
2952,3945
2953,147
2953,2156
2954,2831
2956,384
2956,887
2956,3294
2957,645
2958,4951
2961,2676
2963,153
2965,282
2968,93
2968,517
2968,2156
2968,2315
2968,3340
2968,4550
2968,4615
2969,226
2970,3303
2971,2397
2973,31
2973,3688
2974,1289
2979,40
2979,162
2979,360
2979,1055
2979,2313
2979,3619
2979,4461
2979,4484
2981,794
2983,280
2985,2156
2986,4416
2987,328
2991,993
2992,8
2992,640
2994,787
2998,544
2998,3637
2998,4301
2998,4355
2999,1170
3006,2106
3007,1299
3008,280
3008,2568
3010,68
3011,537
3011,1261
3011,2122
3011,3032
3011,3729
3012,4636
3013,3338
3014,1119
3016,1124
3017,1001
3018,56
3018,88
3018,131
3018,140
3018,148
3018,394
3018,439
3018,476
3018,739
3018,813
3018,892
3018,897
3018,1324
3018,1338
3018,1752
3018,2053
3018,2061
3018,2769
3018,3580
3018,4092
3018,4479
3018,4605
3019,655
3019,3769
3019,3798
3019,4689
3019,4738
3020,981
3020,4075
3022,656
3022,1090
3022,1169
3022,4362
3024,248
3025,531
3025,1368
3025,1522
3025,2012
3025,2490
3026,5
3026,17
3026,147
3026,960
3026,988
3026,992
3026,1290
3026,1616
3026,2036
3026,2329
3026,2533
3026,2644
3026,2683
3026,2745
3026,2947
3026,3029
3026,3220
3026,3351
3026,3441
3026,3716
3026,4094
3026,4637
3026,4762
3028,187
3028,687
3028,1141
3028,1594
3028,2538
3029,4535
3030,1024
3031,886
3031,2204
3031,2359
3031,3766
3031,3827
3031,3917
3031,3986
3031,4440
3031,4638
3031,4859
3036,1607
3036,1816
3036,2605
3040,319
3041,419
3041,3102
3041,3498
3043,2722
3043,4222
3044,1602
3047,850
3047,4684
3049,157
3049,3026
3050,2337
3052,122
3052,4590
3060,1164
3060,1489
3062,896
3062,2186
3063,93
3063,667
3063,3551
3066,253
3066,426
3066,1102
3066,2660
3066,2714
3066,2929
3066,4002
3069,580
3069,970
3069,1482
3069,4881
3072,130
3073,427
3074,2792
3075,2203
3075,2322
3079,4567
3080,3077
3083,1434
3084,131
3084,289
3084,2442
3085,498
3086,2604
3087,4330
3088,862
3088,4588
3090,3290
3091,1253
3091,1608
3091,2281
3091,2681
3091,2686
3091,2787
3091,3060
3091,3415
3092,245
3092,3054
3094,280
3095,8
3098,88
3100,916
3100,1598
3100,2311
3100,2714
3101,129
3102,1572
3102,2906
3104,363
3104,2333
3104,4196
3107,252
3107,1666
3107,2096
3107,2344
3107,2939
3107,3204
3107,3613
3107,3694
3108,121
3108,513
3109,131
3109,3289
3112,1149
3113,172
3114,4010
3115,643
3115,4076
3116,2081
3117,412
3118,2940
3119,181
3121,527
3122,36
3122,124
3122,349
3122,393
3122,408
3122,475
3122,843
3122,1176
3122,1812
3122,2021
3122,2067
3122,2262
3122,2274
3122,2377
3122,2695
3122,2787
3122,2977
3122,2988
3122,3106
3122,3807
3122,4205
3122,4297
3122,4517
3122,4641
3122,4893
3123,172
3124,1676
3125,244
3125,2879
3126,3317
3127,1237
3128,148
3129,1036
3129,2544
3131,2278
3133,803
3136,5
3136,3037
3136,3427
3138,2867
3139,486
3142,1047
3142,4456
3143,2393
3144,553
3146,3415
3146,4970
3147,895
3149,403
3149,3920
3151,2714
3154,69
3154,344
3154,812
3154,1146
3154,1927
3154,2317
3154,3834
3154,3858
3154,4687
3155,1967
3155,2478
3156,2745
3157,1596
3159,2631
3159,3866
3160,3435
3161,4250
3163,621
3163,2446
3163,2728
3164,132
3164,830
3164,877
3164,3605
3164,4351
3165,2245
3166,1954
3166,2470
3166,4848
3168,794
3168,1197
3168,4583
3172,238
3173,1219
3173,2063
3173,3752
3173,3833
3174,57
3175,1364
3176,455
3178,40
3179,26
3180,733
3183,8
3185,1350
3187,1317
3187,1423
3187,3470
3189,585
3192,266
3195,450
3197,111
3197,1086
3197,2798
3198,492
3204,371
3204,1055
3204,1466
3204,1944
3205,2611
3207,3027
3207,3294
3209,1240
3210,2133
3211,3505
3213,207
3214,254
3214,2002
3215,778
3216,4238
3217,1681
3219,716
3221,3071
3222,846
3223,655
3223,4311
3225,4448
3227,372
3227,837
3227,1552
3227,1946
3227,4819
3231,1713
3233,200
3233,475
3233,2745
3233,3303
3233,3726
3233,3773
3234,147
3234,4040
3234,4718
3236,8
3236,2554
3236,3290
3238,2204
3240,282
3240,2693
3240,4232
3241,430
3242,254
3243,4245
3245,2214
3245,4356
3247,2203
3247,3651
3248,871
3250,4191
3251,2192
3251,3080
3252,1911
3253,991
3255,2416
3257,1955
3257,4113
3258,1319
3260,8
3261,207
3261,3347
3261,4141
3265,51
3266,1832
3267,129
3268,2903
3269,2301
3270,1088
3272,1201
3272,4256
3273,8
3273,76
3273,179
3273,1190
3273,1756
3273,3820
3274,1124
3276,1120
3276,1285
3278,737
3278,1412
3278,1702
3278,2685
3278,4286
3278,4517
3278,4908
3280,887
3281,1910
3282,2302
3283,2546
3284,3587
3286,1355
3287,508
3287,2512
3290,3060
3293,2716
3297,1184
3300,3384
3302,450
3303,3293
3304,2286
3307,72
3308,3248
3309,1196
3310,388
3312,3080
3312,4557
3313,1123
3314,1010
3315,4196
3317,3110
3318,4849
3319,1732
3321,655
3322,200
3324,19
3325,147
3327,584
3327,1164
3327,1832
3327,2104
3327,3584
3328,3791
3328,4893
3329,3122
3330,3227
3333,478
3333,4061
3334,1260
3334,1705
3334,3027
3338,5
3338,72
3338,439
3338,455
3338,501
3338,949
3338,1283
3338,1422
3338,1744
3338,1943
3338,3060
3338,3868
3338,4705
3339,8
3341,427
3342,147
3342,2249
3342,3382
3346,4203
3348,36
3348,1080
3354,228
3356,1207
3356,4572
3359,238
3362,1013
3363,1613
3364,874
3364,4925
3366,4163
3367,373
3369,1566
3370,669
3370,2052
3370,2177
3370,2565
3372,2612
3372,4115
3373,222
3374,2048
3375,988
3377,638
3379,5
3379,873
3379,1372
3381,121
3383,130
3383,2971
3385,478
3389,655
3392,1395
3393,1511
3394,1014
3396,979
3396,2621
3396,2675
3396,3390
3400,36
3402,1388
3403,778
3404,4889
3405,2929
3406,4
3406,4313
3408,371
3408,1446
3409,1124
3409,4449
3412,351
3412,2552
3414,36
3416,2129
3417,429
3417,1012
3418,65
3419,408
3422,119
3423,678
3425,4452
3426,2831
3426,3174
3430,3393
3432,119
3432,122
3432,136
3432,451
3432,619
3432,1137
3432,1434
3432,1640
3432,1924
3432,3415
3433,1514
3434,8
3436,353
3436,640
3436,4157
3437,69
3438,446
3438,770
3438,822
3438,914
3438,932
3438,1055
3438,1333
3438,1467
3438,1774
3438,1902
3438,4099
3441,2140
3442,17
3442,50
3442,137
3442,305
3442,580
3442,732
3442,735
3442,892
3442,943
3442,949
3442,988
3442,1043
3442,1339
3442,1352
3442,1591
3442,2262
3442,2839
3442,2926
3442,2980
3442,3081
3442,3192
3442,3337
3442,3666
3442,3728
3442,3982
3442,4237
3442,4977
3444,2102
3445,1364
3446,88
3446,3537
3449,531
3450,131
3450,1295
3451,228
3451,2230
3451,3236
3453,460
3453,744
3453,785
3453,945
3453,1055
3453,1161
3453,1327
3453,1726
3453,2813
3453,2894
3453,3576
3453,4182
3453,4429
3454,1409
3458,552
3458,1260
3458,1646
3458,2951
3458,3235
3459,2346
3460,4099
3461,127
3462,311
3462,4790
3464,3301
3466,2308
3467,1337
3468,796
3468,3673
3470,4879
3471,2559
3472,902
3474,695
3474,1532
3474,1923
3474,4600
3475,1592
3475,2675
3476,4997
3478,131
3479,1056
3481,901
3482,2086
3486,1099
3489,792
3491,931
3492,3739
3493,3365
3495,4520
3499,1176
3500,466
3502,2508
3502,4117
3503,41
3503,483
3503,1263
3505,1364
3506,2879
3507,2089
3508,3954
3508,4182
3509,1314
3509,1539
3509,2719
3509,4377
3509,4808
3510,2533
3511,3420
3512,107
3513,147
3513,4879
3514,856
3515,473
3519,248
3520,1652
3520,3886
3523,2277
3526,4110
3530,476
3532,3936
3533,3765
3535,1056
3537,1354
3540,44
3540,2494
3545,580
3545,652
3545,4836
3546,792
3547,44
3547,946
3547,1245
3547,1640
3547,2854
3548,822
3548,4708
3552,8
3552,179
3552,630
3552,696
3552,1023
3552,1350
3552,1432
3552,2799
3552,4034
3552,4094
3552,4479
3554,4681
3557,1237
3557,4997
3558,1312
3559,3128
3560,186
3561,562
3562,50
3562,2179
3562,3780
3563,282
3563,3552
3564,2183
3564,3004
3564,3198
3564,3588
3566,455
3566,1993
3567,350
3567,2266
3567,2425
3569,531
3571,778
3572,68
3574,88
3574,701
3574,2811
3574,3832
3575,4608
3576,4402
3578,4975
3581,1406
3583,1539
3586,3384
3588,2371
3591,1253
3591,4996
3592,254
3592,537
3592,1347
3592,4267
3595,4330
3596,4509
3599,848
3599,4902
3600,4238
3601,28
3604,402
3607,449
3607,3271
3607,4894
3608,720
3614,1774
3614,4437
3616,2662
3619,96
3619,309
3619,615
3619,3470
3620,3163
3622,619
3622,1512
3623,2536
3624,1722
3626,2209
3626,3528
3628,2446
3630,351
3631,1539
3631,2047
3631,4240
3631,4261
3632,1273
3634,3194
3635,380
3637,2
3637,4658
3639,3954
3641,99
3643,1808
3644,544
3646,121
3646,173
3646,2347
3646,2473
3647,777
3648,1744
3649,4362
3652,24
3652,4852
3653,2760
3655,25
3655,532
3655,543
3655,707
3655,1955
3655,2714
3655,4191
3657,4688
3658,2524
3660,632
3660,1080
3660,1261
3660,1719
3660,2262
3660,3380
3661,1628
3664,15
3664,2899
3664,3401
3668,2611
3669,2951
3670,600
3670,3881
3671,412
3672,1023
3672,2879
3674,323
3677,3625
3677,4485
3678,2605
3679,351
3679,781
3679,1411
3679,3873
3680,340
3684,2482
3685,450
3688,2741
3693,3484
3698,2609
3699,41
3702,2266
3705,2832
3706,292
3709,916
3709,1533
3709,2567
3709,4403
3710,1998
3710,3932
3713,635
3714,3323
3721,735
3721,1837
3721,4269
3723,2605
3723,3097
3725,963
3725,1929
3727,8
3727,1171
3728,40
3729,292
3730,135
3730,2688
3731,71
3731,2302
3733,640
3733,4980
3734,1355
3736,3925
3736,4302
3737,1016
3737,4089
3737,4751
3739,1607
3741,245
3745,2141
3745,3861
3746,1388
3747,513
3749,892
3749,4830
3753,1893
3755,3897
3756,1093
3759,696
3759,4680
3760,369
3760,2582
3760,4191
3767,207
3768,1954
3768,2766
3771,3708
3772,2338
3772,2358
3774,2665
3776,350
3777,513
3777,2203
3777,2605
3778,51
3778,3552
3781,3086
3783,289
3783,306
3784,3294
3785,1388
3786,1167
3788,1960
3789,1262
3789,4606
3789,4705
3790,1669
3790,3170
3795,368
3795,892
3795,2277
3795,3873
3795,4465
3796,371
3797,508
3797,1261
3799,2332
3800,3557
3802,2755
3805,745
3806,4951
3807,752
3810,1222
3811,2002
3812,778
3814,981
3814,1141
3814,1487
3814,2377
3814,3193
3817,1616
3821,637
3824,2787
3825,1101
3829,292
3831,4894
3833,753
3835,2167
3836,40
3836,1220
3838,1055
3838,4905
3839,392
3839,1616
3839,1713
3839,2302
3839,3358
3839,3650
3839,4028
3840,2431
3842,28
3842,625
3842,1799
3842,1933
3842,2480
3842,2849
3842,3199
3842,4182
3842,4397
3845,197
3845,531
3850,3318
3854,4322
3855,1016
3857,4269
3862,983
3863,1433
3868,525
3868,666
3868,4182
3868,4519
3872,1333
3875,3027
3875,4030
3877,1576
3878,613
3878,720
3878,1587
3878,4151
3878,4501
3879,2967
3879,3895
3880,2075
3884,3699
3887,2
3888,1844
3889,2359
3890,542
3890,1992
3890,3584
3891,794
3892,1093
3893,897
3894,778
3894,1700
3894,1893
3894,2792
3894,3452
3898,743
3898,3457
3899,4360
3901,1476
3903,1823
3903,1992
3904,263
3904,2645
3904,4573
3906,2730
3907,502
3910,2096
3912,720
3913,1568
3914,4392
3919,282
3919,394
3919,510
3919,656
3919,830
3919,1159
3919,2298
3919,2390
3919,2871
3919,4813
3921,1442
3924,186
3926,2723
3927,1641
3929,673
3930,93
3933,3414
3934,3372
3935,917
3935,4485
3936,363
3936,489
3936,785
3936,2176
3937,2866
3939,530
3939,1008
3939,2198
3939,2263
3944,873
3944,1906
3944,2733
3944,3282
3944,3752
3944,4661
3944,4711
3946,2675
3946,3603
3947,3804
3947,4631
3948,281
3948,3184
3951,2345
3957,963
3958,2995
3959,1047
3960,3384
3963,632
3965,57
3965,3720
3966,783
3968,1473
3969,4448
3971,1001
3973,238
3973,319
3973,387
3973,478
3973,629
3973,3279
3973,3420
3973,3475
3973,3488
3973,4292
3975,75
3977,3436
3978,108
3979,4351
3981,1640
3983,1459
3985,144
3987,119
3987,1929
3987,4288
3988,88
3989,1395
3991,68
3991,4873
3993,153
3994,4099
3997,2959
3999,4542
4001,33
4001,51
4001,165
4001,486
4001,1072
4001,1512
4001,1652
4001,1824
4001,2358
4001,2416
4001,2965
4001,4286
4003,1260
4005,2773
4007,2277
4007,4763
4008,1669
4008,4452
4009,426
4010,525
4010,2835
4011,108
4011,143
4011,709
4011,1603
4011,2040
4011,2359
4011,4203
4011,4893
4012,3141
4012,3494
4013,72
4013,426
4013,1600
4013,2488
4013,3413
4013,4092
4013,4530
4014,581
4015,392
4017,1075
4017,2217
4018,65
4018,3723
4019,225
4020,430
4021,36
4021,127
4021,131
4021,167
4021,388
4021,1001
4021,1409
4021,2109
4021,3420
4021,3661
4021,3812
4024,44
4025,361
4026,981
4031,68
4032,3473
4033,2262
4036,4247
4037,926
4038,742
4038,2359
4039,4544
4041,1013
4042,1164
4042,4598
4044,2423
4048,187
4048,859
4048,2277
4048,3593
4050,318
4050,1901
4050,3140
4050,3226
4051,91
4052,1180
4053,2
4054,380
4054,905
4054,4570
4058,3849
4060,256
4062,8
4064,981
4064,2375
4064,4794
4065,77
4066,513
4068,1785
4069,856
4070,2214
4070,4405
4071,1639
4071,4368
4072,655
4073,1981
4074,1944
4077,396
4079,3521
4080,565
4080,1188
4081,98
4084,1887
4087,329
4087,699
4087,3365
4087,3539
4088,8
4090,1968
4090,3998
4090,4269
4090,4893
4091,2053
4092,8
4092,225
4092,1740
4093,2141
4093,3107
4093,3441
4093,3813
4093,4619
4093,4849
4094,2313
4095,3138
4097,2067
4098,985
4099,402
4099,1285
4100,17
4100,1600
4101,4903
4102,2160
4103,253
4104,1621
4106,19
4106,130
4106,1302
4106,1313
4106,1396
4106,3208
4106,4717
4106,4862
4107,61
4107,88
4107,304
4107,502
4107,534
4107,1047
4107,1089
4107,1808
4107,1810
4107,2258
4107,2581
4107,2921
4107,3536
4107,4234
4108,4530
4110,793
4110,1785
4110,4665
4111,1372
4111,4955
4113,103
4113,329
4113,1136
4113,1289
4113,2014
4113,2076
4113,2140
4113,4700
4114,914
4116,4109
4118,1832
4120,655
4120,2933
4121,3221
4128,3468
4129,61
4129,93
4129,353
4129,403
4129,408
4129,663
4129,892
4129,1239
4129,1583
4129,1722
4129,2359
4129,2444
4129,2604
4129,2751
4129,2837
4129,3344
4129,3718
4129,4475
4129,4803
4129,4820
4129,4945
4134,427
4135,214
4135,326
4135,408
4135,466
4135,1215
4135,1654
4135,2895
4135,3868
4137,8
4139,3528
4142,36
4143,1353
4144,2489
4147,148
4150,25
4152,2014
4152,2824
4152,3676
4154,1910
4155,1409
4155,4354
4156,919
4158,1713
4158,3106
4160,1412
4160,4169
4162,2144
4162,2693
4162,3106
4162,3286
4162,4169
4164,668
4165,495
4169,2391
4170,3828
4173,2181
4173,2345
4173,3594
4173,3683
4177,2462
4179,408
4180,2894
4181,3624
4182,1201
4183,1329
4184,1991
4184,2014
4185,220
4185,795
4185,1027
4185,1333
4185,1442
4185,1476
4185,1539
4185,1713
4185,2062
4185,2414
4185,2894
4185,2899
4185,2988
4185,3120
4185,4575
4187,760
4189,1180
4190,677
4190,932
4190,1774
4191,2632
4191,4302
4195,3573
4197,1459
4197,2487
4197,4350
4203,600
4204,949
4204,1314
4204,4000
4206,4094
4207,617
4207,2213
4208,1517
4209,901
4210,275
4210,395
4210,502
4210,623
4210,1157
4210,1333
4210,1560
4210,2072
4210,2336
4210,2903
4210,2982
4210,3080
4210,4954
4213,562
4213,730
4213,2565
4213,2815
4214,1239
4216,4567
4217,1751
4219,265
4219,1131
4220,321
4221,181
4223,794
4223,4220
4226,17
4226,2179
4226,3162
4227,200
4227,513
4227,2546
4227,3582
4227,3695
4229,1600
4230,2153
4230,4284
4230,4774
4231,24
4231,350
4231,750
4231,1372
4231,1752
4231,2840
4231,2874
4231,4926
4239,305
4243,2839
4246,4239
4248,1412
4249,3484
4250,17
4251,4390
4253,1832
4253,4944
4254,52
4259,355
4260,14
4262,612
4263,2714
4263,3828
4264,1227
4264,2455
4264,2524
4264,3111
4265,4224
4268,981
4271,132
4271,180
4271,351
4271,495
4271,1432
4271,2649
4271,2763
4271,4153
4274,2219
4275,1718
4278,4238
4279,820
4279,1998
4279,2562
4279,2684
4279,4393
4280,41
4280,1848
4281,3882
4281,4439
4282,3807
4283,1744
4283,4619
4285,2627
4285,3251
4286,746
4290,3946
4291,2676
4292,825
4293,2531
4295,207
4296,498
4298,20
4298,1758
4298,1960
4298,2607
4298,3845
4298,4582
4299,2645
4299,4425
4300,637
4301,4997
4303,1394
4305,887
4306,265
4307,3990
4308,121
4310,517
4312,921
4313,1621
4314,724
4315,282
4316,3308
4317,669
4317,1350
4317,2169
4317,3064
4317,4202
4318,36
4319,245
4320,508
4322,720
4324,3573
4326,3258
4329,4997
4332,1364
4333,1446
4335,2281
4336,1061
4337,88
4337,195
4337,721
4337,1264
4337,1433
4337,2156
4337,3724
4337,3743
4337,4174
4337,4662
4338,1257
4339,984
4340,1312
4341,26
4341,637
4341,1159
4341,1476
4341,1605
4341,2746
4341,3807
4341,3981
4341,4843
4342,280
4343,1795
4343,3465
4343,4274
4346,440
4348,1980
4349,256
4351,139
4351,988
4353,1119
4357,432
4359,1093
4359,3848
4359,4398
4360,544
4361,1420
4363,69
4364,1602
4364,4737
4367,2004
4367,3004
4369,1180
4370,2787
4371,4567
4374,1664
4375,1131
4376,1129
4377,459
4378,157
4378,880
4378,1270
4378,2359
4379,2322
4380,749
4380,1104
4380,4620
4383,292
4383,483
4385,880
4386,1489
4387,3004
4387,3470
4388,1157
4389,3940
4391,1470
4394,3866
4395,1804
4396,2114
4398,3573
4399,4448
4400,4337
4401,1758
4402,4522
4404,3619
4405,131
4405,778
4405,873
4405,4056
4405,4269
4406,2839
4408,426
4409,2683
4409,3807
4410,981
4410,2739
4411,1740
4413,1364
4414,2808
4416,1224
4416,3237
4416,3254
4419,4298
4420,2817
4424,4452
4426,868
4427,1944
4428,88
4430,81
4430,351
4430,3371
4430,3503
4432,1201
4433,2442
4434,768
4435,1678
4435,2604
4436,4984
4438,1468
4441,1604
4441,4542
4442,4258
4443,1119
4443,2049
4443,3853
4443,4706
4445,3833
4451,2956
4452,8
4452,36
4452,107
4452,1432
4452,2714
4452,2849
4452,3054
4452,3970
4453,1261
4454,732
4457,333
4457,1663
4457,2241
4457,4381
4457,4824
4458,61
4458,566
4458,726
4458,871
4458,1157
4458,1694
4458,1713
4459,435
4459,2262
4459,2874
4459,4343
4460,2121
4466,1316
4469,6
4470,1352
4472,2511
4475,1600
4476,4405
4477,4794
4480,1273
4481,2401
4482,475
4482,3106
4484,3350
4486,3558
4487,4089
4488,822
4488,823
4488,1944
4489,662
4489,836
4489,1455
4489,1965
4489,2770
4489,3282
4489,4272
4489,4632
4490,4041
4491,697
4491,2673
4491,3477
4492,17
4492,377
4495,630
4498,3027
4499,720
4503,96
4506,384
4506,3001
4507,3398
4513,2967
4515,590
4518,4464
4520,902
4522,1572
4522,4674
4528,220
4530,435
4530,3350
4532,2468
4533,455
4533,1319
4533,2091
4533,3057
4533,3823
4536,2671
4536,4337
4538,296
4539,1998
4540,36
4541,3027
4542,434
4542,917
4542,1093
4542,1223
4542,2722
4542,3122
4542,3579
4542,3698
4542,3723
4542,3841
4542,3868
4542,3871
4542,4115
4542,4378
4542,4795
4542,4883
4544,212
4544,363
4544,2549
4545,430
4547,539
4548,2482
4552,1700
4553,3468
4554,1629
4555,513
4557,36
4557,655
4558,17
4558,2960
4559,3135
4561,1416
4561,2497
4561,2719
4561,3212
4562,4
4562,1354
4562,3327
4563,424
4563,2533
4564,932
4564,4611
4567,2787
4569,321
4574,1747
4577,1201
4577,4519
4578,61
4578,148
4578,1324
4578,1486
4578,1619
4578,2048
4578,2533
4578,4186
4579,1014
4581,735
4581,2215
4581,4471
4581,4770
4581,4951
4584,476
4585,1967
4586,270
4586,892
4586,1354
4586,3690
4588,3783
4589,42
4592,1654
4595,3290
4596,99
4596,997
4596,2978
4596,4060
4597,2678
4599,2204
4600,121
4600,632
4601,3193
4603,695
4605,2204
4606,3420
4607,353
4607,430
4607,544
4607,656
4607,1401
4607,2176
4607,3110
4607,3683
4608,4174
4609,897
4610,3420
4611,88
4611,207
4611,579
4611,743
4611,1355
4611,3167
4611,3420
4611,4094
4612,2743
4613,8
4614,1363
4616,408
4617,865
4621,203
4621,1713
4622,1545
4623,1571
4623,2135
4623,3294
4624,282
4624,983
4624,1163
4624,1680
4624,2331
4624,2937
4625,3421
4628,1285
4629,669
4629,863
4629,1486
4629,1607
4629,3360
4631,577
4631,579
4631,970
4631,1264
4631,1336
4631,1718
4631,1824
4631,1992
4631,2272
4631,3698
4633,345
4633,2982
4634,3224
4638,2839
4639,4203
4643,51
4643,1312
4644,334
4644,4906
4650,1572
4651,3291
4651,4921
4653,2473
4654,513
4654,920
4655,695
4656,1070
4657,4245
4659,4094
4660,1719
4661,8
4661,3039
4663,1146
4664,1691
4666,577
4666,4914
4667,816
4669,2849
4669,3174
4670,36
4670,296
4670,668
4670,837
4670,1473
4670,1695
4670,2061
4670,3080
4670,4351
4670,4352
4670,4706
4672,36
4676,1697
4678,1288
4678,1314
4682,680
4682,881
4682,1433
4682,2371
4683,513
4683,1308
4687,1095
4688,2355
4688,2644
4691,1240
4694,44
4696,4951
4697,197
4697,214
4697,3032
4697,3298
4698,8
4698,1797
4699,702
4699,1404
4699,2677
4699,3970
4700,1575
4700,4868
4703,3661
4707,69
4707,753
4707,837
4707,3615
4709,1851
4710,991
4713,40
4715,450
4715,513
4715,913
4715,1964
4715,2377
4715,2914
4715,3068
4715,3153
4715,3248
4715,3487
4715,4161
4715,4213
4715,4509
4715,4593
4717,892
4717,1621
4717,2428
4717,2544
4717,4163
4719,875
4720,75
4720,962
4720,3556
4720,3865
4720,4519
4721,897
4723,1334
4723,1582
4723,1998
4723,2375
4723,3015
4723,3275
4723,3349
4723,3390
4723,3932
4723,4646
4723,4701
4724,2559
4725,4488
4726,207
4726,679
4726,3720
4727,1104
4729,2771
4730,1557
4733,6
4733,105
4733,410
4733,1285
4733,1300
4733,3573
4733,3698
4733,3859
4733,4439
4733,4547
4733,4894
4734,309
4735,108
4736,2604
4737,1785
4737,2631
4737,3770
4737,4464
4738,1925
4738,3625
4739,1201
4740,2574
4743,1432
4744,581
4745,2338
4746,3390
4747,822
4749,105
4749,178
4749,280
4749,281
4749,439
4749,450
4749,747
4749,1531
4749,1536
4749,3218
4749,3365
4749,3638
4752,4538
4753,1354
4754,3688
4755,65
4757,17
4757,3071
4759,307
4760,427
4760,896
4760,2118
4760,3324
4760,4149
4760,4415
4761,4238
4765,2430
4767,108
4768,1652
4769,3089
4770,4670
4772,155
4773,3610
4777,820
4778,1717
4778,1931
4780,1551
4780,2422
4780,3646
4783,858
4784,1023
4785,939
4786,2079
4786,3029
4787,709
4789,4201
4793,1992
4796,1080
4797,2358
4798,68
4799,2057
4800,140
4800,656
4800,661
4800,1813
4801,173
4802,51
4804,1524
4805,478
4806,40
4806,708
4806,781
4806,2508
4806,4511
4807,4680
4809,402
4809,1417
4809,1728
4809,2297
4809,2352
4809,2553
4809,2676
4809,2801
4809,3990
4810,475
4811,713
4814,88
4815,8
4816,581
4819,4705
4821,254
4822,2063
4824,3294
4825,4781
4828,1735
4831,2252
4833,2217
4833,4958
4834,147
4837,2249
4838,72
4839,40
4840,3536
4841,2421
4842,4877
4844,3524
4845,3852
4848,127
4848,380
4848,482
4848,559
4848,1101
4848,1219
4848,1328
4848,1354
4848,2040
4848,2185
4848,2488
4848,2998
4848,3352
4848,4102
4848,4168
4848,4425
4848,4519
4849,5
4850,1707
4851,2043
4851,2714
4853,75
4854,36
4856,794
4858,243
4859,887
4859,1598
4861,10
4861,2480
4861,3716
4864,3941
4865,2422
4866,248
4867,3401
4869,932
4869,1039
4869,3698
4871,1475
4871,1585
4871,2063
4871,3105
4872,51
4874,1154
4875,742
4876,495
4877,4493
4878,2257
4879,321
4880,1854
4881,177
4881,1514
4881,3860
4884,186
4885,348
4887,3270
4888,3723
4891,1143
4892,2277
4894,3360
4896,1446
4898,412
4900,4475
4901,3680
4903,732
4904,31
4904,643
4904,874
4904,1738
4904,2792
4904,3504
4904,4679
4907,729
4909,1177
4910,901
4912,75
4912,4604
4916,2274
4918,1445
4918,4931
4919,148
4919,1273
4921,65
4921,1524
4922,1969
4927,63
4927,360
4927,1266
4927,2775
4927,3943
4930,309
4932,3592
4936,450
4938,1818
4939,408
4940,380
4942,2018
4942,3868
4943,2769
4947,3740
4949,516
4950,17
4952,2286
4954,1842
4954,4510
4959,1471
4960,1167
4960,1285
4963,122
4963,348
4963,2416
4964,1430
4968,207
4968,365
4968,543
4969,144
4969,768
4969,954
4969,1055
4969,1289
4969,3724
4969,4455
4971,243
4973,77
4974,792
4974,906
4974,4624
4975,1226
4978,2151
4983,1429
4986,1733
4987,158
4988,2820
4989,1030
4990,2539
4991,1783
4992,1338
4993,2905
4994,158
4995,4926
4996,2287
4996,3251
4996,3865
4997,1128
4998,4439
