src,dst
0,1
0,81
0,90
0,383
0,478
0,738
0,765
0,1619
0,2291
0,2767
0,2788
0,2902
0,3377
0,3574
0,3959
0,4369
2,777
2,3621
2,3683
4,316
4,580
4,773
4,2781
4,2795
4,3412
4,3434
6,88
6,325
6,339
6,879
6,930
6,1455
6,1638
6,1643
6,2138
6,3280
6,3402
6,3952
6,4074
6,4287
6,4305
8,319
8,909
8,2186
9,2475
9,4788
11,496
11,837
11,2210
11,4559
12,447
12,1971
13,990
13,3330
14,1230
14,1457
14,1577
14,3333
15,2672
15,3988
16,219
16,483
16,529
16,669
16,880
16,1025
16,2064
16,2086
16,2627
16,2877
16,3070
16,3150
16,4542
17,1204
17,2945
18,4163
20,783
20,2397
20,2594
20,3464
22,2440
23,720
23,1093
23,1225
23,1297
23,2288
23,3489
23,4474
26,13
26,90
26,349
26,4504
27,351
27,420
27,933
27,952
27,1880
27,2040
27,3980
27,4239
28,657
29,1460
29,1674
29,2742
29,4648
31,803
31,1108
31,1244
31,3402
31,3869
33,61
33,124
33,420
33,1353
33,2410
33,2518
33,2696
34,564
34,579
34,743
34,1164
34,1262
34,1368
34,3081
34,3433
34,3589
34,4553
34,4788
36,652
36,654
36,1249
36,1724
36,2752
37,3003
37,3141
37,3327
38,510
38,2402
38,2630
38,2654
38,3184
38,3477
38,3822
38,4324
39,99
39,156
39,309
39,318
39,400
39,509
39,578
39,704
39,1082
39,1090
39,1369
39,1464
39,1664
39,1727
39,2287
39,2288
39,2333
39,2460
39,3008
39,3215
39,3603
39,3651
39,3722
39,3766
39,3818
39,4455
39,4474
39,4682
40,708
40,1276
40,2775
41,301
41,908
41,1437
41,1801
41,2652
41,3479
43,1597
44,147
44,158
44,283
44,1695
44,1716
44,1939
44,2109
44,2672
44,2920
44,3628
44,4084
44,4655
44,4846
46,423
46,1769
46,3340
50,4407
51,2341
51,2441
51,2539
51,2556
51,3084
51,3320
51,4298
52,423
52,1718
52,2145
52,3525
53,329
53,842
53,1745
53,2633
53,4803
54,948
54,1985
54,2712
54,3998
56,142
56,242
56,658
56,962
56,1173
56,1472
56,1507
56,2206
56,2549
56,2612
56,2765
56,2833
56,2995
56,3189
65,82
65,115
65,124
65,145
65,201
65,560
65,701
65,732
65,1076
65,1161
65,1460
65,1643
65,1737
65,1836
65,1901
65,1969
65,2119
65,2267
65,3205
65,4350
65,4529
66,115
66,188
66,1308
66,2880
66,2938
66,4071
66,4716
69,96
70,1449
70,2521
70,2674
71,1708
71,2320
71,2582
71,3683
71,4210
75,291
75,308
75,746
75,924
75,1004
75,1964
75,2302
75,3160
75,4191
76,738
76,781
76,1057
76,1380
76,3262
76,4127
76,4542
77,242
77,3056
77,4517
78,601
78,1750
78,2141
78,2285
78,3909
79,9
79,175
79,610
80,62
80,221
80,281
80,424
80,655
80,1068
80,1076
80,1638
80,1651
80,1757
80,2193
80,2239
80,2453
80,2767
80,2914
80,3332
80,3479
80,3528
80,3558
80,4946
80,4987
85,171
85,310
85,401
85,567
85,590
85,1195
85,1322
85,2412
85,3004
85,3168
85,4495
87,187
87,632
87,654
87,2674
87,2716
88,1956
89,714
89,834
89,1273
89,1366
89,2637
89,3028
91,488
91,3333
92,240
92,1110
92,1118
94,283
94,903
94,1503
94,2624
94,3036
95,139
95,291
95,611
95,909
95,1243
95,1261
95,1318
95,1367
95,1460
95,1500
95,1913
95,2263
95,3039
95,3937
97,327
97,1604
97,1838
97,2672
98,1268
99,700
99,1990
101,60
101,3872
101,3967
102,1732
105,1549
105,2860
106,42
109,388
109,861
109,2712
109,4001
110,738
110,869
110,3650
110,4470
111,783
112,137
112,182
112,2015
112,2305
112,2694
112,4211
116,210
116,483
116,2061
117,1460
117,4803
118,1049
118,2683
118,2963
119,2949
119,3817
121,13
121,64
121,272
121,393
121,460
121,2435
121,3177
121,3799
121,4400
121,4597
122,309
122,708
122,1261
122,1590
123,64
123,315
123,436
123,2811
125,90
125,421
125,746
125,850
125,1383
125,1451
125,3036
125,3461
125,3746
125,4743
125,4797
127,32
127,430
127,450
127,2182
128,884
128,1536
128,2189
128,2834
128,3378
128,4234
129,231
129,250
129,375
129,706
129,710
129,735
129,1653
129,1672
129,2715
129,2748
129,2960
129,3147
129,3479
131,1110
131,1751
132,432
132,602
132,1550
132,2926
133,150
133,259
133,706
133,758
133,883
133,1285
133,1950
133,2679
133,2944
133,4661
135,1974
140,543
140,2216
140,3090
140,3871
140,4138
144,169
144,259
144,453
144,730
144,1188
144,1201
144,1308
144,1541
144,2193
144,2542
144,3306
144,4391
144,4612
144,4965
149,32
149,81
149,455
149,692
149,783
149,1051
149,1438
149,1623
149,2371
149,2397
149,2562
149,2907
149,4103
149,4438
153,565
153,713
159,323
159,728
159,3846
159,4411
160,471
160,1127
160,4563
161,1662
162,271
162,1957
162,3065
162,3109
162,3142
162,4822
163,3273
164,85
164,419
164,1296
164,2418
164,3603
164,3937
166,162
166,231
166,378
166,520
166,1121
166,1406
166,1407
166,1443
166,1651
166,1858
166,2119
166,2125
166,2424
166,3638
171,762
171,1381
171,1584
171,2088
171,2462
171,3164
171,3646
171,3975
171,4587
173,203
173,447
173,1412
173,1426
173,2041
173,2844
173,3650
173,4080
174,99
174,165
174,1553
174,2680
174,3033
174,4841
175,1582
176,887
177,651
177,1539
177,2765
177,3162
177,3296
179,479
179,765
179,953
179,1881
179,2188
179,2489
179,3671
179,3894
179,4456
184,3762
184,4361
185,3148
185,3347
189,2247
189,3097
189,3651
190,146
190,472
190,806
190,3442
190,4075
190,4190
190,4467
190,4927
191,498
191,2553
192,4458
193,142
195,594
195,746
195,927
195,1680
195,2254
195,3147
195,3348
195,3533
196,145
196,577
196,664
196,759
196,1189
196,1485
196,1868
196,1938
196,3550
196,3693
198,339
198,446
198,511
198,527
198,845
198,1023
198,1377
198,1704
198,3821
199,576
199,883
199,1806
199,2881
199,3886
199,4167
204,483
204,990
204,1301
204,3223
204,4149
205,822
205,1778
205,3450
205,3621
205,3869
206,2616
206,4411
207,1481
208,67
209,162
209,219
209,1806
209,2226
209,2765
209,4900
212,246
212,404
212,454
212,640
212,1110
212,1334
212,1588
212,1598
212,3993
212,4241
212,4379
212,4582
213,4458
214,4362
214,4940
215,336
215,394
215,586
215,856
215,1054
215,1086
215,1155
215,2901
215,4335
216,943
216,1574
216,4816
219,2843
223,87
223,1772
223,1803
223,2547
223,2930
223,4055
223,4276
223,4771
224,21
224,584
224,658
224,1274
224,1356
224,1821
224,1853
224,2167
224,2180
224,2574
224,2642
224,2835
224,3371
224,3553
224,3858
224,4239
224,4746
227,171
227,235
227,318
227,450
227,533
227,700
227,807
227,1131
227,1908
227,1917
227,2109
227,2335
227,2412
227,2658
227,2908
227,3015
227,3555
227,3670
227,4224
227,4309
227,4458
227,4890
228,13
228,607
228,1350
228,2751
228,3081
229,145
229,192
229,245
229,1084
229,1667
229,1998
229,2169
229,2212
229,3036
229,4236
229,4534
229,4673
229,4850
230,2412
232,551
232,719
232,1968
232,2218
232,2425
232,2637
232,2805
232,3876
233,335
233,341
233,394
233,482
233,503
233,553
233,1107
233,1281
233,1371
233,1481
233,1974
233,2058
233,2092
233,2391
233,2637
233,3132
233,3859
234,220
234,2642
234,2978
234,4341
237,297
237,406
237,605
237,2163
240,665
240,3479
243,1
244,2978
246,570
248,524
248,1460
249,777
249,2353
251,1665
253,477
253,1060
253,2889
253,4665
254,21
254,175
254,566
254,988
254,1635
254,3472
255,141
255,692
255,1223
255,1600
255,1921
255,2276
256,231
256,371
256,828
256,1225
256,2113
256,3279
256,3795
256,4343
257,178
257,861
257,3120
257,4754
260,145
260,238
260,440
260,498
260,550
260,1816
260,2086
260,2379
260,3716
260,4130
260,4503
261,1492
261,1726
261,1775
261,2531
261,3003
261,3511
261,4198
261,4467
262,1559
263,846
263,975
263,2521
263,2542
264,2073
266,292
266,1001
266,4068
267,316
267,1597
267,2073
270,237
270,657
270,2471
270,3203
270,4890
271,259
275,187
275,1798
276,265
276,408
276,616
276,822
276,1287
276,1388
276,1422
276,1975
276,2229
276,2455
276,2611
276,2949
276,3349
276,3952
276,4983
277,178
277,2180
277,4557
279,1532
279,2678
279,3256
279,4997
280,2542
282,187
282,683
282,1250
282,1521
282,3432
282,3469
282,3845
283,218
283,4522
284,3931
286,139
286,600
286,602
286,3997
286,4652
287,1416
287,2398
287,2718
288,222
288,421
288,1098
288,4753
291,914
291,2995
293,532
293,2949
293,3389
293,3997
294,252
294,636
295,178
295,450
295,933
295,1947
295,2210
295,2587
295,4341
296,885
296,1468
296,2518
296,3967
296,4225
296,4369
296,4893
298,1027
298,1980
300,245
300,466
300,484
300,607
300,1457
300,2122
300,4369
302,2881
303,2075
303,2674
303,3461
304,1249
304,2788
305,4057
306,215
306,859
306,1614
306,1720
306,4535
307,1230
307,3163
309,1322
309,2469
310,169
310,2903
313,60
313,956
313,1112
313,1263
313,2186
314,210
314,1521
324,2105
324,2594
324,2967
324,3480
324,4057
324,4926
326,3309
327,289
327,1836
327,3562
327,4495
328,1721
329,84
329,183
329,679
329,2371
329,2473
329,3356
329,3854
329,3956
329,3989
329,4345
330,111
330,141
330,231
330,529
330,1016
330,1025
330,1334
330,2766
330,2882
330,4233
331,348
331,847
331,1281
331,3930
332,24
332,689
332,1695
332,1769
332,2629
332,2938
332,4320
332,4634
332,4894
334,188
334,202
334,738
336,4456
337,210
337,3336
340,269
340,1856
340,2341
340,4598
340,4787
342,316
342,331
342,533
342,1369
342,1457
342,1744
342,2674
342,3932
342,4458
342,4533
343,115
343,1202
343,2776
344,150
344,3661
344,3988
345,103
346,299
352,1049
352,2949
353,1244
354,9
354,2765
354,3302
356,235
356,950
356,1883
356,3003
356,3698
357,359
357,909
357,1201
357,2023
357,2343
357,4377
358,1529
358,3638
361,2674
364,218
364,369
364,3224
367,92
367,408
367,468
367,488
367,526
367,590
367,604
367,1322
367,1643
367,2432
367,3381
367,3421
367,3631
367,4312
367,4369
367,4937
370,237
370,722
370,1045
370,1110
370,1467
370,1895
370,2904
370,4090
371,3494
372,1108
372,1416
372,3222
372,3577
372,3880
372,4568
372,4838
373,297
373,3547
375,738
375,1750
375,3942
375,4861
377,349
377,909
377,924
377,1557
377,2428
377,2701
377,4512
377,4802
378,790
380,592
381,187
381,706
381,749
381,1662
381,3236
381,3788
382,365
382,388
382,521
382,858
382,1266
382,1382
382,1718
382,1977
382,4542
384,610
384,992
384,2052
384,2353
384,2627
384,4839
385,482
385,887
385,1809
385,2080
385,4148
386,145
387,592
387,792
387,2883
388,45
388,958
388,1226
388,2167
388,2637
388,4908
389,1559
390,155
390,201
390,894
390,1814
390,2946
390,3431
390,4206
390,4239
391,145
393,706
393,1970
393,3467
393,3638
393,4900
394,2666
394,4995
396,652
396,1838
396,1876
396,2141
396,3371
396,3770
397,909
399,2004
400,1814
402,188
402,242
402,861
403,1334
403,2414
403,4736
404,2482
404,3471
405,192
407,4362
409,513
409,1031
409,1168
409,2792
409,3596
413,210
413,655
413,1348
413,1657
413,2122
413,2765
413,3159
413,3470
413,4438
414,763
416,351
417,785
417,1899
417,2086
417,4470
420,990
422,563
422,903
422,932
422,1275
422,2242
422,3638
422,4526
423,1084
423,1409
423,2430
423,3659
423,3870
425,156
425,2974
426,63
426,142
426,373
426,484
426,542
426,610
426,923
426,1103
426,1150
426,4467
426,4566
428,2397
428,2440
428,2598
429,419
429,2529
429,3816
429,3973
429,4691
430,2600
431,2167
431,4402
433,1630
434,3422
435,1769
436,13
437,156
437,367
437,987
437,1260
437,1329
437,3125
437,4791
438,1307
438,2141
438,4289
438,4557
438,4901
441,871
441,3003
441,3876
445,103
445,301
445,315
445,423
445,992
445,1460
445,2001
445,2950
445,3020
445,3518
445,3555
445,4332
445,4994
449,327
449,463
449,1367
449,1651
449,2299
449,3151
449,3586
449,3637
451,369
451,1600
452,299
452,571
452,760
452,1179
452,2242
454,758
454,1769
454,3348
454,3359
454,3422
456,202
456,526
456,2175
456,2643
456,3640
456,4307
456,4836
457,62
457,1763
459,241
459,322
459,766
459,784
459,869
459,1665
459,3123
462,944
462,1950
462,1975
462,2534
462,3189
463,822
463,1106
463,1732
463,4750
464,301
465,186
465,670
465,1297
465,1840
465,1946
465,2001
465,3903
466,975
466,1498
467,432
468,152
468,318
468,453
468,2159
468,3230
468,3973
468,4049
468,4612
469,87
469,157
469,454
469,575
469,607
469,1261
469,1281
470,394
470,475
470,1258
470,2745
470,3653
471,836
471,1157
471,1693
473,170
473,2683
474,143
474,1141
474,3799
474,4629
481,134
481,514
481,527
481,738
481,1084
481,1974
481,2516
481,2951
481,3025
481,3077
481,3416
481,3998
481,4638
482,4178
483,136
485,1406
485,1643
485,3297
485,3387
485,4178
485,4743
486,203
486,210
486,856
486,1100
486,2006
486,2440
486,2597
486,3238
486,4098
486,4866
487,210
487,1161
487,1564
487,1750
487,2086
487,3185
487,4297
490,607
491,2135
492,734
492,2871
492,3036
493,628
493,1230
493,1691
493,1805
494,420
494,424
494,458
494,996
494,1093
494,1750
494,1938
494,2310
494,3348
495,202
495,591
495,738
495,990
495,993
495,1105
495,1768
495,1887
495,2008
495,2567
495,3362
495,4926
497,45
497,531
497,606
497,1244
497,1342
497,1528
497,1798
497,1854
497,1987
497,2210
497,3038
500,137
500,1640
500,2160
500,2998
500,3329
500,4018
500,4563
501,884
501,2394
501,2448
502,29
502,707
502,1909
502,2036
502,2194
502,4109
502,4362
504,2765
505,1460
505,1472
505,1969
505,3128
505,4928
506,75
506,447
506,855
506,2694
506,3086
508,1258
512,147
512,861
512,3674
512,4615
514,4139
516,2100
516,3596
518,113
518,301
518,336
518,477
518,644
518,747
518,802
518,818
518,1700
518,1876
518,2029
518,2167
518,2822
518,2923
518,3048
518,3253
518,3626
518,4683
518,4904
519,147
519,2163
519,3144
522,447
522,3734
523,55
523,1320
523,1602
524,488
524,765
524,923
524,2263
524,3091
524,3323
525,355
525,3856
526,178
526,1133
526,2168
526,3037
527,21
530,60
530,2525
530,4611
532,424
533,145
533,353
533,1223
534,1163
534,2826
534,3050
534,3058
535,232
536,2949
537,3
538,732
538,809
538,1350
538,1419
538,3503
538,3530
538,3694
538,4654
539,1460
540,3467
541,2903
541,2978
541,3937
543,453
543,887
543,1112
543,1248
543,1312
543,1638
543,1851
543,2140
543,2194
543,4234
543,4397
544,87
544,911
544,987
544,3371
544,3467
544,4042
544,4239
544,4413
544,4490
545,142
545,145
545,219
545,321
545,333
545,439
545,529
545,592
545,603
545,738
545,742
545,1064
545,1108
545,1450
545,1584
545,1664
545,1908
545,1993
545,2273
545,2385
545,3125
545,3193
545,3371
545,3750
545,3886
546,291
546,1620
546,3696
547,311
547,592
547,667
547,706
547,801
547,909
547,1046
547,1328
547,1599
547,1682
547,1906
547,2073
547,2573
547,2646
547,2961
547,2993
547,3203
548,113
548,2542
549,2363
552,576
552,879
552,1998
552,2949
552,2961
552,4403
554,2040
555,602
555,3009
556,1476
556,3831
556,3985
558,410
558,661
558,1725
558,3224
558,4234
559,32
559,88
559,2981
559,3827
561,576
561,2672
561,3573
565,283
565,306
565,1870
565,3733
568,2700
568,4239
569,407
569,1621
573,6
573,99
573,496
573,4741
575,323
575,423
575,985
575,1278
575,1916
575,2427
575,4928
576,13
576,170
576,1847
576,4516
581,868
581,3004
583,3358
583,3877
585,290
585,4537
588,961
588,2736
588,3949
592,903
593,4239
595,1787
595,4519
596,656
596,2141
598,765
598,1796
602,141
602,1144
602,2002
602,2121
602,3671
607,2014
607,2090
608,453
608,679
608,1963
608,2119
608,2374
609,81
609,210
609,316
609,344
609,415
609,801
609,818
609,862
609,926
609,1096
609,1655
609,2075
609,2799
609,3863
609,4008
613,343
613,1685
613,4792
614,980
614,1109
614,2343
614,2348
614,2618
614,2665
614,3187
615,542
615,1018
615,1219
615,2416
615,3479
615,4119
615,4474
615,4502
617,2141
617,3789
618,4369
619,3440
620,575
620,2207
621,1400
622,1460
622,2637
623,58
623,1769
623,2458
623,2487
623,2734
623,2814
623,3122
623,3220
623,4559
623,4927
624,142
624,1121
624,1449
624,1769
624,4501
626,607
626,1467
626,2765
627,2952
629,509
629,959
629,1539
629,2707
629,2708
629,3058
629,3487
629,3755
629,4234
629,4891
631,351
631,545
633,297
633,329
633,1366
633,1551
633,3466
633,4467
633,4613
634,1219
634,1604
634,2114
634,2867
634,3081
634,3181
634,4514
635,661
635,1686
635,3611
637,3
637,2353
637,2419
637,3399
639,764
639,3421
647,42
647,768
647,1610
647,1692
647,3003
647,3379
647,3997
647,4017
648,3036
650,1707
650,2616
652,4940
653,2616
653,3676
655,49
655,4928
660,251
660,297
660,1498
660,1653
660,2511
660,2605
660,3119
660,3176
660,3680
660,3865
660,4654
660,4793
662,145
662,513
662,1968
662,3421
663,482
663,562
663,2438
666,183
666,836
667,867
667,3224
667,3422
667,4389
671,471
671,1380
671,1556
671,1996
671,2180
671,2674
671,2765
671,4024
672,745
673,3451
674,2707
675,42
676,4341
677,1431
677,1492
677,1643
677,2132
677,3428
678,21
678,2674
679,222
679,4484
680,1233
680,1460
681,590
681,1118
681,1223
681,2678
681,4292
682,222
682,2678
684,758
684,1013
684,1121
684,2135
684,2192
684,2307
684,2445
684,3056
684,3087
684,3526
684,4309
685,157
686,142
686,2452
687,2425
688,809
688,1695
689,1539
689,2938
689,3093
689,4550
690,273
690,1386
690,1695
690,2459
690,3767
691,793
691,1460
691,1664
691,1974
693,172
693,2518
693,2706
693,4511
695,421
695,484
695,1600
697,283
697,1223
697,1717
697,1748
697,2109
697,2237
697,2568
697,2949
697,3333
697,4268
697,4954
698,444
698,882
698,915
698,1114
698,2135
698,2842
698,4876
699,987
699,1275
699,3507
699,3967
702,925
702,933
702,3714
703,178
703,3375
703,4016
705,6
705,3085
707,459
707,2637
707,3238
708,168
709,447
709,2648
711,2645
711,3449
711,3464
711,4608
714,780
714,1393
714,3997
714,4571
715,1
715,203
715,510
715,769
715,882
715,1614
715,2674
715,3897
715,4101
715,4188
716,659
716,2584
716,2757
717,81
717,252
717,767
717,816
717,1795
717,2784
717,3004
717,3067
717,3654
717,4542
718,87
718,362
718,877
718,1448
718,3228
718,4660
720,533
720,1003
720,3147
720,3568
721,594
723,592
725,574
725,1560
725,1651
725,4117
725,4442
726,724
726,739
727,301
727,1148
727,1517
727,3324
729,218
729,393
729,408
729,566
731,4517
733,1
733,2562
734,738
734,4940
736,4542
737,4362
739,2678
739,4188
739,4512
740,210
740,3034
740,4720
741,281
741,321
741,2654
741,4411
744,4095
745,1838
745,2580
748,4234
751,141
752,1000
752,1521
752,1868
752,3422
752,3967
753,1604
753,3755
754,669
754,688
754,807
754,1539
754,1643
754,2213
754,2584
754,2770
754,3570
754,3817
754,4865
755,696
755,1387
755,1574
755,1610
755,4317
756,582
756,746
756,1203
756,1789
756,2395
756,2934
756,4777
757,1445
757,1756
757,2907
758,520
758,1148
758,1853
758,2317
758,3699
759,566
759,4803
761,343
761,398
761,1460
761,1640
761,2025
761,2186
761,2380
761,2840
765,260
765,301
765,1539
765,1724
765,4275
769,1327
769,2313
769,2341
769,2777
771,1241
772,49
772,738
772,2109
772,3811
773,537
776,2141
778,13
778,509
778,1559
778,3517
782,2343
782,3414
786,297
786,521
786,1247
786,1489
786,2340
786,2672
786,2863
786,4131
786,4237
787,1798
787,2644
789,445
791,1708
793,373
793,1615
793,1671
794,602
794,4362
795,4055
796,3536
797,167
797,537
797,1237
797,1460
797,3123
799,432
799,762
799,1537
800,322
800,739
800,933
800,4191
804,911
804,1349
804,3885
804,3886
805,87
805,574
805,3902
805,4498
806,350
806,1039
806,4721
808,3
808,604
808,2989
809,301
809,316
809,845
809,1274
809,1664
809,2580
809,2609
809,2938
809,3235
809,3677
809,3969
810,597
810,1148
810,4399
810,4743
812,2272
812,4931
813,393
814,210
814,531
814,3800
815,1548
815,1672
815,2938
815,3081
818,4034
818,4718
821,3
821,301
821,481
821,2884
824,42
825,909
825,1436
825,1787
825,3548
825,4074
825,4136
825,4711
825,4840
831,242
831,325
831,2566
832,2658
833,861
833,1280
833,2216
835,408
835,2672
835,3598
837,1891
839,178
839,333
839,962
840,141
840,297
840,410
840,574
840,877
840,1669
840,1962
840,1993
840,2875
840,3371
841,83
841,111
841,985
841,3795
841,3899
844,3
844,1543
844,2109
844,3217
844,3289
844,3610
844,4092
844,4213
844,4542
848,2754
849,602
849,1106
849,2109
849,4186
849,4697
851,606
851,951
851,1838
852,2141
852,3170
852,4805
853,93
853,297
853,3189
853,3766
853,3785
854,2174
854,3189
855,3689
857,2637
860,217
860,273
863,375
864,270
864,537
864,1200
864,1936
864,2096
864,2425
864,3314
865,13
865,4293
866,222
866,607
866,1280
866,1495
866,4095
866,4597
870,861
873,359
874,1542
874,2795
874,3830
875,134
875,3014
877,3058
878,1451
878,2946
878,3551
878,4234
878,4263
881,393
881,1638
883,4853
887,120
887,245
887,972
887,1285
889,165
889,738
889,1920
889,2067
890,1115
890,1792
890,2097
890,2542
890,4486
890,4818
892,2441
892,3818
892,3878
893,909
893,1279
893,2720
893,2848
893,3307
893,3526
893,4006
893,4235
894,1511
895,87
895,273
895,692
895,915
895,984
895,2037
895,3674
896,1226
896,1683
896,2174
896,2915
896,4057
898,1375
898,2481
898,3876
899,432
899,1984
899,2028
899,2343
899,3869
899,3912
900,746
900,1118
900,1674
900,1845
901,2788
904,482
904,1104
904,1995
905,150
905,545
905,978
905,2301
905,2454
905,2959
906,992
906,2144
907,712
907,3547
907,4163
908,168
908,966
908,994
909,3224
910,1769
910,2824
911,3166
913,58
913,1633
913,1898
913,2333
913,3997
913,4060
916,1583
916,2430
916,2972
916,3036
917,2828
918,2262
918,2936
918,3613
918,3998
919,1118
919,1706
919,1936
919,1945
919,2223
919,2398
919,2777
919,3143
919,3508
920,3185
921,2075
921,3869
923,4406
931,706
931,961
931,1763
933,92
933,1580
933,3954
935,61
936,1769
936,1885
936,3238
936,3459
936,4716
937,202
937,1991
937,4446
939,594
940,3110
940,3327
941,1507
941,1651
941,3534
941,4414
942,2203
943,2580
945,141
946,1665
946,2075
946,4787
947,531
947,3200
949,827
949,1751
949,1797
950,1
950,221
950,579
955,3157
956,528
956,612
956,771
956,4057
957,869
958,649
958,1850
958,1908
958,2267
963,331
963,2694
963,3152
963,3880
963,4327
965,1023
967,219
967,1094
967,4171
967,4535
969,628
969,1675
970,510
970,2425
970,3702
972,1142
974,373
974,738
974,1369
974,1528
974,3260
974,3774
974,4311
974,4442
974,4557
976,168
976,665
976,1364
976,1391
976,2518
976,2984
976,4957
977,3782
981,1375
981,1974
983,3539
986,344
987,99
987,1101
987,1334
987,2836
987,4259
987,4563
988,842
988,1769
988,4747
989,1033
989,1182
989,1626
990,983
990,1915
990,2508
991,1866
997,45
997,4185
998,202
999,1597
999,1769
999,2508
999,2616
999,3073
999,3978
999,4436
1001,1841
1001,3283
1001,4884
1006,421
1007,4686
1008,291
1008,577
1008,792
1008,1023
1008,1207
1008,1219
1008,1498
1008,1973
1008,2867
1008,3965
1008,4740
1011,738
1012,297
1014,191
1014,602
1014,2636
1014,3980
1017,80
1017,2274
1017,2594
1017,4310
1018,1455
1018,4971
1019,4458
1021,2694
1021,3844
1022,351
1023,344
1023,406
1023,771
1024,424
1024,1317
1024,2672
1024,4854
1027,877
1028,876
1028,1273
1028,1549
1028,2020
1028,2305
1028,2353
1028,2471
1028,2918
1028,3799
1028,4381
1029,19
1029,311
1029,418
1029,638
1029,643
1029,738
1029,750
1029,1616
1029,1939
1029,2244
1029,3348
1030,10
1030,111
1030,603
1030,1924
1030,1970
1030,3003
1030,3179
1030,3451
1030,4122
1030,4222
1030,4248
1030,4870
1032,3215
1034,2672
1034,3037
1035,2777
1035,3607
1036,442
1036,2814
1037,90
1037,759
1037,2313
1037,3603
1037,4457
1038,3663
1040,38
1041,90
1041,1502
1041,3009
1041,3010
1043,3279
1044,1695
1045,1798
1046,1084
1047,4805
1048,2637
1048,4716
1052,4219
1053,579
1053,706
1053,836
1053,1750
1053,2469
1053,3270
1053,4439
1054,111
1054,610
1054,1049
1054,2236
1055,1975
1056,3437
1056,3799
1058,816
1059,188
1061,61
1061,1412
1061,2803
1061,4074
1063,1302
1063,1702
1063,1814
1063,2138
1063,2978
1065,1188
1065,1460
1066,2904
1066,2938
1066,4877
1068,2827
1068,3126
1068,3154
1068,3521
1069,1761
1069,1815
1069,3663
1070,460
1070,2440
1070,3308
1070,3638
1070,4293
1071,3003
1072,2708
1072,3384
1073,103
1074,590
1074,3869
1075,1725
1076,654
1076,2020
1076,4475
1077,706
1077,1122
1077,1322
1077,1405
1077,2295
1077,3276
1077,3451
1077,4286
1078,1460
1080,579
1080,2360
1081,1322
1081,2826
1082,1261
1082,1900
1082,2772
1085,365
1085,531
1085,623
1085,706
1085,734
1085,878
1085,1079
1085,1118
1085,1684
1085,2067
1085,2125
1085,3847
1085,4207
1085,4321
1085,4383
1085,4927
1087,178
1087,235
1087,1700
1087,2708
1087,2995
1088,738
1089,511
1091,2363
1091,3224
1092,1424
1092,3373
1092,3888
1095,338
1095,600
1095,952
1095,1080
1095,1744
1095,2938
1097,1046
1097,1380
1097,3349
1099,29
1099,2462
1099,3197
1099,4225
1106,60
1106,1752
1110,683
1110,770
1110,1409
1110,3327
1110,3769
1110,4612
1111,93
1111,301
1111,811
1111,836
1111,3937
1111,4456
1112,448
1112,2091
1112,2260
1113,1328
1116,55
1117,351
1117,1324
1119,301
1119,1764
1120,1054
1122,163
1122,360
1122,1844
1123,2303
1123,3746
1124,2795
1124,3977
1124,4495
1126,689
1126,1557
1129,1664
1132,562
1133,599
1133,1114
1133,3343
1133,4184
1134,570
1134,1140
1134,2253
1134,4982
1135,2897
1136,45
1136,879
1136,1674
1136,2434
1136,2769
1136,3450
1136,3853
1137,4542
1138,2822
1139,2673
1141,912
1141,2207
1141,4046
1143,3
1143,92
1143,221
1143,1955
1143,2207
1143,2792
1143,3967
1143,4397
1145,383
1145,1727
1145,2917
1145,4852
1146,1429
1146,2259
1146,4905
1147,64
1151,1507
1151,2624
1152,142
1153,218
1153,4205
1156,246
1156,1980
1156,2553
1156,3830
1157,2343
1159,1157
1165,3988
1167,379
1167,1454
1169,2517
1169,2959
1169,3637
1170,592
1170,3377
1171,2090
1172,1033
1172,1285
1174,100
1175,3795
1176,210
1176,3240
1177,202
1177,3869
1178,343
1178,2260
1178,2315
1178,4821
1180,1597
1181,847
1182,1107
1183,1404
1183,1978
1183,4894
1186,9
1186,150
1186,1620
1186,1681
1186,3988
1186,4287
1187,4805
1190,2637
1190,2672
1190,2765
1191,362
1191,374
1191,2196
1191,3755
1192,92
1194,231
1194,2822
1194,2964
1196,316
1199,142
1199,658
1199,697
1199,1333
1199,1731
1199,2831
1203,50
1203,1450
1204,113
1205,657
1205,1689
1205,2206
1205,2294
1205,2802
1205,3348
1206,242
1209,329
1209,990
1209,2765
1210,952
1210,1013
1210,3502
1211,700
1212,496
1213,2098
1214,4686
1215,695
1215,2510
1215,2580
1215,2705
1215,3282
1215,3755
1217,597
1218,738
1220,458
1221,4074
1222,4807
1224,421
1224,3608
1224,4557
1227,564
1227,996
1228,2765
1229,139
1229,242
1229,3745
1230,3398
1230,4838
1232,496
1232,1724
1234,1
1234,141
1234,808
1235,3547
1238,242
1238,643
1239,107
1239,1723
1239,3100
1240,2301
1241,379
1242,162
1242,184
1242,318
1242,338
1242,1181
1242,1342
1242,1975
1242,2146
1242,2827
1242,3588
1242,4055
1242,4125
1242,4489
1245,87
1245,408
1245,2773
1245,4428
1248,258
1248,2094
1248,3580
1251,2425
1252,982
1252,2328
1253,61
1253,299
1253,432
1253,606
1253,2413
1253,3678
1255,2351
1255,4070
1256,419
1256,1084
1256,3236
1257,990
1257,1824
1258,847
1259,650
1259,2300
1261,471
1261,1076
1261,3603
1264,1258
1266,3552
1267,4362
1269,410
1269,550
1269,1841
1270,184
1270,355
1270,4521
1275,210
1275,245
1275,1718
1275,2775
1276,111
1276,2949
1277,696
1279,706
1279,1002
1279,1072
1279,1788
1279,1880
1279,2156
1279,2337
1279,2464
1279,3135
1279,3932
1279,4136
1279,4168
1279,4808
1279,4899
1279,4976
1280,602
1283,499
1283,2695
1284,1309
1284,3003
1286,3922
1287,1499
1287,2435
1288,767
1288,1424
1288,1558
1288,2892
1288,3944
1288,4467
1288,4838
1289,592
1290,1266
1290,2938
1290,4029
1291,1286
1291,4192
1291,4317
1292,221
1292,1837
1293,630
1293,1121
1293,1910
1293,2293
1293,2992
1294,1750
1295,115
1295,302
1295,1492
1295,3669
1298,66
1298,252
1298,290
1298,1708
1298,3125
1299,654
1299,2942
1299,4055
1300,589
1300,696
1300,738
1300,1919
1300,2757
1300,3339
1301,2831
1303,410
1303,2411
1305,1643
1305,2971
1305,4422
1306,2045
1306,2949
1308,966
1313,2256
1313,3096
1313,3224
1313,3488
1314,1529
1314,3032
1314,4171
1315,990
1315,2032
1316,589
1317,1442
1317,1965
1317,2875
1317,3750
1319,4511
1321,2086
1321,2397
1322,2938
1322,3389
1322,3997
1322,4749
1323,201
1325,3479
1326,42
1326,48
1326,247
1326,526
1326,823
1326,879
1326,1236
1326,1495
1326,2036
1326,2465
1326,3243
1326,3823
1326,4686
1327,1695
1327,4283
1328,201
1328,3547
1331,367
1332,715
1332,759
1332,1597
1332,2435
1334,191
1334,436
1334,1230
1334,1787
1334,1878
1334,2343
1335,201
1335,859
1336,297
1336,657
1336,1223
1336,1740
1336,1959
1336,2697
1336,2826
1337,2935
1338,258
1338,4700
1339,210
1339,1010
1339,1173
1339,2343
1339,4003
1339,4074
1339,4819
1340,344
1340,1005
1340,2857
1341,3189
1341,3279
1343,521
1343,2402
1344,4743
1345,742
1345,3563
1346,2343
1347,980
1347,2186
1347,2603
1347,3112
1347,4301
1349,210
1349,2211
1349,4098
1349,4739
1350,2518
1350,3908
1351,579
1351,842
1351,2243
1351,2393
1351,4811
1352,142
1352,592
1352,1226
1352,2709
1352,2727
1352,2898
1352,2954
1352,2976
1352,3004
1354,869
1354,3147
1357,3081
1358,679
1358,3231
1360,178
1362,343
1362,873
1362,927
1362,2261
1362,2324
1362,2596
1362,3452
1363,66
1363,408
1363,2343
1363,2436
1363,3325
1363,4477
1363,4800
1365,4749
1366,607
1366,738
1366,2171
1366,2826
1366,4114
1370,2186
1373,460
1373,783
1373,3190
1375,872
1376,2673
1378,4788
1379,1240
1384,169
1385,526
1385,975
1385,2180
1385,3581
1387,817
1387,1181
1387,1193
1387,1374
1387,1555
1387,1937
1387,3873
1389,321
1389,1479
1390,231
1390,1302
1391,130
1391,168
1391,278
1391,1026
1391,1751
1391,2437
1391,3885
1391,4095
1392,1894
1392,3749
1394,2580
1395,443
1395,1093
1396,1617
1396,2297
1396,3747
1396,4827
1397,1634
1397,1643
1398,143
1398,2508
1398,4755
1402,578
1402,792
1402,846
1402,1561
1402,1622
1402,2484
1402,3351
1402,4260
1402,4398
1403,1460
1403,1787
1404,471
1404,1107
1404,1249
1404,1261
1404,2297
1404,2491
1404,2761
1404,3593
1404,3810
1404,3973
1405,603
1410,1031
1411,496
1411,1613
1411,3613
1413,488
1413,489
1413,557
1413,738
1413,1204
1413,1249
1413,1364
1413,2343
1413,2639
1413,3227
1413,3402
1413,3766
1413,4449
1413,4757
1414,759
1415,1582
1415,3147
1416,1127
1417,1166
1417,1717
1418,2141
1420,1669
1420,2057
1420,2673
1420,3357
1421,700
1421,956
1421,1588
1421,2887
1421,3511
1423,400
1423,2812
1425,510
1426,107
1426,201
1426,4415
1427,91
1428,1000
1428,3614
1428,4620
1429,1275
1434,486
1434,3304
1435,1276
1437,3
1437,960
1439,142
1439,2946
1440,157
1440,4868
1441,650
1441,1961
1441,3660
1444,145
1444,4085
1446,818
1446,2876
1452,1020
1452,1778
1452,4928
1453,816
1453,4772
1456,1100
1456,4713
1458,45
1458,151
1458,975
1458,1042
1458,1664
1458,2949
1458,4337
1459,2637
1459,2844
1459,4034
1462,1796
1462,2672
1462,4063
1463,1280
1465,589
1465,630
1465,3112
1466,4898
1467,1664
1467,2394
1467,4162
1467,4256
1470,1324
1470,2271
1473,55
1473,785
1473,3694
1473,4084
1474,1084
1475,2073
1478,55
1478,1043
1478,1173
1478,2247
1478,2584
1478,2938
1478,3165
1479,683
1479,1317
1480,1131
1481,306
1482,1261
1483,2652
1484,2356
1485,5
1485,2874
1485,4886
1486,2425
1486,2881
1487,1225
1487,2048
1487,2435
1487,2749
1487,2946
1488,781
1489,3874
1490,938
1490,3422
1490,3947
1493,2
1493,659
1493,2359
1493,2569
1493,4180
1493,4362
1495,1098
1495,3348
1496,1162
1496,1768
1496,2336
1496,4375
1497,273
1498,683
1498,1481
1500,4229
1501,299
1501,343
1501,1457
1501,1769
1501,2628
1504,1580
1505,347
1505,692
1505,710
1505,2104
1505,3117
1506,142
1506,2003
1507,157
1507,2186
1507,4483
1507,4957
1508,169
1508,2356
1508,3898
1509,1166
1512,30
1512,3044
1512,3224
1512,3539
1512,3825
1512,4019
1513,795
1518,4163
1519,231
1520,344
1522,55
1522,696
1522,728
1522,3081
1523,582
1524,862
1524,3339
1525,202
1526,879
1526,1112
1526,2418
1526,2738
1526,3893
1530,3816
1531,339
1531,355
1531,1539
1531,1798
1531,2864
1533,99
1533,2109
1533,3342
1534,145
1534,4005
1535,2938
1544,1318
1545,408
1547,2352
1547,3674
1548,2090
1549,1814
1549,2271
1549,3481
1550,180
1554,1094
1556,995
1559,62
1559,408
1562,2109
1563,432
1563,607
1563,3740
1563,4239
1564,992
1565,878
1567,4388
1568,1758
1568,4139
1569,511
1569,765
1569,1342
1569,1451
1569,2983
1570,81
1572,592
1572,4369
1573,2826
1573,3239
1574,1013
1574,1751
1574,3355
1574,3766
1575,510
1575,1579
1575,3144
1575,4411
1576,299
1576,1698
1581,1322
1581,4670
1585,968
1586,141
1586,172
1587,533
1587,3422
1591,388
1591,933
1591,3325
1593,197
1593,763
1593,1899
1593,2237
1593,2343
1593,4481
1594,1174
1594,2167
1594,2707
1596,2462
1596,3562
1597,2754
1600,602
1601,828
1601,1258
1601,3867
1603,160
1604,379
1604,658
1604,771
1604,1383
1604,1388
1604,1633
1604,2083
1604,3763
1604,4505
1605,241
1607,1787
1608,4057
1609,32
1609,69
1609,1814
1609,3465
1610,488
1610,537
1610,754
1610,3081
1610,3168
1610,4356
1611,1416
1614,1514
1623,566
1623,3984
1624,1119
1624,1378
1624,2765
1624,3866
1625,408
1625,1293
1625,1467
1625,2628
1627,2394
1627,2498
1628,68
1628,1261
1628,1983
1628,2203
1628,2359
1628,3101
1628,4511
1629,1948
1629,3535
1630,783
1630,1460
1630,3964
1631,510
1631,1353
1632,959
1634,61
1636,404
1636,545
1636,808
1636,1104
1636,1158
1636,1630
1636,2377
1636,3185
1636,3851
1637,1131
1639,1593
1640,183
1641,521
1642,511
1642,1616
1642,3219
1645,317
1645,4928
1646,829
1646,3683
1648,3246
1648,3514
1649,348
1654,792
1654,1894
1655,545
1657,1330
1658,141
1658,886
1658,2109
1659,3151
1659,4291
1661,601
1663,225
1663,834
1663,878
1663,1057
1663,1130
1663,1311
1663,2161
1663,4255
1664,1494
1664,2026
1664,2926
1664,3715
1665,2927
1665,4420
1666,1432
1667,2753
1668,449
1669,62
1669,1884
1669,2584
1670,42
1673,59
1673,81
1673,318
1673,1516
1673,1671
1673,1983
1673,2024
1673,2542
1673,2804
1673,3336
1673,3823
1673,4288
1673,4422
1673,4542
1675,545
1675,1647
1675,1720
1675,3422
1676,184
1676,3238
1676,3937
1677,4362
1678,2397
1678,3385
1679,47
1679,4191
1684,3738
1684,4202
1685,1261
1685,2038
1686,167
1686,4482
1687,2949
1687,3412
1690,594
1690,820
1690,2157
1690,4702
1693,1814
1694,1460
1694,1584
1696,738
1697,2557
1697,3651
1698,32
1698,701
1699,60
1701,665
1703,924
1705,3997
1707,1899
1708,3189
1708,3880
1709,3526
1710,412
1710,3266
1712,86
1712,218
1713,349
1713,1010
1713,1891
1714,480
1715,157
1716,1208
1716,1553
1716,1975
1718,3834
1719,318
1725,738
1726,2798
1726,3886
1726,4607
1728,490
1729,1989
1729,2678
1729,3045
1729,3566
1730,321
1730,909
1731,2552
1731,4223
1733,616
1733,914
1734,92
1734,1966
1734,3027
1735,1906
1736,3348
1736,3422
1741,1720
1742,4074
1746,2584
1747,3179
1753,1946
1754,4034
1759,178
1760,1651
1760,1855
1760,3766
1765,2637
1766,601
1766,4140
1767,13
1769,273
1769,2218
1769,3510
1769,4023
1770,1084
1771,1662
1773,2125
1773,3149
1774,6
1776,3385
1776,3396
1777,763
1779,99
1779,2369
1779,4558
1780,1633
1780,2264
1782,418
1782,3525
1784,861
1786,1579
1786,2750
1786,4471
1791,3
1791,344
1791,404
1791,4076
1792,1498
1792,3355
1792,3358
1792,3651
1792,3811
1793,2216
1794,1616
1794,2655
1794,3784
1794,4564
1795,2401
1795,4909
1797,4394
1799,1535
1800,141
1800,2526
1800,4557
1804,2006
1804,3077
1804,3388
1807,1894
1807,4747
1808,210
1808,378
1808,1727
1808,2927
1810,1279
1812,658
1812,768
1812,3131
1812,4045
1814,219
1814,258
1816,668
1817,4680
1818,1798
1819,1975
1822,410
1822,2699
1823,816
1823,1416
1823,2125
1823,2931
1823,2949
1823,3114
1823,4927
1825,606
1826,453
1826,1549
1826,2145
1827,445
1827,1959
1827,3058
1827,3123
1828,458
1828,3266
1829,96
1829,290
1829,602
1829,2826
1831,1254
1832,315
1833,1424
1839,184
1839,325
1839,3792
1839,4329
1840,168
1840,765
1840,3495
1843,883
1843,3476
1847,1787
1848,481
1849,1118
1849,1964
1855,632
1855,1005
1857,972
1857,2224
1857,3868
1857,4050
1857,4294
1859,260
1859,1013
1859,1023
1859,1188
1859,1364
1859,2180
1859,3565
1859,3983
1860,571
1860,1716
1860,2854
1860,3408
1860,3931
1861,1787
1862,1906
1863,2946
1863,3371
1863,3818
1863,4970
1864,2830
1865,4055
1867,194
1868,1166
1869,679
1871,1556
1871,2979
1872,1894
1873,1498
1873,2270
1874,169
1874,484
1874,2375
1874,2536
1874,4036
1874,4788
1875,1154
1875,4632
1877,486
1879,160
1880,1185
1880,1543
1882,488
1882,2343
1882,4274
1884,4818
1885,446
1885,1588
1885,1597
1885,3363
1885,3818
1885,4197
1886,818
1888,769
1889,602
1889,3003
1892,192
1892,1166
1892,1307
1892,1334
1892,1993
1892,2145
1892,2301
1892,2536
1892,2735
1892,2938
1892,3056
1892,3438
1892,3463
1892,3686
1892,4513
1892,4595
1896,1460
1896,2961
1897,3227
1897,3967
1899,139
1899,178
1902,360
1902,1148
1902,1669
1902,2055
1902,2469
1902,2583
1903,1814
1906,903
1907,1148
1909,3081
1911,13
1911,3588
1911,3703
1915,320
1915,553
1915,728
1918,406
1918,1894
1922,202
1922,3224
1925,3422
1927,2075
1927,2758
1928,3799
1929,45
1930,2580
1931,64
1931,933
1933,2454
1934,424
1935,2938
1940,1107
1941,4090
1941,4898
1942,309
1943,210
1944,304
1944,909
1944,1200
1944,1438
1944,1999
1944,3324
1944,3865
1944,3980
1944,4468
1946,202
1946,285
1946,424
1948,3
1948,192
1948,273
1948,657
1948,703
1948,1342
1948,1494
1948,1672
1948,1790
1948,1846
1948,2032
1948,2048
1948,2097
1948,2144
1948,2148
1948,2595
1948,2946
1948,3172
1948,3638
1948,3937
1948,4077
1948,4191
1948,4497
1948,4524
1948,4643
1948,4686
1949,781
1949,1772
1949,4664
1951,925
1951,4417
1952,3732
1952,3967
1952,4458
1953,311
1954,742
1955,1926
1955,1976
1955,3138
1955,4452
1955,4827
1955,4951
1958,165
1958,3938
1965,318
1965,693
1967,180
1967,3201
1969,346
1969,884
1970,4048
1973,155
1975,1067
1975,3422
1979,4154
1981,1
1981,92
1981,2221
1982,488
1986,510
1986,4251
1988,45
1988,134
1988,192
1988,220
1988,333
1988,343
1988,1115
1988,1272
1988,1279
1988,1355
1988,1455
1988,1936
1988,2269
1988,2386
1988,2480
1988,2628
1988,2768
1988,2898
1988,2905
1988,4707
1990,1798
1992,3596
1992,3919
1994,1868
1997,466
1997,658
2004,107
2004,4169
2004,4964
2005,1811
2005,3731
2005,3943
2007,499
2007,688
2007,2885
2007,4557
2008,210
2008,408
2008,909
2008,3856
2008,4013
2008,4622
2009,297
2009,2440
2009,3462
2009,3982
2010,483
2010,4225
2011,181
2011,2475
2012,301
2013,1772
2015,3
2015,3594
2016,308
2017,2086
2017,2826
2018,1160
2018,2078
2018,2397
2019,2180
2021,809
2022,221
2022,1273
2022,2674
2022,3086
2022,4002
2024,1454
2027,562
2030,55
2030,1866
2030,3251
2031,1906
2031,3238
2031,3710
2031,4460
2033,1798
2033,2215
2033,3505
2034,4788
2035,259
2039,1811
2039,2288
2039,3252
2039,3651
2039,4474
2040,1665
2040,2579
2042,358
2043,1787
2043,3361
2043,3400
2046,836
2046,1619
2046,2008
2047,1707
2047,1787
2047,3383
2049,1489
2051,481
2051,2788
2051,4975
2054,1906
2054,3430
2055,1280
2056,1612
2056,2252
2056,2898
2057,419
2057,602
2057,3068
2059,807
2060,88
2062,1015
2063,973
2063,3105
2063,4719
2068,574
2068,4243
2069,973
2069,4727
2070,706
2071,201
2071,1769
2071,2091
2071,2141
2072,231
2072,436
2072,1282
2073,63
2073,113
2073,160
2073,180
2073,302
2073,579
2073,730
2073,779
2073,871
2073,1359
2073,1548
2073,1852
2073,2181
2073,2833
2073,3015
2073,3376
2073,3479
2073,4153
2073,4563
2073,4948
2074,4788
2076,1813
2076,3579
2077,3238
2077,4802
2079,521
2079,864
2079,2960
2080,1559
2080,1651
2080,1738
2080,2681
2081,3407
2082,2795
2084,225
2084,329
2084,2151
2084,3980
2084,4390
2085,1803
2085,4958
2087,607
2089,305
2089,650
2089,1412
2091,312
2091,938
2091,3224
2091,4272
2093,635
2094,1652
2094,2594
2094,3967
2094,4037
2095,2545
2095,4092
2098,1108
2098,2344
2099,1995
2099,2371
2101,1539
2101,4074
2101,4169
2102,1655
2103,1075
2106,2637
2107,767
2107,1025
2108,218
2108,388
2108,2261
2108,4631
2110,2770
2110,3879
2110,4061
2110,4146
2110,4495
2111,1249
2111,3036
2112,738
2113,958
2115,4388
2116,423
2116,4164
2116,4881
2117,1919
2118,758
2118,2948
2118,4147
2119,4841
2120,3886
2123,301
2123,309
2123,798
2123,1203
2123,1459
2123,1798
2123,1932
2123,2969
2123,3333
2123,3843
2123,3986
2123,4055
2123,4791
2123,4802
2124,235
2124,3650
2126,1582
2127,869
2128,147
2128,169
2128,318
2128,625
2128,2437
2129,301
2130,81
2130,604
2130,788
2130,2573
2130,4991
2131,1467
2133,273
2134,45
2136,610
2137,545
2137,1286
2137,1906
2137,2585
2137,3317
2137,4423
2137,4493
2139,1222
2142,32
2142,99
2142,3305
2142,4685
2143,48
2143,175
2143,424
2143,4158
2143,4239
2148,2351
2148,2949
2148,3375
2148,3681
2150,1571
2152,309
2153,10
2153,162
2153,269
2153,283
2153,333
2153,873
2153,1207
2153,1216
2153,1219
2153,1447
2153,1650
2153,1672
2153,1785
2153,2949
2153,4120
2153,4786
2153,4947
2154,2491
2154,4388
2155,962
2156,590
2156,959
2156,2086
2156,3467
2161,172
2161,445
2161,3967
2162,1309
2164,2826
2165,304
2165,1556
2166,1909
2168,42
2168,1416
2170,2616
2172,343
2172,4743
2173,99
2175,312
2175,2637
2178,1535
2179,3637
2180,471
2180,1430
2180,1451
2183,2437
2184,76
2186,2220
2187,4470
2188,2938
2188,3019
2188,3224
2190,779
2191,987
2191,3365
2194,1033
2195,3755
2196,138
2197,1588
2198,784
2199,226
2199,950
2200,55
2200,644
2200,1913
2200,2148
2200,2608
2200,4074
2201,2302
2201,2448
2201,3238
2202,1535
2202,2389
2203,458
2203,4191
2204,747
2204,1182
2205,1161
2207,3755
2208,3224
2209,991
2209,2341
2213,1898
2216,915
2216,3476
2217,1049
2219,299
2223,320
2225,4350
2226,1318
2227,1718
2227,1899
2227,2015
2227,4612
2228,1852
2230,4057
2231,877
2233,3937
2234,443
2235,221
2235,265
2235,527
2235,574
2235,582
2235,1166
2235,1492
2235,1532
2235,1688
2235,2223
2235,2822
2235,2871
2235,2994
2235,3004
2235,3439
2235,4154
2235,4166
2241,194
2241,1584
2241,2033
2241,3472
2245,344
2246,1870
2248,4098
2249,1655
2250,659
2251,1173
2251,4002
2255,3327
2257,3967
2258,2672
2262,423
2262,4806
2266,1655
2266,1956
2266,2723
2268,2727
2271,7
2271,42
2271,4219
2275,394
2277,67
2277,4139
2278,2141
2279,1749
2280,2437
2280,3199
2281,2871
2281,3660
2282,351
2282,1546
2285,1938
2285,2176
2285,3881
2286,2728
2286,4957
2288,1067
2289,315
2290,3996
2292,60
2292,4321
2296,134
2297,2694
2300,453
2300,3114
2300,4748
2300,4940
2301,432
2304,3002
2304,3481
2304,4563
2304,4897
2305,4788
2306,9
2306,527
2306,2619
2308,2671
2308,3988
2309,142
2312,1664
2314,388
2314,1135
2314,2659
2314,2765
2315,120
2315,194
2315,273
2315,1111
2315,1133
2315,1147
2315,1246
2315,1787
2315,2153
2315,2775
2315,3863
2315,4169
2315,4279
2315,4754
2315,4928
2320,143
2320,338
2320,1119
2320,2765
2320,2831
2320,4346
2321,344
2321,4057
2322,91
2322,210
2322,297
2322,318
2322,475
2322,1589
2322,2186
2322,2356
2322,3238
2323,1854
2323,2301
2323,2787
2323,4605
2324,318
2325,603
2326,1062
2326,1975
2327,526
2329,2407
2330,1990
2332,2907
2334,878
2334,1602
2334,3700
2338,273
2339,318
2342,2938
2343,167
2343,4095
2344,297
2344,2550
2345,1393
2347,2109
2348,9
2348,759
2348,923
2348,1656
2348,1755
2348,1830
2348,1944
2348,2240
2348,2429
2348,3340
2348,3403
2348,3592
2348,4253
2350,1155
2350,2432
2351,2215
2351,3380
2352,312
2352,1249
2352,3185
2353,1989
2353,4717
2353,4801
2354,3810
2356,317
2357,3755
2358,138
2361,2267
2362,1460
2364,210
2364,1965
2364,2135
2364,2224
2364,2580
2364,2642
2364,3371
2364,4098
2365,178
2367,3638
2369,1262
2369,1557
2369,1610
2370,408
2372,1432
2373,63
2373,126
2373,531
2373,927
2373,2852
2373,4191
2378,282
2378,526
2378,1009
2378,1776
2378,2053
2378,2678
2378,3274
2378,3862
2378,3952
2381,150
2381,404
2381,3123
2381,4404
2382,419
2382,1219
2382,2633
2383,1050
2384,103
2384,514
2384,517
2384,883
2384,897
2384,2637
2384,3519
2384,4848
2385,67
2385,187
2387,2672
2388,883
2390,1142
2392,639
2396,1539
2396,3359
2398,1067
2399,1970
2399,4725
2400,1481
2400,1899
2402,592
2403,1620
2405,3467
2407,1271
2408,3649
2409,3422
2414,1674
2414,2298
2415,2834
2417,927
2417,1454
2418,1750
2421,683
2422,178
2422,2839
2423,355
2423,643
2423,3195
2424,4057
2426,141
2429,194
2431,1334
2433,2521
2439,42
2443,2001
2444,367
2444,4839
2446,142
2447,1460
2448,1016
2450,265
2451,1883
2456,202
2456,325
2456,464
2456,530
2456,2300
2456,2664
2456,2690
2456,2903
2456,4581
2456,4686
2457,2698
2457,3937
2460,954
2461,827
2462,50
2462,156
2462,500
2462,713
2462,1619
2462,1669
2462,1814
2462,3638
2463,1731
2463,2903
2465,2656
2466,79
2467,706
2468,819
2470,529
2472,471
2472,4838
2474,231
2476,181
2476,909
2476,4329
2477,2672
2478,2380
2478,2557
2478,3888
2479,1249
2483,2440
2483,2907
2485,42
2486,1597
2488,600
2488,4566
2489,859
2490,3087
2490,3604
2491,1098
2491,1923
2491,3420
2491,4940
2492,783
2493,1150
2494,2100
2495,107
2496,2145
2497,2353
2497,4940
2499,3472
2500,156
2500,4715
2501,145
2503,1672
2504,466
2504,746
2505,689
2506,359
2508,1836
2508,2442
2509,157
2512,775
2513,1285
2514,1150
2514,2584
2514,2673
2514,3413
2515,1536
2516,327
2516,3815
2519,592
2519,827
2519,1106
2520,1383
2521,1604
2521,3296
2522,1494
2523,1732
2524,696
2527,408
2528,445
2528,3776
2530,1724
2530,3823
2531,4747
2533,1375
2533,3761
2533,4654
2535,1669
2537,64
2538,987
2540,2476
2541,972
2542,192
2542,1597
2543,2834
2544,1387
2544,3333
2545,406
2545,1080
2545,1219
2545,1426
2545,2004
2545,2100
2545,2935
2545,4706
2546,984
2546,1258
2546,1322
2548,4686
2549,301
2549,3795
2551,572
2551,4542
2551,4912
2552,2210
2554,2938
2554,4034
2555,510
2555,530
2555,3130
2557,443
2557,642
2557,1974
2557,2348
2557,3786
2557,3799
2557,4802
2558,2344
2560,513
2560,2418
2560,2842
2560,3795
2561,325
2563,2311
2564,3967
2565,55
2568,201
2568,340
2568,570
2568,1000
2568,1278
2568,3967
2570,2921
2570,3348
2570,3676
2570,4815
2571,404
2572,2113
2573,398
2573,597
2573,739
2573,2324
2573,2331
2573,2616
2573,2925
2573,3038
2573,4928
2575,42
2575,281
2575,909
2575,1434
2575,3148
2576,122
2577,201
2578,86
2578,297
2578,650
2578,1955
2578,3692
2581,3869
2585,1881
2586,4788
2588,1580
2589,4716
2590,1802
2590,4465
2592,1010
2592,4078
2593,1168
2598,4307
2599,1033
2600,1914
2601,202
2602,1261
2604,2907
2605,984
2605,1200
2605,1246
2605,1604
2605,2044
2605,2211
2605,2471
2605,2792
2605,3674
2605,3715
2605,3860
2605,4123
2607,1460
2610,4239
2612,1858
2613,226
2614,862
2614,1150
2614,1560
2614,2841
2614,3350
2614,4852
2615,123
2616,460
2616,3511
2617,3830
2620,747
2620,2403
2621,142
2622,2141
2622,3452
2623,1297
2623,3629
2623,4600
2625,3547
2626,921
2629,1090
2631,4103
2632,237
2632,2872
2632,3952
2635,1894
2638,3224
2640,273
2640,520
2640,3929
2641,421
2641,2621
2647,1638
2649,1454
2650,570
2650,925
2650,1042
2650,2745
2650,3026
2650,3969
2650,4187
2650,4424
2651,862
2651,4458
2652,1098
2653,564
2654,2606
2655,607
2656,1179
2657,1925
2660,695
2660,3625
2661,637
2661,2210
2662,933
2663,2441
2665,1653
2668,4927
2669,245
2669,822
2669,4494
2672,975
2672,1084
2672,1655
2676,81
2676,318
2676,3022
2677,624
2677,1592
2680,4598
2682,3309
2684,1655
2685,188
2686,2113
2687,868
2688,692
2689,1219
2692,1974
2693,2074
2699,521
2699,1216
2701,886
2701,2674
2702,765
2703,2175
2704,1380
2705,4098
2707,1271
2710,2580
2710,2674
2711,1597
2713,461
2717,1274
2719,2673
2719,3526
2719,4230
2721,1147
2722,884
2724,1472
2724,4825
2726,187
2726,1966
2726,3322
2728,113
2728,2180
2728,2267
2730,197
2730,861
2731,1642
2732,2210
2733,3348
2734,126
2734,2177
2737,3679
2737,4234
2739,1898
2740,1025
2742,379
2742,1460
2742,1494
2742,3625
2742,4163
2742,4686
2743,15
2743,2259
2743,2936
2743,3038
2743,4214
2743,4773
2744,576
2746,4090
2751,826
2754,1700
2755,81
2756,152
2756,2714
2759,2502
2762,2041
2762,2216
2763,975
2763,1023
2763,2404
2764,318
2766,3535
2766,4469
2768,1025
2768,2343
2771,1054
2774,1076
2778,1118
2779,576
2780,2300
2780,3262
2782,348
2782,1020
2783,2406
2783,2701
2785,3
2786,697
2789,301
2789,738
2789,914
2789,1803
2789,4675
2790,754
2793,318
2793,3247
2796,884
2796,1535
2797,178
2797,2272
2797,3926
2797,4302
2798,2765
2800,3238
2801,423
2801,703
2801,1465
2801,1798
2801,2265
2803,32
2803,178
2803,2344
2803,2858
2803,3362
2803,4351
2806,241
2806,4309
2807,3077
2807,3266
2808,4625
2809,3779
2809,3799
2811,3279
2811,3476
2813,183
2814,186
2814,202
2814,511
2814,801
2814,975
2814,979
2814,1127
2814,1749
2814,1989
2814,2049
2814,2654
2814,3181
2814,3407
2814,3795
2814,4485
2816,99
2817,2055
2818,349
2818,683
2819,1319
2819,2310
2820,2938
2821,3498
2823,987
2823,2916
2825,1613
2826,1221
2828,126
2828,1972
2829,3636
2830,818
2831,921
2831,2795
2832,2656
2834,388
2837,2168
2838,268
2838,2207
2838,3299
2838,4546
2839,141
2839,192
2839,310
2839,2271
2839,3526
2840,143
2840,611
2840,4296
2840,4967
2842,421
2842,2674
2843,925
2845,2135
2847,178
2849,1054
2849,1595
2849,2978
2849,3683
2849,4139
2850,1788
2851,861
2853,1105
2855,1469
2856,1386
2857,630
2857,646
2857,659
2857,816
2857,1681
2857,1732
2857,2163
2857,3640
2857,3934
2857,4065
2857,4879
2859,1910
2860,83
2860,2949
2861,592
2861,873
2862,4566
2865,142
2865,1798
2865,2557
2866,178
2868,3189
2869,3127
2869,4307
2870,1406
2871,859
2871,1739
2871,3883
2871,4429
2873,1119
2873,3945
2874,639
2874,3281
2877,849
2877,3004
2877,3092
2877,3501
2877,3869
2878,650
2878,2462
2878,3920
2879,1383
2880,299
2886,1184
2886,1695
2886,3826
2887,3721
2887,4185
2888,1797
2890,1286
2890,4177
2891,45
2891,3486
2893,1219
2894,1249
2895,2559
2895,3422
2896,2228
2899,714
2900,2765
2900,3489
2901,484
2901,809
2901,3573
2901,4341
2903,572
2903,1643
2903,2207
2903,2283
2903,3798
2903,4625
2906,971
2909,2978
2911,2489
2911,4803
2912,2343
2913,2765
2919,1054
2919,4139
2922,537
2922,1720
2922,1960
2922,2795
2924,1975
2924,2284
2926,3403
2928,4234
2932,471
2933,1983
2934,275
2934,4458
2935,861
2937,421
2938,3869
2938,4517
2939,3778
2940,1975
2941,762
2941,3144
2941,3886
2941,4957
2943,1258
2943,1491
2943,2316
2943,3852
2952,1469
2952,2484
2952,3967
2952,4165
2953,511
2955,1866
2956,1106
2957,1755
2957,4510
2958,2343
2962,1447
2962,3153
2962,3224
2962,3460
2962,4081
2965,2706
2966,694
2966,3869
2966,4362
2968,862
2968,2216
2968,2435
2968,2935
2970,2401
2970,4362
2973,837
2974,239
2974,1399
2974,4869
2975,24
2975,545
2975,697
2975,1208
2975,1755
2975,2448
2975,2637
2977,531
2977,921
2977,1469
2977,1540
2977,1798
2977,2595
2977,4149
2977,4362
2978,476
2978,526
2978,816
2978,4847
2980,1093
2980,2637
2982,318
2982,1847
2985,751
2985,914
2986,484
2986,1380
2986,3254
2986,4393
2987,3181
2988,1591
2988,1647
2990,72
2990,87
2990,141
2990,432
2990,510
2990,903
2990,1538
2990,1798
2990,1803
2990,1893
2990,2706
2990,3196
2990,3472
2990,3505
2990,3838
2990,4126
2990,4346
2990,4450
2996,2276
2997,460
2997,4150
2999,2264
3000,1489
3001,2153
3004,260
3004,1662
3004,2341
3004,4802
3004,4942
3005,973
3006,2508
3006,4294
3007,414
3007,1618
3007,2917
3007,4091
3008,3175
3010,1842
3012,3144
3012,4436
3013,2028
3015,948
3015,1521
3016,477
3017,3003
3018,192
3018,273
3018,412
3018,527
3018,1197
3018,1302
3018,1936
3021,210
3023,1806
3024,460
3024,1406
3024,2090
3024,2591
3024,4370
3024,4896
3029,4048
3030,2550
3031,1695
3031,1783
3032,3266
3035,1567
3036,827
3037,4940
3039,645
3039,1282
3040,45
3040,239
3040,373
3040,432
3040,724
3040,1011
3040,2267
3040,3123
3040,3528
3040,4386
3041,55
3042,2286
3043,1075
3045,909
3046,4747
3047,1432
3049,142
3049,210
3049,310
3049,408
3049,915
3049,1328
3049,2637
3049,3766
3051,1938
3052,1465
3053,21
3053,1018
3053,1977
3054,238
3054,1438
3055,1834
3057,271
3058,2456
3058,4988
3059,3637
3060,1015
3062,2210
3069,2634
3071,1787
3071,1806
3071,3171
3071,4602
3072,201
3074,2177
3075,1899
3076,3603
3078,2054
3079,1258
3079,3366
3080,275
3082,2938
3082,4151
3083,32
3088,178
3089,1285
3090,200
3091,3895
3095,1100
3096,2218
3098,4590
3099,3224
3100,2747
3102,692
3103,2207
3104,3421
3106,1546
3106,1868
3106,2637
3106,2778
3107,1156
3107,1383
3108,221
3111,2348
3112,526
3112,1652
3113,2659
3115,771
3116,87
3117,90
3117,482
3117,639
3117,1318
3117,1510
3121,142
3123,909
3123,1084
3124,2867
3126,1643
3130,861
3130,4805
3133,3327
3134,785
3136,3399
3137,879
3138,3181
3139,3355
3140,980
3140,3686
3143,1664
3143,4234
3145,3126
3146,1054
3146,1593
3146,1960
3146,4173
3155,2749
3155,3878
3155,4707
3156,1604
3156,3307
3157,60
3159,763
3159,2232
3159,4367
3159,4560
3161,61
3161,819
3161,4325
3165,50
3165,2532
3165,2720
3165,4706
3167,2036
3173,847
3173,4209
3174,2803
3174,4843
3177,2176
3178,29
3178,4490
3179,579
3179,1265
3179,2674
3179,3715
3179,4538
3180,2075
3181,4716
3182,477
3183,801
3183,1552
3183,1571
3183,2600
3186,2349
3188,1788
3189,4034
3190,883
3192,4517
3194,219
3194,795
3198,2725
3201,590
3201,602
3201,930
3201,1662
3201,3296
3202,1976
3202,3547
3204,447
3204,665
3204,1479
3204,1904
3204,2781
3204,2792
3204,3567
3204,3580
3204,4563
3206,2412
3206,3394
3207,574
3208,3179
3209,201
3209,2241
3209,3638
3209,4694
3210,984
3211,210
3212,235
3213,2397
3213,3590
3214,1787
3216,4202
3218,312
3219,347
3219,4776
3221,792
3222,2482
3225,1976
3226,237
3228,795
3228,1144
3228,1400
3228,1716
3228,2240
3228,2437
3228,3587
3228,4112
3228,4133
3229,738
3229,902
3229,925
3229,2311
3231,783
3232,247
3233,414
3233,2441
3234,220
3237,3
3238,104
3238,878
3238,976
3238,1521
3238,2349
3238,3372
3238,3478
3238,3516
3238,4585
3239,1451
3241,1027
3242,869
3244,1108
3245,3755
3246,45
3248,1
3248,1662
3248,2812
3248,3271
3249,57
3249,4058
3250,1161
3250,1564
3251,1644
3251,3094
3251,4136
3252,145
3252,368
3252,545
3252,592
3252,706
3252,783
3252,922
3252,1762
3252,1932
3252,2210
3252,2344
3252,3424
3252,3614
3252,4857
3257,2910
3258,168
3259,143
3259,285
3260,2276
3261,1039
3261,4433
3263,1858
3264,147
3265,290
3265,2949
3267,3058
3268,894
3269,3061
3270,2398
3270,2836
3272,1042
3274,180
3274,712
3274,982
3274,1223
3274,3100
3274,3904
3275,862
3277,767
3280,783
3283,3886
3283,4834
3284,1758
3284,3189
3285,765
3285,1353
3286,3650
3287,1273
3288,320
3288,4380
3290,2218
3291,458
3292,706
3293,252
3293,259
3293,521
3293,1161
3293,1798
3293,2678
3293,3737
3293,4069
3293,4151
3294,1974
3294,3100
3294,3948
3295,111
3295,765
3298,510
3300,1792
3301,2656
3302,607
3302,1788
3303,4057
3304,148
3304,379
3304,4437
3309,2353
3311,3066
3312,2346
3313,1739
3315,2407
3316,1121
3316,4658
3318,1758
3318,2592
3319,1539
3324,9
3324,142
3324,2435
3324,2507
3324,2788
3324,3699
3326,1447
3327,572
3328,4321
3331,316
3334,401
3335,973
3337,2765
3338,1144
3341,1219
3341,4907
3344,511
3345,1193
3346,827
3346,1664
3346,2287
3346,2781
3352,3154
3353,742
3353,3197
3354,419
3358,2363
3359,143
3360,62
3360,3830
3360,4160
3362,2096
3362,2167
3362,4017
3364,178
3367,2903
3367,4525
3368,531
3368,765
3368,1569
3368,4097
3368,4594
3369,2674
3370,2637
3371,1958
3372,2432
3373,329
3374,2486
3375,2214
3375,2855
3375,3663
3377,3032
3382,3859
3382,4747
3386,902
3389,3398
3390,461
3390,2167
3391,1162
3391,4895
3393,658
3395,1814
3396,988
3396,2135
3396,2420
3396,3625
3397,62
3398,3430
3399,1226
3401,511
3402,859
3402,3499
3404,1797
3404,2109
3404,3007
3404,3355
3404,4206
3405,318
3405,1612
3405,2949
3406,820
3406,1479
3406,1507
3406,2947
3406,4033
3408,2765
3408,3712
3409,579
3410,459
3411,498
3417,738
3418,141
3419,219
3422,318
3422,1308
3422,3752
3423,4209
3425,62
3425,2795
3427,1083
3429,909
3435,200
3435,843
3435,983
3435,2086
3435,2177
3435,2455
3435,2699
3435,4239
3435,4244
3435,4752
3436,1383
3436,4271
3438,366
3438,1535
3438,2502
3438,2508
3438,3458
3440,344
3440,471
3440,650
3440,3624
3441,1798
3442,378
3442,406
3442,423
3442,483
3442,1050
3442,1148
3442,2391
3442,4730
3443,1604
3445,1121
3445,3609
3446,2284
3447,2369
3448,1939
3453,147
3453,1549
3453,3350
3453,3997
3453,4242
3453,4676
3454,2049
3455,1919
3456,1866
3457,602
3457,884
3458,1460
3460,90
3460,202
3460,460
3460,710
3460,869
3460,1557
3460,1597
3460,2343
3460,2729
3460,4341
3460,4956
3461,393
3461,496
3461,2326
3468,124
3468,683
3468,2857
3473,1236
3474,2256
3475,600
3482,4800
3484,1672
3484,3731
3485,126
3485,2036
3487,4542
3490,142
3490,3262
3491,226
3491,392
3491,424
3491,514
3491,602
3491,1162
3491,2319
3491,2416
3491,3147
3491,3215
3491,3451
3492,4931
3493,2156
3497,1744
3500,273
3502,1184
3502,1227
3502,4059
3504,3422
3504,4279
3505,355
3508,927
3508,4281
3509,192
3509,1286
3509,1894
3509,2318
3509,2670
3509,4599
3510,575
3511,592
3511,2078
3512,976
3513,81
3513,3093
3515,169
3520,1527
3521,1471
3521,2286
3521,2871
3521,3205
3521,3766
3522,1472
3522,3305
3523,3869
3524,4542
3526,87
3527,210
3529,1688
3529,2580
3529,2791
3529,3064
3529,3148
3529,3706
3529,4548
3531,62
3531,88
3531,3701
3531,3773
3532,590
3535,2584
3535,2628
3536,4095
3537,240
3538,2153
3539,3476
3540,4597
3541,183
3541,3065
3542,861
3543,226
3543,869
3543,938
3543,1372
3543,1433
3544,1841
3544,4616
3545,202
3545,4537
3546,3266
3549,3967
3554,1718
3555,1334
3556,779
3556,4610
3557,2708
3558,301
3560,4055
3560,4744
3562,35
3562,4405
3563,603
3566,1084
3566,1565
3566,3333
3566,3869
3569,1383
3571,767
3572,1579
3575,1226
3575,2750
3576,1131
3576,1582
3576,2473
3576,2727
3576,4845
3578,2897
3578,3634
3578,4102
3582,1
3582,4686
3583,612
3583,4107
3584,990
3584,3643
3584,3818
3584,4408
3585,582
3587,1322
3589,635
3589,679
3589,829
3589,873
3589,954
3589,1026
3589,1101
3589,1110
3589,1282
3589,3414
3589,3561
3591,1711
3591,3449
3592,746
3592,1566
3592,1880
3592,2180
3592,2559
3592,4686
3592,4751
3593,1259
3593,4654
3595,178
3596,531
3598,4914
3599,460
3599,4981
3600,2271
3601,138
3601,142
3601,421
3601,466
3601,1722
3601,2110
3601,3532
3602,3651
3605,2938
3606,1792
3607,419
3607,471
3607,3869
3608,3937
3608,4234
3611,30
3611,1197
3615,3
3618,67
3618,606
3619,1460
3619,1834
3619,2065
3619,2207
3620,2434
3621,73
3621,157
3621,909
3621,3027
3622,3325
3623,529
3624,2066
3624,2794
3624,4357
3627,1718
3630,1327
3632,566
3635,607
3636,13
3636,113
3636,142
3636,151
3636,218
3636,739
3636,903
3636,1461
3636,1527
3636,1540
3636,2175
3636,2442
3636,2592
3636,2831
3636,3020
3636,3327
3636,3449
3641,202
3642,2175
3644,3449
3644,3478
3644,4940
3645,156
3648,1769
3649,1
3650,32
3650,934
3650,1282
3650,2180
3650,2672
3650,4927
3652,2502
3655,925
3657,510
3657,4396
3658,2679
3662,612
3662,1726
3662,4495
3663,297
3663,1221
3663,3407
3664,887
3665,3199
3667,447
3667,868
3667,3923
3668,1956
3670,410
3670,4458
3672,3372
3673,3907
3673,4591
3673,4621
3675,1552
3675,4732
3676,2220
3681,4838
3682,4894
3683,1334
3684,6
3685,2984
3686,1101
3687,2000
3687,2090
3687,3773
3688,3297
3690,1460
3691,1179
3691,4360
3695,3534
3697,2207
3702,5
3702,66
3702,252
3702,902
3702,2032
3702,2914
3702,3243
3702,3339
3702,3869
3702,4566
3702,4617
3702,4853
3704,320
3707,2961
3708,1604
3709,3038
3710,872
3713,3230
3717,746
3718,2791
3718,2946
3719,162
3720,2708
3720,3511
3726,4686
3728,1424
3729,2480
3730,424
3734,1560
3734,3252
3735,1185
3736,1317
3736,3402
3739,1279
3739,3967
3740,514
3740,1416
3740,2412
3740,3766
3743,2688
3744,2207
3746,181
3746,248
3746,4426
3746,4554
3748,1280
3748,1909
3748,3430
3750,86
3750,673
3750,909
3750,1664
3750,1995
3750,2141
3751,783
3753,4511
3754,1787
3755,756
3756,1610
3757,2168
3757,4807
3758,526
3758,3135
3764,3444
3765,987
3768,146
3768,587
3768,683
3768,1435
3768,1722
3768,2670
3768,4530
3768,4551
3770,2256
3770,2871
3771,1534
3772,2897
3772,3976
3775,2311
3777,155
3778,142
3778,4064
3781,301
3782,3201
3783,115
3785,74
3785,3129
3787,210
3789,2007
3790,325
3791,566
3792,4043
3793,1755
3794,2694
3796,3638
3797,522
3801,2371
3801,3434
3801,4046
3802,3467
3803,3287
3803,3522
3804,4118
3804,4202
3804,4258
3805,537
3807,432
3808,3135
3809,3665
3810,1380
3812,459
3812,2360
3812,3003
3813,460
3816,460
3818,401
3818,3921
3819,231
3820,404
3821,1085
3822,2616
3824,2432
3824,2505
3828,1287
3829,1457
3832,794
3832,996
3833,658
3834,145
3834,1737
3835,4092
3837,4890
3838,3179
3839,2353
3840,2211
3841,137
3841,245
3841,318
3841,488
3841,3452
3841,3893
3841,4612
3841,4701
3842,60
3842,436
3842,1613
3842,2033
3842,2090
3842,3422
3842,4185
3842,4202
3849,69
3849,143
3849,388
3849,419
3849,632
3849,2031
3849,2331
3849,3081
3849,3799
3849,3972
3849,3997
3849,4429
3850,210
3850,458
3850,606
3850,915
3850,933
3850,1498
3850,1998
3850,2317
3850,2333
3850,2348
3850,2355
3850,2394
3850,2674
3850,3481
3851,398
3851,420
3851,3011
3855,4458
3857,273
3857,1835
3857,2207
3859,1084
3859,1557
3860,1731
3860,2194
3860,3321
3860,4584
3861,1608
3861,3427
3862,2935
3863,2363
3864,2237
3864,4623
3868,2475
3870,68
3870,480
3870,3207
3872,1226
3872,3949
3874,1894
3874,4812
3875,111
3875,167
3875,521
3876,759
3877,3
3877,317
3877,328
3877,781
3877,848
3877,925
3877,1460
3877,1665
3877,2792
3877,3081
3877,3283
3877,3293
3878,3042
3882,122
3882,201
3882,311
3882,432
3882,838
3882,1050
3882,1102
3882,1416
3882,1443
3882,1769
3882,2066
3882,2311
3882,3638
3882,4216
3882,4239
3882,4729
3884,134
3885,1100
3886,3187
3887,275
3889,2688
3890,1314
3891,329
3891,2407
3891,4026
3892,3683
3896,423
3897,61
3900,235
3900,2263
3900,3988
3900,4152
3901,3694
3905,4057
3906,4388
3907,1965
3910,343
3911,600
3911,985
3911,3255
3911,4663
3912,453
3912,2215
3912,4110
3912,4358
3913,13
3913,449
3913,537
3913,1128
3913,1643
3913,1787
3913,1966
3913,2317
3913,3144
3913,3172
3913,3310
3913,3449
3913,3639
3913,4057
3914,60
3914,235
3915,602
3916,574
3917,861
3917,2097
3917,2584
3917,2678
3917,3348
3918,3020
3925,10
3925,1114
3925,2185
3925,2440
3925,2777
3925,3564
3925,4799
3927,1894
3927,3982
3928,527
3929,1672
3929,3090
3931,992
3932,2032
3933,1054
3933,4523
3934,442
3934,640
3934,849
3934,1198
3934,1236
3934,1481
3934,1803
3934,2351
3934,3283
3934,4479
3935,281
3936,1258
3937,846
3937,1304
3937,4239
3939,3205
3940,1271
3941,1100
3942,42
3942,160
3942,175
3942,348
3942,378
3942,432
3942,574
3942,738
3942,876
3942,978
3942,1408
3942,1643
3942,2238
3942,2821
3942,3183
3942,3616
3942,3725
3942,3759
3946,951
3950,156
3950,706
3951,178
3951,235
3951,828
3951,1878
3951,3790
3951,3924
3952,2366
3953,1393
3954,4108
3955,4841
3957,273
3957,2597
3958,423
3958,4761
3960,152
3960,290
3960,1249
3960,2456
3960,3197
3961,3003
3962,4369
3963,1917
3963,2210
3965,3164
3966,181
3966,1796
3966,4928
3968,1179
3968,3283
3970,4346
3970,4430
3972,575
3972,1118
3972,2637
3974,606
3974,3196
3979,347
3980,87
3980,1286
3980,2767
3981,3433
3981,4644
3982,92
3982,658
3987,695
3987,3464
3989,872
3989,1072
3989,1750
3989,2000
3990,656
3990,762
3990,1460
3990,1769
3990,2371
3990,2521
3990,3836
3990,4439
3991,2119
3992,1847
3994,1184
3995,3799
3996,2645
3996,3647
3999,1716
4000,134
4000,471
4000,1708
4000,4041
4004,759
4006,696
4007,4686
4009,2514
4010,2944
4011,2350
4012,1539
4014,142
4014,3003
4015,3731
4016,816
4020,2582
4021,1010
4022,1282
4025,25
4025,139
4025,418
4025,453
4025,575
4025,1282
4025,1297
4025,1460
4025,2654
4025,3422
4025,3597
4025,3612
4025,4362
4025,4866
4026,86
4026,183
4026,363
4026,602
4026,630
4026,1150
4026,1380
4026,2158
4026,2449
4026,2471
4026,2516
4026,2567
4026,3814
4027,1026
4028,1110
4030,3
4030,430
4031,1803
4032,3896
4035,1295
4037,790
4037,1578
4038,1950
4039,2180
4040,3458
4044,2585
4044,3168
4047,1100
4048,3324
4051,1068
4052,1389
4053,2080
4056,2946
4056,3003
4056,3415
4057,383
4057,542
4057,891
4057,976
4057,1769
4057,2637
4057,2663
4057,3191
4057,3458
4057,3559
4057,3588
4057,4154
4057,4547
4057,4649
4060,59
4062,62
4062,1838
4062,3806
4062,4046
4062,4239
4066,1472
4067,443
4072,2791
4073,1549
4073,2667
4074,3586
4078,3796
4078,4927
4079,2271
4080,496
4081,268
4081,811
4081,823
4082,113
4082,484
4082,826
4082,988
4082,3169
4083,202
4086,3674
4087,2407
4088,3340
4089,92
4090,221
4093,2786
4094,3479
4096,1604
4098,1409
4099,226
4099,661
4099,1110
4099,2791
4099,3209
4099,3830
4099,4869
4100,2300
4104,1971
4104,2730
4105,99
4105,2645
4106,933
4106,4807
4111,4953
4113,1460
4113,2083
4114,309
4114,376
4114,1149
4114,2341
4114,4559
4115,1851
4116,795
4116,2962
4121,888
4121,3639
4124,4406
4128,2767
4129,869
4129,1261
4132,1706
4134,3598
4135,3612
4136,991
4137,3172
4139,427
4139,706
4139,819
4139,2020
4139,4057
4141,2507
4142,2637
4143,4458
4144,29
4144,264
4144,738
4144,1125
4144,1275
4145,3894
4150,830
4150,3526
4155,55
4155,201
4155,238
4155,299
4155,1015
4155,1432
4155,1460
4155,1588
4155,1664
4155,1947
4155,2045
4155,2125
4155,2271
4155,3274
4155,3869
4155,4086
4155,4491
4155,4681
4155,4747
4156,767
4156,3774
4156,3931
4157,2406
4159,169
4161,453
4162,55
4163,145
4163,4191
4167,597
4167,3656
4167,4395
4168,445
4168,4350
4168,4373
4168,4706
4170,152
4171,1750
4172,3209
4174,510
4175,4394
4176,1250
4178,183
4178,245
4178,1740
4178,1762
4178,1975
4178,2412
4178,2637
4178,2742
4178,2929
4178,2935
4178,3164
4178,3431
4178,4590
4181,994
4181,4346
4182,1119
4183,152
4185,1588
4189,2216
4190,218
4190,545
4190,837
4190,1477
4190,2141
4190,2237
4190,2288
4190,2406
4190,2559
4190,2860
4190,3776
4190,3780
4190,4057
4190,4263
4190,4321
4191,87
4191,560
4191,1792
4191,2167
4191,3971
4191,4440
4192,220
4192,1103
4193,1595
4194,2425
4195,13
4195,602
4196,1783
4199,1662
4200,57
4200,1495
4200,2210
4200,3023
4200,3426
4200,3848
4201,1866
4201,4362
4203,4374
4204,2171
4204,3063
4206,2343
4206,3392
4207,713
4208,4587
4210,514
4210,526
4210,527
4210,879
4211,3755
4212,2616
4215,48
4215,211
4215,365
4215,461
4215,619
4215,698
4215,1393
4215,2298
4215,3755
4217,3011
4218,367
4219,134
4220,3299
4221,869
4222,742
4223,611
4223,4764
4225,107
4226,3168
4227,822
4228,3467
4229,2359
4231,111
4232,55
4232,992
4232,1031
4233,346
4233,1361
4233,1630
4233,1647
4233,3422
4234,42
4235,2699
4238,1605
4240,4071
4240,4920
4245,3322
4245,4803
4246,3495
4249,640
4250,4117
4252,2302
4254,812
4257,2918
4258,4788
4261,845
4262,142
4262,2442
4263,3
4263,60
4263,154
4263,219
4263,481
4263,775
4263,1300
4263,1322
4263,2694
4263,3755
4263,4192
4263,4630
4263,4669
4263,4966
4264,2834
4266,3489
4267,2351
4269,1909
4270,423
4273,1592
4274,498
4276,2865
4276,3872
4277,2452
4278,1787
4278,4636
4279,2397
4279,4731
4280,139
4282,479
4282,579
4284,3483
4284,3569
4284,4054
4284,4239
4285,62
4285,155
4285,1416
4285,1705
4285,1756
4285,1813
4285,1898
4285,2907
4285,3175
4285,4236
4286,574
4286,1105
4286,2741
4286,3333
4290,2418
4292,3325
4295,734
4299,4706
4303,143
4304,1282
4306,980
4307,48
4307,411
4307,679
4307,1116
4307,1131
4307,2063
4307,2080
4307,2346
4307,3325
4307,3723
4307,4034
4307,4300
4307,4940
4308,1975
4313,712
4314,2437
4315,221
4315,3908
4315,4506
4316,240
4318,4590
4319,2286
4320,2644
4321,720
4322,2113
4323,1010
4324,1226
4326,1443
4328,1912
4330,2580
4331,780
4333,1076
4334,4096
4336,252
4338,1454
4339,1249
4339,4760
4340,4255
4342,3638
4344,2218
4347,665
4348,3426
4349,471
4350,3588
4352,2596
4353,1787
4354,2842
4355,574
4359,1914
4359,2180
4363,2664
4364,665
4364,1688
4364,2394
4365,1642
4365,2300
4365,2672
4366,531
4367,3205
4368,2271
4370,932
4370,2877
4370,3760
4371,219
4372,1119
4374,3653
4377,781
4377,3997
4378,1330
4379,1798
4380,542
4380,2521
4380,2634
4382,180
4382,800
4384,767
4385,2145
4385,2573
4387,4841
4388,1093
4391,1198
4391,1814
4392,1708
4392,1814
4392,2568
4392,3028
4393,87
4393,1231
4393,1549
4393,4802
4393,4906
4395,3
4395,238
4395,933
4395,1660
4395,2691
4395,3272
4397,1060
4397,2584
4401,562
4401,1450
4401,1460
4401,2637
4401,3144
4402,766
4402,1432
4402,1820
4404,156
4404,3118
4406,170
4409,4441
4410,1249
4412,4215
4414,2000
4416,1160
4417,126
4417,2050
4417,4185
4418,1574
4418,4686
4419,1457
4419,2299
4421,178
4421,2995
4421,4443
4425,2469
4427,2707
4429,1883
4430,1084
4430,1909
4431,3858
4432,3702
4434,1821
4435,2765
4436,3130
4436,4788
4437,2910
4437,4646
4441,423
4442,1401
4442,2086
4445,283
4445,3355
4446,1076
4447,1179
4447,4567
4448,2936
4451,3931
4452,283
4452,424
4452,641
4452,774
4452,928
4452,2080
4452,2654
4452,3324
4452,3525
4452,3741
4453,49
4453,1866
4454,2288
4457,515
4458,1970
4459,884
4461,1168
4461,4057
4462,142
4463,134
4463,156
4463,2584
4463,2714
4463,3003
4463,3711
4463,4458
4464,4381
4466,861
4466,1171
4466,2846
4466,3666
4466,3869
4469,141
4469,274
4469,507
4469,971
4469,1995
4469,2855
4469,4692
4470,3924
4472,257
4473,91
4473,221
4473,2229
4473,3553
4473,3806
4476,1162
4478,2694
4480,1391
4484,218
4487,1672
4488,3562
4492,464
4493,2675
4496,909
4499,1203
4500,2440
4501,187
4502,869
4502,3653
4505,1743
4505,2075
4505,2991
4505,4633
4507,175
4507,1750
4507,2337
4507,3444
4508,3997
4509,1902
4509,4362
4511,1460
4515,2397
4517,1285
4518,98
4518,299
4518,415
4518,531
4518,566
4518,592
4518,694
4518,883
4518,929
4518,1201
4518,1664
4518,1802
4518,2104
4518,2810
4518,4732
4518,4902
4520,933
4520,4807
4525,992
4525,1459
4525,1460
4525,1732
4525,2210
4525,2683
4525,4074
4525,4234
4527,987
4528,1451
4529,3705
4531,141
4532,120
4533,15
4533,903
4533,1168
4536,2271
4539,73
4540,1976
4541,1068
4541,2091
4543,1230
4543,3874
4545,2159
4549,1976
4552,297
4555,2672
4556,1468
4557,1059
4557,1835
4557,2580
4557,3638
4557,4933
4558,1282
4561,90
4562,2574
4565,1740
4566,202
4569,2454
4570,111
4572,4154
4573,3684
4574,1324
4574,4034
4575,178
4576,1790
4577,3093
4578,742
4578,2683
4579,1787
4580,2144
4583,295
4583,1604
4583,4191
4584,202
4584,4444
4586,706
4588,1102
4588,2148
4589,3945
4590,1460
4591,1115
4591,1424
4591,4179
4592,3586
4593,2949
4595,1755
4596,811
4597,210
4597,4571
4601,819
4603,4360
4604,143
4605,290
4606,3
4606,1718
4609,1993
4610,154
4610,371
4610,1912
4610,3539
4610,4802
4610,4868
4612,600
4612,1898
4614,392
4617,1975
4617,4855
4618,933
4619,1974
4624,2545
4625,3462
4626,60
4626,379
4627,600
4627,820
4627,1450
4627,3633
4628,453
4633,1950
4633,1999
4633,2567
4634,1131
4635,4294
4637,2508
4639,2425
4640,4317
4641,1445
4642,1492
4645,3192
4647,90
4647,1068
4647,1588
4647,2961
4649,966
4649,2844
4650,994
4651,2991
4653,42
4653,90
4653,111
4653,236
4653,365
4653,531
4653,1023
4653,2057
4653,2978
4653,3245
4653,3506
4653,4225
4653,4781
4654,1015
4654,2241
4654,2282
4655,1781
4655,4524
4656,1412
4657,1455
4659,162
4659,1036
4662,231
4662,453
4662,1249
4662,1254
4662,2425
4662,3058
4662,4706
4665,1541
4666,3823
4667,2658
4668,60
4668,1975
4668,2222
4668,4587
4668,4827
4669,222
4671,156
4671,4822
4672,3003
4674,152
4677,625
4677,1909
4678,316
4679,3852
4680,13
4684,4265
4684,4428
4685,4732
4686,1762
4687,4931
4688,545
4688,2815
4688,3967
4689,4084
4690,78
4693,869
4695,1757
4695,1787
4695,1905
4695,3009
4695,3017
4696,2353
4699,2656
4701,69
4701,498
4701,1297
4701,2917
4701,2949
4703,1546
4704,1609
4705,2359
4707,4934
4708,62
4709,2930
4710,449
4710,658
4710,659
4710,1515
4710,1648
4710,1672
4710,2469
4710,2629
4710,2949
4710,3724
4710,3742
4710,3882
4711,2725
4714,1939
4719,1750
4721,432
4721,460
4721,2284
4722,4084
4723,602
4724,591
4726,603
4726,2843
4728,2454
4730,432
4730,3274
4732,511
4733,67
4734,145
4734,574
4734,765
4734,2094
4734,2147
4734,2176
4734,2594
4735,3830
4737,509
4738,2406
4742,1026
4743,694
4744,1962
4745,87
4745,1655
4749,2672
4756,447
4758,147
4759,4260
4761,60
4761,1383
4761,2217
4761,3224
4761,3278
4761,3412
4761,3831
4762,577
4762,807
4763,498
4765,921
4766,1025
4767,1273
4768,64
4768,1333
4768,1383
4769,1974
4770,1249
4772,1890
4772,2803
4772,3175
4772,4698
4773,108
4773,210
4773,291
4773,968
4773,1068
4773,1079
4773,1386
4773,1604
4773,1792
4773,2542
4773,2674
4773,2737
4773,2760
4773,2953
4773,3066
4773,3158
4773,3638
4773,4143
4773,4872
4774,192
4774,4928
4775,290
4776,3339
4778,2672
4779,48
4780,2959
4782,4057
4783,1672
4784,2678
4785,3588
4787,421
4789,4928
4790,3061
4790,3154
4790,3704
4790,4369
4791,783
4794,2656
4795,933
4796,2452
4798,1451
4803,2822
4804,4458
4805,111
4809,1792
4810,2
4813,918
4814,1787
4814,3617
4816,566
4816,1310
4817,527
4820,299
4823,2418
4824,4139
4826,4332
4827,607
4827,1086
4827,1606
4828,3761
4829,932
4830,650
4831,3988
4832,1018
4833,2860
4833,4691
4834,432
4834,862
4834,4239
4835,1790
4837,283
4838,927
4838,4123
4839,192
4841,751
4842,1282
4844,1890
4849,2428
4851,527
4851,1322
4851,1664
4852,58
4852,964
4852,2149
4856,3676
4858,670
4859,3638
4860,1161
4861,930
4862,2567
4863,415
4864,3081
4867,3330
4871,1750
4873,2788
4874,202
4875,1623
4878,3997
4880,157
4880,329
4880,1110
4882,1604
4883,1700
4885,395
4885,2398
4887,1695
4888,1732
4889,1333
4890,114
4890,479
4892,1604
4901,1540
4901,1958
4901,1975
4903,1549
4903,3407
4904,2792
4906,1361
4906,2637
4910,2341
4911,861
4913,3081
4914,1442
4914,2376
4915,498
4916,1925
4917,1025
4918,301
4918,2754
4919,1282
4920,3272
4921,3081
4922,1609
4923,496
4924,13
4925,1154
4927,3799
4929,2425
4930,2237
4931,1574
4932,360
4935,1009
4935,2462
4935,2897
4936,1750
4936,2389
4937,1075
4937,1368
4937,1841
4937,2930
4937,2961
4937,3727
4938,1965
4939,4312
4941,2086
4943,3967
4944,1936
4945,3988
4949,1803
4950,706
4950,2725
4952,3193
4953,2925
4955,4131
4959,2795
4960,952
4961,1426
4962,220
4963,4557
4968,2949
4969,64
4969,267
4969,1107
4969,1154
4969,1230
4969,1569
4969,2674
4972,4482
4973,2020
4973,3496
4974,607
4977,3997
4978,2333
4979,932
4980,739
4984,366
4984,1487
4984,1567
4984,1618
4984,2754
4985,2377
4986,1426
4989,2767
4990,2369
4991,86
4991,104
4991,155
4991,237
4991,765
4991,990
4991,2368
4991,2634
4991,3748
4991,3937
4991,4247
4991,4376
4991,4544
4991,4712
4992,3193
4993,1610
4996,21
4998,1469
4999,1609
4999,1955
