src,dst
0,1
0,661
0,2211
0,3380
3,850
3,1411
3,1441
3,4558
3,4811
6,1966
6,2395
6,4110
6,4520
7,1357
8,943
8,1847
8,2790
9,251
9,811
9,1905
9,2201
9,2836
9,4533
9,4582
11,391
11,845
11,985
11,2230
11,3089
11,3629
13,222
13,730
13,2546
13,3970
13,4211
14,284
14,918
14,1990
14,2948
14,3528
14,3864
14,3927
14,3949
14,3953
14,4670
15,54
15,609
15,808
15,907
15,932
15,1087
15,1100
15,2196
15,3894
15,4389
15,4612
15,4662
15,4739
15,4968
19,7
19,1809
21,148
21,446
21,764
21,1038
21,1352
21,1598
21,2795
21,3552
21,4749
21,4796
22,1222
23,129
23,200
23,1817
23,4582
24,339
24,663
24,1011
24,1538
24,3040
25,945
25,981
25,990
25,1130
25,2539
25,2615
25,3426
25,4089
25,4612
26,448
26,652
26,1771
26,2669
26,2675
26,3321
26,3337
26,3927
26,4035
26,4175
27,1851
27,3740
29,95
29,538
29,1107
29,1624
29,1792
29,1923
29,2548
29,3578
29,4307
30,48
30,137
30,353
30,797
30,966
30,1996
30,2092
30,3606
31,1889
31,2595
31,4501
33,3830
34,55
34,1733
34,1744
34,1890
34,2084
34,3930
35,878
35,1675
35,3043
35,3431
35,3462
35,4416
37,633
37,1865
38,1906
38,1927
38,2400
39,943
39,1108
39,1449
39,3592
39,4339
40,200
40,767
40,1161
40,1903
40,2283
40,2414
40,2419
40,2753
40,2867
40,3377
40,3416
40,3529
40,4864
41,781
41,1206
41,1719
41,2355
41,4386
41,4863
42,4520
43,323
43,1079
43,3459
43,4638
45,1611
46,2646
47,224
47,1324
47,1668
47,3028
47,3217
47,3559
47,3661
47,3917
48,1
48,104
48,506
48,1668
48,1966
48,4001
49,157
49,2060
51,557
51,604
51,943
51,1313
51,4720
52,413
52,543
52,2749
52,3333
53,233
53,1685
53,4103
53,4133
53,4198
57,1491
57,3304
59,649
61,4376
61,4612
63,106
63,137
63,2469
63,3052
63,3943
64,67
64,500
64,609
64,1078
64,1138
64,1489
64,1555
64,2941
64,3868
67,153
67,221
67,525
67,545
67,963
67,1980
67,2751
67,2808
67,3266
67,3528
67,3714
69,94
69,205
69,2436
69,2854
69,3531
70,209
70,379
70,417
70,598
70,772
70,1299
70,1330
70,1444
70,1688
70,1983
70,2283
70,2442
70,2620
70,2954
70,3121
70,4130
70,4213
70,4431
70,4744
71,18
71,74
71,183
71,327
71,664
71,879
71,958
71,1238
71,1364
71,1382
71,1576
71,1619
73,300
73,348
73,444
73,612
73,1602
73,2466
73,3685
73,4170
73,4204
73,4649
75,2339
75,3363
76,438
76,1687
76,1825
79,1804
79,1915
80,460
80,1335
82,56
82,2687
83,4584
85,1687
85,3785
85,4093
85,4461
86,545
86,597
86,3160
87,100
87,264
87,545
87,712
87,1074
87,1109
87,1927
87,2124
87,2252
87,2577
87,2999
87,3155
87,3209
87,3536
87,3924
87,4016
89,2564
89,4968
91,3878
98,3480
102,542
102,1035
102,1155
102,1333
102,1353
102,1956
102,2196
102,2603
102,3338
102,3865
102,4133
102,4535
102,4700
103,2606
103,4894
105,1369
105,2402
108,724
108,1144
108,2549
108,3210
108,4389
109,349
109,451
109,720
109,778
109,1460
109,1580
109,1729
109,1756
109,1835
109,2725
109,2906
109,3094
109,3419
109,4341
109,4958
110,194
110,571
110,1767
110,2471
110,3116
110,3679
112,4925
114,819
114,3104
116,226
116,1747
116,4912
119,965
119,1018
119,2229
119,2281
122,1995
122,2788
123,444
123,739
124,222
124,937
124,2917
125,4518
130,3193
130,3252
131,1330
131,1912
131,3724
131,3803
132,460
132,731
132,1282
132,1485
132,1723
132,2625
133,713
133,1282
133,4792
134,326
134,1966
134,2572
134,3535
137,1237
137,2457
139,350
139,996
139,1136
139,2106
139,2852
139,3182
139,3852
139,4970
140,195
140,436
140,718
140,3923
141,1108
141,2129
143,2402
144,35
145,1701
147,2235
147,2387
147,3068
147,4547
147,4983
148,2034
148,2061
148,2281
148,2375
148,3568
150,107
150,447
150,709
150,855
150,1040
150,1091
150,1277
150,1661
150,2003
150,2007
150,2123
150,3979
150,4065
150,4068
151,2060
151,4027
151,4797
154,2164
155,315
155,1718
155,2109
155,3422
155,4195
159,1865
161,2043
161,2091
161,4339
161,4708
163,342
163,986
163,1130
163,1958
164,2155
164,3528
166,1690
166,3129
167,1497
167,3859
167,4973
168,735
168,1649
169,251
169,972
169,1120
169,1436
169,1614
169,2306
169,2876
169,3003
169,4650
170,157
170,1023
170,2513
170,2998
170,4819
172,2361
173,20
173,283
173,2196
173,4351
174,208
174,674
174,835
174,2472
174,2735
174,3689
175,4685
176,3339
177,142
178,1660
179,195
179,813
179,1006
179,1497
179,1741
179,2507
179,3961
179,3987
179,4889
180,4216
181,2040
184,117
184,451
184,809
184,2124
184,2710
184,4951
185,2854
185,3849
188,243
188,1051
191,1797
191,2203
191,2954
196,2
197,1778
197,1861
197,3711
197,4181
197,4254
197,4790
198,1283
198,1310
198,1380
198,1955
198,3496
201,2665
203,567
203,988
203,2095
203,2971
204,1814
204,3830
210,3278
211,2868
211,3210
214,722
214,2212
215,354
215,704
215,1482
215,3252
217,484
217,542
217,676
217,1483
217,3870
217,4374
220,1497
221,162
221,430
221,1850
222,3762
223,775
223,1985
223,3144
223,4831
227,1591
227,1766
227,2211
227,3503
230,875
230,4503
231,193
231,197
231,236
231,406
231,730
231,1312
231,1454
231,1816
231,2058
231,2500
231,2952
231,3319
231,4129
234,1743
234,2538
234,3371
235,394
235,552
235,1300
235,3186
238,712
238,1240
238,2634
238,2872
238,4472
239,186
239,1054
239,2153
242,2368
243,609
244,1230
244,1733
247,183
247,3992
248,74
248,117
248,197
248,234
248,344
248,548
248,572
248,825
248,847
248,1016
248,1910
248,2025
248,2133
248,2387
248,2433
248,2465
248,3341
248,3778
248,4134
248,4351
248,4407
248,4475
249,2687
249,3205
249,4702
250,1649
252,251
253,743
253,824
254,233
254,294
254,446
254,529
254,593
254,773
254,780
254,941
254,1065
254,1804
254,2066
254,2412
254,3051
254,3257
254,3451
254,3830
254,4375
254,4706
255,363
255,1349
255,2439
255,2486
256,1306
256,2643
256,3785
256,4473
257,777
257,2954
259,2799
260,2256
261,459
261,460
263,520
263,1517
263,1793
263,3260
263,3677
263,4209
267,765
267,1146
267,1176
267,1750
267,2923
267,3100
267,4562
268,2473
268,4351
270,115
270,3004
271,376
271,534
271,3625
271,4961
272,884
273,1823
273,3367
275,1233
275,2395
275,3639
275,3652
279,42
279,919
280,496
280,2195
280,2275
280,2708
280,3970
280,4914
281,4720
282,1330
282,1893
282,2185
282,3021
285,5
285,483
285,1598
285,1969
285,2505
285,2592
285,4555
286,404
286,1703
286,1819
286,2419
287,1144
288,186
288,963
288,1698
288,2948
289,650
289,2468
289,3195
289,3330
289,3407
289,3698
290,1
290,129
290,1001
290,1165
290,4585
291,135
291,1178
291,2637
292,2498
292,3413
292,3464
292,3705
292,3970
293,422
293,948
293,1879
293,3219
293,4038
299,761
299,4036
301,269
301,527
301,648
301,752
302,513
302,1892
302,3780
302,4206
303,242
303,540
303,845
303,975
303,1227
303,1569
303,1825
303,1851
303,2168
303,3118
303,3355
305,1850
305,2677
305,3014
305,3853
306,3212
307,709
307,835
307,1997
307,3642
307,3803
308,113
308,2566
308,3828
309,4486
310,386
310,1178
310,1299
310,2422
310,2674
310,3738
310,3795
310,3824
310,4317
312,676
312,2409
312,2749
314,1309
314,3638
316,374
317,32
317,225
317,426
317,725
317,1235
317,1701
317,1864
317,1871
317,2036
317,2401
317,2973
319,117
324,93
324,600
324,660
324,675
324,752
324,1535
324,1892
324,1983
324,2148
324,4133
330,213
330,359
330,611
330,3025
331,707
331,1733
331,2169
332,224
332,1111
332,1371
332,1839
332,1906
332,3185
332,3529
332,3936
332,4052
332,4133
332,4377
332,4627
333,708
333,4668
334,190
334,984
334,2384
336,444
336,542
336,1187
338,155
338,1339
338,3415
339,2001
340,155
340,476
341,1094
341,3835
341,4527
341,4909
343,1018
345,488
345,661
345,771
345,1344
345,4035
345,4146
347,800
351,893
351,1481
351,1651
351,1822
352,1501
352,3205
352,4483
355,518
355,1974
356,231
357,221
358,1244
358,2550
358,3156
358,3547
358,4433
360,710
360,1245
360,4121
360,4307
361,94
361,1769
361,4052
361,4470
362,1649
362,4472
363,1195
364,322
364,382
364,936
364,2355
364,2937
364,4460
366,1782
366,4477
367,524
368,148
368,658
368,945
368,2260
368,4902
369,1538
369,1980
369,2203
369,2330
369,3032
369,3335
369,3634
370,2409
371,219
371,512
371,661
371,4098
372,884
373,2061
373,3339
373,4292
374,3992
375,709
375,1338
375,2269
377,138
377,1580
377,1636
377,3944
378,3451
378,3528
380,1980
381,137
381,1366
381,1795
384,947
386,3988
387,135
388,17
388,653
388,2802
388,2954
389,1354
393,137
393,2470
393,3740
394,460
398,2319
398,3119
398,3818
403,157
408,80
408,137
408,1108
408,1464
408,2375
408,3113
408,3545
408,3554
408,3623
408,3890
410,508
410,625
410,867
410,1735
410,1764
410,1809
410,2071
410,2209
410,3146
410,3665
411,524
411,1336
411,4079
413,4561
415,250
415,1181
415,2657
415,2813
415,4176
416,391
418,900
418,1018
418,1083
418,1187
418,1208
418,1597
418,2994
418,3566
419,1
419,430
419,564
419,635
419,834
419,1303
419,1369
419,1733
419,2862
419,2882
419,3399
419,3493
419,4057
419,4408
420,465
420,567
420,1576
421,349
421,2232
421,4166
424,2400
425,352
425,355
425,730
425,1036
425,1442
425,1803
425,2686
425,3405
425,4055
427,2268
427,3858
427,4034
427,4133
427,4503
429,2913
429,3875
431,594
432,3566
433,3450
433,3504
435,137
435,1330
435,1336
435,3065
437,226
437,1438
437,2223
437,3773
437,4655
439,1409
439,2246
439,2397
439,2761
439,3006
440,4164
440,4322
440,4405
441,10
442,3936
443,1984
443,2103
443,2369
443,3145
443,3201
444,601
445,342
445,672
446,402
446,423
446,855
446,928
446,946
446,1114
446,1251
446,1326
446,1606
446,2307
446,2308
446,2439
446,2866
446,2888
446,3157
446,4851
448,4304
449,42
449,57
449,615
449,2884
452,84
452,344
452,412
452,417
452,562
452,631
452,951
452,1021
452,1372
452,1668
452,1761
452,1908
452,1975
452,2177
452,2599
452,2680
452,2884
452,3395
452,3657
452,4024
452,4236
452,4454
453,158
454,793
454,1989
454,2512
454,4668
455,1520
455,1538
456,1850
456,2048
456,3914
458,96
458,1071
458,1349
458,1980
458,2523
458,2918
461,838
461,1056
461,1580
461,1792
461,2741
464,342
464,1842
464,2207
464,2562
467,1128
467,1850
467,1993
467,3689
467,4996
468,75
469,2423
470,3493
471,1980
471,2880
472,66
472,216
472,365
472,406
472,744
472,3545
472,4128
475,156
475,1104
475,3061
476,37
476,304
476,704
476,723
476,1662
476,1693
476,2000
476,2290
476,3810
476,4077
476,4594
476,4649
481,391
481,446
481,477
481,3208
485,3445
487,940
487,3125
487,4065
491,231
491,4579
492,1415
492,1923
493,761
493,933
493,1508
493,4186
494,509
494,1576
494,2000
494,2906
494,4397
494,4435
499,587
499,843
499,1889
499,4432
499,4899
502,990
502,1994
502,2225
502,4646
502,4821
502,4927
503,117
503,2056
504,2979
504,4362
504,4712
505,2
507,1847
507,2006
507,3052
510,483
512,2040
512,2140
512,3547
514,1454
514,1627
514,1920
515,1008
515,2011
516,530
516,550
516,679
516,1016
516,1206
516,2022
516,2363
516,2640
516,3273
516,3481
516,4558
516,4672
516,4705
516,4905
517,2211
517,4597
517,4648
517,4973
519,1465
520,335
521,219
521,294
521,818
521,845
521,1401
521,2241
521,2505
521,3177
521,3768
522,155
522,1130
523,233
524,115
530,1330
532,199
532,311
532,4347
533,928
533,1254
533,2491
535,1477
536,465
539,216
539,724
539,758
539,811
539,1291
539,1668
539,2082
539,3514
539,4351
541,757
541,789
541,2397
543,1460
543,3308
543,4351
544,322
549,222
549,799
549,871
549,1295
549,3025
549,3160
550,1092
550,1781
551,4
551,2499
553,125
553,414
553,726
553,825
553,844
553,1538
553,2127
553,3772
553,4187
557,42
557,2928
557,3320
557,3713
557,3929
557,3979
557,4568
558,298
559,475
560,365
560,4186
561,1788
561,1811
561,2395
561,3662
563,2808
564,757
564,1067
566,760
566,2581
569,344
569,2032
570,480
572,2233
572,2927
573,3828
574,97
574,743
577,478
577,668
578,137
578,1090
578,1108
578,2645
578,3303
578,3381
578,4131
578,4521
580,835
580,2113
580,4529
580,4884
581,745
581,761
582,789
583,126
583,2618
583,3198
584,492
584,686
584,1016
584,1257
584,2095
584,2329
584,3405
584,4407
585,318
585,746
585,825
585,1611
585,1656
585,1689
585,2666
585,3139
585,3541
585,4344
587,2842
587,2990
590,564
590,1630
590,2829
591,4298
595,1330
596,401
596,1023
596,2292
596,2819
601,4370
601,4768
602,363
602,2095
603,2431
603,3132
605,264
606,3288
607,222
607,740
607,1581
607,3405
607,3407
608,72
608,352
608,631
608,722
608,2574
608,3566
608,4133
610,1348
610,1366
610,2392
610,2745
610,3339
610,3747
613,3339
614,412
617,74
617,216
617,222
617,659
617,3314
617,3759
617,3915
618,3500
618,3893
618,4043
619,2917
620,406
620,1023
620,2204
620,3294
620,3987
621,4662
622,1
622,997
622,1084
622,1674
622,3875
622,4403
624,301
626,444
626,1844
628,355
630,81
630,3616
630,4362
632,478
632,713
632,1048
632,1122
632,1322
632,1339
632,1379
632,1609
632,1862
632,3574
634,155
634,1336
634,4878
635,457
636,2378
639,1
639,126
639,771
639,2682
639,4107
639,4188
639,4388
639,4721
639,4823
640,321
640,404
640,944
640,3990
640,4555
642,1388
642,1554
642,2196
643,224
643,776
643,952
643,1986
644,436
645,108
645,221
645,850
645,1497
645,1889
645,2095
645,3110
646,2409
647,10
647,2199
647,3647
647,4623
651,4
651,162
651,1979
651,3405
652,758
652,2512
652,3803
654,4823
655,190
657,638
662,58
662,1464
662,1621
663,3405
666,342
666,2037
666,2708
667,1056
667,2630
667,3352
668,401
668,2743
670,713
670,1138
670,1327
671,1465
672,4817
678,2159
680,1072
681,865
681,2466
681,2611
681,3007
683,323
684,78
684,423
684,2787
684,3013
685,557
685,1940
685,4346
687,567
687,1095
688,65
688,182
688,241
688,1564
688,1577
688,2287
688,2332
688,2770
688,2899
688,3508
688,4070
689,789
689,3455
690,2063
690,3405
690,4564
691,982
691,1195
691,2145
691,2278
694,322
694,2882
695,18
695,193
695,3482
696,1571
701,488
701,4094
702,3698
702,4676
703,48
703,386
703,761
703,969
703,1505
703,2466
703,3732
703,4862
705,957
705,2167
705,3938
706,1006
706,3271
713,1483
714,115
714,1182
714,2620
715,2745
716,165
716,616
716,804
716,1904
716,4302
716,4582
718,156
718,2764
718,4555
719,865
719,1108
719,1862
721,1223
729,162
729,297
729,1101
729,1161
729,1617
729,2327
729,2414
729,3471
729,4351
729,4511
732,466
732,794
732,818
732,1833
732,2428
732,3008
732,4495
733,594
733,711
733,1305
733,1936
733,1999
733,2623
733,3036
733,3602
733,4038
735,2951
735,2955
736,485
737,406
737,2177
738,1752
738,2078
738,2375
744,1677
747,365
747,460
748,152
750,192
751,1
751,96
751,1298
753,363
753,545
753,835
753,849
753,1241
754,117
754,657
755,118
755,165
755,1332
755,1470
755,1518
755,1577
755,1852
755,2991
755,3002
755,3775
755,4040
755,4154
755,4769
755,4801
755,4900
760,319
760,2965
762,236
762,787
762,2726
762,2900
762,3251
763,165
763,2333
768,761
768,3420
770,1809
772,2439
774,2876
775,482
775,4142
775,4558
778,313
778,355
778,806
778,1248
778,2830
779,1370
779,1515
779,2202
781,77
781,2000
781,4470
782,406
782,463
782,1524
782,1894
782,3114
782,4895
783,321
783,2097
784,1394
784,2196
785,1571
785,3706
786,426
788,413
788,526
788,1432
788,1536
788,3145
790,1395
790,2670
791,594
791,3196
792,1239
792,2966
792,3748
792,3946
792,3958
792,4558
792,4768
795,656
795,1082
801,213
801,2852
804,1920
805,48
807,1661
807,3597
808,2202
809,155
810,714
812,386
812,2573
814,1240
814,1677
814,1743
816,80
816,3342
817,1138
818,352
818,1212
818,1789
819,53
819,216
819,3138
819,4978
820,2003
821,465
821,1481
822,137
823,463
826,178
826,552
826,855
826,1824
826,2350
827,127
827,137
827,450
827,2550
828,12
828,2816
828,3547
829,390
829,2614
829,3588
830,2305
831,74
831,78
831,1421
831,1916
832,3911
834,58
837,436
839,615
846,3210
847,1665
848,1247
848,1497
848,2374
852,219
852,337
852,1411
852,1472
852,1733
852,1857
852,2681
852,2924
852,3744
852,4472
853,460
853,4763
856,2207
857,1582
857,2799
859,16
859,2747
860,192
860,1400
860,1632
860,2103
861,402
861,4473
862,531
862,2660
862,2854
863,929
864,1395
865,697
866,2197
866,2651
866,2908
866,3210
868,127
868,1256
868,1819
868,4473
869,460
869,1169
869,1260
869,2076
869,2302
869,3425
870,3090
874,481
874,1035
876,872
877,1
877,222
877,2550
877,2664
878,741
880,3693
880,3813
881,1338
881,1913
881,2917
881,3584
881,3927
882,2273
883,538
884,643
884,1428
884,3079
884,3486
885,156
885,187
885,219
885,250
885,758
885,2487
885,2504
885,2556
885,2729
885,3025
885,4504
886,686
887,2936
887,3547
888,1150
888,3709
888,3935
889,428
889,660
889,1299
889,1535
889,4664
889,4739
890,117
890,1208
892,12
892,1727
892,2204
892,3051
892,3686
892,4420
894,106
894,1519
894,2311
894,2627
894,3741
896,226
896,1246
896,3400
896,4400
897,3164
897,4339
898,709
899,4477
900,940
901,3679
901,3803
902,2708
903,4720
904,542
905,385
905,2663
905,2947
905,3575
906,2
906,526
906,985
906,2391
906,2854
906,3165
908,2627
911,229
911,3846
913,798
913,4632
913,4645
915,213
915,601
915,1638
915,2267
915,2398
917,646
917,1315
917,1641
917,2229
921,2948
922,284
922,436
922,665
922,1725
922,1920
922,3280
922,4307
922,4652
923,32
923,1648
923,3671
924,264
924,994
924,2241
925,365
925,3952
926,1370
926,1683
926,4588
927,365
927,1530
927,4461
929,704
929,1285
929,2851
929,3597
931,436
931,2758
934,298
934,3498
935,780
935,3926
938,1986
939,1140
939,1906
939,3791
939,4312
942,236
942,430
943,48
945,940
947,316
947,1206
947,3528
948,1675
949,3345
950,1000
950,1354
953,480
953,835
953,1924
953,2171
955,137
956,78
956,233
956,930
956,940
956,943
956,1131
956,1393
956,2003
956,2168
956,3467
956,4121
956,4351
956,4412
956,4436
956,4880
960,401
960,1580
961,227
961,622
961,3278
962,158
964,1273
964,1920
964,2745
964,4374
967,152
967,2655
967,3620
970,262
970,1173
970,2304
970,3596
970,4191
971,3927
974,84
974,3988
974,4579
976,178
977,429
978,1818
978,2583
979,1350
979,1593
979,3977
979,4063
983,803
987,476
989,3153
991,3013
998,800
999,120
999,264
999,1370
999,1556
999,2130
999,3017
999,3339
1002,246
1002,328
1002,668
1002,2203
1002,3854
1004,692
1004,4366
1007,2095
1007,2208
1007,2604
1007,3666
1009,4864
1009,4987
1010,576
1013,2375
1014,127
1014,1018
1015,2730
1015,3875
1017,115
1017,1751
1017,2604
1017,3360
1017,3946
1019,390
1019,4816
1020,55
1025,746
1025,1090
1025,1172
1025,1418
1025,1846
1025,2242
1025,4133
1026,12
1026,155
1026,1295
1026,1504
1026,2612
1026,4531
1027,4902
1028,1123
1029,466
1029,2745
1031,189
1032,524
1032,1386
1032,1966
1032,2196
1032,2244
1032,3978
1033,1611
1034,2917
1034,3314
1035,875
1035,1935
1035,2358
1035,2427
1036,1853
1036,2502
1036,3009
1037,1587
1037,1738
1039,428
1041,3533
1042,1306
1044,712
1044,3273
1044,4670
1045,743
1046,127
1046,406
1046,1572
1047,386
1047,789
1051,720
1051,1937
1052,2402
1052,4724
1053,722
1053,1115
1053,1375
1053,1664
1053,1925
1053,1972
1053,2024
1053,2831
1053,2942
1053,3026
1053,3663
1053,4113
1053,4196
1053,4831
1055,772
1055,3057
1055,4362
1057,397
1057,1307
1057,3546
1060,972
1060,1422
1061,3634
1061,4133
1061,4722
1062,3762
1064,4500
1068,251
1068,294
1068,3813
1069,4821
1070,383
1070,990
1070,1368
1075,1201
1075,1260
1076,1956
1076,2852
1076,2946
1080,488
1080,802
1080,1831
1080,2220
1080,4326
1081,707
1081,771
1085,4582
1086,697
1086,2455
1087,4493
1088,387
1088,1139
1088,3903
1089,311
1089,2478
1089,3216
1091,506
1091,1376
1091,2048
1091,3368
1091,3535
1093,1576
1093,2880
1093,2933
1094,2502
1099,542
1102,205
1102,1442
1102,2786
1105,1576
1105,1599
1105,2104
1105,3229
1105,4365
1106,479
1109,660
1109,1410
1109,1954
1109,2628
1109,4850
1110,446
1112,2354
1112,4148
1116,564
1116,1329
1116,2058
1117,4622
1118,222
1118,480
1118,2547
1118,2598
1118,3225
1118,3256
1118,4183
1118,4273
1118,4644
1118,4952
1123,2117
1124,4831
1125,3250
1125,3509
1126,1552
1126,4307
1127,844
1129,10
1129,460
1132,2208
1132,3830
1132,4553
1132,4673
1133,2256
1133,2356
1133,4628
1134,3805
1137,3343
1137,4582
1141,97
1141,1405
1141,2618
1141,3047
1141,3955
1141,4520
1141,4990
1145,1440
1145,3145
1148,700
1152,518
1153,1795
1156,2627
1157,1904
1157,3192
1157,4186
1157,4995
1158,17
1158,66
1158,1927
1158,2203
1158,4641
1160,1767
1160,2517
1162,90
1162,182
1162,315
1162,713
1162,2691
1162,3104
1162,3350
1162,3676
1162,3785
1162,3974
1162,4834
1163,709
1163,4954
1166,2919
1166,4184
1166,4339
1167,3192
1167,4049
1167,4727
1167,4778
1170,1206
1170,4113
1174,1610
1174,2569
1174,2749
1174,3291
1175,2620
1175,4247
1177,884
1179,328
1179,501
1179,524
1179,680
1179,727
1179,796
1179,1520
1179,1532
1179,2196
1179,2306
1179,2496
1179,3295
1179,4274
1180,851
1180,2697
1180,4459
1180,4616
1181,75
1181,3052
1183,115
1183,743
1183,919
1183,1619
1183,2610
1183,2635
1183,3388
1184,3535
1186,3837
1188,3381
1189,686
1189,1634
1189,2864
1190,1049
1190,1608
1191,74
1191,1889
1191,3311
1193,218
1193,1453
1193,2040
1193,3694
1196,597
1196,1110
1196,3611
1197,2319
1197,4445
1200,222
1200,2371
1200,2575
1201,291
1201,1748
1201,3005
1201,4933
1202,2927
1207,430
1207,2992
1207,3542
1207,4570
1210,1262
1210,3939
1211,2007
1211,3927
1213,197
1213,2787
1214,587
1214,1040
1214,3802
1215,342
1215,1113
1215,2986
1217,155
1217,2431
1218,156
1219,315
1220,850
1222,228
1222,430
1222,3068
1222,3491
1222,4513
1223,1101
1224,342
1224,2239
1225,724
1225,4153
1226,197
1228,1119
1228,2979
1228,4918
1228,4979
1229,1119
1230,3828
1231,552
1232,1222
1234,925
1236,2431
1242,3373
1242,4091
1242,4987
1243,509
1243,3652
1246,2200
1250,571
1250,3136
1250,4386
1252,1980
1253,155
1253,1050
1254,824
1254,1670
1255,582
1255,2722
1255,2978
1255,3270
1255,3540
1258,1986
1259,72
1259,115
1259,160
1259,206
1259,320
1259,490
1259,598
1259,798
1259,943
1259,1094
1259,1927
1259,2215
1259,2357
1259,2774
1259,2852
1259,4686
1261,954
1261,1102
1261,2616
1261,4498
1263,157
1263,408
1264,247
1264,789
1265,1280
1265,1876
1265,2137
1265,2310
1265,2806
1266,155
1266,218
1266,269
1266,709
1266,754
1266,1123
1266,1497
1266,1599
1266,1651
1266,3573
1267,825
1267,1677
1267,1685
1267,3244
1267,4872
1268,704
1269,1809
1270,245
1271,1103
1271,1480
1271,1518
1271,2110
1271,2829
1271,3119
1271,3268
1271,4881
1272,2314
1272,2400
1272,4219
1272,4831
1274,920
1275,1537
1275,3049
1276,1038
1276,3706
1277,2014
1279,1298
1279,2683
1279,3429
1280,660
1281,7
1281,574
1281,3217
1281,3659
1281,4225
1289,18
1290,1534
1292,734
1293,412
1294,329
1294,4810
1296,1589
1296,3405
1297,1966
1297,2571
1297,3601
1300,2973
1300,3472
1300,3522
1301,96
1301,686
1301,2794
1301,4098
1301,4492
1301,4499
1302,254
1302,3878
1304,1751
1306,436
1306,4692
1308,72
1308,944
1308,996
1308,1151
1310,272
1310,399
1310,484
1310,2611
1310,2653
1310,3302
1310,3397
1310,4603
1310,4740
1311,3805
1314,3529
1316,2040
1318,3740
1319,2
1319,355
1319,2095
1319,2773
1320,528
1320,1567
1321,1310
1321,1497
1323,588
1323,726
1323,1170
1323,1171
1323,2254
1323,3628
1325,586
1326,2811
1328,326
1331,567
1334,4612
1337,311
1339,207
1340,342
1341,934
1343,400
1345,3136
1346,4371
1347,789
1350,757
1350,1617
1350,2017
1350,2241
1350,2854
1350,4298
1351,1589
1354,199
1354,406
1354,1464
1354,2803
1354,4937
1355,1372
1355,1889
1355,3641
1355,3839
1356,2800
1358,53
1358,93
1358,199
1358,321
1358,413
1358,1012
1358,1018
1358,1206
1358,1342
1358,1576
1358,1796
1358,2146
1358,2387
1358,2555
1358,3806
1358,4557
1358,4975
1359,222
1359,3138
1359,4260
1362,4447
1363,4065
1364,495
1364,1185
1364,2409
1364,3258
1364,3582
1364,3830
1364,3956
1365,3803
1367,434
1367,2046
1367,3136
1367,3835
1372,5
1372,1402
1373,1539
1373,2745
1374,819
1374,1658
1374,2497
1376,4938
1378,773
1381,609
1381,1285
1381,1929
1381,2424
1383,2469
1384,155
1384,2799
1385,1144
1387,233
1387,1510
1387,2602
1387,2768
1387,4497
1390,845
1390,1240
1390,2869
1390,4021
1390,4526
1390,4780
1391,1101
1391,2514
1392,7
1396,137
1397,262
1397,1057
1397,1529
1397,2248
1397,2915
1397,3166
1397,4920
1400,4762
1404,1230
1406,1051
1406,2470
1407,250
1407,989
1407,2660
1408,2211
1408,4479
1413,415
1413,2408
1414,484
1415,222
1416,759
1417,92
1423,413
1423,3446
1423,4612
1424,4363
1427,58
1427,342
1427,1470
1428,119
1428,125
1428,405
1428,428
1428,1212
1428,1603
1428,1804
1428,1864
1428,2854
1429,4351
1430,117
1431,1257
1433,1612
1433,1712
1433,1739
1433,2909
1434,723
1434,2810
1434,3409
1435,12
1435,2036
1436,2508
1437,3246
1437,3876
1439,1171
1439,3160
1440,53
1445,221
1445,1344
1445,1538
1445,4179
1447,743
1447,3435
1447,3926
1448,117
1448,1291
1450,245
1450,1883
1450,3893
1451,12
1451,115
1451,1137
1451,1352
1451,4822
1452,4925
1454,28
1454,127
1454,1765
1454,2266
1454,2367
1454,4542
1454,4921
1456,80
1456,3036
1456,4923
1457,1868
1457,4473
1458,3576
1458,3762
1459,2854
1460,1890
1461,348
1462,326
1462,609
1462,1638
1462,3300
1463,3459
1465,564
1465,1212
1465,1469
1465,4720
1466,197
1467,709
1468,1797
1468,2017
1468,3230
1468,4432
1469,3033
1469,3227
1471,1138
1471,2003
1471,2080
1471,4461
1473,495
1473,1964
1474,3216
1475,1889
1476,224
1476,1690
1476,2141
1477,1994
1478,3535
1479,4033
1480,815
1482,594
1483,4722
1487,313
1487,342
1487,700
1487,882
1487,999
1487,3217
1487,3957
1490,1745
1492,1850
1492,2247
1492,2325
1492,3551
1492,4238
1493,1172
1493,2402
1493,4897
1494,2164
1494,2704
1495,2909
1495,4418
1498,160
1499,1859
1499,4002
1500,1198
1500,2122
1500,4119
1501,65
1501,985
1501,2063
1501,2161
1501,2798
1501,3134
1503,1130
1503,4494
1509,1966
1509,2552
1509,3241
1512,914
1512,1371
1512,2097
1513,998
1514,126
1514,322
1514,1286
1514,2423
1514,3217
1514,4554
1514,4725
1516,3595
1518,1541
1518,2352
1518,3665
1521,594
1521,1670
1521,2259
1521,3253
1521,4215
1522,1198
1523,5
1525,342
1525,2656
1525,4160
1526,107
1526,3004
1527,725
1527,3714
1527,3993
1528,342
1531,1035
1533,2674
1534,1159
1535,1449
1537,4558
1538,1354
1538,2954
1540,1366
1540,2284
1542,1464
1542,4592
1543,2164
1544,2808
1545,283
1545,3461
1545,3766
1546,2873
1547,1483
1548,3813
1549,1332
1550,32
1550,165
1550,993
1551,2884
1553,1576
1556,222
1556,1443
1556,4249
1559,526
1559,758
1559,3707
1560,1906
1560,2799
1560,4240
1561,1648
1561,2171
1563,593
1565,20
1565,2130
1565,3544
1566,633
1568,294
1568,4164
1570,564
1570,2452
1570,3418
1573,65
1574,1966
1578,3754
1583,844
1583,2390
1584,712
1585,884
1585,4143
1588,1208
1588,3763
1589,727
1589,2453
1589,2471
1589,3529
1589,4739
1590,1309
1594,1455
1595,761
1595,1624
1595,2502
1596,2680
1596,2914
1596,3122
1598,493
1598,3210
1600,4485
1600,4553
1601,646
1605,329
1605,611
1605,758
1605,1531
1605,1592
1605,2042
1605,2131
1605,2378
1605,2420
1605,4081
1605,4364
1607,183
1611,74
1611,246
1611,3729
1613,438
1613,822
1613,1865
1613,2902
1618,2152
1618,2271
1618,3072
1618,4710
1620,92
1620,155
1620,184
1620,579
1620,945
1620,1397
1620,1428
1620,3420
1620,4014
1622,1057
1623,1197
1623,2775
1624,395
1624,1121
1624,1206
1624,2011
1624,2128
1624,4907
1625,2095
1626,3339
1628,604
1628,4650
1629,1835
1630,394
1630,3832
1631,665
1633,127
1633,335
1633,1172
1633,3279
1633,4678
1635,1
1635,2104
1637,1957
1637,4720
1637,4728
1639,125
1640,462
1640,2882
1642,1287
1642,4676
1643,4
1644,460
1644,511
1644,1142
1645,3731
1645,4002
1647,4676
1649,2772
1649,3018
1649,4367
1650,1497
1652,376
1652,1421
1653,582
1653,3247
1655,2620
1656,3547
1657,579
1659,137
1664,684
1666,117
1666,4831
1667,557
1667,623
1669,460
1671,3595
1672,2541
1673,1172
1675,240
1675,1580
1675,2213
1678,686
1678,2455
1678,3507
1680,2482
1682,216
1682,996
1682,1597
1682,2041
1682,2323
1682,4252
1682,4969
1684,2991
1686,300
1686,1576
1691,1172
1691,1208
1691,1403
1691,4019
1691,4712
1692,233
1692,1668
1692,2400
1694,222
1694,2149
1694,2316
1694,3056
1695,509
1695,646
1695,769
1695,1954
1695,2836
1695,3410
1696,4612
1697,593
1699,2834
1699,3545
1700,2915
1700,4002
1701,1214
1701,2255
1702,2642
1702,3936
1704,1349
1704,2000
1705,1051
1705,2379
1705,2403
1705,2645
1705,3318
1706,1415
1707,4167
1708,1109
1708,1377
1708,1603
1708,2821
1708,4501
1711,4612
1713,1130
1714,1169
1715,2438
1715,3893
1716,1409
1716,2613
1716,4589
1717,1850
1717,2755
1720,3089
1720,3979
1720,4625
1721,376
1722,712
1722,2869
1722,3086
1722,4293
1724,3939
1726,414
1726,1946
1726,4234
1728,244
1728,4168
1730,2912
1730,3864
1731,1945
1731,2460
1731,4768
1732,1056
1734,2852
1736,2917
1737,796
1737,1710
1738,996
1738,4264
1740,54
1740,1872
1740,1889
1740,3727
1740,4704
1741,382
1742,2
1743,995
1743,2400
1746,2597
1749,213
1749,3019
1753,304
1754,538
1754,4308
1755,996
1755,3610
1757,352
1757,2491
1757,3757
1757,4165
1758,1709
1759,3965
1760,162
1760,3577
1760,4125
1760,4226
1760,4755
1762,982
1763,1317
1763,1395
1763,2284
1768,1743
1772,1753
1772,2718
1773,3595
1774,3493
1775,995
1776,107
1776,1299
1777,3358
1778,564
1778,1172
1778,1921
1778,2408
1778,2785
1779,322
1779,693
1779,1401
1779,2342
1779,3697
1779,3882
1779,3984
1780,4363
1782,964
1783,601
1784,53
1785,2319
1785,4467
1786,1449
1786,2806
1787,417
1787,428
1787,1855
1787,2665
1787,3874
1790,92
1790,2145
1791,412
1791,1497
1791,4186
1794,1395
1794,4551
1797,128
1797,609
1797,854
1798,1638
1799,250
1800,117
1800,224
1800,545
1800,673
1800,844
1800,3335
1800,3421
1802,631
1803,328
1803,396
1803,1006
1803,1966
1803,3492
1803,4009
1803,4613
1805,108
1805,4843
1807,1677
1808,2003
1809,219
1809,3837
1810,4113
1812,7
1813,1333
1815,197
1820,182
1821,385
1821,457
1821,576
1821,1048
1821,1103
1821,1946
1821,1998
1821,2262
1821,3361
1821,3555
1821,4319
1821,4595
1821,4612
1823,1100
1825,1685
1827,1038
1827,2010
1827,2495
1828,1575
1829,478
1830,121
1830,160
1830,342
1830,383
1830,891
1830,1001
1830,2652
1830,2689
1830,2923
1830,2982
1830,3328
1830,3627
1830,3791
1830,3999
1830,4333
1830,4403
1832,12
1834,42
1835,2035
1835,3171
1837,296
1838,138
1841,571
1841,2854
1841,4955
1843,1677
1844,3081
1845,4065
1847,4075
1848,192
1848,321
1848,404
1848,1555
1848,3844
1850,1980
1854,3878
1856,3529
1858,676
1863,1331
1863,1366
1863,2224
1866,1083
1869,1481
1869,4148
1870,988
1871,2409
1873,463
1875,789
1876,2646
1877,940
1878,463
1878,2532
1878,4831
1880,4829
1881,2431
1882,483
1882,1310
1883,325
1884,4968
1885,1481
1885,3007
1885,3041
1885,3184
1886,3701
1887,88
1887,598
1888,325
1889,3936
1891,20
1891,111
1891,728
1891,4768
1895,2458
1895,4918
1896,3936
1897,1104
1897,2769
1898,348
1899,1628
1899,2448
1899,3965
1900,1889
1900,2745
1900,4622
1901,722
1901,787
1901,2164
1901,2926
1901,3383
1907,3136
1909,1768
1909,1893
1910,677
1910,3927
1910,4707
1912,675
1912,3071
1913,824
1913,3813
1914,1350
1917,12
1917,3029
1917,3520
1919,3803
1923,489
1923,3166
1926,17
1928,872
1928,3037
1928,4178
1928,4500
1930,2621
1931,460
1932,1580
1932,3803
1932,3829
1934,1675
1935,609
1935,1867
1937,236
1937,2667
1937,3459
1938,1021
1940,2418
1941,2455
1942,274
1942,1288
1942,2069
1942,2459
1943,1792
1943,3980
1944,447
1944,2365
1946,4186
1949,1558
1949,3558
1950,1871
1950,3775
1951,213
1951,793
1951,2047
1951,4155
1952,249
1952,4417
1953,137
1954,3296
1956,756
1956,3579
1959,928
1960,1195
1961,1051
1963,1489
1965,4113
1967,1380
1968,502
1970,2191
1970,2196
1971,1923
1974,3493
1976,1164
1979,2422
1980,597
1980,1709
1981,1063
1981,3183
1981,3868
1981,3887
1981,3987
1981,4550
1982,344
1982,582
1982,2143
1982,2271
1982,2521
1982,2677
1982,3803
1982,4584
1986,304
1986,1464
1986,2375
1986,4304
1986,4722
1987,2991
1988,391
1991,1063
1992,296
1992,1143
1995,766
1995,1071
1995,1417
1995,1670
1995,1840
1995,2730
1995,3138
1995,3713
1995,4637
1997,841
1997,3192
1998,1847
2001,93
2001,240
2001,258
2001,319
2001,725
2001,819
2001,959
2001,1051
2001,1130
2001,1164
2001,1204
2001,1252
2001,1281
2001,1507
2001,2724
2001,3345
2001,3592
2001,4169
2001,4224
2001,4340
2001,4458
2001,4556
2002,3437
2002,3545
2003,1562
2003,2456
2004,1864
2004,2499
2004,3667
2005,4406
2005,4555
2007,2563
2008,698
2008,884
2008,4068
2009,3859
2012,94
2012,722
2012,1465
2012,2137
2012,2810
2013,1299
2015,1
2015,224
2015,250
2015,4591
2016,818
2019,524
2019,627
2020,4612
2021,1506
2021,3246
2021,3716
2021,4190
2023,137
2023,3331
2023,3940
2023,4800
2026,600
2026,2152
2027,1119
2027,1709
2027,3206
2028,42
2028,4080
2029,965
2031,800
2031,2099
2031,2434
2031,2601
2033,739
2033,1096
2033,3190
2033,3201
2033,3345
2033,4372
2033,4444
2038,4
2039,767
2044,422
2044,4996
2045,44
2049,609
2050,355
2051,365
2052,74
2052,2714
2053,194
2053,540
2053,944
2053,2874
2053,4339
2053,4883
2054,2597
2055,160
2057,4477
2059,692
2060,4472
2061,3125
2062,1245
2062,3305
2062,3381
2062,4371
2064,939
2064,3019
2064,3695
2064,4180
2065,2973
2067,152
2067,3117
2068,3533
2070,982
2071,986
2071,2291
2072,2216
2073,3419
2074,2
2075,148
2075,457
2075,3221
2077,1649
2079,913
2079,3617
2082,192
2082,1205
2082,3327
2082,3677
2082,3703
2082,3948
2082,4960
2083,693
2085,465
2086,1597
2088,2808
2089,3875
2090,1778
2090,2093
2094,155
2094,2629
2094,4568
2095,465
2095,4160
2098,327
2098,526
2100,676
2101,3864
2102,3319
2105,2661
2105,2982
2105,3981
2105,4818
2107,1557
2108,3706
2109,241
2109,2241
2111,53
2112,2080
2115,1868
2115,3487
2116,1092
2118,2455
2119,460
2121,627
2121,1108
2121,2274
2125,999
2125,2954
2129,156
2132,1229
2132,4989
2134,1865
2135,1889
2136,190
2136,1947
2136,2006
2136,2832
2137,665
2138,18
2139,718
2139,4390
2140,171
2140,489
2144,1579
2144,4720
2147,2212
2150,818
2151,4130
2156,1924
2156,2164
2156,3719
2156,4942
2157,730
2158,2095
2158,4489
2159,822
2159,3665
2160,542
2162,187
2162,258
2162,502
2162,760
2162,834
2162,1113
2162,1446
2162,1986
2162,3033
2162,4145
2162,4560
2162,4852
2163,2363
2163,2907
2163,4558
2165,2036
2166,1597
2167,2249
2168,272
2168,346
2168,717
2168,742
2168,914
2168,1135
2168,1137
2168,1265
2168,1288
2168,1397
2168,1455
2168,2110
2168,2489
2168,3405
2170,1517
2170,1908
2170,2605
2170,3489
2172,796
2172,1945
2172,3998
2173,78
2176,2000
2177,18
2177,811
2177,2196
2177,2324
2177,2586
2178,2258
2178,2383
2178,2753
2178,3127
2179,2745
2181,137
2181,296
2182,465
2182,1651
2182,2802
2183,1168
2183,1198
2184,1097
2184,1354
2184,3936
2184,4467
2186,1399
2187,422
2187,3640
2188,199
2188,529
2188,2030
2188,2721
2189,4252
2190,1835
2191,3803
2192,233
2192,1005
2192,2415
2194,233
2196,350
2196,1977
2196,3270
2198,127
2205,1908
2205,3313
2206,767
2206,2091
2206,3470
2208,1203
2208,3535
2210,945
2212,1464
2212,2885
2217,2203
2218,1796
2219,56
2219,3599
2221,213
2226,68
2226,1417
2226,4321
2226,4619
2228,137
2234,1558
2234,2058
2234,2445
2237,819
2237,1361
2238,649
2238,760
2238,2568
2238,4151
2240,304
2240,918
2240,4738
2241,53
2241,1058
2241,1291
2241,2520
2241,3775
2243,2973
2243,3287
2243,3405
2244,434
2244,526
2244,2534
2244,2958
2244,4272
2245,80
2245,1624
2245,1733
2245,4529
2250,222
2250,2214
2250,4024
2250,4773
2251,4038
2253,1489
2257,824
2257,2043
2258,1305
2260,3070
2261,222
2263,3216
2264,323
2265,1889
2268,2708
2268,3927
2270,1149
2272,2159
2273,1078
2273,1849
2276,4555
2277,101
2279,2052
2280,67
2280,939
2280,1083
2280,1488
2280,1860
2280,4298
2282,1665
2282,3607
2285,1902
2286,1980
2286,2994
2288,1847
2288,3457
2288,4974
2289,1286
2291,1956
2292,2256
2292,3316
2293,1151
2293,1983
2294,724
2295,4164
2297,75
2298,1638
2298,4812
2298,4963
2299,2171
2300,928
2301,1956
2303,1164
2305,1484
2305,4720
2309,722
2312,2284
2312,2932
2313,129
2313,1480
2315,1685
2317,720
2318,157
2318,542
2318,3246
2318,3261
2318,4026
2320,2799
2321,4612
2322,1490
2325,222
2325,524
2325,937
2325,1003
2325,1425
2325,1835
2325,2887
2325,3434
2325,4156
2328,1519
2331,4649
2334,2741
2334,4633
2334,4771
2335,2000
2336,3160
2336,3507
2336,4671
2337,148
2337,344
2338,2095
2339,322
2340,1011
2341,1576
2341,2852
2341,4028
2343,3545
2344,850
2345,2973
2346,2041
2347,36
2347,761
2347,1685
2348,2082
2349,4473
2349,4962
2351,323
2351,1203
2351,2771
2351,2818
2351,4492
2351,4607
2352,582
2353,3700
2355,342
2355,2935
2357,682
2359,304
2359,4029
2359,4358
2360,2880
2360,3405
2362,1422
2364,254
2366,402
2366,524
2367,1349
2369,2142
2370,1733
2372,2149
2373,2014
2375,3013
2375,3246
2376,3052
2377,2311
2381,2003
2381,4470
2382,1906
2384,311
2384,1402
2384,1597
2385,819
2385,1208
2386,818
2386,2945
2388,1659
2389,481
2389,3405
2393,3875
2394,2225
2397,1
2397,227
2398,1619
2399,2196
2402,910
2403,390
2403,4124
2404,93
2405,1864
2405,3293
2405,4291
2406,2140
2407,2161
2408,50
2410,4864
2411,478
2416,474
2416,1009
2416,3454
2417,462
2417,1178
2417,1252
2417,2226
2417,2836
2417,4065
2421,3706
2421,4793
2423,1261
2425,4236
2426,564
2427,2921
2429,836
2430,1837
2431,1285
2431,3128
2432,2
2435,759
2435,3750
2437,825
2439,865
2439,1425
2439,2450
2440,778
2440,1172
2440,4539
2441,4261
2443,990
2446,1689
2446,2723
2448,129
2448,564
2448,968
2448,3478
2449,893
2451,4467
2452,233
2454,1638
2454,3061
2454,3802
2455,117
2461,2853
2462,117
2462,390
2462,414
2462,637
2463,320
2464,4817
2467,3036
2474,1809
2475,4977
2476,1833
2477,353
2479,843
2479,3205
2479,3709
2481,2200
2482,342
2483,395
2483,2007
2483,3664
2484,1173
2484,2609
2484,2654
2484,4351
2485,160
2486,55
2486,190
2486,241
2486,568
2486,616
2486,1249
2486,2525
2486,2734
2486,4162
2486,4618
2488,884
2488,4282
2489,1353
2489,2208
2490,1393
2491,896
2491,3428
2491,4616
2492,1300
2493,1335
2494,1
2498,1497
2503,2390
2505,1502
2505,1850
2505,2179
2506,3138
2509,601
2509,4940
2510,1668
2510,3576
2510,3740
2511,222
2511,851
2511,1164
2511,1890
2511,2282
2512,1576
2514,182
2515,2954
2516,2306
2518,326
2519,1142
2521,3650
2522,1364
2523,1933
2523,2702
2523,2957
2525,10
2525,669
2525,2296
2525,3700
2525,4133
2525,4307
2526,17
2527,1119
2527,1209
2527,3789
2527,4015
2528,1668
2529,2332
2530,428
2530,4926
2531,2396
2533,391
2535,184
2535,3249
2536,4737
2537,1804
2537,3167
2537,3587
2540,1
2542,523
2542,850
2542,3376
2543,127
2543,395
2543,730
2543,1867
2545,3803
2549,474
2549,833
2549,1142
2549,2620
2549,4055
2549,4138
2553,940
2554,2466
2554,4010
2557,943
2557,3992
2557,4328
2558,1796
2558,2167
2559,3987
2560,800
2561,137
2565,1096
2567,315
2568,2036
2570,611
2578,4002
2578,4108
2579,1868
2581,754
2582,1974
2582,2060
2582,4013
2583,382
2584,1539
2584,2397
2585,182
2585,2974
2585,3385
2587,1804
2588,2852
2588,2860
2589,95
2589,3273
2590,1954
2591,250
2594,587
2596,155
2597,233
2599,278
2599,1309
2599,2180
2599,3516
2600,2319
2604,3227
2604,3685
2606,1913
2607,391
2607,1978
2607,2917
2607,4643
2608,1123
2609,556
2609,4939
2617,1046
2617,2843
2617,3412
2617,3524
2619,1589
2621,554
2621,1108
2622,3133
2622,3136
2622,3856
2624,296
2624,2131
2626,4307
2630,660
2631,4933
2632,2745
2632,4935
2633,594
2636,1617
2636,2861
2637,157
2638,4336
2639,2390
2639,3331
2641,1562
2641,2649
2647,1203
2647,4646
2648,1768
2648,2650
2650,755
2656,945
2656,1797
2657,115
2658,2917
2659,1103
2659,2731
2662,4311
2668,1107
2671,3985
2671,4401
2672,1187
2673,1206
2674,4647
2676,1245
2678,1159
2679,1920
2679,4294
2679,4794
2679,4985
2683,567
2684,2745
2685,3283
2685,4121
2685,4246
2686,609
2688,709
2690,947
2692,184
2692,712
2692,1372
2692,2056
2693,1282
2693,3533
2693,4832
2694,1208
2695,567
2698,929
2699,36
2700,4461
2701,1616
2703,728
2705,115
2706,3042
2707,2092
2709,710
2709,3465
2711,342
2711,4636
2712,934
2712,995
2712,1343
2712,3895
2712,4202
2713,501
2714,606
2714,1804
2715,1597
2716,818
2716,4838
2717,212
2717,1073
2717,1597
2717,4339
2717,4442
2718,3745
2718,3893
2719,138
2719,1627
2720,3116
2721,2765
2722,1066
2723,1022
2726,81
2726,909
2726,995
2726,2580
2727,1939
2727,4236
2731,2231
2732,972
2732,2495
2733,262
2736,5
2737,4149
2738,146
2738,4612
2739,78
2740,251
2742,2292
2744,2482
2745,182
2746,1483
2749,2627
2749,3619
2749,3767
2749,4662
2750,1051
2751,497
2751,3881
2752,4447
2754,3529
2756,1597
2757,712
2759,2431
2759,4687
2760,429
2760,2402
2760,4788
2762,1789
2766,155
2767,1905
2772,2745
2772,4457
2777,1395
2777,3023
2778,2007
2779,672
2779,761
2779,1352
2781,68
2781,1399
2781,1677
2781,3503
2782,115
2782,4147
2782,4602
2783,3757
2792,2667
2793,80
2793,3996
2795,564
2797,4513
2797,4849
2799,184
2800,178
2800,3103
2801,1235
2802,269
2802,623
2802,2681
2805,2939
2805,4374
2807,123
2807,3860
2808,3987
2809,155
2812,236
2814,1449
2814,3781
2815,1890
2817,1977
2820,2379
2823,2478
2824,1074
2824,4251
2825,173
2825,1144
2826,78
2826,793
2826,2893
2826,3660
2827,152
2827,406
2827,992
2827,2250
2827,2655
2827,3076
2828,1449
2833,1288
2833,1395
2833,3573
2835,2322
2837,760
2837,3896
2838,300
2838,3149
2840,48
2840,767
2841,1227
2842,123
2842,202
2842,492
2842,592
2842,676
2842,916
2842,1101
2842,1524
2842,1893
2842,1973
2842,2852
2842,2948
2842,3126
2842,3246
2842,3262
2842,3379
2842,4675
2843,783
2844,627
2845,12
2845,232
2845,1511
2845,4030
2845,4559
2846,787
2846,1449
2846,1465
2846,2017
2846,3407
2846,4339
2846,4534
2846,4536
2846,4760
2846,4925
2847,66
2847,1175
2848,4133
2849,68
2849,1496
2850,1685
2850,3878
2853,4035
2856,4829
2857,1035
2857,3188
2858,969
2858,4995
2863,1222
2863,2981
2865,1762
2867,137
2867,511
2867,789
2867,2376
2869,1198
2869,2092
2870,1325
2870,2447
2871,1984
2873,2040
2873,3992
2875,729
2875,758
2876,1931
2877,1395
2877,3720
2878,396
2879,3013
2881,743
2883,3405
2886,4781
2889,567
2890,3689
2891,459
2892,835
2894,1446
2894,1465
2895,325
2896,88
2897,222
2898,1395
2901,2991
2904,1223
2904,2418
2905,633
2909,1750
2910,1562
2910,3649
2911,2466
2916,277
2916,749
2916,1419
2916,2175
2916,4551
2916,4716
2920,819
2922,3813
2925,2431
2929,1860
2930,1632
2931,216
2931,1641
2933,2072
2934,326
2938,117
2940,1927
2943,2646
2943,3120
2944,1603
2944,3992
2945,233
2949,767
2949,3651
2952,2566
2953,1286
2956,1238
2958,60
2958,531
2958,2431
2958,4670
2959,1665
2959,3780
2960,1733
2961,705
2962,4612
2963,2996
2963,3260
2963,3272
2963,3473
2964,2260
2967,1906
2968,5
2969,1651
2969,2358
2970,3793
2970,4720
2971,489
2972,382
2972,3471
2972,3721
2973,4294
2975,611
2975,4612
2976,2445
2976,3234
2977,1856
2980,2627
2980,3135
2983,3459
2985,3329
2986,2133
2986,3210
2987,160
2987,1006
2987,3830
2988,1135
2988,3376
2989,998
2993,2724
2995,2171
2996,137
2996,1060
2997,1357
2998,1480
2999,3356
3000,1889
3002,56
3002,1135
3002,1159
3002,1206
3002,1506
3002,2096
3002,4408
3007,350
3007,456
3010,1257
3011,2424
3011,4772
3012,1889
3012,2771
3012,3312
3012,3427
3012,3528
3013,1675
3015,1349
3016,1893
3016,4319
3020,1665
3023,1212
3023,3970
3024,186
3030,1241
3031,1889
3031,2192
3031,2991
3031,3762
3034,54
3035,319
3035,3734
3035,4596
3038,589
3038,1056
3038,4035
3039,199
3042,601
3044,2452
3046,4612
3048,1750
3049,1782
3049,4185
3050,599
3051,1646
3051,2948
3052,18
3052,4066
3053,531
3053,2745
3055,2431
3056,943
3056,1006
3056,2003
3056,2987
3058,1638
3060,3339
3062,1327
3063,498
3063,1063
3063,1366
3063,2644
3064,1192
3066,3013
3067,3036
3069,165
3069,1846
3069,3615
3069,4893
3073,1143
3074,2452
3075,1889
3077,2281
3078,818
3078,1709
3084,2973
3085,850
3087,233
3090,236
3091,743
3091,3275
3092,1143
3092,2204
3093,315
3093,4467
3095,412
3095,692
3095,1580
3095,2627
3095,2998
3096,1677
3096,2292
3097,2349
3097,4025
3098,2628
3099,94
3099,3210
3099,3264
3099,3804
3099,3927
3099,4148
3101,3695
3102,1592
3105,107
3108,1954
3109,410
3111,326
3111,3775
3112,2677
3115,4130
3121,1438
3122,4305
3123,1245
3124,2807
3127,229
3127,1317
3127,1651
3127,3593
3127,3719
3129,2834
3129,3484
3129,4840
3131,77
3136,1306
3137,1668
3138,137
3140,2171
3141,1132
3142,1876
3143,779
3144,989
3144,1278
3144,2120
3145,492
3145,641
3145,2071
3145,3138
3147,117
3147,4987
3148,945
3150,2326
3151,451
3152,156
3158,2546
3159,1899
3161,3174
3162,1455
3163,720
3164,319
3164,2504
3164,3054
3168,910
3168,4977
3169,483
3170,2646
3171,1750
3172,123
3173,3830
3174,1291
3175,1465
3175,3869
3176,673
3178,824
3178,4933
3180,37
3180,3591
3181,2387
3187,2489
3189,2434
3190,2860
3190,3045
3190,3205
3191,4339
3194,53
3194,1511
3196,183
3197,2197
3199,3939
3200,4821
3202,2442
3203,129
3203,771
3204,295
3207,480
3207,1906
3211,492
3212,2991
3213,155
3213,3022
3214,137
3214,4062
3215,2774
3216,1966
3218,4233
3220,2400
3222,728
3224,1056
3224,3443
3225,1071
3227,2555
3228,948
3231,562
3232,2609
3232,4381
3233,872
3233,2581
3235,1889
3236,1698
3238,2163
3239,2304
3239,3784
3239,4133
3240,1795
3242,4741
3243,511
3245,1260
3248,3004
3250,1312
3251,3689
3252,3872
3252,3910
3254,2710
3255,1336
3259,2018
3259,3820
3260,1597
3263,2991
3265,1825
3267,4987
3269,2547
3271,649
3271,1974
3274,3419
3275,1856
3275,3052
3275,4876
3276,1538
3276,3698
3276,4866
3277,945
3278,599
3278,2202
3280,1198
3281,2653
3282,1889
3284,2003
3286,294
3290,123
3292,468
3292,2236
3292,3513
3295,3646
3297,3260
3298,672
3298,2894
3298,4200
3299,137
3299,2541
3301,948
3306,2749
3307,910
3309,2409
3310,1984
3314,136
3315,2231
3317,2018
3317,2174
3317,2501
3317,2861
3322,2753
3323,2063
3324,609
3324,4261
3325,2669
3326,761
3326,4782
3329,1144
3329,1668
3332,1161
3334,1734
3335,2563
3338,311
3339,1109
3340,582
3344,2099
3344,2227
3346,761
3347,1668
3348,2724
3349,160
3351,2339
3353,353
3353,1426
3353,1922
3353,3581
3354,1619
3358,459
3359,537
3359,1484
3359,2126
3362,3979
3364,2275
3365,1353
3366,2667
3368,2784
3368,2791
3368,3083
3369,1580
3370,673
3372,2852
3372,3982
3374,2478
3374,3544
3374,4980
3375,390
3375,1206
3376,1016
3376,1098
3376,2789
3377,3217
3378,542
3378,3548
3378,3631
3381,3496
3383,4
3384,1
3386,2258
3387,3896
3389,2646
3390,460
3391,2923
3392,598
3394,1481
3394,3059
3396,557
3396,2060
3401,1379
3402,94
3402,3510
3403,575
3403,1520
3403,1980
3404,2697
3404,4140
3406,739
3408,1638
3408,4434
3408,4797
3414,3632
3414,4569
3417,909
3423,1240
3430,1556
3432,225
3433,851
3435,3339
3435,4466
3436,12
3436,930
3437,92
3438,1823
3439,975
3440,318
3441,1768
3442,2282
3442,3589
3444,2171
3447,2207
3448,3201
3448,3722
3449,3013
3450,873
3450,3459
3451,2222
3451,2900
3452,2633
3456,508
3456,3459
3457,129
3457,1233
3457,1256
3457,1933
3457,2767
3457,3179
3458,4844
3459,2880
3459,3519
3463,3006
3466,3294
3466,4764
3467,3866
3468,90
3468,546
3468,554
3468,1030
3468,2058
3468,2745
3468,3359
3468,4301
3468,4934
3469,95
3469,4473
3471,1676
3471,2164
3471,2327
3471,2409
3471,2480
3471,2804
3471,3424
3471,3749
3474,4579
3476,222
3477,390
3479,123
3479,1449
3480,1299
3480,4255
3483,940
3485,2644
3488,477
3490,1865
3493,3775
3494,1874
3494,2269
3495,451
3497,875
3499,395
3501,323
3502,646
3505,686
3506,557
3509,3311
3510,895
3510,2748
3511,2329
3512,743
3515,4756
3517,2966
3521,1330
3523,1387
3523,3496
3525,226
3526,847
3527,2973
3528,93
3528,712
3528,3262
3530,1011
3530,3553
3530,3782
3533,542
3533,4277
3534,1920
3535,1299
3537,115
3538,1208
3539,265
3539,319
3540,1994
3540,3775
3543,50
3543,4558
3545,661
3547,3052
3550,2978
3552,1199
3552,1733
3554,266
3554,390
3554,1256
3554,1398
3554,1400
3554,1511
3554,2326
3554,4141
3554,4952
3556,2285
3556,4750
3557,1035
3557,1745
3560,3665
3561,190
3562,2155
3562,4220
3563,800
3564,246
3565,2541
3566,1580
3566,2402
3566,3920
3566,4290
3566,4842
3569,1859
3570,1260
3570,4241
3571,2087
3571,2916
3571,3201
3571,4214
3571,4330
3571,4462
3571,4767
3572,819
3579,4673
3580,1023
3580,4118
3581,460
3583,1997
3585,1056
3586,1
3589,3076
3589,4064
3590,4647
3594,3052
3594,4132
3595,1733
3595,1956
3600,957
3604,761
3605,835
3607,693
3607,943
3608,1733
3609,216
3612,2973
3613,4557
3614,1409
3614,2696
3617,451
3618,156
3620,2305
3621,1142
3621,3996
3622,175
3622,1168
3622,1282
3622,1909
3622,1937
3622,2634
3624,236
3625,2197
3625,2243
3625,2735
3625,3899
3626,1043
3629,565
3629,759
3629,1167
3629,1192
3629,1576
3629,1668
3629,2396
3629,2586
3629,3518
3629,3908
3629,4003
3629,4813
3629,4844
3630,127
3632,920
3632,1154
3632,1745
3632,2751
3632,4031
3633,162
3634,1206
3634,3840
3634,4972
3635,989
3635,3419
3636,296
3636,4997
3637,1688
3638,822
3639,406
3640,218
3643,1738
3644,1973
3645,2159
3647,1412
3648,1871
3648,2852
3650,44
3650,1782
3650,2807
3650,3154
3654,4520
3655,1283
3656,3571
3658,665
3663,1480
3663,1558
3663,4051
3668,588
3668,937
3668,4776
3669,3339
3670,2420
3672,3691
3672,4467
3673,3311
3674,761
3675,3268
3678,3513
3680,2790
3681,4649
3682,3033
3683,3090
3684,969
3684,1366
3687,1675
3688,1
3689,3328
3690,4555
3692,567
3696,2538
3699,1335
3699,1911
3700,178
3700,1995
3700,4612
3700,4734
3701,226
3702,1889
3703,221
3703,390
3704,1927
3704,3813
3704,4083
3704,4695
3704,4998
3705,4087
3705,4115
3706,1567
3708,4311
3710,1823
3712,319
3712,4820
3715,4829
3717,4035
3718,2575
3719,17
3722,1789
3725,2954
3726,773
3727,194
3727,297
3727,3285
3727,3475
3727,3866
3727,4182
3728,1624
3728,2712
3730,3339
3733,1309
3733,4699
3735,3544
3736,3584
3737,2387
3738,3072
3739,796
3740,465
3742,2387
3743,1095
3745,1221
3746,274
3746,295
3746,843
3746,925
3746,1616
3746,2084
3746,2839
3746,4829
3750,3082
3752,2179
3753,359
3754,12
3754,189
3754,1286
3755,2447
3755,3529
3756,3193
3757,4909
3758,383
3760,1538
3761,3241
3761,3547
3764,2681
3765,2409
3769,3518
3770,492
3771,3339
3772,3549
3774,1291
3774,3985
3774,4525
3777,313
3779,985
3779,3979
3779,4053
3780,2830
3781,1198
3781,3450
3783,710
3786,818
3787,3260
3787,4458
3788,213
3788,593
3788,4758
3788,4984
3789,1535
3789,1648
3790,562
3791,3547
3792,2276
3792,2281
3792,2808
3793,2576
3793,2885
3794,218
3794,4258
3796,2164
3796,3805
3796,4428
3796,4640
3797,988
3798,3291
3799,1846
3800,2
3801,1038
3801,1252
3801,1703
3807,3757
3808,2191
3809,4649
3811,236
3812,2866
3814,2800
3815,97
3815,1190
3816,1866
3817,3813
3817,4112
3819,2453
3819,4230
3820,1078
3821,3674
3822,1597
3823,409
3823,3827
3826,4149
3828,1284
3828,2798
3830,3532
3831,3595
3833,155
3833,936
3834,556
3836,1303
3836,4351
3836,4394
3837,394
3838,1977
3841,460
3841,1986
3841,3895
3842,2859
3842,4831
3843,1425
3845,3964
3847,354
3847,4440
3848,969
3848,4676
3850,1299
3850,4977
3851,348
3855,4558
3857,1469
3861,2319
3862,2080
3863,129
3866,135
3866,149
3866,1299
3867,2442
3871,3496
3871,4600
3871,4987
3872,450
3873,3563
3875,661
3877,2349
3878,313
3878,730
3879,3749
3880,465
3880,585
3880,947
3880,1291
3880,1918
3880,2491
3880,4473
3883,3082
3885,3006
3886,934
3888,2161
3889,3136
3889,3905
3891,1323
3891,1395
3892,2409
3892,2927
3895,422
3897,4133
3897,4836
3898,126
3900,138
3901,973
3902,1003
3904,2921
3904,3357
3906,1317
3907,3803
3909,526
3909,1286
3909,3377
3911,386
3912,920
3913,3453
3916,1844
3917,1923
3918,199
3918,1586
3919,3535
3921,2061
3922,778
3923,182
3923,3727
3923,3939
3925,4473
3927,3129
3928,2455
3929,3598
3929,4410
3930,1889
3932,1806
3932,2097
3933,1670
3934,2653
3937,1352
3940,1051
3940,2769
3941,325
3944,276
3944,1221
3944,1299
3944,2236
3944,2444
3944,2455
3944,2735
3944,3603
3944,3659
3945,269
3946,3294
3947,4309
3950,457
3951,184
3954,1833
3957,819
3959,3168
3960,1035
3962,1890
3963,3929
3964,2692
3965,757
3966,1380
3967,37
3967,616
3968,129
3969,315
3969,4316
3970,2203
3971,2131
3972,3025
3973,1110
3975,646
3976,3936
3983,4968
3984,3758
3986,2191
3987,2063
3988,251
3989,2161
3991,265
3994,2489
3995,2161
3997,1552
3999,929
3999,1948
3999,3830
4000,1597
4000,2445
4002,589
4004,594
4005,2040
4006,1307
4006,4315
4007,294
4008,2544
4011,245
4011,3475
4011,4950
4012,2056
4016,2908
4017,1137
4018,4002
4020,1018
4020,4946
4022,726
4023,2080
4023,4605
4030,710
4030,1869
4032,233
4032,4100
4032,4647
4033,2241
4033,2731
4037,676
4039,1101
4041,3939
4042,394
4042,568
4042,587
4042,796
4042,1575
4042,1962
4042,2721
4042,2855
4042,3926
4044,524
4044,3623
4045,135
4045,436
4045,698
4045,975
4045,1399
4045,1483
4045,1733
4045,1889
4045,3679
4045,3751
4045,4660
4046,1651
4047,3677
4047,4930
4048,2247
4050,550
4054,250
4054,278
4054,465
4056,3482
4058,2455
4059,2408
4060,460
4061,3640
4063,963
4065,414
4067,1648
4069,1741
4069,4477
4071,3528
4072,2811
4073,2892
4074,28
4076,3342
4078,1195
4080,1059
4082,2547
4084,3775
4085,844
4086,4622
4088,2477
4088,3311
4090,2808
4092,236
4092,4323
4093,138
4093,709
4093,912
4094,875
4094,3237
4094,3336
4094,4802
4095,4473
4095,4756
4096,3740
4096,4265
4097,404
4099,1216
4099,2140
4099,4844
4101,335
4101,724
4101,1420
4101,1580
4101,1770
4101,4298
4102,1668
4104,233
4104,4205
4105,2196
4106,1094
4109,1235
4110,460
4111,822
4114,3911
4114,4286
4116,2573
4117,4108
4117,4270
4117,4683
4120,1481
4120,3803
4121,316
4121,3195
4121,4464
4122,3052
4123,1795
4126,800
4127,2665
4128,213
4135,342
4135,1080
4135,1398
4135,2361
4135,2380
4135,2544
4136,646
4136,4228
4137,1823
4137,3803
4139,226
4144,1603
4150,1003
4152,567
4153,1668
4157,193
4157,3252
4157,4692
4158,3731
4159,2933
4160,315
4160,1615
4161,251
4161,412
4161,598
4161,2399
4161,2822
4162,1190
4163,1517
4167,4302
4168,1984
4171,1481
4171,2356
4171,3460
4172,2935
4173,155
4174,2508
4177,771
4183,405
4183,1939
4186,2566
4187,3896
4189,2175
4191,272
4191,4149
4192,328
4193,1108
4194,3160
4197,428
4197,840
4199,2682
4199,4242
4201,93
4201,789
4202,157
4203,542
4204,2796
4205,160
4205,347
4205,1675
4205,2776
4207,818
4208,759
4209,4797
4210,3563
4210,4280
4212,5
4216,528
4217,611
4217,4266
4218,138
4218,4453
4218,4528
4221,4781
4222,108
4224,222
4224,925
4224,2197
4224,4473
4225,90
4225,241
4225,1446
4225,1660
4225,1945
4227,2095
4229,80
4231,2168
4231,4452
4232,2
4232,3459
4233,1662
4233,4163
4235,291
4235,1056
4237,3536
4239,199
4239,811
4239,4965
4243,1675
4243,2195
4244,609
4245,1859
4248,673
4249,1194
4250,232
4250,465
4251,1906
4253,997
4254,699
4256,3360
4257,187
4259,4866
4262,127
4262,1360
4262,1954
4263,1169
4264,1654
4266,93
4266,2413
4267,2291
4268,4002
4269,481
4271,2799
4273,2763
4273,2952
4273,4558
4274,65
4275,192
4276,2069
4278,1658
4279,1389
4279,1538
4281,542
4281,547
4281,989
4281,3653
4283,318
4284,3874
4285,3446
4287,1948
4287,3482
4288,3300
4289,999
4294,1230
4295,2899
4296,1532
4297,2204
4298,174
4299,4579
4300,1009
4300,1798
4301,1681
4301,4925
4303,460
4305,3548
4306,1324
4307,319
4309,574
4310,2491
4311,459
4312,189
4312,1733
4313,3250
4314,3813
4318,3870
4319,182
4320,3516
4322,562
4324,66
4325,1170
4327,158
4327,4825
4331,3293
4332,1913
4334,3750
4335,258
4336,975
4336,2524
4337,4057
4337,4383
4338,1745
4342,1038
4343,641
4343,4756
4345,2040
4347,44
4347,182
4347,409
4347,705
4347,1063
4347,1149
4347,1260
4347,1325
4347,1395
4347,1557
4347,1606
4347,1913
4347,1977
4347,3317
4347,3382
4347,3571
4347,3577
4347,3825
4347,3931
4347,4411
4347,4439
4347,4681
4348,155
4348,1979
4349,222
4350,3914
4350,4446
4351,1260
4352,4148
4353,4207
4354,1633
4355,1121
4356,3507
4357,386
4359,3544
4360,123
4361,3931
4363,2653
4365,836
4368,407
4368,660
4368,1303
4368,3339
4368,3776
4369,3179
4370,278
4373,985
4378,2918
4379,4043
4380,713
4382,1894
4384,4021
4385,3145
4387,4558
4390,483
4390,676
4390,2950
4391,869
4392,818
4393,2660
4395,156
4395,629
4395,858
4395,1538
4396,233
4397,304
4397,1147
4398,3493
4399,1491
4399,2592
4402,4181
4404,1489
4405,93
4405,1887
4405,2114
4405,2149
4405,4223
4409,158
4413,3662
4414,4108
4415,199
4415,376
4415,1023
4415,3666
4415,3936
4419,2012
4421,426
4421,480
4421,2081
4421,3567
4422,2646
4423,2082
4424,1354
4425,972
4426,3724
4427,3381
4428,1850
4429,3291
4430,1056
4438,2541
4441,2014
4441,2452
4441,3723
4443,3740
4447,1969
4448,1660
4449,4367
4449,4620
4450,3398
4451,2556
4451,3398
4451,4482
4451,4896
4455,4428
4456,3052
4463,2906
4465,3025
4468,947
4469,723
4469,4351
4471,1920
4472,884
4474,3606
4476,818
4477,1999
4477,3348
4478,2171
4480,2097
4481,3489
4484,106
4486,3714
4487,611
4488,197
4490,3145
4491,1208
4491,4507
4492,186
4492,1283
4492,3813
4494,80
4494,194
4494,502
4494,1679
4494,3393
4496,773
4497,668
4497,713
4497,3025
4500,1077
4502,597
4503,1011
4505,1587
4506,278
4508,780
4508,3984
4509,138
4509,3785
4510,1239
4511,99
4511,1665
4511,2788
4512,2852
4513,1853
4514,2256
4515,1855
4515,3106
4515,3136
4515,4616
4516,3595
4516,4781
4517,155
4518,4026
4519,315
4522,867
4523,137
4526,2458
4530,323
4532,2106
4532,4941
4537,1282
4538,4987
4540,929
4540,1782
4541,3662
4543,1611
4544,1205
4545,236
4546,2954
4547,3483
4548,1376
4549,236
4552,392
4552,624
4552,1227
4552,3001
4555,520
4555,2442
4557,1836
4557,2438
4557,3453
4557,4823
4558,2965
4561,3713
4563,4311
4565,16
4565,485
4565,973
4565,1799
4565,2551
4565,2984
4565,3088
4565,3289
4566,3184
4567,154
4571,2708
4572,3145
4573,1905
4574,1095
4575,1580
4576,342
4577,2148
4578,2080
4580,660
4581,2293
4583,660
4584,4052
4586,3160
4587,4024
4588,3805
4590,3875
4593,1782
4593,3344
4595,4826
4598,2072
4601,447
4604,1733
4605,158
4605,212
4605,501
4605,665
4605,1077
4605,1484
4605,1562
4605,1654
4605,2154
4605,2193
4605,2681
4605,3884
4605,4653
4605,4673
4606,684
4606,3755
4608,7
4608,397
4608,1310
4608,1529
4609,382
4610,2316
4611,272
4611,3942
4612,1818
4614,779
4615,2092
4617,842
4617,1240
4618,222
4618,672
4618,1395
4618,2852
4618,4329
4618,4871
4621,1445
4621,4696
4624,158
4626,101
4626,466
4626,479
4626,803
4626,1208
4626,1425
4626,1465
4626,2633
4627,177
4627,980
4627,1287
4627,1379
4627,2780
4627,2793
4630,1417
4630,1419
4630,1663
4630,1826
4630,1864
4630,4551
4630,4558
4631,2227
4632,2355
4632,4772
4634,481
4635,4329
4636,818
4636,1529
4636,3027
4636,4874
4639,1705
4642,155
4644,3908
4647,1935
4649,2164
4650,1024
4650,1229
4650,4479
4651,4182
4654,4340
4654,4437
4656,686
4657,2036
4658,545
4659,2915
4661,3592
4662,460
4662,2542
4663,2106
4665,123
4666,3927
4667,399
4669,2058
4670,835
4673,489
4674,834
4676,4599
4677,138
4678,355
4678,2978
4679,77
4680,3451
4682,74
4684,3646
4688,1871
4689,1282
4690,1178
4691,2439
4692,1580
4693,1916
4694,704
4694,4806
4696,3803
4697,2003
4697,3063
4698,294
4698,1294
4698,1477
4701,1409
4703,383
4709,2544
4710,1905
4710,3130
4711,294
4712,3217
4712,3223
4713,2274
4714,567
4715,4625
4717,1558
4718,2374
4718,3107
4718,4856
4719,233
4723,2854
4726,3317
4728,1801
4728,2127
4729,4394
4730,462
4731,3338
4732,2548
4733,436
4733,3080
4733,3306
4733,3545
4735,3528
4736,2603
4737,3595
4741,4720
4742,3201
4743,2669
4745,3528
4746,241
4746,910
4747,2806
4748,294
4748,2171
4751,342
4752,86
4752,740
4752,2728
4753,668
4754,2431
4757,1889
4759,982
4761,53
4762,574
4762,1229
4762,2322
4762,2903
4765,2058
4766,3007
4768,761
4769,1016
4770,2095
4772,1
4774,3748
4775,137
4777,1809
4779,234
4783,1859
4784,4351
4785,1615
4786,342
4787,3270
4789,2202
4791,413
4791,1262
4795,3192
4798,3210
4799,567
4803,567
4804,2644
4805,382
4807,1638
4808,224
4809,3217
4814,3221
4815,182
4821,237
4824,3217
4827,3929
4828,342
4829,739
4830,2176
4831,62
4831,4558
4833,3473
4835,4272
4836,755
4836,835
4837,2874
4839,2329
4841,4362
4845,199
4846,3428
4847,2227
4848,355
4853,4647
4854,2036
4854,2593
4855,1893
4857,3217
4858,4647
4859,3791
4860,241
4861,526
4864,718
4864,734
4864,4626
4865,1472
4867,3260
4868,3079
4869,2546
4870,2022
4871,1902
4873,623
4875,3052
4877,2712
4878,1257
4878,4629
4879,1103
4882,3380
4884,322
4884,528
4884,675
4884,3532
4885,66
4885,1737
4886,1418
4887,1376
4888,1957
4890,4582
4891,1397
4892,1868
4893,473
4893,1486
4898,1142
4901,394
4903,1108
4903,2681
4904,4297
4906,296
4908,1330
4909,1689
4910,3221
4911,152
4912,4792
4913,186
4915,3007
4916,3041
4917,1685
4919,3509
4922,598
4924,1677
4928,3090
4929,2643
4931,1425
4932,3634
4936,213
4937,872
4937,906
4937,1905
4937,2242
4937,4817
4938,4524
4943,1196
4944,53
4945,3283
4947,1043
4947,3213
4948,4819
4949,4920
4950,725
4950,3731
4952,3411
4953,2866
4956,1021
4957,3587
4959,74
4959,272
4959,587
4959,606
4959,851
4959,996
4959,1095
4959,2954
4964,1889
4966,2434
4967,3652
4971,486
4971,1768
4971,2200
4971,3598
4976,2284
4981,2196
4981,2877
4982,333
4985,2
4985,1101
4985,1604
4985,1689
4985,3613
4986,1867
4988,2
4988,158
4988,555
4988,3226
4991,315
4992,4612
4993,1619
4994,3164
4997,795
4999,476
