src,dst
0,1
0,3
0,750
0,782
2,427
2,790
2,1834
2,2467
2,3091
2,3950
2,4232
3,1759
3,2294
3,4169
3,4243
4,4094
4,4595
4,4638
6,537
6,2099
6,2139
8,13
8,37
8,407
8,496
8,559
8,734
8,745
8,1320
8,1502
8,2492
8,3185
10,105
10,125
10,160
10,185
10,285
10,305
10,306
10,315
10,340
10,530
10,545
10,582
10,596
10,666
10,1088
10,1203
10,1270
10,1272
10,1411
10,1949
10,1971
10,3430
10,3583
10,3950
10,4307
10,4511
10,4988
11,277
11,1298
11,1532
11,2887
11,3987
11,4261
11,4907
14,340
15,12
15,32
15,45
15,157
15,321
15,998
15,2427
15,2463
15,2484
15,2596
15,3819
15,3972
15,3999
15,4011
15,4756
16,65
16,1645
16,1917
16,1997
16,2645
16,2843
16,3375
16,3950
20,98
20,219
20,315
20,380
20,403
20,1119
20,1185
20,1894
20,2008
20,3247
20,3283
20,3497
20,3614
20,3619
20,3983
20,4150
20,4224
20,4249
21,154
21,340
23,1192
23,3396
23,3702
25,340
25,630
25,1272
25,2161
25,2277
25,2812
25,4184
25,4921
27,40
27,182
27,455
27,1276
27,1299
27,1760
27,2526
27,2787
27,3676
27,3774
27,3799
27,3925
27,4411
27,4526
29,380
29,627
29,953
29,1203
29,2097
29,4489
31,3387
33,1978
35,340
35,535
35,1337
35,1373
35,1777
35,1809
35,3513
35,3950
35,4007
37,28
37,346
37,2463
37,4117
38,43
38,65
38,162
38,273
38,453
38,530
38,796
38,956
38,1047
38,1141
38,1374
38,1511
38,1592
38,2489
38,2618
38,2817
38,2883
38,3385
38,3532
38,3623
38,3878
38,3960
38,4086
38,4130
38,4640
38,4798
41,165
41,865
41,1203
41,2153
41,2302
41,2717
41,2841
41,3080
41,3874
41,4621
42,5
44,312
44,1427
44,1589
44,3312
44,3550
44,3594
44,4098
46,3387
47,19
47,386
47,931
47,1400
47,1762
47,3298
47,4195
47,4423
48,221
48,1276
48,1519
48,1894
50,6
50,263
50,279
50,350
50,372
50,831
50,867
50,903
50,1237
50,1442
50,1837
50,1910
50,2336
50,2481
50,3193
50,3272
50,3659
50,4054
50,4226
50,4265
50,4447
54,2649
56,1053
56,2463
56,3235
56,4846
57,499
57,1453
57,3761
58,47
58,111
58,193
58,249
58,556
58,836
58,1108
58,2209
58,2614
58,2742
58,3043
58,3189
58,3903
58,3915
58,4117
59,992
59,1636
59,3476
60,1842
61,2324
62,124
62,133
62,166
62,182
62,334
62,369
62,432
62,526
62,581
62,606
62,670
62,848
62,934
62,1104
62,1598
62,1821
62,2123
62,2319
62,2346
62,2580
62,2692
62,2748
62,2940
62,2953
62,3102
62,3208
62,3264
62,3490
62,3778
62,4202
62,4520
62,4987
63,1326
63,1997
63,4303
63,4985
64,127
64,350
64,731
64,744
64,1030
64,1953
64,2289
64,4369
64,4665
67,2017
67,2458
67,3342
67,3707
68,340
68,1012
68,2596
68,4425
68,4798
71,18
71,47
71,155
71,783
71,981
71,1096
71,1487
71,1540
71,1700
71,1792
71,2109
71,2168
71,3363
71,3738
71,3773
72,548
73,407
74,4748
76,1863
76,4987
78,119
78,256
78,1052
78,1380
78,1457
78,2840
78,3741
80,388
80,686
80,2129
80,2383
80,4145
81,221
81,1169
81,4224
82,407
82,520
82,644
82,692
82,1652
82,1725
82,4439
83,1241
83,3364
84,3972
85,1888
86,3926
87,800
87,1178
87,1275
87,1604
87,1616
87,1747
87,2098
88,4425
90,159
90,190
90,363
90,456
90,549
90,1117
90,1692
90,2141
90,2738
90,2830
90,3486
90,3557
90,3626
90,4130
90,4593
90,4930
94,96
94,118
94,2336
94,3414
94,3950
94,4425
95,207
95,418
95,502
95,888
95,1508
95,1748
95,2132
95,2315
95,2575
95,2718
95,2834
95,3902
95,3958
95,4013
97,473
97,874
97,4643
98,448
100,26
100,581
100,703
100,1461
100,2105
100,2420
100,4590
102,222
102,867
102,975
102,1002
102,1474
102,2132
102,4569
103,19
103,65
103,119
103,131
103,153
103,166
103,487
103,719
103,920
103,978
103,1251
103,1304
103,1355
103,1607
103,3202
103,3247
103,3393
103,4038
103,4086
103,4425
103,4631
103,4831
103,4895
104,22
104,532
104,947
104,1089
104,1997
104,2230
104,4180
104,4644
104,4909
105,567
105,3490
105,3651
105,4601
106,227
106,2133
107,197
107,914
107,1564
107,4086
107,4257
107,4477
107,4819
109,3091
110,540
111,2276
112,1777
112,4233
113,124
113,360
113,393
113,658
113,1203
113,1273
113,1468
113,1878
113,2213
113,2684
113,3179
113,3987
113,4434
113,4874
114,172
114,249
114,748
114,1049
114,1699
114,1703
114,2137
114,3201
115,1494
116,154
116,193
116,212
116,271
116,352
116,891
116,958
116,1255
116,1277
116,1695
116,1830
116,1981
116,2386
116,3676
116,3978
116,4499
116,4695
116,4839
117,412
117,461
117,756
117,1052
117,1116
117,1203
117,1485
117,1862
117,2223
117,2810
117,2819
117,3002
117,4894
120,499
120,658
120,699
120,1092
120,1325
120,1422
120,1565
120,1735
120,2473
120,3961
122,248
122,1825
128,1053
128,1255
128,1348
128,3651
129,2718
130,3363
130,3917
132,1792
135,896
135,992
135,3540
135,3543
137,159
137,777
137,1814
137,2480
137,4063
138,1271
138,4303
139,2383
141,273
141,364
141,473
141,596
141,1630
141,2023
141,3253
141,3846
141,4728
142,579
142,2383
142,2527
142,3755
142,4759
143,437
143,2033
143,3481
143,3803
145,796
146,2123
147,133
147,1856
148,108
148,364
148,631
148,1060
148,1173
148,1772
148,2224
148,2420
148,2504
148,3132
148,3490
148,3691
148,4303
149,1151
149,4976
150,142
150,620
150,1060
150,1271
150,4089
150,4102
151,65
151,108
151,140
151,158
151,710
151,1359
151,1502
151,1641
151,2806
151,4082
152,125
152,644
152,2965
152,3155
152,3641
152,4520
157,509
157,4783
159,193
159,1509
159,1686
159,1791
159,2325
159,2350
159,3827
159,4503
161,1802
161,3987
162,556
163,3188
163,3682
164,154
164,1013
167,2489
167,3208
169,47
169,553
169,1876
169,3840
169,4474
169,4731
170,93
170,1787
170,1990
170,3138
170,4378
171,96
171,520
171,544
171,1060
171,1828
171,4086
171,4269
171,4818
173,1044
174,1440
174,2518
174,4728
176,134
176,496
176,544
176,1255
176,1509
176,2378
176,2741
176,3451
179,583
179,910
179,1641
179,2887
179,3483
179,4097
179,4117
180,340
180,626
180,1282
180,3368
180,3759
180,4553
183,3914
188,1031
188,4930
189,34
189,1953
189,3718
191,13
191,1478
192,606
194,249
194,350
194,4520
195,1838
195,2029
195,4063
195,4434
195,4693
196,144
196,336
196,407
196,433
196,641
196,2439
196,2463
196,2905
196,4365
196,4501
198,340
198,852
198,2841
198,3017
199,65
199,2945
200,592
200,1624
201,12
201,876
201,1030
203,273
204,45
204,535
204,2851
204,3568
204,3923
206,4425
208,1511
208,4190
209,1229
209,1627
209,2525
209,3818
210,548
210,1869
210,2378
210,2768
210,2858
210,3307
210,3727
211,1227
211,1411
211,3099
211,3542
213,2618
213,3524
214,427
214,3292
214,3998
214,4695
216,154
216,1066
216,2021
216,2349
216,2408
216,3633
216,4254
216,4262
218,910
218,941
218,2190
220,144
220,336
220,521
220,2213
220,4889
224,133
224,182
224,1408
225,350
225,893
225,914
225,1740
225,1984
225,2360
225,2966
225,3630
225,4088
225,4224
227,805
227,1414
234,19
234,383
234,3727
236,421
237,4425
238,683
238,1224
238,1639
238,3161
238,3882
238,3910
238,4499
238,4663
239,4688
241,108
241,538
241,1762
241,2433
241,3081
241,3367
242,7
242,268
242,3651
248,398
248,1863
248,2857
248,3002
248,4432
251,2346
254,60
254,75
254,207
254,273
254,555
254,2100
254,2464
259,256
260,108
260,299
260,312
260,381
260,1627
260,1990
260,2352
260,2652
260,2731
260,2774
260,3846
261,65
264,1014
264,2847
264,3046
265,386
265,683
265,2671
265,2763
265,4024
266,354
266,537
266,1563
266,3152
266,3384
266,3386
266,3545
266,4204
266,4909
267,4
267,877
267,1104
267,1486
267,1844
267,3993
267,4261
267,4884
269,184
272,3542
272,4425
275,2855
275,3193
275,3732
276,133
276,352
278,18
278,277
278,677
278,1018
278,1897
278,2284
278,3138
278,4189
279,2208
280,2127
280,2383
284,2849
284,3877
287,1327
287,4130
287,4425
288,19
288,48
288,145
288,347
288,569
288,877
288,1836
288,3045
288,3294
288,3719
288,4491
289,48
289,2910
290,779
290,1618
290,2009
290,4564
291,3705
291,4739
292,4586
293,1281
293,1484
293,2634
293,2679
293,3237
293,3464
293,3759
293,4259
293,4918
294,3651
297,1104
297,2199
297,3646
298,19
298,1137
298,1289
298,1474
298,4893
300,371
300,2504
301,952
301,974
301,1212
301,1561
301,2088
301,2538
301,2721
301,2815
301,2862
301,3395
301,3974
301,4520
301,4660
302,28
302,4439
303,4871
305,262
305,3216
307,345
307,425
307,1513
307,1528
307,1533
307,2463
307,2486
307,2682
307,2813
307,3961
309,2708
311,190
311,1792
311,3690
311,4424
314,9
314,990
314,2096
317,1042
317,1558
318,475
318,839
318,4224
319,4
319,1778
319,1968
319,1997
319,4271
320,97
320,292
320,1441
320,1652
320,1780
322,4469
324,3592
324,3926
325,34
325,96
325,221
325,791
325,823
325,859
325,1224
325,1259
325,2187
325,2191
325,2819
325,3503
325,3637
325,3763
325,4425
325,4829
328,237
328,383
328,788
328,851
328,1165
328,1198
328,1573
328,1799
328,2413
328,3800
328,3878
328,4815
328,4938
329,22
329,84
329,115
329,842
329,1354
329,1552
329,2191
329,2660
329,2856
329,3962
329,4846
330,144
330,2810
331,3002
332,306
332,737
332,3835
333,406
333,2944
333,4130
334,501
334,1031
335,1763
335,3868
336,562
336,1167
336,2105
336,2192
336,2986
338,362
338,791
338,2223
338,2314
338,3437
339,26
339,48
339,187
339,340
339,347
339,569
339,915
339,976
339,1472
339,1533
339,1786
339,1898
339,2188
339,2785
339,3095
339,3378
341,427
341,543
341,1029
341,1114
341,1229
341,1636
341,1697
341,1936
341,2018
341,2179
341,2352
341,2787
341,2876
341,3002
341,3273
341,4061
341,4462
341,4574
341,4763
342,4265
344,2504
344,3761
348,49
348,125
348,697
348,790
348,885
348,887
348,1405
348,1748
348,3880
349,2386
350,154
350,162
350,340
350,716
350,853
350,1080
350,1666
350,1990
350,2044
350,3070
353,630
353,4192
355,156
355,4117
356,3334
357,3994
358,66
358,134
358,382
358,856
358,2567
358,3029
358,3829
358,4007
358,4230
358,4499
358,4758
359,125
359,1126
359,2001
359,2504
359,2842
359,3043
359,3143
359,4649
361,1930
363,1175
363,1410
363,3975
365,34
366,2454
366,3949
366,4439
367,3441
368,1430
368,2028
368,2887
370,532
370,2345
370,3189
370,4909
373,1605
373,3974
374,427
374,2379
374,2887
375,154
375,361
375,1706
375,1927
375,1945
375,2393
375,3010
375,3193
375,3874
375,4033
375,4859
377,108
377,340
377,2632
377,4157
378,273
378,1486
379,3761
381,48
381,53
381,826
381,876
381,1314
381,1535
381,3290
381,3357
384,6
384,252
384,634
384,934
384,1814
384,2040
384,2168
384,2698
384,4117
385,4
385,315
385,998
385,1727
385,4096
387,4521
388,3
388,185
388,187
388,658
388,690
388,790
388,1144
388,2312
388,2529
388,2575
388,3138
388,3385
388,3520
388,3682
388,3777
388,3904
388,4348
389,1185
389,4389
390,1337
390,2957
391,18
391,283
391,2383
395,119
396,34
396,336
396,742
396,3808
401,756
401,1733
401,2223
401,3020
401,3315
401,3493
401,4549
402,382
403,538
403,1461
403,2849
403,4931
404,1942
404,3687
404,3833
405,98
405,493
405,2045
405,3950
406,140
408,340
408,1655
408,3111
408,3959
409,677
409,723
409,1847
409,2651
409,3869
410,749
410,1148
410,1227
410,1455
410,4192
410,4521
410,4711
411,236
411,486
411,2035
411,3763
413,369
413,758
413,1277
413,2224
413,4028
415,66
415,255
415,1043
415,1589
415,1666
415,2060
415,2203
415,2460
415,2757
415,3328
415,4557
416,644
417,315
417,1227
417,3220
417,3874
418,1854
419,2223
419,4862
420,47
420,3690
420,3960
422,3777
423,24
423,1763
423,2033
423,3431
423,3483
423,4748
426,28
426,581
426,947
426,4791
428,178
428,279
428,736
428,808
428,1203
428,1880
428,3279
428,4202
429,24
429,124
429,801
429,1279
429,2518
429,2810
429,3078
429,3944
430,1004
430,1286
430,4515
431,371
431,1761
431,2781
434,1104
434,1745
434,2528
435,444
435,775
435,1304
435,1586
435,1896
435,2504
435,3776
435,3964
436,1067
436,1997
436,2661
436,3143
436,3355
436,4150
440,696
440,3264
440,4680
441,983
441,1078
441,1081
441,1104
441,1111
441,1662
441,3492
441,4332
441,4822
443,249
443,2471
443,2642
443,2686
445,98
445,308
447,1001
447,1137
447,2324
447,2510
447,4096
449,1048
450,2792
450,3333
450,3456
450,3590
450,3651
451,452
451,1797
451,1857
451,2142
451,2343
451,3592
451,3681
451,3763
451,3945
451,3974
451,4425
454,644
454,1006
454,1404
454,1563
454,2188
454,3479
455,331
455,340
455,3091
455,4431
456,771
457,19
457,728
457,1186
457,2045
457,2094
457,2432
457,2607
457,2962
457,3153
457,3361
457,4060
457,4117
457,4708
457,4871
463,126
463,270
463,2418
464,1821
465,879
465,1132
465,3283
467,4346
468,371
468,677
468,1080
469,19
469,2527
469,3753
470,1122
470,4737
471,4969
472,144
472,1042
472,1519
472,2568
472,3208
472,3849
472,4520
474,126
474,855
477,34
477,3231
478,19
478,1729
478,2331
479,371
481,256
482,157
482,4624
489,1903
489,3281
491,2219
491,3903
492,1224
492,2959
492,3820
492,4684
492,4707
493,398
493,738
493,1518
493,1610
493,4123
494,34
494,187
494,258
494,427
494,896
494,1392
494,2743
494,2844
494,2893
494,3476
494,3749
494,3871
494,4160
494,4377
494,4425
494,4826
495,473
495,2346
497,3441
498,60
498,627
498,1336
498,1439
498,4428
502,468
503,255
504,869
504,1443
504,2583
504,3385
506,193
506,455
506,2327
507,836
507,1090
507,1616
507,2748
507,3294
508,43
508,134
508,496
508,641
508,1180
508,1266
508,2163
508,2199
508,2297
508,3064
508,3091
508,3250
508,3357
508,3414
508,4436
510,119
510,406
510,468
510,729
510,751
510,917
510,1196
510,1522
510,1751
510,2059
510,2445
510,2513
510,3113
510,4553
513,98
513,1924
514,108
514,2346
515,461
516,1155
518,73
518,619
518,994
519,313
519,1240
519,1412
519,2192
519,2322
519,2365
519,2530
519,2762
519,3251
519,3489
519,3759
519,4024
519,4217
519,4499
519,4857
523,258
523,3110
525,1973
526,789
526,3288
526,4086
530,647
530,1026
530,1048
530,1511
530,1634
530,3974
530,4732
533,262
533,4086
534,218
534,1414
534,1422
534,2413
534,2754
534,3048
534,4741
539,124
539,144
539,210
539,273
539,541
539,974
539,1511
539,1667
539,1967
539,3483
544,1090
546,1803
546,3408
546,4103
547,725
547,1170
547,2796
548,2652
550,1422
551,840
551,3902
551,4374
554,369
554,521
554,606
554,738
554,1164
554,1227
554,1393
554,1736
554,2485
554,3950
554,3960
557,295
557,679
558,5
558,60
558,522
558,802
558,912
560,1080
560,2425
560,3774
560,4188
561,233
561,485
561,799
561,2310
563,215
563,677
563,1211
563,2117
563,2928
563,3658
566,48
566,2447
566,4665
568,581
568,1030
568,1097
568,1810
568,2593
568,4425
571,1974
571,3222
571,3293
571,3545
572,2399
572,4207
574,1
574,96
574,1144
574,1407
574,1448
574,1520
574,1627
574,2054
574,2927
574,3417
574,3896
574,4478
574,4808
575,756
576,1106
576,1231
576,1684
576,2015
576,4093
577,4988
578,1057
580,1329
580,3351
580,4074
581,84
581,3651
581,4858
582,3
582,96
582,119
582,686
582,703
582,3026
582,4030
582,4505
584,431
585,256
585,587
585,1028
585,1973
585,2551
585,3972
585,4490
586,569
587,1216
587,2886
590,521
590,954
590,1615
590,2552
590,2865
590,3230
592,354
592,1944
592,3351
592,3584
593,392
593,1638
594,108
594,136
594,421
594,542
594,607
594,686
594,2701
594,2927
594,4144
594,4356
595,99
595,177
595,193
595,1303
595,2841
595,3557
595,4899
596,1660
598,870
598,1158
598,2060
598,4436
598,4437
599,414
599,644
599,1513
599,4405
599,4434
599,4581
600,263
600,418
600,652
601,233
605,166
609,3949
612,140
613,1841
613,2887
615,1425
615,1478
616,350
617,486
617,700
618,398
619,876
619,1276
619,1422
619,4061
619,4232
622,958
622,3702
623,886
624,2413
625,683
625,2316
629,452
632,166
632,1358
632,2213
633,2188
633,3229
635,252
635,875
635,1472
635,1601
635,1735
635,2123
636,65
636,913
636,4801
637,65
637,2064
637,2999
638,346
639,1060
640,5
640,345
640,944
642,143
642,1414
642,1748
642,2386
642,3964
642,4265
643,262
646,13
646,347
646,361
646,376
646,583
646,1115
646,1201
646,1794
646,2020
646,3055
646,3328
647,205
647,228
647,371
647,1277
647,4629
648,388
649,1284
649,1359
649,1918
650,2758
651,125
653,1360
653,3360
653,4499
653,4581
656,336
656,1281
656,4685
657,3490
657,3926
659,4
659,218
659,1038
659,1708
659,2346
659,2375
659,3359
660,268
661,69
661,486
661,791
661,879
661,1680
661,2213
661,2813
661,2890
661,2970
661,3104
661,3193
661,3966
661,4224
661,4318
661,4328
662,3155
662,4261
665,500
665,3042
665,3728
665,4425
668,406
668,911
669,30
670,3276
670,3353
671,2841
671,3112
671,3138
671,4662
673,1241
673,2420
674,218
674,793
674,1100
674,1890
674,2288
674,2841
674,4117
675,136
675,2078
675,3019
676,3520
677,19
677,484
677,1665
677,2052
677,3741
677,4929
678,256
678,1321
680,520
680,2942
680,3926
681,270
682,218
684,36
684,53
684,140
684,143
684,145
684,197
684,230
684,647
684,756
684,1014
684,1537
684,1804
684,1967
684,2039
684,2223
684,2710
684,2748
684,2754
684,3081
684,4103
684,4326
684,4832
685,1616
687,647
687,2643
687,4491
687,4707
688,347
688,3674
691,1955
693,3959
695,144
695,627
695,812
695,1697
695,2593
695,3242
695,3382
695,3530
695,3778
695,4263
695,4713
698,2242
698,4117
698,4499
700,1042
701,178
704,146
704,3091
705,519
705,1070
705,2758
706,644
706,1091
706,4793
709,43
709,982
709,1546
709,1627
709,2504
709,3897
709,3963
711,1891
712,159
712,504
712,902
712,931
712,2422
712,2647
713,958
713,2248
714,108
714,538
714,788
714,1814
714,1845
714,4019
714,4681
715,1625
717,522
717,583
717,963
717,1313
717,1715
717,2171
717,4712
718,397
721,185
721,700
721,3328
721,3610
721,3802
721,4122
722,737
722,876
722,1337
722,3774
722,3851
723,256
723,535
724,666
727,537
727,4117
732,340
733,1732
733,2223
733,2633
734,2215
734,2438
734,4247
734,4527
735,1741
735,2698
739,1318
739,1494
739,1834
739,3099
739,3148
739,4386
739,4505
740,1
740,697
740,872
740,883
740,1115
740,2228
740,4086
741,493
741,863
741,1058
741,3961
741,4063
741,4259
745,3305
747,26
747,185
747,3807
752,93
752,119
752,371
752,392
752,521
752,1667
752,2040
752,2253
752,3345
752,4192
753,73
757,202
757,528
757,1039
757,2383
758,1553
758,2218
759,918
761,2164
761,3502
761,4490
761,4665
762,3557
762,4480
763,119
763,823
763,856
763,902
763,1351
763,1676
763,1708
763,2113
763,2842
763,2849
763,3633
763,4692
764,3972
765,154
765,371
765,2549
765,3899
766,108
766,700
766,1441
766,1612
766,2118
766,4224
766,4859
768,192
768,552
768,589
768,896
768,2422
768,3417
768,3903
768,4150
768,4415
769,230
770,1001
770,1057
770,1073
770,1255
770,3208
770,3586
770,4558
772,2463
773,766
773,1277
773,2023
773,3845
774,2190
774,2983
774,3185
776,531
776,2120
776,2646
777,363
778,4086
781,108
784,262
785,4783
786,1004
786,1218
786,3755
787,108
787,242
787,805
787,876
787,1465
787,1555
787,1642
787,2213
787,2990
787,3651
787,3926
787,4035
787,4166
792,3031
793,140
793,156
793,282
793,1070
793,2172
793,3328
793,3667
793,4371
794,1166
794,1478
794,1858
794,3574
795,4110
796,4499
800,2383
801,2426
801,2592
801,2677
802,978
802,1422
806,65
806,3970
806,4515
806,4688
807,418
807,1388
807,3722
809,1038
809,3594
809,4141
809,4365
812,2766
812,4451
813,18
813,105
814,1044
814,3208
815,345
815,993
815,4707
818,175
818,1880
818,2675
819,976
819,1533
819,3789
819,4401
820,157
820,1161
820,4882
821,372
821,1245
821,2563
821,3378
821,3934
822,4117
824,77
824,1052
824,1479
824,1597
824,3733
824,3972
828,34
828,140
828,1091
829,505
829,1565
830,3774
833,65
833,119
834,484
835,1773
835,2998
835,3294
835,3734
835,4130
837,789
837,3709
841,257
843,505
843,644
843,3490
843,3950
844,9
844,3385
844,4515
845,1449
846,473
846,667
846,2719
851,2315
851,3548
851,3894
853,2700
853,3765
854,156
854,3409
854,4150
857,47
857,1492
857,2964
858,299
858,3724
858,4303
858,4595
861,160
861,166
861,1035
862,4425
864,855
864,4859
865,178
868,427
870,853
870,1559
870,1968
870,4425
871,108
871,697
871,4992
873,125
873,1097
873,4580
876,3705
880,3572
880,4041
880,4424
881,185
882,1048
882,1078
882,2369
884,4546
884,4798
886,2618
886,3972
886,4401
887,340
889,529
889,951
889,969
889,1625
889,1640
889,2790
889,3306
889,3645
889,4086
890,221
890,504
890,511
890,579
890,867
890,3573
891,354
891,399
891,1000
891,2188
891,4188
891,4307
892,983
892,3149
894,703
894,896
894,1093
894,2242
895,664
897,654
897,1802
897,2142
897,2456
897,2466
898,5
899,273
899,1038
899,1228
899,2069
899,2754
899,2888
899,3188
899,3510
899,4728
899,4877
899,4891
901,48
901,699
901,793
901,1141
901,1691
901,3208
901,4539
902,295
902,1847
902,3846
902,4211
902,4526
905,162
905,1176
905,1440
905,1550
905,1619
905,2583
905,3040
905,3697
907,2594
907,3035
908,1208
908,1470
908,2529
908,3102
908,3194
908,3372
908,3520
908,4130
908,4185
908,4425
909,295
911,4261
916,73
916,464
916,500
916,997
916,1254
916,4708
917,2902
918,2399
920,34
921,1451
921,2458
921,3091
921,3511
921,3846
921,3985
923,279
923,4578
924,3138
925,79
925,232
925,4168
925,4614
926,484
927,1
927,4
927,1002
927,1017
927,1735
927,1880
927,2042
927,4660
929,775
930,69
932,12
932,45
932,1804
932,3463
933,127
933,737
933,1246
936,119
936,1389
936,2378
936,4081
937,111
937,253
937,1546
938,1814
938,3891
939,3293
940,793
940,1720
940,3326
940,4147
940,4765
942,398
942,1486
943,537
943,782
943,2538
945,885
945,1014
945,2242
945,3654
945,4475
945,4729
946,3127
946,4344
948,144
955,340
955,1222
955,1463
957,1044
957,2309
957,4162
957,4452
957,4847
957,4969
959,1421
959,3321
959,4707
959,4964
960,133
961,418
961,2213
965,1699
966,775
967,193
967,4909
968,237
968,1838
968,2085
968,3794
970,2511
971,166
971,476
972,26
972,34
973,273
973,567
973,2618
973,3216
973,3261
977,327
977,756
977,1699
977,1771
977,3550
979,614
979,760
979,1423
979,1623
979,4760
984,3441
985,790
985,848
985,1390
985,2371
985,4059
986,253
988,4670
999,89
999,292
999,771
999,1297
999,2819
999,3368
999,3550
999,3682
999,3810
1003,371
1003,3214
1004,1400
1004,4907
1005,268
1005,298
1005,315
1005,1133
1005,2050
1005,2274
1005,3221
1007,19
1007,2740
1008,652
1008,3247
1009,157
1009,162
1009,3138
1009,4711
1009,4817
1010,34
1010,1014
1010,1670
1010,2172
1010,2440
1010,2972
1010,3745
1011,352
1012,2191
1015,392
1015,820
1015,1439
1015,2386
1015,3189
1015,3645
1015,3651
1015,4563
1016,166
1017,531
1017,1258
1019,125
1019,504
1019,540
1019,2955
1021,316
1021,771
1021,1422
1021,3816
1021,3940
1021,4596
1021,4688
1022,253
1022,2513
1023,1285
1023,1335
1023,3651
1023,4192
1023,4395
1024,677
1024,914
1024,1104
1024,1428
1024,1992
1024,2411
1024,2664
1024,3294
1024,4678
1025,1891
1025,4136
1027,218
1027,644
1027,1440
1027,3304
1027,4439
1028,1327
1032,1662
1034,1993
1034,2211
1036,730
1041,3164
1041,4086
1042,978
1042,1792
1042,1814
1042,3189
1042,4223
1042,4947
1046,2675
1050,483
1050,1596
1054,65
1054,499
1054,904
1055,930
1056,218
1056,1792
1056,4228
1059,4
1059,2152
1059,4392
1059,4784
1061,1928
1062,33
1062,1061
1062,1425
1062,3247
1065,30
1065,255
1065,257
1065,532
1065,630
1065,1828
1065,3390
1068,517
1068,1858
1068,3621
1068,4033
1068,4297
1068,4510
1068,4557
1068,4672
1069,133
1069,3193
1069,4644
1074,2221
1075,1133
1075,1957
1075,3530
1079,4600
1082,596
1082,819
1082,1153
1082,1898
1082,3328
1082,3417
1082,3549
1083,133
1083,2690
1084,34
1084,1554
1085,3960
1086,1037
1087,488
1087,1390
1087,1740
1087,3123
1087,3441
1087,3839
1092,952
1092,2359
1092,4521
1093,3548
1095,283
1096,3138
1096,3841
1096,4121
1098,19
1098,2191
1101,66
1101,1358
1101,3257
1101,3267
1101,4720
1103,371
1103,1792
1104,700
1105,4640
1109,84
1109,1527
1109,2123
1109,3373
1109,3497
1110,3778
1112,915
1112,1694
1112,3499
1112,4669
1120,1372
1120,3832
1121,19
1121,136
1121,382
1121,1081
1121,3774
1122,2772
1125,904
1127,2054
1128,37
1128,1213
1128,2209
1128,2652
1129,235
1129,1359
1129,2033
1129,2177
1129,3897
1129,4077
1129,4542
1129,4871
1130,12
1130,4457
1131,229
1131,232
1135,140
1136,2163
1136,3208
1137,3550
1138,743
1139,48
1139,279
1139,2453
1139,4425
1139,4452
1140,2369
1142,6
1142,1608
1142,3328
1142,4824
1142,4857
1143,893
1143,2039
1143,2467
1143,3035
1145,1116
1145,1337
1145,2839
1145,3663
1145,4977
1146,2553
1147,2482
1150,1058
1154,218
1157,98
1157,605
1157,4141
1159,913
1159,1918
1160,162
1160,4142
1162,611
1163,6
1163,538
1163,788
1163,1598
1163,2681
1163,3220
1165,679
1165,2286
1165,3232
1166,2033
1168,1511
1168,2509
1168,4714
1169,530
1169,4034
1169,4948
1172,969
1174,619
1177,1014
1177,4909
1178,249
1179,48
1181,253
1181,677
1182,2849
1182,3483
1182,3950
1183,2388
1184,2939
1184,4269
1186,245
1186,354
1186,804
1186,1869
1186,2245
1186,3093
1186,3144
1186,3294
1186,4135
1188,775
1188,3056
1188,3779
1188,4297
1188,4871
1189,340
1189,1661
1189,3987
1190,1144
1190,1255
1190,1446
1190,1758
1190,2328
1190,2435
1190,3068
1190,3159
1190,4733
1191,2708
1192,372
1192,592
1193,66
1193,119
1193,223
1193,354
1193,1657
1193,1670
1193,1821
1193,1927
1193,2179
1193,2285
1193,2624
1193,3320
1193,4043
1193,4256
1193,4716
1195,149
1197,644
1197,2383
1197,2494
1199,521
1199,2593
1199,2754
1200,996
1202,144
1202,193
1202,210
1202,218
1202,529
1202,707
1202,767
1202,896
1202,1113
1202,1184
1202,1922
1202,2548
1202,3493
1202,4371
1204,790
1206,4580
1207,4033
1209,1582
1209,1821
1209,3039
1212,18
1212,531
1212,1141
1212,1430
1212,1501
1212,3003
1212,3151
1214,19
1215,381
1219,252
1219,3374
1219,4018
1219,4654
1221,47
1221,700
1225,2063
1225,2443
1232,605
1232,1801
1232,2383
1234,3733
1234,4819
1235,340
1235,1812
1235,2467
1235,3599
1236,2276
1236,2698
1237,1053
1237,2383
1238,19
1239,1928
1239,2011
1239,3479
1240,3113
1242,371
1243,51
1243,990
1243,1609
1243,2045
1243,2159
1243,3657
1244,1060
1244,1227
1244,2455
1244,3846
1247,468
1247,1895
1247,2791
1248,865
1249,521
1249,644
1249,1325
1249,4422
1249,4486
1250,255
1250,279
1251,105
1251,187
1251,246
1251,462
1251,1170
1251,1870
1251,2832
1251,2963
1251,3165
1251,3270
1251,3470
1251,4338
1251,4950
1252,3294
1253,2208
1253,2386
1253,2769
1256,273
1257,940
1257,1369
1257,1924
1258,347
1260,340
1261,4130
1262,380
1262,848
1262,1379
1262,3308
1262,3547
1262,3997
1262,4117
1262,4179
1262,4438
1263,958
1264,2592
1265,4499
1267,279
1267,2668
1267,3506
1267,4524
1268,827
1268,1114
1268,1618
1268,1918
1268,1970
1268,4278
1274,2999
1274,4224
1274,4259
1275,43
1275,337
1275,1187
1275,2001
1275,2112
1275,2624
1275,3457
1275,3741
1275,4845
1278,43
1280,737
1281,85
1281,573
1281,796
1281,825
1281,2292
1281,2538
1281,2825
1283,4587
1285,313
1285,2593
1285,3651
1287,1052
1288,65
1289,34
1289,231
1289,381
1289,570
1289,793
1289,944
1289,2015
1289,2122
1289,2179
1289,2409
1289,2587
1289,3618
1289,4018
1290,1042
1291,3278
1293,19
1296,679
1296,703
1296,991
1296,1001
1296,1134
1296,1800
1296,1859
1296,2028
1296,2105
1296,3294
1300,354
1300,2316
1300,2394
1301,1470
1301,1481
1301,1682
1301,2504
1301,3700
1301,4117
1302,2819
1304,153
1304,2776
1304,3763
1305,1360
1305,2395
1306,573
1307,36
1307,998
1307,2575
1307,4168
1308,2836
1308,3323
1309,1458
1309,3813
1309,4331
1310,3
1315,43
1315,285
1315,692
1315,1094
1315,1186
1315,1270
1315,1457
1315,1509
1315,1549
1315,1641
1315,1681
1315,1837
1315,1971
1315,2110
1315,2381
1315,3158
1315,3260
1315,3677
1315,3874
1315,4365
1315,4541
1315,4543
1315,4566
1315,4807
1316,679
1321,3859
1321,4067
1322,4595
1328,2810
1328,4132
1328,4587
1330,244
1330,1002
1330,1708
1330,2105
1330,3632
1330,4297
1333,2641
1333,3047
1333,3686
1333,4731
1334,48
1337,47
1337,154
1337,312
1337,340
1337,847
1337,1255
1337,1357
1337,1392
1337,1525
1337,1821
1337,1912
1337,1941
1337,2333
1337,2640
1337,2726
1337,2852
1337,2871
1337,2946
1337,3846
1337,4117
1337,4187
1337,4375
1337,4425
1337,4789
1338,424
1340,12
1340,1002
1341,47
1341,793
1341,1384
1341,2626
1342,1735
1344,1735
1344,3077
1345,2191
1347,340
1347,944
1347,1894
1347,2457
1347,2955
1347,3147
1347,3553
1347,3730
1347,4126
1349,1327
1350,1144
1352,2213
1352,2887
1352,3138
1353,262
1353,2461
1353,3247
1353,3501
1353,3881
1353,4871
1355,407
1355,2849
1355,4293
1356,4452
1358,369
1358,1363
1358,1474
1361,3110
1362,4677
1364,34
1364,700
1364,956
1367,3268
1367,4311
1368,166
1368,256
1368,2000
1368,2073
1368,2727
1368,3193
1368,3451
1368,4525
1370,818
1370,1425
1370,3819
1371,282
1371,1299
1371,3987
1372,1631
1375,9
1377,638
1377,1220
1377,4595
1380,641
1380,867
1380,2793
1380,3472
1382,3520
1383,166
1383,1048
1383,1574
1383,3291
1385,96
1385,757
1385,1269
1385,1416
1385,2826
1385,3329
1386,1081
1386,1689
1386,4024
1387,2064
1391,222
1391,2101
1391,4658
1392,295
1395,399
1395,2321
1396,1487
1396,4395
1397,2803
1397,3192
1397,3640
1397,4640
1400,4499
1401,250
1401,327
1401,2749
1401,4117
1402,3476
1403,782
1405,2181
1405,4259
1406,6
1407,564
1409,931
1410,1484
1410,1595
1410,1907
1410,2133
1410,3490
1410,4224
1413,195
1414,1072
1414,4085
1418,2033
1419,4574
1422,2974
1422,3185
1422,4943
1424,222
1426,699
1426,4453
1427,1241
1427,1570
1427,3127
1429,637
1429,686
1429,1407
1429,2849
1430,115
1430,347
1430,607
1430,860
1430,2458
1430,3580
1430,4587
1431,3581
1432,84
1432,1405
1432,1658
1432,4870
1433,4078
1433,4425
1434,5
1434,1061
1435,1511
1435,3209
1436,253
1437,2630
1437,4117
1437,4725
1438,2652
1439,2480
1439,4136
1442,77
1442,1500
1442,3885
1442,3934
1442,4871
1444,3950
1445,3967
1446,761
1446,881
1446,1013
1446,4852
1447,1
1447,1037
1450,2025
1450,3258
1454,597
1454,790
1454,1152
1454,1222
1454,1422
1454,2191
1454,2267
1454,2472
1454,3097
1454,3317
1454,4644
1454,4931
1459,60
1459,153
1459,1116
1459,1255
1459,1414
1459,1835
1459,1860
1459,2121
1459,2493
1459,2912
1459,3138
1459,3183
1459,3975
1459,4463
1462,748
1464,218
1466,994
1466,1245
1466,1620
1466,2274
1466,2967
1469,2096
1471,6
1471,207
1471,2221
1471,2538
1471,3442
1471,4504
1473,1260
1473,4944
1476,725
1476,823
1476,1519
1477,4858
1478,1092
1482,4157
1483,99
1486,17
1486,149
1486,529
1486,2963
1486,3651
1486,4439
1487,299
1487,611
1487,849
1488,71
1488,144
1488,235
1488,2347
1489,619
1489,1195
1489,2090
1489,4357
1490,483
1490,745
1490,4441
1492,60
1492,1116
1492,2265
1492,2389
1492,4620
1494,426
1494,2480
1494,3841
1496,690
1496,1963
1496,2518
1496,3448
1496,4117
1497,2175
1497,2562
1497,4499
1498,2143
1498,2914
1498,3017
1498,3147
1498,3356
1498,3357
1498,4288
1499,605
1499,3543
1502,3316
1507,12
1507,720
1507,2324
1507,2887
1508,542
1508,2299
1508,4421
1508,4862
1509,630
1510,108
1510,793
1510,3730
1510,3939
1512,641
1514,111
1514,286
1514,364
1514,439
1514,853
1514,1431
1514,1627
1514,2538
1514,3091
1514,3323
1514,3548
1514,3861
1515,3208
1515,4207
1515,4224
1515,4426
1516,18
1516,246
1516,2916
1520,125
1520,258
1520,1896
1523,361
1526,166
1526,504
1529,1444
1530,369
1531,2836
1534,1117
1534,4436
1536,2771
1537,991
1538,26
1538,579
1539,6
1539,1918
1540,499
1540,683
1540,1320
1540,2172
1540,2317
1540,2527
1540,2835
1540,4259
1540,4695
1540,4897
1541,690
1542,279
1542,3889
1543,944
1545,2089
1545,4499
1545,4940
1547,2754
1555,71
1555,2213
1555,2463
1555,4872
1556,548
1557,1343
1557,1883
1557,2961
1557,3504
1557,3832
1560,1355
1560,1765
1560,3116
1560,4625
1562,191
1562,878
1562,2346
1562,3758
1564,956
1566,111
1566,1814
1566,3328
1566,4895
1567,282
1568,238
1569,5
1569,564
1569,1641
1569,4784
1571,529
1571,2995
1572,1255
1572,3185
1573,55
1573,484
1575,119
1575,1374
1577,569
1577,2504
1579,340
1579,1211
1579,2256
1579,2563
1579,3098
1581,755
1583,3393
1585,1255
1586,26
1586,237
1587,1044
1590,1104
1590,2109
1590,2353
1590,3295
1591,532
1593,70
1593,1144
1594,3091
1596,85
1596,186
1596,253
1596,2543
1596,3278
1596,4174
1599,19
1599,537
1599,2873
1599,3184
1600,1014
1601,2512
1601,4439
1602,1171
1604,222
1605,43
1605,392
1605,553
1605,1917
1605,4668
1606,4130
1607,4425
1609,160
1611,520
1614,43
1615,84
1615,935
1615,2334
1615,3633
1617,26
1617,295
1617,2427
1617,3006
1617,3014
1618,51
1618,304
1618,655
1618,689
1618,1248
1618,2237
1624,39
1624,4345
1626,1771
1626,2828
1626,3208
1626,4869
1630,3579
1632,790
1633,340
1633,876
1633,989
1633,1992
1637,2504
1640,2846
1643,756
1643,1895
1643,3451
1643,3883
1644,1295
1644,4909
1645,433
1646,108
1647,902
1647,3522
1649,527
1649,1123
1650,162
1650,751
1650,896
1650,2417
1650,2508
1650,3853
1651,257
1651,1598
1651,4703
1651,4943
1653,3
1653,19
1653,308
1653,683
1653,700
1653,1449
1653,4402
1654,1624
1655,1323
1656,853
1659,1574
1662,3949
1663,111
1663,535
1663,3328
1664,556
1664,1792
1668,1442
1668,2747
1668,3972
1669,4797
1671,3047
1671,3329
1671,4157
1675,2131
1675,3763
1675,4224
1677,1348
1677,1423
1677,2452
1679,1052
1679,3201
1680,4520
1685,53
1685,570
1685,1737
1687,564
1687,4295
1688,93
1688,1195
1688,2880
1690,1030
1696,2383
1698,3250
1698,4581
1699,1332
1699,1610
1699,2126
1699,2882
1699,3913
1700,5
1702,3741
1703,1750
1704,1053
1705,2549
1707,1144
1707,2285
1707,4671
1709,915
1710,201
1711,97
1711,1533
1712,699
1712,2582
1712,3615
1713,4425
1714,65
1714,679
1715,19
1715,1324
1717,340
1717,2069
1718,842
1718,3674
1718,3736
1718,4404
1719,610
1719,2836
1719,3907
1720,34
1720,1816
1723,392
1723,1944
1723,2056
1723,2817
1723,4748
1724,1887
1724,2378
1724,3552
1724,3931
1724,4814
1725,3889
1726,84
1726,119
1726,2389
1726,2710
1728,796
1728,1680
1728,1852
1728,2190
1728,2737
1730,793
1730,4565
1731,310
1731,1031
1731,1725
1731,1817
1731,2545
1731,3146
1731,3152
1732,2346
1732,3337
1732,4045
1733,607
1733,4453
1734,1348
1735,166
1735,839
1738,4763
1739,19
1739,1444
1743,3122
1744,43
1749,3451
1752,282
1754,75
1754,4464
1755,2210
1755,4425
1756,1176
1757,53
1757,4086
1763,906
1764,3110
1766,3774
1768,1491
1770,34
1770,919
1772,2234
1774,537
1775,140
1775,887
1775,4157
1776,19
1776,162
1776,2558
1777,279
1779,521
1779,4273
1781,1002
1783,1170
1783,2648
1784,1225
1784,1964
1785,2399
1788,4490
1789,1097
1789,1142
1789,1407
1789,1669
1790,282
1792,1201
1792,2041
1792,3250
1792,4070
1793,2064
1795,3633
1801,493
1805,2033
1806,118
1806,157
1806,433
1806,510
1806,628
1806,1298
1806,1812
1806,2183
1806,3091
1806,3860
1806,4150
1806,4775
1806,4907
1807,1720
1811,932
1812,1312
1813,228
1813,2358
1813,3311
1813,3609
1815,998
1818,84
1818,1904
1818,4297
1820,530
1820,634
1820,1947
1822,108
1822,232
1822,2106
1822,3490
1823,340
1823,458
1823,1151
1823,1509
1823,2342
1823,4635
1824,5
1824,2405
1826,988
1826,2085
1826,2823
1826,3447
1827,1001
1827,2241
1829,870
1829,3414
1831,193
1832,4783
1836,84
1836,4642
1838,1031
1839,105
1840,1800
1843,127
1843,1239
1846,428
1848,49
1848,253
1848,262
1848,1004
1848,1051
1848,1064
1848,1292
1848,1584
1848,1850
1848,1991
1848,2985
1848,3007
1848,3429
1848,3520
1848,3649
1848,4261
1848,4478
1848,4828
1849,1598
1851,315
1851,350
1853,1173
1854,39
1854,145
1854,193
1854,222
1854,256
1854,521
1854,619
1854,1510
1854,1634
1854,2588
1854,3027
1854,3357
1854,3926
1854,4383
1854,4745
1857,186
1857,369
1857,614
1857,1223
1857,1865
1857,2036
1857,2470
1861,2285
1861,2646
1861,3544
1861,3623
1861,3792
1861,4258
1861,4554
1864,4763
1866,19
1866,3296
1867,18
1867,32
1867,877
1867,2523
1868,36
1869,3598
1869,3717
1871,950
1871,1405
1871,1610
1871,2508
1872,2030
1872,2517
1872,4307
1872,4689
1873,1218
1873,2226
1874,49
1875,878
1877,1518
1877,4265
1877,4439
1878,644
1881,644
1882,18
1882,990
1882,2383
1884,66
1885,153
1888,144
1889,484
1889,4320
1890,4261
1892,43
1892,1546
1892,3226
1892,3845
1894,3299
1895,2538
1895,3557
1901,4098
1905,283
1905,2995
1906,1141
1906,3622
1907,1039
1907,1354
1907,2791
1908,540
1909,1792
1910,43
1910,520
1910,3478
1911,1053
1913,154
1914,569
1915,1667
1916,172
1916,619
1916,2927
1918,2097
1919,380
1920,661
1921,108
1923,1155
1926,641
1929,371
1929,2155
1931,2463
1931,3896
1932,144
1933,1641
1935,652
1936,431
1936,3101
1937,185
1937,729
1937,1760
1937,4393
1938,2463
1940,530
1943,153
1946,3763
1948,1511
1951,3778
1952,658
1952,1470
1952,1564
1954,793
1954,1802
1954,3773
1955,1715
1955,3138
1956,19
1956,322
1956,1586
1956,1668
1956,2804
1956,3557
1956,4452
1957,18
1957,664
1957,3759
1958,803
1959,3994
1961,4424
1962,283
1963,1610
1965,698
1967,431
1969,1303
1969,1819
1969,2298
1969,2770
1969,3081
1969,4910
1970,700
1970,2308
1972,210
1972,1176
1972,2906
1975,1133
1975,1196
1976,1918
1977,1624
1977,3192
1980,1684
1980,2256
1981,51
1981,793
1981,1076
1981,1532
1981,3225
1982,875
1983,73
1983,125
1983,154
1983,347
1983,1544
1983,1869
1983,2307
1983,3506
1983,3669
1983,3674
1983,4453
1986,1742
1987,252
1987,788
1987,2069
1988,149
1988,488
1988,1004
1988,2140
1988,3039
1988,3091
1988,4083
1988,4851
1989,400
1989,1990
1998,517
1998,885
1998,1113
1998,2099
1998,2843
1998,3738
1999,262
1999,1786
2000,974
2002,459
2002,995
2002,1784
2002,2652
2003,3891
2005,1821
2006,60
2006,1368
2006,1799
2006,2151
2007,748
2007,1325
2007,4099
2007,4559
2009,4793
2010,432
2010,998
2010,1228
2010,2091
2010,2583
2010,4315
2010,4748
2013,1220
2014,3630
2016,1804
2016,2237
2019,3314
2019,3684
2022,354
2026,658
2030,84
2031,619
2031,1493
2031,1540
2031,2945
2032,1078
2032,1217
2032,2130
2032,2264
2032,4684
2033,3759
2037,26
2037,2429
2038,1133
2038,1144
2038,1740
2038,1984
2038,2453
2038,2887
2038,4297
2040,4574
2043,140
2043,556
2043,3417
2043,3651
2043,4455
2043,4538
2045,3278
2046,1255
2047,3687
2047,4532
2048,1153
2048,4312
2049,232
2049,1623
2054,4425
2055,1216
2057,3651
2058,902
2059,3002
2060,32
2060,4379
2061,200
2061,1061
2062,166
2063,66
2063,1558
2063,1603
2063,2545
2063,2814
2063,4276
2063,4996
2065,268
2066,9
2066,2584
2067,19
2068,4202
2069,111
2069,1102
2069,1443
2069,1895
2070,3
2070,2541
2071,1842
2071,3118
2074,156
2076,119
2076,233
2076,2993
2077,931
2079,206
2080,3520
2080,4619
2081,3138
2082,2147
2082,2199
2082,2810
2082,3438
2084,3633
2086,84
2086,2360
2087,455
2092,1898
2093,243
2093,1355
2093,2213
2094,4507
2094,4644
2095,98
2099,2463
2100,187
2102,182
2102,2605
2104,4117
2106,6
2106,588
2107,2862
2107,3359
2107,3726
2108,154
2111,488
2111,743
2111,1060
2111,2257
2111,3500
2111,3961
2114,1621
2114,3138
2115,1205
2115,3765
2115,4044
2115,4853
2116,60
2116,263
2116,2336
2116,3188
2119,473
2123,2075
2124,1255
2125,118
2125,433
2125,1634
2125,1837
2125,1974
2125,2575
2125,3091
2126,2464
2126,4425
2127,406
2128,619
2128,1272
2128,2223
2129,611
2129,4297
2131,352
2131,1635
2131,2333
2132,222
2133,1241
2133,2519
2134,1090
2134,1945
2136,1168
2136,2239
2136,3755
2136,3874
2136,4641
2137,295
2137,1422
2137,1495
2137,1973
2137,2917
2137,3335
2137,4850
2144,4353
2144,4778
2145,1031
2145,1422
2145,2231
2149,3950
2150,2045
2153,155
2154,143
2154,1453
2154,1981
2154,3103
2154,3948
2156,406
2156,816
2156,4321
2156,4587
2158,627
2158,2276
2158,4702
2162,4224
2165,2802
2165,4665
2165,4979
2166,245
2166,644
2166,4360
2167,247
2167,630
2167,690
2167,745
2167,1070
2167,1648
2167,1718
2167,2284
2167,2504
2167,2596
2167,2869
2167,3658
2167,4093
2167,4943
2170,644
2171,553
2171,2368
2173,1176
2173,2405
2173,2963
2173,4986
2174,419
2174,2383
2175,1048
2176,2383
2176,3123
2178,1405
2178,1742
2179,4145
2179,4641
2182,3138
2185,4923
2186,1257
2187,2203
2188,3940
2188,4793
2189,268
2189,281
2189,352
2189,364
2189,3755
2191,1071
2193,399
2193,4267
2194,4931
2195,43
2195,2738
2196,53
2196,315
2196,878
2196,1510
2196,1780
2196,2100
2196,4168
2197,1772
2198,1040
2199,743
2200,18
2200,153
2200,804
2200,1511
2200,2611
2200,3017
2200,3031
2203,1104
2203,3575
2203,3846
2203,4398
2203,4499
2203,4796
2206,583
2206,3491
2211,2004
2211,4930
2213,4515
2214,2188
2216,424
2216,605
2216,690
2216,3916
2217,134
2217,4362
2219,3110
2220,867
2221,227
2221,3142
2221,3598
2222,326
2222,393
2222,914
2222,2577
2224,166
2224,3058
2225,914
2225,2254
2227,108
2229,398
2232,400
2232,1148
2232,1171
2232,1405
2233,253
2233,2223
2235,1047
2235,3809
2236,255
2237,2363
2237,2817
2238,2528
2240,215
2246,2078
2246,3926
2247,1029
2247,1269
2247,2286
2247,2875
2247,4157
2247,4571
2247,4954
2248,1080
2249,3179
2249,4086
2251,975
2251,2213
2251,2397
2251,3108
2251,3694
2252,1118
2255,998
2255,2745
2258,1024
2258,2726
2260,3099
2261,1241
2262,1505
2263,493
2263,1047
2263,1240
2263,1376
2263,1808
2263,3176
2263,3711
2263,4224
2263,4468
2263,4619
2263,4952
2263,4972
2264,496
2265,2103
2266,713
2266,1104
2266,3013
2269,1119
2269,3797
2270,670
2270,751
2270,3793
2270,4027
2270,4299
2271,1837
2273,1171
2273,2213
2275,1144
2275,1721
2275,3486
2278,26
2278,433
2278,605
2278,1732
2278,2041
2278,2085
2278,3144
2279,3773
2279,4330
2280,354
2280,963
2280,987
2280,1527
2280,3061
2280,3626
2282,3
2282,1603
2282,4707
2284,47
2284,215
2284,962
2284,1118
2285,361
2285,1467
2285,2789
2287,1891
2287,3982
2291,1000
2291,3144
2292,796
2293,2809
2293,4665
2295,23
2295,253
2295,3357
2295,3359
2295,3479
2295,4763
2295,4788
2297,1847
2297,4270
2300,1786
2301,1662
2301,2767
2301,4452
2301,4456
2303,437
2303,719
2303,3625
2305,3193
2306,43
2306,1425
2306,4307
2310,6
2311,760
2311,3004
2311,3713
2315,4150
2317,12
2318,354
2320,118
2320,820
2322,2011
2323,383
2326,3002
2326,3925
2329,2007
2330,312
2330,1260
2330,1398
2330,1521
2330,3143
2330,3451
2330,3731
2330,3986
2330,4094
2332,3925
2333,720
2335,425
2335,2181
2337,331
2339,2285
2339,2364
2339,3414
2340,954
2341,1365
2341,2833
2341,3423
2343,517
2343,3043
2343,3545
2344,1337
2344,3965
2346,2951
2346,3401
2346,3887
2351,3964
2355,976
2355,4452
2357,644
2357,1629
2357,3960
2361,1642
2361,1681
2361,4707
2363,2090
2366,1210
2366,1228
2367,69
2367,505
2367,3514
2367,4970
2369,70
2370,519
2373,3483
2374,70
2376,113
2377,398
2378,98
2378,126
2378,597
2378,2386
2378,3651
2378,4588
2381,18
2382,3002
2384,184
2384,2825
2384,4871
2385,581
2385,1732
2385,3946
2387,4
2387,28
2387,2473
2388,2513
2390,227
2390,1357
2390,4654
2391,165
2391,990
2391,1230
2391,1271
2391,1618
2391,4871
2391,4963
2392,1037
2392,1205
2392,2437
2392,2539
2392,4783
2393,4978
2395,886
2395,4570
2396,744
2398,4117
2398,4425
2399,4798
2401,256
2402,1155
2404,1006
2404,4297
2406,364
2406,488
2406,1460
2406,1558
2406,1618
2406,1746
2406,2172
2406,3357
2407,1558
2408,677
2408,812
2408,2132
2408,2259
2410,2097
2411,30
2411,36
2411,256
2411,499
2411,573
2411,804
2411,818
2411,2827
2411,3264
2412,867
2413,775
2414,6
2414,3476
2415,3855
2419,1169
2421,4557
2423,392
2424,273
2426,1681
2430,256
2431,1609
2434,530
2436,1104
2438,4445
2441,748
2441,3138
2442,2372
2444,1091
2444,3833
2446,1701
2448,3813
2449,627
2450,4846
2451,543
2456,3490
2457,17
2457,19
2457,60
2457,65
2457,347
2457,483
2457,748
2457,756
2457,805
2457,1060
2457,1576
2457,2683
2457,3424
2458,1420
2458,1821
2458,3301
2458,3794
2458,4659
2459,543
2459,4032
2463,1996
2463,3121
2463,3813
2463,4214
2463,4607
2465,859
2465,2512
2465,2936
2465,3401
2465,3646
2465,4203
2468,2466
2474,690
2474,1185
2475,1586
2476,1289
2477,4130
2478,1615
2478,2998
2478,3169
2478,3314
2478,4515
2482,65
2482,326
2482,791
2482,3812
2483,914
2483,2083
2483,4439
2486,1802
2486,3608
2486,3635
2486,3709
2487,1787
2487,2518
2487,2845
2487,3972
2488,4486
2489,1026
2489,2286
2489,2303
2490,1141
2495,525
2495,1040
2495,1052
2495,1456
2495,1588
2495,2281
2495,2755
2495,2847
2495,3483
2496,1099
2497,18
2497,48
2497,105
2497,2244
2497,2710
2498,162
2498,2346
2498,4259
2499,2934
2499,4595
2500,771
2501,708
2501,4861
2502,911
2502,2795
2502,2897
2503,1
2503,708
2503,1070
2503,1271
2503,1449
2503,1687
2503,2380
2503,2547
2503,3396
2503,4799
2505,652
2506,2336
2507,262
2514,605
2514,1169
2515,2103
2515,3031
2518,177
2518,399
2518,1153
2518,1478
2518,1733
2518,2105
2518,4184
2518,4552
2520,380
2520,2837
2520,3340
2521,438
2521,4937
2521,4942
2522,954
2522,1244
2522,3528
2524,1260
2524,1508
2524,3171
2528,65
2528,2313
2531,26
2532,1104
2532,1501
2533,2747
2533,3403
2533,4654
2534,2754
2536,1463
2536,1894
2537,1944
2538,1099
2538,1558
2538,4389
2540,14
2540,4622
2542,201
2542,459
2542,473
2542,1475
2542,2051
2542,3375
2542,3777
2542,4040
2542,4057
2544,931
2546,4862
2550,803
2553,1285
2553,4520
2554,820
2555,910
2555,2224
2555,4818
2556,2143
2557,977
2558,9
2559,3414
2559,4041
2560,380
2565,3448
2566,944
2566,1927
2569,3110
2570,218
2570,282
2573,4931
2574,178
2574,1080
2574,3679
2576,4425
2578,2139
2578,3682
2579,2748
2579,3128
2581,2346
2583,3247
2585,2487
2585,2610
2585,2874
2586,4038
2590,2378
2590,2998
2591,2163
2591,3649
2592,3193
2595,1821
2595,3212
2596,227
2596,1763
2597,2836
2598,1137
2599,2575
2599,4470
2599,4572
2600,321
2600,4781
2601,1151
2601,3301
2601,3554
2602,2646
2602,3579
2603,789
2603,3953
2606,249
2606,3299
2606,3413
2606,4439
2606,4842
2606,4859
2608,1535
2608,4076
2608,4627
2609,589
2611,1759
2612,1558
2615,2022
2615,2472
2615,3919
2616,988
2616,1826
2616,2333
2616,4424
2619,247
2619,537
2619,1255
2621,75
2622,2504
2623,848
2624,1561
2624,2218
2625,1742
2628,718
2628,1020
2628,1058
2629,3242
2630,3396
2631,2333
2631,2832
2634,185
2634,918
2634,4846
2635,4499
2636,1269
2636,1792
2636,3713
2637,587
2638,1682
2639,3261
2639,4394
2639,4734
2642,3399
2644,839
2646,2624
2648,3727
2649,1465
2652,3401
2653,379
2655,172
2657,4907
2658,1048
2658,1969
2663,4424
2665,2456
2666,1894
2669,5
2670,1996
2672,840
2673,886
2674,4707
2676,28
2680,166
2685,3773
2685,4013
2687,820
2687,1030
2687,2213
2687,3819
2687,4452
2688,686
2689,24
2689,2268
2690,244
2690,407
2693,1480
2694,49
2695,1837
2696,421
2696,3129
2696,3977
2697,1759
2698,1697
2699,279
2699,3822
2702,3674
2703,270
2705,2549
2706,108
2708,1558
2709,108
2709,2159
2711,3759
2712,34
2712,3416
2713,1957
2714,1796
2714,2922
2714,3155
2715,66
2715,3340
2716,3265
2718,1188
2718,2758
2718,3629
2718,4509
2719,876
2719,1216
2719,1678
2719,1691
2719,3328
2719,3867
2720,2668
2722,262
2723,1327
2724,1523
2725,476
2727,2292
2728,2383
2729,258
2729,1883
2730,43
2730,3516
2732,75
2732,4705
2733,4
2733,414
2733,832
2733,1241
2733,1324
2733,2038
2733,2854
2733,4491
2734,509
2735,154
2735,4605
2736,1478
2737,136
2737,485
2737,811
2737,1015
2737,1241
2739,863
2739,1177
2742,855
2742,1272
2742,4134
2744,1778
2746,4970
2748,1185
2750,4751
2751,230
2752,98
2756,315
2757,133
2757,896
2757,912
2757,1449
2757,2810
2760,6
2760,2323
2760,3145
2761,1078
2761,2796
2761,4017
2761,4125
2761,4150
2764,2420
2765,271
2769,157
2769,1185
2769,2146
2771,1201
2773,185
2773,605
2775,1040
2775,2243
2775,4411
2777,1546
2778,4499
2778,4529
2779,5
2779,641
2779,1524
2782,244
2782,3790
2783,3633
2784,84
2788,1259
2791,2053
2793,1517
2794,641
2794,1857
2794,3714
2797,1407
2797,3238
2798,347
2798,3044
2799,146
2804,221
2804,719
2804,790
2804,1624
2804,1802
2804,1927
2804,2120
2804,3106
2804,3588
2805,2351
2807,321
2808,271
2808,1188
2810,3757
2813,3110
2816,361
2816,3113
2818,699
2820,23
2820,48
2821,565
2824,796
2824,1729
2828,99
2828,185
2828,904
2828,1057
2828,1627
2828,2561
2828,3303
2828,3508
2828,3819
2828,3846
2828,3948
2828,4259
2828,4339
2828,4726
2829,3002
2832,17
2835,701
2835,4778
2838,3490
2839,2831
2842,3019
2842,4238
2845,18
2845,248
2845,520
2845,730
2845,848
2845,4998
2846,455
2846,2802
2848,2069
2849,1348
2850,97
2851,1525
2852,1047
2853,2877
2853,3843
2853,4224
2858,175
2859,1627
2860,70
2860,394
2860,852
2860,1580
2860,2272
2860,3891
2860,4583
2861,1116
2862,1917
2863,3727
2863,4215
2864,543
2864,771
2866,4130
2866,4610
2867,992
2867,1792
2870,473
2870,3585
2872,421
2873,19
2873,296
2877,3444
2878,904
2878,1493
2878,3656
2879,49
2879,1640
2880,2810
2881,153
2881,596
2883,23
2883,537
2883,782
2883,1411
2883,1711
2883,2060
2883,3452
2883,3961
2883,4021
2884,1798
2889,1898
2891,1715
2891,1837
2892,160
2893,1879
2894,6
2895,512
2896,3770
2896,4909
2898,2791
2899,3476
2899,4908
2900,1241
2901,347
2902,101
2902,124
2902,299
2902,975
2902,1037
2902,1715
2902,1989
2902,2224
2902,3590
2902,4895
2902,4987
2903,19
2904,1449
2904,2378
2905,1792
2907,1780
2907,2213
2907,4628
2909,2213
2910,1613
2910,2354
2911,1703
2913,3972
2915,4086
2918,406
2919,154
2920,347
2920,3343
2920,4084
2921,3033
2921,4520
2923,2998
2924,931
2929,4853
2930,2791
2931,30
2931,371
2931,1796
2931,3636
2931,4378
2931,4389
2932,2069
2932,3494
2933,4595
2935,181
2935,1241
2937,1893
2941,1558
2941,3693
2943,1118
2943,3319
2945,775
2949,1522
2950,65
2950,729
2950,3677
2951,2286
2951,4818
2952,2383
2954,2356
2956,790
2958,2212
2958,3783
2960,28
2960,799
2960,2223
2960,3844
2961,323
2961,852
2961,1732
2961,1763
2961,4287
2961,4909
2964,253
2967,340
2969,2851
2971,962
2972,1973
2973,1045
2973,4046
2973,4425
2974,694
2975,127
2975,144
2975,315
2975,521
2975,1887
2975,2096
2975,2098
2975,3314
2975,4000
2975,4106
2975,4184
2976,2169
2977,2561
2979,652
2979,3090
2980,3741
2981,279
2982,193
2984,24
2987,1045
2988,2467
2989,24
2989,144
2989,177
2989,677
2989,748
2989,964
2989,1187
2989,3788
2989,3791
2989,4286
2991,2463
2992,1949
2992,1990
2992,4615
2994,323
2994,796
2994,4086
2996,85
2996,604
2996,2948
2997,1891
2999,1821
3001,1992
3001,2217
3001,2772
3001,3107
3001,3933
3001,4512
3005,105
3005,327
3005,543
3005,619
3005,860
3005,1995
3005,2553
3005,3949
3005,4052
3007,145
3007,679
3007,2179
3007,2491
3008,2494
3009,1133
3011,1687
3012,295
3015,9
3016,958
3016,2744
3018,1886
3020,183
3021,902
3022,4041
3023,1354
3024,1052
3028,1319
3030,931
3031,799
3032,4644
3034,26
3034,1343
3036,3385
3037,887
3038,4130
3041,4157
3048,19
3048,2682
3049,18
3049,98
3049,150
3049,565
3049,904
3049,1601
3049,1619
3049,2148
3049,2212
3049,2535
3049,2819
3049,2825
3049,3189
3049,3246
3049,3443
3049,3666
3049,3768
3049,4049
3049,4058
3049,4086
3049,4795
3049,4858
3050,916
3051,2648
3053,4784
3054,956
3056,30
3056,4117
3057,2191
3058,1666
3058,4773
3059,2791
3062,4086
3063,4520
3064,2386
3065,2386
3066,4793
3067,6
3067,323
3069,1052
3071,1390
3072,916
3072,3360
3073,4117
3074,53
3075,399
3075,1031
3075,3328
3076,144
3078,2204
3078,4255
3079,756
3079,1285
3082,345
3082,392
3082,771
3083,26
3083,123
3083,124
3083,222
3083,913
3083,958
3083,1141
3083,1176
3083,1194
3083,1478
3083,1791
3083,2386
3083,2582
3083,2998
3083,3471
3083,3635
3083,3907
3083,4003
3083,4051
3083,4130
3083,4142
3083,4295
3084,2213
3085,2704
3086,1522
3088,1467
3088,4425
3089,352
3089,453
3089,1107
3089,1388
3091,493
3092,2545
3094,3506
3094,3674
3094,4237
3095,1732
3095,1974
3096,382
3100,149
3100,1598
3105,3143
3105,3740
3107,3110
3108,2753
3109,1691
3114,484
3115,1269
3117,1732
3118,4182
3118,4334
3119,4665
3120,592
3120,805
3122,1994
3124,4074
3126,756
3126,4260
3126,4875
3129,4846
3130,1224
3130,1378
3131,2460
3131,3586
3133,1053
3133,3010
3134,4640
3135,1990
3135,3665
3135,4408
3136,3299
3137,1582
3138,4591
3139,2513
3141,65
3141,2781
3142,1973
3144,342
3150,588
3150,1351
3152,123
3152,274
3152,2215
3152,4783
3154,2152
3156,2758
3157,4007
3160,1768
3162,3189
3163,2172
3163,2855
3166,77
3166,820
3166,2589
3168,2947
3170,455
3172,3246
3173,271
3173,2192
3174,217
3174,4056
3175,611
3177,222
3177,1916
3177,2060
3177,4659
3177,4971
3180,19
3180,3988
3181,6
3181,1087
3181,4194
3184,2826
3186,3548
3187,252
3189,295
3190,1346
3190,1480
3190,1564
3190,2022
3190,3002
3190,4023
3191,1393
3193,17
3193,1295
3193,1378
3193,3328
3193,3533
3195,2656
3196,3713
3197,1040
3198,1522
3198,4707
3200,160
3203,677
3204,2461
3206,212
3206,1327
3207,453
3207,1625
3210,43
3210,119
3210,419
3210,928
3210,1520
3210,1522
3210,1619
3210,1736
3210,1979
3210,3078
3210,3555
3210,3996
3210,4254
3210,4562
3211,1798
3211,3683
3212,1997
3213,222
3215,96
3217,3328
3218,33
3219,835
3223,644
3223,2938
3223,3983
3224,1081
3224,2383
3224,2400
3224,3760
3225,66
3225,312
3225,768
3225,1708
3225,2024
3225,2205
3225,2403
3225,2493
3225,3309
3225,3365
3225,4192
3225,4817
3226,935
3226,1399
3226,1798
3226,2650
3226,3926
3227,3949
3232,19
3232,3960
3233,2700
3233,3531
3234,1081
3234,4768
3235,2296
3236,247
3236,2748
3239,1360
3241,2454
3241,3728
3241,4004
3241,4175
3243,2804
3244,1360
3245,321
3245,3468
3247,958
3247,1508
3248,3964
3250,3612
3251,3002
3252,3385
3252,3518
3253,1672
3254,2962
3256,1329
3256,3972
3259,461
3263,793
3263,1812
3264,3687
3265,1257
3266,2472
3268,793
3268,2028
3269,2920
3269,3447
3271,92
3271,1365
3271,1814
3271,2203
3271,3025
3271,3323
3271,4285
3271,4309
3271,4439
3274,1947
3275,1231
3275,3090
3275,3138
3277,2858
3278,1792
3279,2592
3281,1042
3282,2545
3282,4837
3283,285
3283,352
3283,556
3283,603
3283,1407
3283,2012
3283,2363
3283,3796
3283,3915
3283,4011
3283,4145
3283,4669
3285,47
3285,77
3285,363
3285,916
3285,2516
3285,3727
3285,4157
3285,4931
3286,2541
3287,4117
3291,2202
3291,3228
3297,4668
3299,4277
3300,1151
3300,2308
3301,354
3301,490
3301,679
3301,729
3301,1595
3301,1796
3301,3000
3301,3341
3302,2030
3303,19
3303,433
3303,850
3303,1900
3303,2849
3303,3773
3310,18
3310,3284
3313,1715
3314,896
3316,610
3316,2504
3316,3199
3318,1681
3318,4020
3318,4037
3320,47
3322,4660
3324,1004
3324,1042
3324,3031
3324,4858
3325,915
3327,2473
3328,1578
3328,1994
3328,2849
3328,2885
3328,3125
3328,3417
3328,4981
3330,406
3331,1269
3332,1564
3333,1674
3334,1222
3334,3648
3335,2463
3336,66
3337,19
3337,24
3337,406
3337,867
3337,3210
3337,3385
3337,4137
3337,4365
3338,65
3339,658
3340,756
3341,121
3341,350
3341,540
3341,1061
3341,1257
3341,3774
3341,4648
3341,4873
3344,755
3346,235
3346,2101
3346,2224
3347,4452
3348,60
3348,4453
3350,504
3352,3387
3354,26
3358,19
3361,3930
3362,462
3362,1814
3363,651
3364,1682
3365,1047
3366,521
3369,1467
3370,60
3371,1423
3376,3084
3377,244
3377,4419
3379,1519
3380,3586
3381,3774
3381,4490
3383,2261
3387,1532
3389,1006
3389,1176
3391,144
3392,771
3397,2593
3398,4871
3402,918
3404,2832
3405,18
3405,105
3405,150
3405,162
3405,282
3405,644
3405,1427
3405,1627
3405,2786
3405,3249
3405,3622
3405,3763
3406,614
3406,4650
3407,746
3407,958
3409,988
3410,1574
3410,3441
3410,4652
3411,2486
3412,1996
3414,1035
3414,2920
3414,3001
3414,4224
3415,1446
3418,4798
3420,3189
3421,2083
3422,2346
3424,645
3424,2381
3424,2926
3425,1625
3426,43
3427,804
3427,3509
3428,43
3428,788
3428,1324
3432,1277
3433,3441
3434,312
3434,484
3434,587
3435,12
3436,700
3439,1745
3440,1814
3441,4265
3445,2596
3446,2264
3450,228
3451,2399
3451,4912
3452,2297
3452,3714
3452,4297
3453,2718
3454,4130
3455,159
3457,18
3457,124
3457,243
3457,279
3457,326
3457,667
3457,1244
3457,1307
3457,2283
3457,2564
3457,2746
3457,3140
3457,3483
3457,3936
3457,4724
3457,4790
3457,4880
3458,761
3459,1227
3460,215
3461,3651
3462,3476
3463,3110
3465,1064
3466,1967
3467,3687
3468,168
3468,867
3468,4110
3469,4973
3473,953
3474,3413
3475,4425
3475,4454
3476,91
3476,548
3476,4863
3477,155
3477,562
3480,640
3482,12
3484,4130
3485,4117
3486,1407
3487,700
3488,619
3488,3201
3492,552
3493,1061
3495,505
3496,3889
3496,4277
3496,4684
3498,1917
3505,262
3505,3746
3506,2378
3507,318
3507,2213
3510,2897
3511,36
3511,79
3511,186
3511,270
3511,442
3511,473
3511,679
3511,754
3511,900
3511,1081
3511,1511
3511,1699
3511,1756
3511,4395
3511,4779
3512,2386
3515,634
3516,887
3517,369
3519,4297
3520,3294
3521,677
3521,1652
3523,4086
3524,1024
3524,1746
3524,3520
3525,2990
3527,654
3529,958
3532,606
3534,414
3534,2248
3535,4
3535,3276
3536,3004
3537,3276
3538,998
3539,1044
3541,347
3541,803
3541,1042
3541,1051
3541,1508
3541,1627
3541,2207
3541,2662
3541,4387
3541,4581
3541,4931
3542,1311
3543,1546
3545,2951
3546,4117
3550,990
3554,760
3556,920
3556,2784
3557,1666
3558,757
3558,1271
3558,1683
3559,96
3559,1452
3559,1624
3559,1891
3559,2157
3559,3167
3559,3633
3559,4778
3560,823
3561,2553
3561,4892
3562,1176
3562,1990
3562,4472
3563,583
3564,190
3567,504
3568,162
3569,4895
3570,2572
3570,3721
3571,8
3571,4117
3574,3689
3577,4453
3578,1
3581,380
3582,1740
3583,1876
3584,1298
3589,2710
3590,26
3590,98
3590,178
3590,3258
3590,4905
3591,2951
3593,2549
3594,1269
3595,3605
3595,4654
3596,589
3596,1748
3597,2678
3597,4425
3598,4250
3598,4907
3601,6
3602,3031
3603,1427
3603,4973
3604,4063
3605,4425
3606,2591
3607,1006
3610,922
3610,1792
3610,2411
3610,2416
3610,4061
3611,108
3611,187
3611,1372
3612,1381
3612,1893
3612,2849
3612,3414
3613,1173
3617,4425
3620,3849
3624,700
3625,969
3625,990
3625,2283
3625,3002
3625,3924
3626,3855
3627,2668
3628,2248
3630,270
3630,1821
3630,4227
3631,3848
3632,4778
3634,2679
3636,207
3638,1732
3638,4251
3639,60
3639,331
3641,564
3641,3385
3641,3739
3642,110
3642,222
3643,108
3644,4
3644,4535
3644,4623
3644,4957
3647,140
3650,155
3650,3920
3652,43
3655,183
3655,825
3655,3240
3655,3672
3657,2754
3658,325
3659,995
3659,2527
3660,1269
3660,4012
3661,360
3661,670
3662,40
3662,737
3662,1255
3662,2462
3662,3340
3662,3781
3662,4417
3664,425
3668,75
3671,119
3671,4104
3673,140
3673,1226
3673,2787
3673,2793
3675,347
3675,3901
3676,218
3676,798
3676,1503
3676,2504
3676,4019
3676,4583
3678,221
3680,780
3680,1307
3680,2383
3684,3756
3684,4640
3685,162
3685,292
3685,793
3685,2802
3686,944
3688,133
3688,1532
3688,2801
3688,3682
3692,85
3692,361
3692,810
3692,1895
3692,3686
3695,163
3695,1271
3696,532
3698,30
3699,2832
3701,1254
3704,65
3704,271
3704,543
3704,3394
3704,4042
3705,18
3705,2748
3706,217
3706,820
3706,1360
3706,1769
3706,2354
3706,4683
3708,2152
3710,3513
3710,4428
3712,525
3712,2690
3713,520
3715,18
3715,2268
3715,4224
3715,4381
3716,295
3716,3293
3717,941
3719,1444
3719,4436
3720,1047
3721,3829
3723,1476
3723,4039
3723,4403
3725,49
3725,605
3725,700
3725,1187
3725,1394
3725,3035
3725,3294
3725,3947
3725,3987
3725,4280
3728,749
3728,1276
3728,4071
3728,4270
3729,1053
3729,2348
3729,2553
3733,340
3733,1858
3733,2213
3733,2383
3733,2549
3733,4147
3734,3566
3735,1894
3735,4005
3736,531
3736,3280
3736,3314
3736,4018
3736,4736
3737,3615
3737,4224
3740,178
3740,243
3740,486
3740,532
3740,603
3740,757
3740,840
3740,970
3740,2428
3740,2926
3740,3314
3740,3340
3742,270
3743,185
3744,156
3744,1203
3744,2383
3744,3087
3747,1521
3747,4669
3748,3520
3750,1258
3751,1185
3752,45
3752,3417
3754,543
3754,4115
3755,672
3755,1323
3755,1967
3755,2248
3755,3909
3756,3976
3756,4826
3759,26
3759,119
3759,2320
3759,2836
3759,3109
3759,3294
3762,988
3764,340
3764,4136
3765,700
3765,2234
3765,4826
3767,562
3768,3548
3769,664
3769,1574
3771,2774
3772,26
3773,3586
3774,3448
3775,4192
3776,232
3778,155
3778,255
3778,256
3778,1073
3778,1997
3778,2338
3778,2364
3778,2822
3778,3081
3778,3355
3778,3576
3778,3841
3778,3987
3778,4648
3780,3193
3782,466
3782,2286
3784,1930
3785,1528
3786,337
3786,4466
3787,4930
3792,1423
3795,3833
3798,2168
3804,340
3805,26
3806,1735
3811,4515
3813,1895
3814,354
3815,118
3815,175
3815,1195
3815,2660
3815,4640
3817,491
3817,1574
3820,262
3820,1004
3820,1700
3820,1735
3821,185
3822,1902
3822,3417
3822,3616
3822,4707
3823,30
3823,222
3823,295
3823,386
3823,538
3823,788
3823,1081
3823,1478
3823,2038
3823,3172
3823,4103
3823,4329
3824,48
3825,18
3826,4416
3828,4932
3829,2440
3830,185
3830,2221
3830,4748
3831,3681
3832,716
3833,2800
3833,3587
3834,315
3834,1030
3834,2753
3834,3653
3834,4103
3834,4213
3834,4784
3835,480
3835,958
3835,1407
3835,1879
3835,2386
3835,2652
3835,3020
3835,3083
3835,4425
3836,144
3836,737
3836,4214
3837,2656
3837,2908
3837,2968
3837,3328
3837,3483
3837,3651
3838,1186
3842,2242
3842,3995
3843,392
3847,1618
3848,1551
3849,1618
3850,683
3852,1528
3856,2545
3857,3293
3858,4176
3858,4439
3859,1621
3859,3093
3862,983
3862,1063
3862,1156
3862,1992
3862,3138
3862,4086
3862,4184
3863,228
3864,3110
3864,4365
3865,637
3866,3783
3868,3020
3870,1564
3872,1376
3872,4420
3873,2212
3874,3774
3875,6
3876,803
3876,3031
3879,2473
3883,340
3883,2217
3884,185
3885,743
3885,818
3885,1753
3885,4130
3886,75
3888,4520
3889,1049
3889,4261
3890,340
3891,1004
3891,2780
3892,1494
3892,4657
3893,541
3895,655
3895,726
3895,3205
3895,4265
3895,4452
3895,4630
3898,537
3898,3158
3898,4061
3899,644
3899,1997
3900,4094
3900,4416
3901,371
3901,752
3902,677
3902,2120
3904,299
3904,931
3904,1377
3905,496
3906,3374
3908,2177
3911,1622
3911,2845
3912,1634
3912,3448
3915,4499
3916,437
3918,14
3921,2801
3921,4435
3922,4489
3924,3179
3925,1891
3926,4266
3927,683
3928,1
3928,570
3928,581
3929,2261
3932,1040
3935,1407
3937,3755
3938,4007
3941,4520
3942,3667
3943,1073
3950,2758
3950,4363
3951,1030
3952,134
3952,153
3954,187
3954,1641
3954,2304
3954,2394
3954,3782
3955,1176
3956,1303
3957,3103
3960,847
3960,1422
3963,790
3966,2176
3966,2378
3967,4416
3968,1053
3969,3138
3971,43
3971,1443
3971,3138
3971,3734
3971,4735
3973,3083
3975,3533
3976,1359
3977,3584
3979,247
3980,1430
3981,2496
3982,142
3984,1775
3987,1442
3987,2670
3989,4011
3990,255
3990,257
3990,1040
3990,4192
3990,4580
3991,1841
3992,2453
3994,226
3994,1478
3998,4544
4000,166
4001,1635
4002,4970
4006,1876
4007,1501
4008,1376
4008,2191
4009,237
4010,53
4010,663
4010,2090
4011,2354
4014,262
4014,644
4014,1047
4014,2604
4014,3118
4014,3304
4014,4597
4015,1324
4015,4570
4016,3
4016,6
4016,53
4016,66
4016,183
4016,233
4016,323
4016,493
4016,652
4016,683
4016,776
4016,869
4016,950
4016,1001
4016,1040
4016,1048
4016,1186
4016,1211
4016,1269
4016,1298
4016,1331
4016,1366
4016,1399
4016,1518
4016,1628
4016,1835
4016,1842
4016,1973
4016,2277
4016,2589
4016,2998
4016,3144
4016,3289
4016,3565
4016,4138
4016,4178
4016,4221
4016,4499
4018,893
4018,1767
4018,2133
4018,4433
4021,1700
4021,1814
4021,2652
4022,270
4025,19
4025,1348
4025,2242
4026,2916
4029,564
4031,1002
4031,1360
4035,340
4036,793
4036,2033
4038,84
4042,24
4042,26
4047,1061
4047,4073
4048,33
4048,124
4048,222
4048,838
4048,4086
4048,4793
4049,229
4049,1409
4050,820
4053,1
4053,548
4053,910
4053,1277
4053,3449
4055,1378
4059,2395
4059,3060
4063,749
4064,748
4065,153
4065,686
4065,2383
4066,3714
4066,4068
4069,2112
4070,5
4070,1552
4070,4117
4072,3232
4075,268
4077,48
4078,1662
4078,1693
4078,3052
4079,608
4079,3067
4080,3185
4081,970
4084,2493
4086,1132
4087,145
4090,1876
4091,1511
4092,896
4094,2624
4095,3153
4098,380
4100,30
4101,1186
4105,3185
4107,382
4108,3026
4109,2041
4111,3026
4111,3293
4111,3335
4112,2351
4113,1211
4113,1973
4113,2054
4113,4416
4114,193
4114,3783
4116,866
4116,3414
4116,3949
4118,2033
4118,4023
4119,19
4120,3250
4120,3629
4121,537
4124,7
4124,2257
4124,2469
4124,2549
4124,3950
4127,119
4128,162
4128,283
4128,473
4128,677
4129,2223
4130,207
4130,4986
4133,519
4135,2575
4136,4668
4137,18
4137,4442
4139,1270
4140,2816
4142,3897
4143,1153
4145,19
4145,380
4145,382
4145,752
4145,849
4145,1132
4145,1574
4145,3483
4145,3687
4145,4041
4146,1540
4148,1555
4149,1222
4149,4231
4150,4783
4151,143
4152,700
4153,3646
4154,65
4154,133
4154,140
4154,316
4154,589
4154,702
4154,876
4154,1615
4154,1760
4154,1817
4154,1969
4154,2583
4154,2766
4154,2938
4154,3400
4154,4074
4154,4261
4154,4543
4154,4783
4155,1319
4156,2215
4158,3550
4158,3949
4159,4931
4161,1004
4162,2883
4163,3694
4164,3782
4165,2383
4167,772
4169,1327
4170,4
4171,244
4171,354
4171,1415
4171,1721
4171,2021
4171,2887
4171,4335
4171,4926
4172,4081
4172,4738
4173,343
4173,865
4173,1229
4173,1311
4173,1618
4173,2242
4173,2338
4173,3179
4173,3682
4173,4491
4175,1667
4175,3891
4176,177
4176,1670
4176,1736
4177,581
4177,1720
4181,1133
4182,154
4182,1660
4182,2191
4183,775
4184,490
4186,1608
4187,2250
4188,531
4188,1077
4188,2620
4188,4806
4191,4073
4192,621
4192,911
4192,1149
4192,1197
4193,3849
4195,1053
4197,1227
4198,782
4199,18
4199,2575
4200,154
4201,2580
4203,2868
4205,438
4205,1687
4205,1768
4205,3311
4205,3314
4205,4868
4206,1155
4206,3960
4208,958
4208,1473
4209,1586
4210,321
4214,2179
4214,2675
4216,144
4216,700
4216,886
4216,1141
4216,1504
4216,1506
4216,2832
4216,3774
4217,3002
4218,187
4218,4547
4218,4770
4219,1941
4219,2925
4220,6
4220,18
4220,43
4220,48
4220,136
4220,210
4220,376
4220,483
4220,548
4220,1001
4220,1376
4220,1559
4220,1736
4220,1748
4220,1960
4220,2324
4220,2426
4220,3277
4220,3419
4220,3532
4220,3706
4220,4626
4220,4640
4222,4224
4224,159
4224,3600
4225,3001
4229,1227
4232,1057
4233,3
4233,1886
4233,2135
4233,3766
4234,3147
4235,1319
4235,2072
4235,2138
4235,4903
4236,1325
4236,2627
4236,3081
4239,3152
4240,4035
4241,1684
4241,2869
4242,459
4243,52
4243,133
4243,146
4243,1411
4243,1420
4243,1693
4243,2022
4243,2378
4243,2501
4243,2683
4243,3365
4243,3557
4243,3774
4243,4551
4243,4666
4244,1073
4244,1180
4244,3441
4245,1343
4246,2596
4248,462
4249,527
4249,816
4249,4444
4251,346
4251,385
4251,927
4251,1944
4251,2218
4251,2479
4251,2518
4251,3255
4251,3281
4251,3388
4251,3483
4251,3645
4251,3950
4251,4196
4251,4436
4253,530
4256,990
4256,1950
4256,2572
4257,2704
4259,364
4264,75
4264,4231
4266,12
4266,47
4266,210
4266,253
4266,564
4266,575
4266,577
4266,685
4266,927
4266,1294
4266,1814
4266,2464
4266,3674
4266,4252
4266,4492
4267,9
4267,18
4267,47
4267,270
4267,345
4267,544
4267,1018
4267,1077
4267,1422
4267,1559
4267,2411
4267,3639
4267,3670
4267,4495
4267,4594
4268,3700
4269,219
4272,535
4273,108
4273,4068
4274,896
4279,500
4279,1800
4280,459
4280,524
4280,602
4280,2617
4280,2927
4280,3006
4280,4436
4280,4835
4281,19
4282,1149
4283,2920
4284,256
4285,155
4287,1132
4287,1782
4289,3201
4290,1240
4291,97
4291,743
4291,3926
4291,4297
4292,2847
4294,796
4294,2549
4296,2096
4296,4358
4297,232
4297,3304
4298,218
4298,397
4298,591
4298,716
4298,761
4298,805
4298,1064
4298,1124
4298,1934
4298,1993
4298,2090
4298,4399
4298,4555
4298,4707
4300,37
4300,3189
4301,804
4301,963
4301,1625
4302,315
4303,446
4304,1505
4305,1040
4306,484
4308,2463
4310,279
4311,43
4312,26
4312,172
4312,512
4312,1080
4312,1916
4312,2754
4313,1030
4314,4086
4316,1002
4316,2703
4317,3585
4319,3963
4321,869
4322,2033
4323,26
4324,4090
4324,4883
4325,369
4327,3195
4329,501
4329,583
4329,1014
4329,1089
4329,1155
4329,1203
4329,1233
4329,1339
4329,1683
4329,1742
4329,2160
4329,2759
4329,3483
4329,4945
4335,156
4336,3424
4337,252
4337,1294
4340,4389
4340,4774
4341,1281
4342,193
4343,4261
4344,3143
4346,4293
4347,543
4349,1089
4350,524
4350,1351
4350,1950
4350,3242
4351,3849
4352,2841
4354,1894
4355,3923
4359,1945
4359,2346
4361,4297
4364,1969
4366,1896
4367,3499
4368,369
4371,4970
4372,988
4373,1608
4376,2383
4378,1830
4380,847
4382,583
4382,817
4382,956
4382,4412
4384,215
4385,253
4388,3681
4389,3193
4390,285
4390,1716
4391,782
4393,2753
4396,372
4397,3926
4399,4086
4400,590
4400,2538
4400,2748
4400,3344
4400,3830
4400,4275
4405,3801
4406,958
4406,1392
4406,3185
4406,4333
4406,4782
4407,1955
4409,2411
4409,4968
4410,4907
4413,703
4414,351
4414,427
4414,1414
4414,2613
4415,644
4416,1990
4417,193
4417,719
4418,658
4424,2855
4424,3182
4427,3292
4429,4136
4429,4483
4430,32
4430,177
4430,1062
4430,1317
4430,2563
4430,2719
4430,3815
4433,96
4438,1761
4438,2940
4438,4428
4440,255
4440,382
4440,1417
4440,2660
4440,2810
4440,3703
4440,4848
4440,4960
4440,4986
4443,1241
4446,2123
4448,896
4449,2995
4450,4011
4452,644
4454,153
4454,790
4454,1037
4454,2654
4454,3929
4458,1624
4459,922
4460,1887
4461,2683
4464,1137
4464,4690
4465,820
4467,658
4467,3193
4467,4180
4469,644
4469,797
4469,1673
4469,1763
4469,2869
4470,4339
4471,1133
4473,136
4473,1833
4473,3849
4473,4060
4476,2380
4478,997
4478,2336
4479,756
4481,3388
4482,4224
4485,4042
4485,4821
4487,2855
4488,1570
4490,43
4490,363
4490,4654
4491,804
4491,2786
4491,3365
4493,529
4496,53
4496,2679
4497,1625
4498,1153
4499,218
4499,604
4499,906
4499,1062
4499,1324
4499,1622
4499,1882
4499,3643
4499,4644
4500,1624
4501,536
4501,1618
4501,2163
4501,4297
4502,4071
4503,270
4503,3741
4505,271
4505,3444
4506,904
4508,1288
4510,438
4510,1751
4510,1826
4512,2707
4513,1081
4513,4086
4513,4212
4514,2652
4515,66
4515,4425
4516,406
4517,607
4518,1116
4519,2575
4522,2172
4523,23
4525,803
4525,1505
4525,2626
4527,865
4527,949
4527,1551
4527,2571
4527,2832
4527,3674
4528,1211
4528,3262
4528,4846
4530,133
4531,1430
4533,1325
4533,4414
4536,1533
4537,1467
4538,295
4538,920
4540,553
4540,1269
4540,3349
4540,4958
4542,1925
4545,1319
4545,3345
4546,4722
4548,647
4550,232
4550,2682
4550,4534
4555,608
4555,619
4555,1855
4555,4145
4556,101
4557,1133
4558,1165
4559,589
4560,644
4561,369
4564,1193
4565,37
4565,45
4565,60
4565,315
4565,1073
4565,1716
4565,2054
4565,2180
4565,3250
4565,4707
4567,4224
4568,3054
4568,4144
4570,2704
4573,244
4573,570
4573,998
4573,1522
4573,1654
4573,2241
4574,4557
4575,535
4575,1255
4576,3600
4577,119
4579,2213
4580,644
4581,2571
4583,4005
4584,953
4584,2027
4585,2164
4586,3044
4587,1559
4587,4494
4589,4857
4591,4357
4592,253
4595,1241
4596,597
4596,4408
4598,69
4599,1080
4600,4486
4602,791
4603,2567
4603,4499
4604,2386
4604,3658
4604,4757
4605,3153
4606,962
4606,3326
4608,3328
4609,1324
4610,4887
4611,193
4612,1697
4613,756
4616,1307
4617,30
4618,772
4632,218
4633,4231
4634,1104
4634,1828
4634,3652
4636,2652
4637,32
4639,3679
4640,1601
4640,4906
4641,24
4644,149
4644,340
4644,831
4644,1073
4644,1255
4644,1592
4644,1700
4644,2112
4644,2242
4644,2659
4644,3315
4644,3759
4644,4748
4645,4621
4646,2876
4647,1030
4649,532
4649,1073
4649,1628
4649,1798
4649,3365
4650,75
4650,1161
4651,227
4653,433
4654,22
4654,156
4654,240
4654,258
4654,371
4654,782
4654,980
4654,1097
4654,1216
4654,1372
4654,1449
4654,1857
4654,2229
4654,2383
4654,2452
4654,2510
4654,3455
4654,3526
4654,3741
4654,3854
4654,4131
4654,4694
4655,2547
4656,1196
4660,3230
4660,4297
4660,4573
4664,707
4664,1565
4664,1897
4664,2378
4664,3633
4664,3950
4664,4984
4665,3983
4667,1116
4673,1324
4674,4784
4675,3765
4676,2094
4679,19
4679,746
4679,2487
4679,3677
4679,4219
4681,1271
4682,4491
4683,2836
4686,3123
4687,126
4687,522
4688,755
4688,1985
4688,3713
4691,30
4696,2897
4697,677
4697,1148
4697,1297
4697,2691
4697,3874
4697,4661
4698,1558
4698,1699
4699,65
4699,1548
4699,2290
4699,3219
4699,4770
4700,3169
4701,3926
4704,2184
4704,2362
4704,2811
4706,187
4708,1449
4709,519
4709,3532
4710,312
4712,820
4712,2383
4715,4552
4717,1642
4718,3189
4718,4817
4719,2791
4721,3143
4723,26
4724,700
4727,327
4728,3609
4730,283
4730,490
4730,1018
4730,1156
4730,1227
4730,4254
4730,4817
4732,855
4734,350
4734,3241
4734,3682
4740,748
4740,4776
4742,3328
4743,1427
4744,108
4746,3232
4747,347
4748,185
4748,2201
4749,904
4749,1763
4750,385
4751,2508
4752,1763
4753,2096
4754,532
4755,4570
4756,1271
4756,2667
4756,3551
4759,1808
4759,4748
4760,996
4760,1360
4760,1465
4760,1693
4760,1966
4760,2261
4760,4730
4761,1835
4762,2213
4762,2623
4764,2689
4766,4969
4767,262
4767,1622
4768,1362
4768,2292
4768,2504
4769,340
4771,2480
4772,154
4772,708
4772,1323
4772,1686
4772,1876
4777,392
4780,3
4785,3931
4786,340
4787,3508
4791,1118
4792,1478
4794,166
4797,1622
4799,1652
4800,3384
4802,4192
4803,3483
4803,3548
4804,1608
4805,4557
4808,26
4808,166
4808,634
4808,750
4808,788
4808,896
4808,932
4808,1295
4808,1401
4808,1559
4808,1806
4808,2272
4808,2497
4808,3189
4808,3340
4808,3713
4808,3961
4808,4061
4808,4424
4808,4810
4809,101
4809,664
4811,2679
4812,207
4812,934
4813,4439
4816,369
4817,1060
4820,23
4822,323
4822,2365
4822,2813
4822,4931
4823,18
4823,910
4825,3630
4827,2698
4830,1474
4833,793
4834,3055
4835,2308
4836,2817
4838,43
4840,3999
4841,1508
4841,2844
4842,2083
4842,2372
4843,3
4843,125
4843,340
4843,2759
4843,2978
4844,748
4847,1241
4847,2169
4849,3099
4849,4176
4850,1255
4852,140
4852,218
4852,634
4852,4484
4854,4245
4855,3763
4856,3882
4857,983
4857,987
4857,1021
4857,1899
4857,2593
4857,3075
4857,4582
4860,1049
4861,383
4862,1222
4864,4748
4865,3081
4866,486
4867,519
4869,3303
4869,4136
4871,476
4875,2188
4876,3328
4878,119
4879,2438
4879,3483
4879,3746
4881,468
4885,1546
4886,4402
4888,4564
4889,460
4889,644
4889,1519
4889,1701
4889,1939
4889,4370
4889,4798
4890,1037
4890,1722
4890,2698
4890,4784
4892,3060
4894,3792
4895,527
4896,1798
4896,3178
4898,1259
4900,4596
4901,2276
4902,4210
4903,66
4904,703
4907,4086
4911,1360
4913,1598
4914,664
4915,2181
4916,1511
4917,1185
4918,1858
4919,2871
4920,222
4920,4907
4922,719
4923,703
4924,573
4924,2223
4925,3506
4927,2203
4928,3972
4929,564
4929,1037
4929,1116
4929,2160
4932,249
4933,4521
4934,1381
4935,1623
4936,273
4936,4499
4939,1279
4941,3960
4942,1372
4942,4823
4946,1060
4949,1222
4951,249
4952,1618
4952,2947
4953,433
4955,262
4956,39
4956,540
4956,3091
4956,3138
4958,4871
4959,4
4959,1586
4959,1944
4959,2034
4959,2998
4960,1033
4960,2356
4960,4245
4961,3390
4962,1272
4965,3883
4966,1760
4967,3609
4970,140
4973,4760
4974,1624
4975,155
4975,514
4975,2184
4975,2406
4975,4425
4980,154
4980,4062
4981,3917
4982,827
4983,1414
4988,19
4989,2456
4990,162
4991,1337
4991,1742
4993,2475
4994,4348
4995,700
4996,1997
4997,3294
4999,679
