src,dst
0,1
0,138
0,287
0,928
0,965
0,988
0,1143
0,1434
0,3567
0,3648
4,662
4,2199
5,3831
5,4069
5,4500
6,145
6,1785
6,2150
6,2278
6,3889
6,4145
6,4829
7,481
7,604
7,1065
7,1068
7,1087
7,2112
7,3207
7,4350
8,2
8,180
8,199
8,396
8,406
8,431
8,449
8,608
8,657
8,664
8,717
8,1112
8,1121
8,1126
8,1307
8,1400
8,1423
8,1489
8,1556
8,1667
8,1828
8,1844
8,2246
8,2584
8,2655
8,2766
8,2777
8,3390
8,3600
8,3751
8,3758
8,4722
8,4968
10,84
10,170
10,909
10,972
10,1393
10,1833
10,3158
10,3851
11,357
11,1084
11,1651
11,4165
18,2
18,166
18,259
18,392
18,460
18,541
18,631
18,809
18,1433
18,1698
18,1959
18,2115
18,2248
18,4185
18,4607
18,4982
20,197
20,1059
20,3712
21,42
21,201
21,209
21,659
21,842
21,1029
21,1072
21,1239
21,1949
21,2003
21,2380
21,2785
21,3476
21,3643
21,3814
21,3995
21,4085
21,4761
22,435
22,3010
23,619
23,798
23,1905
23,2788
23,3334
23,4873
26,778
26,1274
27,468
28,376
28,425
28,474
28,542
28,2775
28,2813
28,2834
28,3685
28,3814
28,4206
28,4722
29,1248
29,4444
30,691
30,3703
31,3596
37,4185
38,40
38,322
38,522
38,1818
38,2097
38,2116
38,2890
38,3217
38,3267
38,3509
41,407
41,4704
43,36
43,216
43,366
43,684
43,988
43,1040
43,1168
43,1792
43,2326
43,3908
43,4064
43,4429
44,319
44,951
44,983
44,994
44,1737
44,2354
44,2728
44,2987
44,3082
44,3579
44,4579
45,98
45,525
45,1511
45,2016
45,3718
45,4537
46,149
46,223
46,253
46,276
46,404
46,425
46,436
46,1138
46,1360
46,4324
47,3010
47,4185
48,1433
48,2080
48,2094
48,2368
48,3486
48,4433
48,4576
49,119
49,182
49,373
49,400
49,800
49,857
49,1114
49,1280
49,1539
49,1778
49,1805
49,1826
49,1911
49,2037
49,2114
49,2388
49,3751
49,4662
49,4812
50,40
50,143
50,629
50,926
50,1336
50,1486
50,1515
50,1830
50,2372
50,2415
50,2436
50,2753
50,2850
50,2937
50,3327
50,3369
50,4439
50,4899
54,1691
56,108
56,896
56,963
56,4500
60,300
60,408
60,436
60,694
60,787
60,980
60,988
60,1312
60,1316
60,1454
60,1913
60,2318
60,2429
60,2613
60,3439
60,3512
60,4078
60,4672
60,4902
61,145
61,1522
61,2295
63,2824
63,4228
68,578
68,1018
68,1980
68,2046
68,2258
68,2898
68,3596
70,4786
71,2
71,180
71,907
71,2050
71,2318
71,2576
71,2595
71,3355
71,3467
71,4384
71,4700
72,64
72,456
72,604
72,782
72,2394
72,3832
72,3908
72,4169
73,122
73,211
73,265
73,325
73,358
73,869
73,920
73,1030
73,1082
73,1154
73,1203
73,1267
73,1280
73,2100
73,3280
73,3337
73,3619
73,3863
73,4177
73,4181
74,612
74,2437
74,2924
74,4588
74,4694
75,613
75,906
75,4194
76,3970
79,4768
80,15
80,414
80,813
80,823
80,1160
80,4755
81,587
81,1822
81,2499
82,300
82,4177
82,4500
83,489
83,514
83,1668
83,1843
83,2335
85,128
85,442
85,525
85,1022
85,1658
85,1996
85,2016
85,2106
85,3853
85,3873
85,4180
85,4384
86,87
86,579
86,2596
89,2963
90,256
90,1161
91,3351
91,4252
93,619
93,1869
93,2596
93,2889
93,3758
93,4056
94,3
94,1570
94,1626
94,1804
94,3054
94,3739
94,4331
95,3
95,1830
95,3293
96,1047
97,53
97,823
97,3916
99,848
99,2550
100,181
100,214
100,224
100,342
100,569
100,575
100,1091
100,1224
100,1916
100,2016
100,2785
100,2965
100,3425
100,3751
100,3761
100,3796
100,4206
100,4384
100,4447
101,599
101,3438
101,4322
101,4384
104,233
104,256
104,662
104,1126
104,1721
104,1973
104,2386
104,2465
104,3911
104,4893
105,1907
106,32
106,209
106,367
106,424
106,1576
106,1668
106,1819
106,2278
106,2384
106,2395
106,2813
106,3034
106,3620
106,3741
106,4650
107,39
107,979
107,3372
107,3450
108,802
109,3390
109,4257
111,322
111,326
111,358
111,451
111,496
111,1415
111,2156
111,3390
111,3600
113,4257
115,16
115,318
115,575
115,593
115,963
115,1015
115,1058
115,2829
115,3167
115,3201
116,33
116,40
116,79
116,200
116,338
116,343
116,400
116,439
116,453
116,582
116,699
116,728
116,901
116,1172
116,1409
116,1453
116,1611
116,2361
116,2484
116,2544
116,2744
116,3235
116,3602
116,3712
116,4121
116,4293
116,4434
116,4948
117,755
117,3773
117,4435
119,4062
121,809
121,4438
125,38
125,1059
125,1110
125,1485
125,1496
125,1520
125,2969
125,3057
125,3801
126,143
126,3141
127,684
127,977
127,1533
127,3110
127,4022
127,4229
127,4725
129,40
129,229
129,1395
131,78
131,344
131,357
131,600
131,682
131,732
131,922
131,1434
131,1549
131,2280
131,2753
131,2985
131,3772
131,3889
131,4719
132,2111
132,3776
133,1830
133,3983
133,4093
135,2179
135,3939
136,366
136,977
136,2050
136,2731
136,2846
136,3238
136,4940
137,4705
139,2326
139,4037
140,55
140,150
140,326
140,336
140,514
140,525
140,1157
140,1765
140,1989
140,2255
140,2502
140,3369
140,3863
142,471
142,3579
142,4180
144,4253
147,481
147,735
147,860
147,1423
147,2955
147,3190
147,3341
147,3772
147,4993
148,734
148,949
148,4361
148,4495
149,345
149,991
149,2007
149,3338
149,3749
149,3959
149,4074
151,189
151,761
151,1177
151,2725
151,4384
152,1363
152,3701
153,219
153,298
153,1065
153,2106
153,2673
153,3184
153,3985
153,4806
154,141
154,221
156,1246
156,1497
156,3752
156,3906
158,613
158,1937
158,4360
160,78
160,630
160,944
160,947
160,1087
160,1789
160,2520
160,2789
160,2952
160,3501
160,4074
160,4231
162,301
162,357
163,181
163,1907
163,4801
165,603
165,610
165,1282
165,3705
166,363
166,568
166,703
166,1213
166,1749
166,1892
166,2257
166,2378
166,3097
166,3672
166,3889
166,4096
168,2626
168,2873
168,2904
168,4006
168,4048
169,1241
169,1964
169,2972
169,4481
169,4655
170,40
170,265
172,4777
174,1865
174,3327
174,3733
174,4754
178,593
178,2324
178,2400
178,4758
182,244
182,409
182,417
182,1369
182,2511
182,2704
182,3889
182,4126
184,658
186,2756
187,190
187,976
187,1996
187,2785
191,1168
191,1913
192,1907
192,2018
193,59
193,387
193,430
193,1666
193,2513
193,3205
193,3474
195,44
195,3059
195,3751
196,22
196,3114
196,3603
197,40
197,441
197,694
197,1074
198,40
198,84
198,2829
198,2898
198,3599
198,4316
200,1725
202,59
202,95
202,222
202,315
202,547
202,883
202,1637
202,2170
202,2223
202,2898
202,3373
202,3512
202,3616
202,3722
202,3817
202,3889
202,4434
202,4477
203,2424
203,4037
203,4074
204,2094
205,237
205,262
205,513
205,582
205,1410
205,1689
205,3703
205,4865
206,713
206,2969
207,599
207,641
207,775
207,917
207,1239
207,1327
207,1393
207,2270
207,2502
207,3634
207,4338
207,4464
207,4500
212,1
212,119
212,209
212,353
212,429
212,916
212,1166
212,1387
212,1830
212,2272
212,2635
212,2686
212,2695
212,3234
212,3922
212,4182
212,4268
212,4447
213,4638
216,39
216,411
216,456
216,677
216,858
216,920
216,1091
216,1152
216,1500
216,1581
216,1878
216,2199
216,2542
216,2802
216,2855
216,3486
216,3519
216,3865
216,4022
216,4195
216,4323
216,4359
216,4882
216,4930
220,32
220,327
220,613
220,924
220,1047
220,1091
220,1169
220,1295
220,1369
220,1619
220,1802
220,1811
220,1894
220,1980
220,2785
220,2937
220,2973
220,3164
220,3310
220,3457
220,3613
220,4069
220,4873
228,476
228,1109
228,1363
228,2496
228,4224
228,4722
230,1178
230,1322
230,2037
230,3285
230,3348
230,3812
231,357
231,3204
231,4592
231,4877
232,388
232,835
232,1257
232,1907
232,2248
232,3372
232,3908
232,4893
234,2
234,1566
234,1784
234,1892
234,2010
234,2345
234,3863
234,4807
235,1015
235,3769
236,1496
236,2281
236,3997
239,334
239,350
239,397
239,457
239,461
239,637
239,934
239,1126
239,1709
239,2045
239,2460
240,170
240,181
240,256
240,450
240,612
240,660
240,917
240,1078
240,1081
240,1533
240,1696
240,2271
240,4107
240,4231
241,1959
245,132
245,392
246,132
246,215
246,346
246,664
246,743
246,997
246,1095
246,1248
246,1500
246,1668
246,1947
246,1980
246,2096
246,2306
246,2312
246,2318
246,2381
246,2452
246,2596
246,2686
246,3448
246,3527
246,3549
246,3748
246,3908
246,4712
247,182
247,358
247,3741
247,4174
248,934
248,3135
248,3845
248,4245
248,4338
249,578
249,2417
249,3512
250,155
250,358
250,512
250,610
250,1274
250,1336
250,1778
250,2200
250,4185
250,4310
251,4489
253,171
253,980
253,1280
253,1351
253,1438
253,1489
253,1772
253,2498
253,3025
253,3457
253,3655
253,3751
253,4727
254,1
255,143
255,582
258,40
258,355
258,356
258,421
258,1646
258,2785
258,2886
258,3703
258,4916
261,1698
261,2874
263,525
263,1626
263,1982
263,2617
264,1485
264,3894
266,321
266,752
266,1579
266,1973
266,4822
268,435
268,578
268,1339
268,1833
268,1981
268,2474
268,2627
268,2993
268,3222
268,3814
269,1283
269,2392
269,3358
270,40
270,53
270,291
270,391
270,825
270,924
270,2243
270,2464
270,3074
270,3166
270,3404
270,4074
270,4229
270,4306
270,4539
270,4736
270,4853
270,4927
271,1527
271,3573
272,214
273,3097
273,4876
275,1400
279,530
279,1786
279,3395
280,23
280,36
280,66
280,1900
280,2873
280,3358
280,4111
280,4384
281,55
281,530
281,2391
281,3360
282,79
282,1167
282,1337
282,2777
282,3712
283,988
285,425
285,1192
285,1411
285,1466
285,2785
286,611
286,1298
286,4199
289,143
289,284
289,3348
290,336
290,684
290,797
290,912
290,1402
290,1481
290,2332
290,2845
290,2891
290,3224
290,3679
292,1390
292,3773
294,119
294,575
294,584
294,1381
294,1828
294,2550
294,3209
294,3327
294,4217
294,4876
295,361
295,1919
295,3192
296,175
296,276
296,530
296,1115
296,1651
296,2407
296,3390
296,4890
297,343
297,514
297,1386
297,4552
298,425
298,1570
298,4190
303,411
303,571
303,1286
303,1717
303,3014
304,468
304,782
304,1429
304,3409
308,338
308,1185
308,2981
309,302
310,4280
311,112
311,120
311,174
311,511
311,1023
311,1225
311,1383
311,1804
311,2327
311,2366
311,3639
311,4473
312,206
312,3658
316,2
316,1421
316,1669
316,2021
316,2753
316,2937
316,3012
316,3097
316,3304
316,4280
317,757
317,2140
317,2769
317,2898
319,4073
319,4592
320,16
320,2513
322,3692
323,2159
323,2213
323,3131
326,123
326,132
326,171
326,181
326,194
326,224
326,267
326,274
326,585
326,902
326,1007
326,2522
326,2877
326,3761
326,3997
326,4185
328,132
328,477
328,1232
328,1830
328,2949
328,2961
329,67
329,681
330,2
330,565
330,766
330,1295
330,1298
330,1481
330,2319
330,3449
330,3973
330,4873
331,2452
332,321
332,766
332,1304
332,1667
332,3995
333,181
333,1001
333,2456
333,3144
333,3864
335,122
335,220
335,1569
335,1913
335,3722
335,4648
337,19
337,345
337,356
337,359
337,547
337,569
337,965
337,1030
337,1148
337,2062
337,2664
337,3363
337,3724
337,4796
339,64
339,3308
341,318
341,3738
347,146
347,802
347,943
347,1302
347,1501
347,2417
347,2750
347,2875
347,3629
347,3885
347,4062
347,4682
347,4978
348,4544
349,213
349,361
349,482
349,700
349,771
349,1386
349,1400
349,1465
349,1813
349,2016
349,2785
349,2897
349,3843
349,4001
349,4130
350,67
350,2937
352,461
352,1853
352,2273
352,2427
352,3908
352,4735
353,1058
353,2899
360,3042
364,299
365,22
365,222
365,299
365,468
365,1045
365,1350
365,1356
365,1382
365,1434
365,2309
365,2667
365,2753
365,2882
365,3220
365,3415
365,3438
365,3566
365,3605
365,3665
365,3677
365,3782
366,284
366,306
366,1302
366,2050
366,2368
367,342
367,442
367,1575
368,268
368,2101
368,3722
368,3924
370,1861
370,1995
371,1009
371,3233
371,4913
372,3250
372,3631
374,215
374,858
374,2209
374,2450
374,3789
375,158
375,4507
379,530
379,912
379,4539
380,453
380,2563
380,4738
381,711
381,1296
381,2176
381,2179
381,3107
381,3308
382,773
382,1488
382,2268
382,2374
382,3467
383,2
383,359
383,890
383,1428
383,1842
383,1980
383,3220
383,3504
383,3579
383,4540
384,1080
384,1577
384,1698
384,1799
384,2497
384,2546
384,2781
384,4415
385,57
385,457
385,2068
385,2453
385,2577
385,2922
385,3308
385,3828
385,3829
385,4749
385,4863
386,1521
386,2753
386,3143
386,4246
386,4465
386,4893
389,1949
389,3611
395,4280
398,367
398,637
398,2713
398,3390
398,3898
399,1789
399,2094
399,2326
399,2557
399,3225
399,4180
399,4738
399,4777
401,381
401,578
401,1249
401,3724
402,119
402,1348
402,1453
402,2749
402,2849
402,3467
402,3627
402,4747
403,404
403,1485
403,2958
405,36
406,2
406,496
406,1624
407,42
407,2437
407,3436
408,1497
412,442
412,734
412,914
412,1514
412,2128
412,2753
412,2969
412,3389
412,4780
413,110
413,122
413,265
413,273
413,461
413,499
413,682
413,746
413,778
413,1631
413,1717
413,1951
413,2367
413,2454
413,2553
413,2586
413,3089
413,3351
413,3467
413,4085
413,4317
413,4777
413,4989
415,759
415,1218
415,2457
415,2805
415,3069
415,3221
417,273
417,2410
417,2566
417,3327
417,3637
418,122
418,1576
419,15
419,175
419,489
419,682
419,4009
419,4876
420,617
420,2650
420,3417
421,238
421,967
421,2723
421,3072
421,3691
422,24
422,120
422,177
422,344
422,463
422,481
422,606
422,637
422,1082
422,1084
422,1217
422,1236
422,1348
422,1485
422,1720
422,1818
422,2041
422,2850
422,3831
422,3983
422,4987
423,23
423,3486
425,256
426,182
426,432
426,1184
426,1200
426,2026
426,2597
426,3615
426,4249
426,4297
426,4299
426,4722
428,392
434,2416
434,2587
437,1299
437,1684
437,3165
437,3531
437,3846
437,4045
437,4236
438,343
438,657
438,1965
439,243
439,293
439,920
439,2550
439,4374
439,4864
441,53
441,4126
443,168
443,274
443,723
443,1265
446,3468
448,742
448,1967
448,3975
448,3983
451,78
452,851
452,1927
452,2753
454,1070
454,2808
455,176
455,600
455,638
455,655
455,662
455,979
455,1316
455,1593
455,1676
455,1959
455,2936
455,3086
455,3951
455,4398
456,4165
456,4253
459,357
459,2877
459,3256
459,4640
462,238
462,1286
464,13
464,3427
464,3907
466,215
466,273
466,552
466,1423
466,1483
466,1539
466,1717
466,2781
466,3364
466,4126
466,4206
466,4582
466,4902
469,657
469,1298
469,3043
469,4479
470,60
470,1533
471,361
471,622
471,1302
471,1695
471,1828
472,605
472,3540
472,4384
473,469
473,949
473,959
473,1629
473,2411
473,3010
473,3338
475,742
475,1065
475,3832
476,158
479,3417
480,2019
481,1524
481,1538
481,2164
481,3338
481,3654
485,445
485,3090
486,3390
486,3751
486,3769
488,4624
489,161
489,442
489,1436
489,1778
489,3966
490,27
491,1481
492,145
492,547
492,870
492,919
492,2039
492,2636
492,3699
493,2597
493,3648
494,525
494,579
494,1020
494,2571
494,3939
497,2524
497,3529
497,4688
497,4822
498,4434
500,252
500,499
500,613
500,979
500,1070
500,1393
500,1822
500,3094
500,3427
500,3614
501,1631
501,1980
501,3093
502,1129
502,3684
503,605
503,4690
505,2
505,2694
505,2828
505,4182
509,1855
509,2376
509,2464
513,13
513,781
513,3827
514,395
514,483
514,2160
514,2222
515,40
517,3796
518,422
518,1837
518,2680
518,3979
518,4727
519,284
520,1323
520,1334
520,2792
520,3715
520,3973
520,4069
520,4388
521,122
521,1161
521,1255
521,1345
521,2460
521,3863
521,4523
521,4938
523,65
523,92
523,445
523,1386
523,1398
523,1506
523,1984
523,2785
523,2954
523,3287
523,3993
523,4000
523,4576
526,504
526,1424
526,4530
527,400
527,776
527,1253
527,1401
527,3678
527,4694
528,1919
529,256
530,4435
533,682
533,1887
533,3132
533,3678
533,4568
535,794
535,1616
535,3220
535,3239
536,2
538,450
538,714
538,798
538,1185
538,1399
538,2186
538,2363
538,4188
538,4465
543,132
543,521
543,1280
544,268
544,440
544,766
544,1124
544,1546
544,1929
544,3338
546,206
546,369
546,438
546,1454
546,2983
546,3854
548,616
548,2813
549,78
549,3767
549,4536
550,215
550,2976
553,609
553,1481
553,1619
553,1653
553,2078
553,2187
553,2394
553,2753
553,3614
553,3712
554,935
554,2252
554,2271
554,2415
554,3743
555,39
555,177
555,216
555,682
555,1481
555,1633
555,1980
555,2723
555,2877
555,3553
555,3762
557,4185
557,4899
558,2595
560,1960
560,4185
561,432
561,1676
562,558
562,3712
562,4182
562,4522
563,13
563,84
563,223
563,619
563,1138
563,1187
563,1403
563,1650
563,2400
563,2524
563,2926
563,3486
563,3726
563,3897
563,4489
563,4589
567,809
570,182
570,346
570,694
570,790
570,2609
570,3484
570,3797
572,439
573,67
573,4777
575,350
575,1836
575,2192
575,4185
576,3270
580,1087
580,1764
580,2042
580,4772
581,209
581,939
581,970
581,1316
581,2391
581,2481
581,2762
583,67
583,344
583,1406
585,4523
586,78
586,162
586,273
586,357
586,1482
586,1973
586,3234
586,3409
586,3703
586,4044
586,4104
587,2037
587,4099
587,4261
587,4433
588,224
588,432
588,618
588,1838
588,3624
588,3719
589,252
591,3145
591,4494
591,4927
592,122
592,411
592,1688
592,2076
592,2782
592,3486
592,3879
592,4083
592,4384
592,4893
592,4945
594,1784
595,2243
598,4523
599,1303
603,966
603,976
603,1606
603,2059
603,2090
603,2388
603,2980
603,4913
605,408
605,1255
605,1579
605,2522
605,2882
605,3222
607,344
607,1681
607,1954
607,3984
607,4862
611,58
613,2080
614,734
614,1088
614,1282
614,3114
614,4069
615,4331
621,423
621,2060
622,40
622,140
622,2015
622,2972
623,200
623,2008
626,112
626,119
626,353
626,467
626,823
626,1496
626,1837
626,1947
626,3296
628,269
628,2828
630,57
632,3762
633,2788
634,122
636,1447
637,182
637,682
637,766
637,1280
637,2017
637,2813
639,161
642,1298
642,2408
642,2961
642,4001
642,4238
642,4765
644,3238
644,4646
645,1677
645,3539
645,4822
646,302
647,1490
647,1620
647,4406
648,441
648,1210
648,2415
648,3898
650,2990
651,513
651,547
651,1335
651,1369
651,3802
651,4178
651,4876
652,1316
652,3835
653,487
653,848
653,1775
653,2977
653,3690
657,2944
661,1143
661,1316
661,1657
662,2097
662,2800
663,1433
665,13
665,96
665,356
665,2042
665,4866
666,1837
667,112
667,217
667,273
667,734
667,771
667,867
667,3097
667,3703
667,4165
667,4180
668,232
668,1481
668,1702
668,2170
668,4206
668,4436
670,256
670,655
670,848
670,2141
670,3017
670,4180
670,4592
672,2286
673,1185
673,2933
673,3654
675,155
675,1218
675,1460
675,2735
675,3119
676,331
676,436
676,732
676,1310
676,1668
676,2233
676,2962
678,57
678,313
678,489
678,626
678,684
678,731
678,1185
678,1252
678,1280
678,1347
678,1395
678,1453
678,1570
678,1747
678,1765
678,1911
678,2064
678,2227
678,2502
678,2712
678,2753
678,4071
678,4180
678,4547
678,4692
678,4705
678,4841
679,1215
679,2388
680,785
680,1161
680,1840
680,4500
682,226
682,298
682,2825
683,32
683,1120
683,1930
683,3192
684,4036
686,185
686,521
686,1828
686,2457
687,359
687,477
687,1134
687,1169
687,1241
687,1789
687,2198
687,2415
687,2417
687,2695
687,2822
687,3973
687,4049
688,3220
689,489
689,2233
690,583
691,177
691,353
691,514
691,620
691,813
691,965
691,988
691,1012
691,1079
691,1363
691,1440
691,1977
691,2176
691,2605
691,2637
691,3063
691,3128
691,3282
691,3757
691,4182
693,1685
693,3334
695,1355
695,1481
696,1717
696,2971
696,3124
696,3368
698,1446
700,40
700,92
700,1540
700,3614
700,4089
701,1310
701,2850
701,4430
701,4893
702,276
702,1980
702,4851
704,762
704,4280
705,269
706,2409
708,9
708,262
708,2038
708,2969
708,3834
708,4137
709,4942
712,868
712,2937
712,3529
715,96
715,132
715,150
715,1783
715,2188
715,3011
716,934
716,1657
716,2259
716,2316
716,3692
718,2768
720,660
721,432
721,536
721,1673
721,3845
721,4447
725,122
725,3699
727,2415
729,1296
729,1539
729,2150
729,2597
729,3122
729,3327
729,3338
729,4601
730,433
730,1436
733,182
733,346
734,193
734,430
734,2012
734,2350
734,2705
734,3411
734,4572
736,366
736,4876
739,1830
739,2416
740,1861
740,2762
741,1157
741,3995
742,79
742,182
742,430
742,484
742,671
742,870
742,1204
742,1518
742,1663
742,1677
742,1955
742,2587
742,3036
742,3369
742,4384
742,4603
742,4989
743,14
743,124
743,206
743,225
743,306
743,534
743,747
743,807
743,1687
743,1921
743,2202
743,3776
743,4115
743,4500
743,4661
744,4873
745,4145
748,885
748,1316
748,1620
748,3963
749,215
749,1129
749,3286
750,1201
750,3586
750,3712
751,2828
752,966
752,1997
752,2415
752,2813
752,3468
753,1267
753,1868
753,2177
753,4082
753,4603
753,4686
754,14
754,162
754,2596
756,2200
757,433
757,522
757,2128
757,4247
757,4331
757,4631
758,1286
760,336
761,15
761,326
761,461
761,549
761,957
761,1091
761,1154
761,1212
761,1369
761,1489
761,2179
761,2713
761,3692
761,4185
761,4451
761,4942
761,4947
763,647
763,1822
763,1837
764,741
764,1415
765,3637
767,1064
767,1316
767,1853
767,1967
767,2452
769,2596
770,903
770,1411
770,1922
770,1969
770,3973
771,1887
771,2467
774,4938
777,926
777,3983
779,256
779,1223
779,3669
779,3913
780,57
783,1091
783,2657
783,3942
784,4207
786,2439
786,2533
786,2908
786,4384
788,66
788,98
788,176
788,182
788,220
788,326
788,432
788,507
788,801
788,848
788,900
788,2153
788,2309
788,2958
788,3183
788,3389
788,3880
788,4477
788,4605
788,4877
789,1195
791,215
791,269
791,2326
791,2857
791,4211
791,4954
794,2902
795,2
795,3072
796,3908
798,79
798,3788
799,4954
803,2990
804,612
804,1184
804,3466
807,167
807,1474
808,1219
808,1340
809,256
809,818
810,4082
811,210
811,1332
811,2415
812,700
812,3804
814,507
814,547
814,1667
814,1980
814,2415
814,3600
814,4716
815,926
815,2491
816,911
816,3804
816,3852
816,4586
816,4734
816,4806
817,659
819,70
819,318
819,446
819,1025
819,1093
819,1884
819,3637
820,2008
820,3654
820,3796
821,659
821,1340
821,4876
822,537
822,1657
822,3439
822,4672
824,2106
825,369
825,506
825,1215
825,2016
825,2768
825,3675
825,4126
825,4199
825,4710
825,4752
825,4810
826,40
826,114
826,2728
826,2823
827,33
827,2547
827,3281
829,1038
829,2664
829,3614
829,4850
831,3368
833,585
833,711
833,797
834,112
834,2415
837,134
837,516
837,551
837,578
837,582
837,897
837,916
837,1148
837,1422
837,1593
837,2556
837,2700
837,3761
837,4523
838,9
838,44
838,257
838,269
838,781
838,860
838,965
838,1072
838,1629
838,2080
838,2134
838,2758
838,3530
838,3941
838,4718
839,610
839,3881
840,3992
840,4909
842,318
842,2486
842,2596
842,3734
842,4289
843,3010
843,3908
844,13
844,69
844,590
844,612
844,682
844,699
844,881
844,1260
844,1322
844,2110
844,3648
844,3812
844,4452
845,1091
846,3762
847,394
847,3256
847,3618
850,120
850,1957
850,2415
850,2774
850,3296
850,4208
853,119
853,363
853,660
853,988
853,3022
853,4000
857,608
857,662
857,1568
857,1750
857,1873
857,2071
857,2386
858,1286
858,2046
859,1402
859,1497
859,1710
859,2276
859,2376
859,2474
861,215
861,458
861,976
861,1236
861,1760
861,3206
861,3210
861,4086
861,4199
861,4688
862,613
862,1019
862,1045
862,1396
862,2094
862,2219
862,2412
862,2932
862,3304
862,3358
862,4062
862,4116
863,1536
863,2850
866,70
866,224
866,477
866,1237
866,1532
866,1603
866,1668
866,2045
866,2705
866,3761
866,3872
866,4069
866,4074
866,4165
866,4218
866,4402
866,4848
871,15
871,40
871,2502
871,3072
871,3572
872,344
872,354
872,2502
873,411
873,2071
873,3029
874,297
874,1318
874,3247
874,3623
875,481
875,1519
876,867
876,3222
878,291
879,631
879,1880
879,1918
879,2706
879,3385
881,354
881,578
881,603
881,652
881,1015
881,1621
881,2349
881,2350
881,3058
881,3224
881,3724
881,4177
881,4571
884,1185
885,1042
885,1913
886,4065
886,4811
887,901
887,1472
887,3684
888,547
889,302
889,506
889,1390
889,3894
890,1661
890,3724
891,369
891,476
891,1590
891,2206
891,2643
891,3236
892,299
893,2421
893,3889
894,654
894,860
894,1015
894,1527
894,1822
894,4447
895,914
895,4218
895,4500
895,4672
896,190
896,1423
896,1775
896,1901
896,2247
896,2937
896,4893
898,741
898,1708
898,4979
899,979
899,3139
904,1784
905,2958
907,2770
907,3097
907,4707
908,1
908,918
908,1383
908,1474
908,1731
908,2731
908,3153
908,3267
908,3502
908,3816
908,4601
909,756
909,880
910,2172
910,2265
910,2729
910,3614
912,299
912,359
912,662
912,1653
913,1298
913,3234
913,3752
915,1891
915,3220
916,40
916,963
918,404
918,1606
918,2482
918,2582
921,1481
923,2415
925,110
925,265
925,487
925,2647
925,2752
925,4764
926,342
927,507
927,540
927,1312
927,1980
928,3773
929,343
929,1689
929,2542
930,1274
930,3869
931,4523
932,545
932,618
932,841
932,1455
932,2361
932,4938
932,4968
936,2680
936,4340
938,489
938,558
938,575
938,1151
938,1984
938,4607
940,3338
940,4290
941,489
941,2458
941,4545
942,1140
942,2785
945,1861
945,2558
945,4775
945,4893
946,144
946,1280
946,1537
946,2211
946,2962
947,2601
948,301
948,365
948,396
948,578
948,933
948,1114
948,1148
948,1326
948,4901
950,358
952,2222
953,59
953,1672
953,1778
954,2548
954,4902
955,524
955,658
955,3309
956,65
956,1343
956,3514
958,584
960,782
960,1300
960,3664
960,3808
961,504
964,478
964,1176
964,3654
964,3937
968,238
968,4446
969,442
969,1065
969,1088
969,1302
969,2703
969,4185
971,409
971,518
971,612
971,1316
971,1924
971,2045
971,4358
971,4718
973,112
973,223
973,225
973,577
973,1297
973,3784
974,400
974,1105
974,1206
974,2768
974,3676
974,3751
974,4468
976,58
977,3773
977,4609
978,1400
979,174
979,1316
979,1559
979,2393
981,158
981,592
981,776
981,877
981,1423
981,2713
981,3751
981,3836
981,4213
982,1069
983,118
983,830
983,858
983,1157
983,2565
983,2937
983,3983
983,4721
983,4873
983,4961
984,1519
984,2147
984,3391
984,4883
985,732
985,2712
985,4867
985,4988
986,988
986,1817
986,4027
986,4384
987,119
987,883
987,2010
987,4219
988,78
988,4476
989,841
991,724
991,2700
992,809
992,924
992,3995
992,4206
992,4862
993,881
993,1030
995,158
995,214
995,353
995,1269
995,1921
995,2721
995,3786
996,3467
998,70
998,2046
999,1127
999,3338
999,4530
1000,174
1000,1526
1004,951
1004,1137
1004,4899
1006,969
1008,521
1008,1763
1008,3596
1010,516
1011,356
1011,2168
1013,269
1013,1246
1013,1297
1013,1342
1015,574
1016,123
1017,762
1017,2240
1018,613
1018,3007
1018,3408
1021,12
1021,13
1021,338
1021,1570
1021,3676
1023,3903
1024,64
1024,506
1024,1274
1024,1461
1024,1466
1024,1691
1024,1991
1024,2372
1024,2762
1024,3485
1024,3735
1024,4210
1024,4742
1026,223
1027,1783
1027,2328
1028,766
1028,1830
1028,3653
1028,4825
1032,441
1032,4688
1034,40
1034,807
1034,1300
1034,4317
1035,1280
1036,216
1036,424
1036,3773
1037,256
1037,2146
1037,3304
1037,4796
1039,778
1039,790
1039,2005
1039,2417
1039,3148
1039,4673
1041,328
1043,34
1043,145
1043,200
1043,208
1043,223
1043,392
1043,434
1043,636
1043,671
1043,684
1043,1079
1043,1339
1043,1468
1043,1497
1043,1580
1043,1765
1043,1784
1043,2015
1043,2494
1043,2943
1043,3003
1043,3111
1043,3220
1043,3491
1043,4182
1044,4798
1047,142
1047,658
1047,1103
1047,1250
1047,2798
1047,2953
1047,3010
1047,3971
1047,4074
1047,4728
1049,273
1049,290
1049,797
1049,1454
1049,1971
1049,2145
1049,3146
1049,3151
1049,4872
1050,155
1050,2788
1050,2923
1050,3948
1051,400
1051,556
1051,1215
1051,1849
1051,2803
1051,3364
1051,3703
1051,4463
1052,1087
1053,746
1053,1316
1053,1729
1053,2257
1054,3055
1054,3274
1054,4157
1054,4477
1055,659
1055,1326
1055,2066
1055,2492
1055,3773
1055,4384
1057,1088
1057,1500
1057,2865
1057,3552
1057,4589
1060,422
1061,1468
1061,3327
1062,78
1063,1120
1063,1668
1063,3734
1065,662
1066,215
1069,2170
1072,57
1072,102
1072,274
1072,549
1072,882
1072,3256
1073,662
1075,1830
1076,259
1076,1395
1077,3641
1077,3827
1082,802
1083,742
1083,1736
1083,3870
1085,1399
1085,1878
1085,2452
1085,3182
1086,1726
1086,2456
1088,1986
1088,2087
1088,4477
1088,4561
1089,110
1089,832
1089,1003
1089,1477
1089,1702
1089,1775
1089,2104
1089,4621
1090,69
1092,78
1092,612
1092,1058
1092,1942
1092,2131
1092,2788
1092,3420
1092,3776
1092,4195
1094,224
1094,359
1094,781
1094,1661
1094,2288
1094,3026
1094,3640
1096,484
1096,2417
1096,4603
1097,3155
1098,1058
1099,1
1099,66
1099,694
1099,710
1099,989
1099,1389
1099,1390
1099,1672
1099,1931
1099,2865
1099,3092
1099,4122
1099,4138
1099,4271
1099,4703
1100,3368
1100,3773
1102,495
1102,616
1102,1758
1102,1994
1104,3983
1106,1775
1108,1087
1108,3436
1108,3751
1108,3762
1108,4176
1109,489
1111,222
1111,858
1111,962
1111,1767
1111,3860
1111,3939
1111,4292
1113,441
1113,2297
1116,2345
1116,3802
1118,301
1118,1351
1118,3649
1118,4074
1119,326
1121,1065
1121,1079
1121,2341
1121,4520
1123,200
1123,475
1123,3338
1126,1525
1126,3008
1126,3973
1126,4824
1128,504
1128,935
1128,1124
1128,1489
1128,1849
1128,4912
1129,110
1129,1878
1129,3645
1129,4074
1129,4788
1131,845
1131,2634
1131,2720
1131,3781
1132,1784
1135,322
1135,793
1135,1280
1135,2510
1135,2649
1135,3554
1136,299
1136,920
1139,711
1141,88
1141,1581
1141,2447
1141,3362
1141,3427
1141,3530
1141,3751
1141,4592
1141,4806
1143,1
1143,58
1143,210
1143,273
1143,4228
1143,4603
1144,2018
1144,2374
1144,2780
1145,1240
1145,1427
1145,4119
1147,2863
1147,4926
1149,903
1149,951
1149,1150
1149,1691
1149,2648
1149,3550
1149,4037
1149,4257
1151,3961
1151,4062
1152,4893
1153,939
1153,2963
1156,1485
1158,525
1159,2222
1163,150
1164,215
1164,1058
1164,1087
1164,1170
1164,1434
1164,1455
1164,1550
1164,2080
1164,2447
1164,3431
1164,3703
1164,4196
1164,4872
1170,185
1170,446
1170,882
1170,2049
1174,299
1174,1278
1174,1980
1174,3383
1175,682
1175,3287
1178,3155
1179,13
1179,358
1179,3220
1179,4889
1180,480
1180,1204
1180,1485
1180,1563
1180,1567
1180,1784
1180,1828
1180,2256
1180,2526
1180,3239
1180,3728
1181,18
1181,1354
1181,2065
1181,2247
1181,3490
1182,1274
1182,2086
1182,4205
1183,734
1183,994
1183,1382
1183,4119
1185,1173
1186,416
1186,2749
1186,4750
1188,495
1189,259
1189,1664
1189,4961
1190,299
1191,36
1193,1266
1193,1280
1193,2207
1193,2730
1193,3804
1193,4354
1193,4502
1194,4938
1195,773
1196,3197
1197,865
1197,2439
1198,3776
1199,1009
1201,3704
1205,612
1205,711
1205,1299
1205,1339
1205,2639
1205,4228
1207,215
1207,530
1207,2128
1207,3773
1207,4532
1208,3601
1208,3776
1208,4328
1214,27
1216,4173
1216,4938
1220,1521
1220,2427
1220,2768
1220,2958
1221,865
1221,2125
1222,1746
1222,2185
1222,4041
1226,3687
1227,32
1228,2415
1228,2686
1228,3427
1228,4043
1228,4340
1229,215
1229,647
1229,1588
1229,1783
1229,2272
1229,2554
1229,3707
1231,4317
1233,132
1233,142
1233,431
1233,1369
1233,2970
1233,3264
1233,3497
1233,3949
1234,2415
1234,2532
1234,3069
1234,3154
1234,3327
1234,3465
1234,3653
1235,613
1235,3034
1236,4682
1238,1137
1238,2146
1242,3422
1242,4872
1243,3409
1243,4942
1244,782
1244,1239
1244,2439
1244,2587
1244,4340
1247,2937
1247,4523
1250,504
1250,1919
1250,2388
1250,3698
1250,3849
1251,4199
1252,4660
1254,216
1254,583
1254,2010
1254,4062
1254,4461
1256,1107
1256,2351
1256,2500
1256,3655
1258,158
1258,269
1258,299
1258,1667
1258,2988
1258,3809
1258,4375
1259,322
1259,453
1259,1015
1262,440
1262,610
1262,1405
1262,4993
1263,343
1263,3469
1264,495
1264,3929
1268,208
1268,2029
1270,353
1270,514
1270,1140
1270,1368
1270,2087
1270,2681
1270,4772
1271,1840
1271,4466
1273,4397
1275,78
1275,506
1275,4447
1276,265
1277,627
1277,2123
1279,2563
1280,367
1280,427
1280,1058
1280,1389
1280,4335
1281,457
1281,578
1281,1105
1281,1452
1281,4558
1284,232
1284,369
1285,40
1285,344
1285,1521
1285,1579
1285,3908
1285,3929
1286,3486
1288,738
1289,766
1290,110
1290,176
1290,2517
1290,4662
1290,4791
1290,4893
1292,1280
1292,2460
1293,39
1293,809
1293,1335
1293,1406
1294,4238
1298,1
1300,3231
1300,4923
1301,924
1301,2502
1303,521
1303,1956
1303,4893
1306,327
1306,1280
1306,1403
1306,3048
1308,478
1309,1568
1309,3761
1309,4257
1311,569
1312,213
1313,919
1314,489
1315,53
1315,4331
1317,214
1317,988
1317,2927
1317,3158
1317,4893
1319,3724
1320,944
1321,15
1322,190
1324,369
1325,1024
1325,1460
1325,2144
1325,2531
1325,2954
1325,3038
1326,146
1326,564
1326,1058
1326,1154
1326,2012
1332,110
1332,2241
1333,3579
1334,1316
1334,2468
1334,2504
1334,3995
1340,2415
1341,798
1341,1046
1341,3010
1344,609
1344,1540
1344,2882
1344,3327
1344,3654
1344,4061
1344,4356
1344,4902
1348,1534
1348,3390
1349,514
1349,3600
1350,1878
1352,1668
1352,4165
1353,300
1353,2257
1357,1018
1357,2427
1357,2751
1357,3600
1358,2004
1358,4219
1358,4295
1359,2753
1360,900
1360,1225
1360,4642
1361,299
1361,2002
1361,2788
1362,858
1362,4264
1363,436
1363,1121
1363,2301
1363,2777
1363,3239
1363,4257
1363,4585
1364,660
1364,2125
1365,1397
1365,1898
1365,3201
1365,3386
1365,3853
1365,4265
1366,158
1366,3529
1367,1915
1367,3796
1371,181
1372,647
1372,933
1372,1248
1372,4446
1373,1390
1374,782
1375,445
1376,830
1377,2857
1377,4930
1378,1517
1378,1837
1378,2809
1378,3220
1378,3763
1378,4372
1379,2646
1379,4989
1380,322
1380,1527
1380,4104
1380,4571
1385,321
1385,1709
1385,2097
1385,3356
1385,3885
1386,2708
1388,132
1388,937
1388,1747
1388,2623
1389,848
1390,224
1390,934
1390,3724
1391,2937
1392,575
1394,4384
1398,3599
1400,3654
1400,4434
1404,4672
1407,4742
1410,619
1410,2446
1410,3226
1412,3304
1414,4599
1416,14
1416,24
1416,506
1416,2227
1418,122
1418,1785
1418,2042
1418,2264
1418,3225
1418,3387
1418,3535
1418,4281
1419,181
1419,2724
1420,638
1420,1343
1421,122
1421,299
1421,305
1421,970
1421,1088
1421,1965
1421,2094
1421,2688
1421,4434
1422,610
1426,782
1426,1280
1426,1799
1427,514
1427,1574
1427,1638
1430,189
1430,778
1430,1176
1430,1736
1430,1746
1430,2171
1430,2438
1430,3486
1430,4800
1432,2415
1433,1423
1433,1996
1433,4794
1434,934
1434,1070
1434,2465
1435,1784
1435,3509
1435,3946
1437,1297
1439,495
1439,4183
1441,521
1443,36
1443,436
1443,2094
1443,3327
1444,1413
1445,221
1445,256
1445,4523
1445,4823
1449,1343
1449,1481
1449,2832
1449,4774
1450,432
1450,4434
1450,4893
1451,2365
1451,2412
1454,2445
1455,2366
1456,1799
1456,4552
1459,79
1460,3885
1460,4412
1461,1125
1461,4872
1462,3102
1462,4489
1463,3225
1464,79
1464,1126
1464,3327
1465,1
1465,410
1465,649
1465,823
1465,880
1465,1585
1465,1633
1465,1701
1465,1855
1465,2698
1465,2801
1467,1966
1467,4477
1469,40
1469,1858
1470,4494
1471,1472
1471,1585
1471,3277
1472,1620
1474,1303
1474,1393
1474,1622
1474,2475
1476,2502
1478,24
1480,186
1483,807
1483,1070
1483,2230
1483,2713
1483,3143
1483,3304
1483,3655
1483,4056
1484,338
1484,2272
1484,3887
1485,883
1485,3256
1487,253
1488,1026
1488,3190
1492,79
1492,3773
1495,1789
1495,2431
1499,4206
1501,39
1501,980
1501,2514
1501,3488
1501,4508
1504,3831
1505,1091
1506,157
1506,314
1506,397
1506,4447
1507,2358
1507,2676
1507,3055
1507,4662
1508,110
1508,842
1508,4141
1509,3724
1509,4029
1509,4930
1510,4672
1512,40
1513,2094
1513,2325
1516,1045
1517,132
1518,2090
1518,3092
1520,4817
1521,417
1521,700
1521,852
1521,3267
1521,3669
1522,802
1522,1474
1523,146
1523,2011
1524,1585
1524,4586
1527,3827
1529,631
1529,766
1529,858
1529,2415
1531,2511
1535,731
1537,1466
1537,4789
1540,120
1540,2073
1541,530
1541,755
1541,988
1541,3507
1543,1583
1543,1608
1543,4956
1544,60
1544,66
1544,79
1544,161
1544,363
1544,3158
1545,302
1545,877
1545,924
1546,790
1547,1218
1547,4428
1548,707
1549,3
1549,132
1549,2667
1549,4045
1551,1140
1551,3264
1552,1964
1552,2717
1553,2092
1553,4218
1554,39
1554,340
1554,353
1554,432
1554,1280
1554,1316
1554,1400
1554,1632
1554,2989
1554,3553
1554,3817
1554,3820
1555,575
1555,924
1555,3336
1555,4110
1555,4384
1555,4831
1556,1327
1556,1792
1556,3320
1557,256
1557,766
1557,1539
1558,3486
1560,3885
1560,4927
1561,441
1561,682
1562,1280
1563,395
1563,664
1563,1091
1563,1129
1563,1259
1563,2746
1563,3194
1563,3390
1563,3724
1563,3756
1563,4873
1564,1280
1564,2835
1565,1907
1569,1316
1569,4162
1570,778
1570,797
1570,2290
1571,39
1571,1059
1571,2870
1572,1322
1573,852
1573,3416
1575,66
1575,210
1575,2894
1575,3296
1575,3312
1575,3637
1575,4346
1575,4380
1575,4474
1577,53
1577,201
1577,477
1577,1154
1577,1256
1577,1984
1578,638
1578,1618
1578,1753
1578,3065
1578,4024
1578,4722
1580,27
1580,1142
1580,2484
1582,1323
1584,1091
1586,1524
1586,2737
1589,222
1590,1215
1590,3486
1592,906
1593,1460
1593,2749
1594,2104
1594,3192
1594,3452
1595,1327
1595,1559
1595,2106
1595,2220
1595,2923
1595,3712
1595,3983
1595,4085
1595,4480
1596,277
1596,2415
1596,3246
1597,40
1597,242
1597,734
1597,1434
1597,3571
1597,3703
1597,3789
1598,215
1598,219
1598,3117
1599,1500
1599,2016
1599,2209
1599,3413
1599,3776
1599,3859
1599,4288
1599,4745
1600,227
1600,2154
1600,2668
1600,4409
1601,522
1601,4620
1602,259
1602,625
1603,4500
1605,53
1605,3774
1609,200
1609,694
1610,766
1610,4571
1611,540
1611,1287
1611,2600
1611,3983
1613,344
1614,521
1615,253
1615,756
1615,1937
1615,3899
1617,15
1619,233
1623,40
1623,53
1623,658
1623,980
1623,2865
1623,3040
1627,1401
1627,1494
1627,4277
1627,4742
1628,3238
1630,145
1630,4097
1634,2474
1635,179
1635,746
1636,2850
1639,4866
1640,1248
1640,2532
1641,40
1641,1460
1641,3600
1641,4472
1641,4671
1642,1328
1642,2512
1644,1078
1647,4074
1648,3287
1649,1947
1649,3010
1651,856
1651,965
1651,1209
1651,1485
1652,556
1652,2203
1653,327
1655,1550
1655,4060
1657,2291
1657,2474
1659,768
1659,3744
1660,350
1662,3724
1663,585
1665,15
1670,4340
1671,369
1671,896
1671,2850
1672,1122
1672,2426
1674,3247
1674,4500
1675,210
1675,256
1675,278
1675,2071
1675,2094
1675,2170
1675,3145
1675,3761
1679,300
1679,342
1679,514
1679,2171
1679,2443
1680,1393
1680,1423
1681,551
1681,1393
1681,1685
1681,2785
1681,3412
1682,1500
1683,233
1683,2455
1690,27
1692,1176
1692,1668
1692,2069
1692,4549
1693,675
1694,3338
1697,1417
1697,1494
1697,1689
1697,2848
1697,3384
1697,3811
1697,4421
1697,4577
1698,513
1699,1913
1700,2361
1700,3796
1700,3997
1702,143
1702,182
1703,602
1703,1748
1704,1345
1706,1355
1706,3867
1708,353
1708,990
1708,3394
1708,3773
1709,1116
1709,3867
1711,1185
1711,1187
1712,299
1713,631
1714,794
1714,816
1714,1259
1714,1280
1714,1812
1714,2318
1714,3773
1715,174
1718,734
1719,3486
1722,1783
1723,42
1724,394
1724,481
1724,627
1724,3703
1726,392
1726,534
1726,755
1726,2133
1727,4340
1728,1402
1730,222
1732,40
1732,57
1732,358
1732,394
1732,766
1732,787
1732,880
1732,1428
1732,1687
1732,2462
1732,3724
1732,3794
1732,4180
1732,4331
1732,4533
1733,2037
1733,3813
1734,215
1734,2118
1735,438
1735,2264
1735,3170
1735,3513
1735,4367
1735,4902
1736,1761
1736,1842
1738,2460
1739,1274
1739,2456
1740,577
1740,1540
1740,1581
1741,1343
1741,4517
1743,1
1743,65
1743,96
1743,1215
1743,2079
1743,2905
1743,3508
1743,4247
1744,4591
1744,4893
1745,2179
1746,2807
1746,4858
1747,1926
1747,2464
1747,3773
1751,3118
1751,4914
1754,3350
1754,3776
1755,880
1757,200
1757,2026
1757,3684
1757,4047
1759,1280
1761,1843
1761,4100
1762,39
1762,321
1762,394
1762,2146
1762,2855
1762,3377
1766,640
1766,1988
1766,2857
1768,353
1768,631
1768,798
1768,1316
1768,3164
1768,4822
1769,182
1769,638
1770,1334
1771,2366
1771,3002
1773,3097
1774,1784
1776,15
1776,146
1776,825
1776,1784
1776,3052
1776,3724
1777,1091
1778,4329
1781,848
1781,1500
1782,713
1784,2253
1784,2624
1784,4899
1787,2257
1787,4822
1788,92
1788,1964
1789,224
1789,2415
1790,1397
1791,1078
1793,1129
1796,1684
1796,4072
1797,1280
1798,807
1798,2990
1798,3163
1798,3327
1798,4777
1799,662
1799,3347
1800,2415
1803,418
1804,682
1804,841
1804,2106
1804,3686
1804,4998
1806,4181
1807,3712
1808,801
1809,1668
1810,1669
1810,3631
1810,3722
1814,3796
1814,3946
1816,825
1817,766
1817,3453
1817,4414
1817,4568
1821,1433
1823,880
1824,256
1824,259
1824,1795
1824,3375
1824,4487
1825,1124
1825,1731
1827,55
1827,358
1827,977
1827,1003
1827,1430
1827,1746
1827,1784
1827,1880
1827,2455
1827,2674
1827,4384
1827,4795
1829,392
1831,190
1831,214
1831,606
1831,939
1831,2037
1831,2050
1831,2206
1831,2405
1831,4115
1832,4994
1834,585
1834,658
1834,2844
1835,3126
1835,4727
1836,358
1836,1687
1837,1705
1837,3600
1839,2015
1840,2230
1840,4914
1841,2753
1841,2850
1842,1068
1842,2201
1843,3351
1847,694
1848,658
1851,410
1853,499
1853,525
1853,1534
1853,1861
1853,2545
1853,3469
1854,288
1856,1298
1856,3762
1857,32
1858,1286
1858,1632
1858,1822
1858,1830
1858,2805
1858,3131
1858,3142
1858,3351
1859,477
1859,1773
1860,1913
1861,458
1861,1091
1861,3553
1862,1140
1863,4662
1864,52
1864,2850
1864,3549
1867,253
1867,597
1867,784
1867,1154
1870,1809
1871,3946
1872,1046
1872,4893
1873,2642
1874,39
1874,223
1874,564
1874,1033
1874,1087
1874,1405
1874,1616
1874,2783
1874,3227
1874,3338
1875,19
1875,177
1875,216
1875,242
1875,393
1875,456
1875,1088
1875,1121
1875,1206
1875,2021
1875,2339
1875,2581
1875,3390
1875,3513
1875,4114
1875,4170
1875,4175
1875,4185
1875,4447
1875,4851
1876,3916
1879,1625
1881,4942
1883,2170
1883,4667
1885,1282
1886,619
1888,2639
1888,2882
1889,158
1889,1849
1889,2246
1889,2640
1889,3703
1889,3738
1889,3777
1889,4340
1889,4851
1893,2365
1895,4873
1896,867
1897,1980
1898,841
1898,975
1898,1069
1898,2338
1898,2948
1899,756
1901,1980
1902,654
1902,1176
1902,1539
1904,182
1906,1072
1907,422
1907,2385
1907,4548
1907,4942
1908,612
1909,4645
1912,182
1912,300
1913,256
1914,15
1914,32
1914,84
1914,671
1914,1907
1914,2415
1914,2762
1914,2965
1914,3657
1914,4455
1914,4895
1915,514
1915,1241
1915,1949
1915,1957
1915,2312
1915,2325
1915,4032
1915,4791
1917,325
1917,3493
1917,3776
1919,877
1919,1001
1919,1009
1919,1949
1919,2712
1920,675
1924,1316
1924,2019
1924,4722
1924,4908
1926,1481
1927,1632
1927,3753
1927,3877
1928,58
1932,316
1932,3199
1932,4300
1932,4484
1933,1166
1933,2438
1933,4913
1934,3072
1935,276
1935,2398
1936,4530
1938,582
1938,848
1938,2772
1939,343
1939,1413
1939,1812
1940,3983
1941,3637
1943,620
1943,2016
1943,4065
1944,358
1945,170
1946,2216
1946,4000
1946,4320
1948,284
1949,331
1950,507
1950,2334
1950,2728
1950,2843
1950,2990
1950,3109
1950,4260
1950,4523
1952,92
1952,96
1952,410
1952,516
1952,1178
1952,1527
1952,1892
1952,3010
1952,3348
1952,3600
1952,3732
1952,4257
1952,4851
1952,4899
1953,4220
1954,2268
1955,1855
1955,1983
1955,2452
1956,119
1956,1095
1956,3721
1957,13
1957,112
1957,298
1957,1112
1957,1784
1957,3329
1957,4528
1958,855
1958,2376
1958,4706
1958,4873
1959,2272
1961,1925
1961,2502
1961,4206
1962,656
1962,1409
1962,1519
1963,3467
1963,4500
1968,1423
1970,2306
1970,3220
1972,2873
1974,425
1974,881
1974,1717
1974,2066
1974,3614
1975,3256
1976,326
1976,1931
1978,1463
1979,33
1979,933
1979,1115
1979,3373
1979,3636
1980,431
1980,1218
1985,1331
1985,3712
1987,924
1987,947
1987,1705
1990,269
1990,1657
1990,1784
1990,2463
1990,4023
1990,4815
1991,188
1992,2805
1993,2004
1998,1091
1998,1591
1998,1778
1998,2762
1998,4182
1999,322
2000,474
2001,2031
2001,4085
2003,209
2003,3411
2003,3446
2006,1185
2009,3579
2010,66
2012,611
2013,846
2013,1965
2013,2382
2013,4531
2013,4798
2014,15
2014,120
2014,1685
2014,4179
2014,4738
2014,4876
2016,18
2016,326
2016,858
2016,4876
2019,1569
2019,3171
2021,84
2022,1485
2023,3637
2023,4280
2025,216
2025,1468
2025,1861
2025,3045
2025,3140
2025,4331
2027,731
2027,1482
2028,119
2030,2457
2030,2596
2030,3550
2032,3467
2033,1921
2034,2606
2034,3772
2035,208
2036,1310
2037,1575
2043,848
2043,1907
2043,3074
2043,3831
2044,210
2044,806
2044,1280
2044,3338
2044,3390
2044,3516
2048,991
2050,2284
2051,314
2052,4586
2053,504
2054,67
2054,150
2054,732
2054,782
2054,1489
2055,1555
2055,2050
2055,2628
2056,174
2056,377
2056,828
2056,1916
2056,1980
2056,2513
2056,3703
2056,4280
2057,988
2057,1775
2063,18
2063,605
2063,4085
2067,477
2070,2187
2070,2572
2072,180
2074,1828
2074,4559
2076,185
2076,1351
2076,3143
2076,4913
2077,694
2077,782
2077,1654
2077,3654
2077,4974
2078,841
2078,4243
2080,4168
2081,2010
2082,40
2082,3327
2083,16
2083,336
2083,4777
2084,40
2087,2255
2088,1080
2091,2661
2091,4611
2091,4932
2093,2350
2093,2747
2093,4218
2095,468
2096,4436
2097,224
2098,1717
2099,516
2099,2091
2100,138
2100,2091
2100,4494
2101,3600
2101,4062
2102,1453
2103,2350
2103,3174
2103,4062
2105,1064
2105,1485
2105,4225
2107,4036
2108,201
2109,3929
2111,4027
2112,1003
2112,1837
2112,2464
2114,224
2117,842
2117,4893
2119,1452
2120,343
2120,1884
2121,1954
2122,1521
2126,798
2126,3226
2129,698
2129,2591
2129,3505
2130,18
2130,449
2130,1150
2130,2382
2130,2388
2130,2744
2130,2962
2131,27
2131,4029
2132,1400
2132,1718
2132,4029
2134,880
2134,1486
2134,1724
2135,177
2135,233
2136,174
2136,3314
2137,618
2138,433
2138,1330
2138,2680
2139,3611
2139,3748
2139,3818
2140,1133
2140,3748
2141,1479
2141,4534
2141,4940
2142,400
2142,566
2142,746
2142,2740
2142,2877
2142,3304
2142,4992
2143,119
2143,326
2146,150
2148,331
2148,4232
2149,852
2151,1280
2151,1454
2151,2821
2151,3171
2151,3968
2151,4125
2155,3724
2155,4931
2157,1087
2157,4299
2157,4976
2158,322
2162,647
2162,1868
2162,3501
2162,3627
2162,4819
2163,3192
2165,1313
2166,880
2166,2019
2166,2779
2167,980
2169,700
2169,3674
2171,291
2171,601
2171,1162
2171,1200
2171,2862
2171,4545
2172,2865
2173,4636
2173,4893
2174,269
2174,988
2174,4187
2175,1165
2175,1452
2175,4793
2178,684
2178,3417
2178,3712
2179,224
2180,447
2180,1785
2181,145
2181,358
2181,1082
2181,3415
2181,3709
2182,400
2182,474
2182,1965
2182,3221
2182,3302
2183,3390
2184,15
2184,326
2184,613
2184,734
2184,1903
2184,2252
2184,3201
2184,3259
2184,3880
2184,4085
2189,790
2189,1536
2189,2203
2190,353
2190,1206
2191,802
2191,3631
2193,2107
2194,4662
2195,2094
2195,4231
2196,120
2196,602
2196,1528
2196,3112
2196,4025
2196,4152
2196,4533
2196,4557
2196,4722
2197,1685
2197,1783
2197,4887
2198,1219
2201,4097
2201,4597
2203,1604
2203,2471
2203,4651
2203,4684
2204,3677
2205,1758
2208,174
2208,214
2208,612
2208,629
2208,980
2208,1129
2208,2509
2208,2652
2208,4026
2208,4624
2210,215
2210,694
2210,1532
2210,4160
2212,329
2213,460
2213,602
2213,1830
2213,4185
2217,78
2217,4514
2218,965
2219,1490
2221,238
2221,350
2221,2907
2221,2982
2222,1758
2223,566
2223,4723
2224,1763
2225,3320
2226,15
2226,1539
2226,2626
2228,1239
2228,3377
2229,208
2229,210
2229,260
2229,613
2229,681
2229,980
2229,1129
2229,1871
2229,1919
2229,1959
2229,2080
2229,2300
2229,3579
2231,766
2232,450
2233,287
2234,78
2234,299
2234,897
2234,2872
2234,4549
2235,59
2235,1202
2236,2937
2236,4760
2238,983
2239,631
2242,1855
2244,318
2244,3983
2245,582
2246,395
2246,2963
2246,4807
2247,2007
2250,1091
2250,1453
2251,3751
2254,1521
2254,4326
2257,224
2257,2016
2257,3933
2259,1280
2260,2127
2261,422
2261,1760
2261,2685
2262,782
2262,2288
2263,140
2263,2423
2263,3545
2265,223
2266,1464
2267,2318
2267,2749
2267,3578
2267,4873
2268,1410
2268,4029
2269,122
2269,980
2269,1165
2269,1322
2269,1339
2269,2705
2269,4206
2270,1784
2270,2693
2271,329
2271,1522
2271,2431
2271,4072
2274,1091
2274,4319
2275,58
2275,120
2275,321
2275,513
2275,616
2275,1698
2275,2869
2275,2963
2275,3107
2275,3678
2275,3774
2275,4924
2277,4069
2278,181
2278,530
2278,1502
2279,1078
2280,225
2282,3074
2283,988
2283,2897
2284,407
2285,40
2285,201
2285,2544
2285,3042
2286,411
2287,1280
2287,2037
2289,967
2289,1417
2289,1779
2289,3841
2289,4339
2292,3238
2293,966
2293,2215
2294,1255
2294,4051
2295,15
2295,55
2295,392
2295,2937
2295,3773
2295,4185
2296,2005
2296,2890
2297,901
2297,2661
2298,1830
2300,299
2300,1725
2302,2252
2303,848
2304,78
2305,3153
2305,4495
2310,1784
2311,2785
2311,4212
2311,4460
2313,2568
2313,3056
2313,3614
2313,4417
2314,1884
2314,4119
2315,2029
2317,0
2317,585
2317,711
2317,1530
2317,1590
2317,1668
2317,2152
2317,2173
2317,2214
2317,2253
2317,3855
2317,4626
2318,1579
2321,4777
2322,38
2322,4681
2323,273
2323,1742
2326,442
2329,4384
2331,1185
2331,2969
2331,4576
2332,215
2333,4545
2335,182
2335,1656
2337,1764
2337,3327
2342,150
2342,336
2342,805
2342,1130
2342,1206
2342,1340
2342,1414
2342,1849
2342,2717
2342,3247
2342,4247
2343,534
2343,916
2343,2661
2343,3769
2344,3724
2345,1396
2345,2031
2345,2718
2345,3773
2345,4015
2346,989
2346,3131
2346,4893
2347,176
2347,257
2347,897
2347,1070
2347,2525
2348,445
2352,2069
2353,2631
2353,3153
2355,2050
2355,4404
2356,1765
2356,3129
2357,746
2360,394
2361,493
2361,3591
2361,3983
2362,2170
2362,2389
2364,2937
2365,57
2366,2280
2366,2789
2367,314
2367,1101
2367,4643
2367,4699
2369,1322
2370,3549
2370,3969
2371,4832
2373,2833
2373,3983
2374,605
2379,575
2379,4790
2383,88
2383,649
2383,1845
2383,2350
2383,2572
2383,3514
2383,4220
2383,4418
2384,638
2384,1386
2384,1969
2387,3995
2389,514
2389,3320
2389,3748
2390,3776
2391,141
2391,477
2391,592
2391,746
2391,1907
2391,2016
2391,2168
2391,2366
2391,3072
2391,3614
2391,3684
2391,4228
2391,4704
2391,4937
2395,1187
2395,1369
2395,1686
2395,4317
2395,4613
2396,4436
2396,4500
2397,342
2398,865
2399,104
2400,377
2402,1797
2402,2753
2402,4540
2403,2889
2404,1280
2406,132
2406,1046
2406,2613
2406,3131
2406,3511
2406,3663
2406,4827
2408,120
2408,762
2408,1088
2408,1280
2408,1890
2409,495
2409,2937
2413,1
2413,2624
2417,3287
2418,613
2418,1029
2418,1676
2418,3409
2418,3630
2418,4159
2418,4985
2419,2361
2420,1088
2420,4465
2422,4220
2423,2400
2423,4369
2424,2219
2424,2790
2424,2834
2424,3770
2425,990
2425,2705
2430,2019
2430,3189
2432,547
2432,3597
2432,3684
2433,2963
2434,4297
2437,489
2440,1495
2441,4530
2442,3164
2444,70
2444,1590
2444,3220
2447,179
2447,603
2447,988
2447,1230
2447,1485
2447,1539
2447,2689
2447,3220
2447,3606
2447,4185
2448,216
2448,299
2448,762
2448,1625
2448,3009
2448,3304
2448,4113
2449,4069
2453,1750
2456,122
2459,1758
2459,1887
2459,2037
2463,1775
2463,4287
2464,1286
2466,2550
2470,1072
2470,1569
2472,2334
2472,3251
2473,848
2473,917
2473,2538
2473,3105
2473,4786
2474,848
2476,35
2476,1454
2476,4074
2478,64
2478,1493
2478,1907
2478,3010
2478,4057
2478,4410
2479,2325
2479,4822
2480,120
2480,1760
2480,4265
2483,392
2483,2020
2484,3220
2484,3357
2485,1
2485,171
2485,866
2485,3655
2485,4206
2485,4816
2486,1423
2487,1664
2487,4906
2489,916
2489,1347
2489,2272
2489,2818
2489,4458
2490,1964
2492,594
2493,1369
2494,849
2494,3365
2495,4257
2496,1494
2500,1142
2500,3654
2501,848
2501,1907
2501,3472
2502,2376
2502,2596
2503,1712
2505,291
2505,3103
2506,1949
2506,2431
2506,2999
2506,3153
2506,4888
2507,93
2507,1091
2508,27
2508,79
2508,427
2508,773
2508,1114
2508,1143
2508,1187
2508,1347
2508,1395
2508,1643
2508,1878
2508,1966
2508,1980
2508,2055
2508,2118
2508,2350
2508,3389
2508,3549
2508,3724
2508,3751
2508,3916
2508,4909
2508,4973
2512,711
2515,2484
2515,3256
2516,1211
2516,2628
2516,3461
2516,3663
2516,3703
2516,4029
2516,4278
2518,1758
2518,2720
2519,2411
2519,2811
2521,480
2521,1031
2521,1423
2524,59
2524,284
2524,334
2527,15
2528,1095
2528,3077
2529,2417
2530,2937
2530,3762
2531,1047
2531,1291
2531,1725
2531,3228
2531,3712
2531,4744
2532,453
2532,2813
2533,578
2533,2374
2533,3784
2534,864
2535,542
2536,313
2537,1399
2537,1742
2537,2719
2538,2914
2539,22
2539,277
2540,1763
2540,3017
2540,3738
2540,4048
2541,2335
2541,4484
2543,4384
2544,2481
2547,3349
2547,4392
2549,2803
2549,3486
2549,3692
2549,4327
2550,1479
2550,2170
2551,1280
2555,342
2555,2574
2555,3320
2555,3668
2557,2050
2560,1121
2560,3010
2561,2477
2561,3241
2561,3392
2561,3531
2561,3703
2561,4234
2562,15
2564,318
2564,4197
2567,69
2567,1316
2567,3042
2569,4377
2570,553
2572,214
2572,465
2572,477
2572,3327
2572,3738
2572,3866
2572,4485
2572,4656
2572,4683
2573,3080
2575,659
2575,1620
2577,55
2577,400
2577,1355
2577,2079
2577,3776
2577,3847
2577,4589
2578,4291
2579,3630
2580,797
2580,4201
2581,4537
2583,120
2583,803
2585,2011
2588,4722
2589,977
2589,2340
2590,1661
2590,4477
2592,1223
2593,3048
2593,4592
2594,1712
2594,2904
2595,1721
2598,2969
2599,1393
2602,2958
2603,2986
2603,4035
2604,433
2604,2209
2607,539
2607,1298
2607,2376
2607,2660
2607,2986
2607,4909
2608,841
2608,1784
2608,2610
2608,3107
2610,288
2610,1165
2610,2016
2610,2969
2611,143
2611,578
2612,1799
2614,1677
2615,468
2616,841
2618,2382
2619,1316
2619,3720
2619,3773
2619,4119
2619,4145
2620,1393
2620,2722
2621,2097
2621,3125
2622,119
2622,4126
2627,1980
2627,4975
2629,620
2630,825
2632,3436
2633,2805
2633,4189
2633,4562
2634,1286
2634,2401
2634,3280
2637,4477
2638,227
2638,1031
2638,2113
2640,3530
2640,3615
2641,2452
2641,3506
2644,92
2645,430
2650,216
2651,1080
2651,2463
2651,3096
2651,4893
2651,4927
2653,4873
2654,190
2654,300
2654,2227
2654,2998
2656,3600
2658,183
2658,284
2658,493
2658,667
2658,669
2658,1048
2658,1056
2658,1311
2658,1409
2658,1850
2658,1965
2658,2431
2658,2577
2658,3501
2658,4426
2658,4738
2659,1056
2662,2080
2663,301
2664,2637
2665,947
2666,287
2666,331
2666,516
2666,1345
2669,912
2669,2858
2670,78
2670,132
2670,1783
2670,2731
2670,3604
2671,287
2671,1830
2671,2094
2671,3960
2672,1794
2672,2415
2672,4672
2676,25
2676,1286
2677,530
2677,1080
2677,2109
2678,369
2679,639
2679,1758
2682,3358
2683,390
2683,513
2683,880
2683,3015
2683,4406
2684,684
2685,1296
2685,2124
2692,3513
2693,2577
2696,4477
2697,807
2697,2753
2697,4465
2699,40
2699,120
2701,1528
2702,2059
2702,3240
2702,3895
2707,2
2707,57
2707,155
2707,177
2707,667
2707,1489
2708,432
2708,1070
2708,1709
2708,2350
2709,40
2709,4272
2710,605
2710,2150
2710,3278
2711,1581
2713,510
2713,3925
2714,1431
2715,342
2715,489
2715,815
2716,507
2717,2577
2723,1702
2723,3198
2723,4182
2723,4804
2725,223
2725,1708
2725,2807
2725,3478
2725,3712
2726,1029
2726,3497
2726,4127
2727,4045
2727,4371
2728,265
2728,2811
2732,132
2734,1436
2734,3973
2736,757
2736,3327
2738,4029
2738,4900
2739,1937
2739,2280
2741,40
2742,1354
2743,13
2743,2964
2745,1784
2745,3542
2746,155
2748,2431
2748,4893
2749,417
2749,508
2749,1298
2749,1458
2749,2868
2749,2999
2749,3573
2749,3669
2749,3693
2749,3731
2749,4805
2753,256
2754,344
2755,130
2755,728
2755,2544
2755,2881
2755,3486
2755,4031
2755,4704
2757,1298
2759,990
2759,1485
2759,4897
2760,616
2760,3307
2760,3537
2763,742
2765,525
2765,2113
2766,4519
2767,2
2767,18
2767,33
2767,79
2767,259
2767,506
2767,778
2767,825
2767,1112
2767,1165
2767,1524
2767,1756
2767,1866
2767,2469
2767,2857
2767,3423
2767,3588
2767,4798
2770,132
2773,110
2773,858
2773,3028
2774,3796
2776,719
2776,2078
2776,2463
2776,3956
2776,4083
2778,501
2778,4521
2784,1142
2784,1694
2784,3529
2784,4893
2790,159
2791,1352
2791,1837
2791,4265
2791,4332
2793,344
2794,1991
2795,766
2796,4317
2800,2687
2800,2984
2800,4240
2804,1530
2808,772
2808,1285
2808,1382
2808,2460
2808,3504
2808,3637
2808,4180
2810,96
2810,244
2810,858
2810,3141
2811,216
2811,354
2811,4103
2812,832
2812,924
2812,4993
2814,2567
2815,3416
2815,4384
2816,3042
2817,253
2817,1980
2817,2655
2817,3283
2817,3327
2817,4971
2819,2460
2820,343
2820,1386
2826,2428
2827,4074
2829,52
2829,2558
2829,4182
2830,939
2831,1355
2836,1
2836,70
2836,238
2836,594
2836,784
2836,1830
2836,1844
2836,2335
2836,3281
2837,1930
2837,3336
2838,3748
2839,2392
2839,3473
2840,1081
2840,3600
2840,4950
2841,4872
2842,762
2842,3748
2844,1084
2844,3026
2847,291
2847,4224
2850,1612
2850,3032
2851,2170
2852,1921
2852,4704
2853,1161
2853,1405
2854,1965
2856,222
2858,1485
2859,637
2860,665
2861,158
2861,183
2861,336
2861,807
2861,924
2861,1608
2861,2690
2861,3198
2861,3497
2861,4074
2861,4437
2863,2788
2864,1965
2865,1483
2866,232
2867,436
2871,631
2871,1648
2871,2016
2876,175
2876,274
2876,864
2876,903
2876,1280
2876,1342
2876,2106
2876,2171
2879,425
2879,3501
2879,3513
2880,200
2883,2597
2883,3844
2884,659
2885,1014
2885,4188
2887,181
2888,3762
2889,1949
2889,3630
2890,120
2890,143
2890,182
2890,593
2890,612
2890,660
2890,846
2890,1065
2890,1114
2890,1342
2890,1585
2890,2570
2890,4498
2890,4665
2892,2436
2893,935
2894,1082
2894,2029
2895,858
2896,400
2896,1466
2896,3830
2900,4351
2900,4927
2903,728
2909,1206
2910,84
2910,93
2912,3210
2912,3637
2915,1624
2916,182
2916,631
2918,243
2919,1239
2920,1965
2921,409
2922,1423
2925,216
2925,662
2925,1763
2925,4757
2925,4993
2927,433
2927,962
2927,3791
2928,912
2930,1369
2931,3436
2935,161
2935,734
2935,1515
2935,3987
2935,4634
2935,4861
2936,331
2936,1919
2938,1921
2939,243
2939,802
2939,3640
2939,4994
2940,2577
2941,3983
2942,4206
2945,719
2946,1173
2947,60
2948,181
2948,493
2948,821
2948,1280
2948,2857
2948,4340
2950,369
2954,613
2954,707
2954,768
2954,2345
2954,4740
2956,174
2956,269
2956,356
2956,659
2956,782
2956,963
2956,1907
2956,2464
2956,3102
2956,3142
2956,3896
2956,3953
2956,4188
2957,487
2957,746
2957,2511
2959,602
2960,182
2960,1954
2963,719
2965,854
2966,1151
2966,3684
2966,4280
2967,3957
2968,880
2968,2050
2968,2749
2968,4401
2968,4798
2969,1391
2969,1607
2972,132
2974,1805
2974,2133
2975,1576
2975,2565
2976,4683
2978,3751
2979,277
2979,525
2979,684
2979,707
2979,935
2979,1176
2979,1278
2979,1316
2979,1480
2979,1821
2979,2378
2979,2906
2979,3433
2979,3729
2979,4610
2979,4899
2986,3990
2986,4241
2986,4297
2986,4940
2987,1763
2989,1901
2989,2284
2992,42
2992,218
2992,2785
2992,3601
2992,3776
2994,2290
2995,3600
2995,4266
2996,3296
2997,692
2997,1783
2997,1913
2998,4434
3000,697
3000,4798
3001,1485
3001,2787
3004,902
3004,3379
3004,4500
3004,4539
3005,442
3005,475
3006,200
3006,518
3006,2243
3006,4447
3006,4893
3007,697
3010,935
3016,541
3018,766
3018,3411
3019,2024
3020,3751
3021,1959
3022,675
3023,3028
3024,1064
3026,132
3026,1390
3026,1527
3026,1840
3026,3250
3026,3724
3026,3795
3026,3825
3026,4529
3027,1280
3029,3072
3030,2807
3030,3114
3030,4442
3031,3914
3031,4229
3033,4780
3034,919
3034,1095
3034,1326
3034,1702
3034,3267
3034,3570
3034,3662
3034,4544
3034,4704
3036,2368
3036,4456
3037,518
3037,1257
3037,1422
3037,2161
3037,2865
3037,3394
3037,4139
3037,4342
3039,39
3041,344
3042,1686
3043,3983
3044,224
3046,269
3047,3013
3048,1370
3049,59
3050,2367
3051,988
3051,4340
3054,1763
3055,2042
3057,9
3057,531
3057,2045
3057,2336
3057,2751
3057,3748
3057,3767
3059,1965
3060,4893
3061,912
3061,1129
3061,1921
3062,1765
3065,1632
3065,3740
3066,513
3067,2080
3067,4021
3068,3600
3069,1298
3069,1395
3069,2901
3070,4062
3071,3486
3073,253
3075,39
3075,442
3076,1729
3078,1003
3078,2913
3079,366
3079,1903
3081,4062
3082,2768
3083,2565
3084,869
3085,1477
3087,4544
3088,17
3091,67
3091,337
3091,432
3091,582
3091,692
3091,1346
3091,1519
3091,1907
3091,2047
3091,2050
3091,2309
3095,3362
3095,4182
3096,510
3096,1255
3096,1479
3096,4204
3096,4843
3097,3427
3098,3692
3098,3986
3098,4195
3099,912
3099,4392
3100,2753
3101,51
3101,640
3101,4590
3103,1382
3103,2731
3103,3507
3103,3557
3104,216
3104,1620
3105,4909
3106,1522
3106,4199
3108,2318
3113,4549
3115,1121
3115,1423
3116,340
3116,612
3116,1312
3116,1447
3116,1530
3116,2969
3120,2456
3121,2104
3123,768
3123,2058
3123,2917
3125,18
3125,1705
3125,4206
3126,384
3126,1721
3126,2050
3126,4185
3126,4822
3127,1
3127,4419
3127,4777
3127,4967
3129,2281
3129,4500
3130,1517
3131,182
3131,3192
3133,4901
3134,1454
3134,3439
3136,2214
3137,36
3137,177
3137,298
3137,411
3137,671
3137,1280
3137,1448
3137,2002
3137,2415
3137,3242
3137,3370
3137,3438
3137,3610
3137,3776
3137,3908
3137,4195
3138,110
3138,1237
3138,4592
3139,177
3141,262
3141,3319
3142,1661
3143,210
3143,422
3143,823
3143,1046
3143,1329
3143,2747
3143,3486
3147,78
3147,1466
3147,3535
3148,226
3148,1567
3148,2374
3149,1907
3150,793
3150,1875
3150,3490
3152,322
3153,299
3155,2206
3156,674
3156,2805
3156,3607
3157,3637
3158,9
3158,39
3158,798
3158,1082
3158,1109
3158,1648
3158,1907
3158,1959
3158,2414
3158,2567
3158,3396
3158,4185
3160,962
3161,1354
3161,3233
3162,1014
3162,4626
3165,1184
3165,4019
3168,3846
3169,1360
3172,322
3172,2881
3172,4883
3173,2703
3176,3126
3177,1240
3178,1079
3179,2437
3180,1709
3180,1913
3181,2400
3184,314
3184,815
3184,858
3184,3307
3184,4227
3185,4938
3186,4603
3187,619
3188,1400
3191,416
3191,1668
3193,1642
3195,3724
3196,3738
3196,4637
3197,475
3197,1709
3197,3686
3197,4135
3200,1298
3201,1124
3202,1094
3202,3939
3203,3225
3208,845
3208,2388
3211,2361
3212,3796
3214,3691
3215,39
3215,510
3216,176
3218,2806
3219,4954
3222,3184
3223,176
3223,556
3223,1005
3223,1298
3223,1844
3223,2209
3223,2572
3223,2771
3223,3411
3223,4061
3223,4413
3223,4586
3225,1830
3228,1903
3229,13
3229,1789
3229,4645
3230,816
3232,3008
3237,324
3237,949
3238,256
3238,4262
3238,4476
3244,2039
3245,2150
3247,1904
3247,3013
3248,362
3248,691
3249,440
3249,3009
3249,3712
3249,4996
3250,434
3252,612
3253,238
3253,322
3253,550
3253,881
3253,1255
3253,1475
3253,1517
3253,2417
3253,2951
3253,3072
3253,3360
3253,4362
3253,4586
3254,4927
3255,214
3257,3957
3258,1581
3260,1489
3260,4074
3261,1355
3262,210
3263,416
3264,2213
3265,1148
3266,2509
3266,3315
3266,3590
3266,3851
3266,3939
3266,3986
3266,4185
3268,18
3268,1637
3269,525
3270,1411
3271,612
3271,3299
3272,65
3272,504
3273,613
3273,1784
3274,3535
3275,322
3275,798
3275,1843
3275,1884
3275,4094
3276,1620
3276,3287
3276,3864
3276,4384
3277,832
3277,1160
3277,4340
3279,3436
3284,327
3284,4705
3287,438
3288,386
3288,3680
3289,3417
3290,507
3291,322
3292,1903
3294,1287
3294,1316
3295,1210
3295,3600
3296,3654
3297,232
3298,210
3300,558
3300,4436
3301,224
3303,746
3304,4586
3305,731
3305,2016
3306,253
3310,306
3310,654
3310,1171
3310,1978
3310,3080
3310,3703
3310,3883
3310,3898
3310,4902
3311,638
3311,1384
3311,2063
3311,2428
3311,4814
3313,92
3313,1369
3315,1326
3315,2777
3316,1279
3316,3338
3318,1765
3318,3406
3320,1148
3321,1543
3322,3929
3323,476
3324,869
3325,3600
3326,1347
3327,2318
3328,597
3329,487
3330,674
3330,2096
3331,524
3331,2109
3332,2094
3333,2078
3333,3796
3333,3801
3333,3848
3335,58
3338,1091
3339,1259
3340,1056
3342,430
3343,98
3343,530
3343,782
3343,1752
3343,1822
3344,1805
3345,173
3345,284
3345,596
3346,3678
3347,336
3347,766
3347,776
3347,3572
3348,691
3353,354
3354,3160
3359,603
3361,3738
3361,4798
3362,1280
3362,2375
3362,4341
3366,841
3367,331
3367,2873
3368,4384
3369,755
3374,3170
3374,4516
3376,1087
3376,4214
3377,647
3378,427
3378,1815
3378,1933
3378,4401
3380,2596
3381,1427
3383,1503
3387,3529
3388,1830
3394,1007
3397,2334
3397,3977
3398,530
3398,4145
3399,326
3400,1784
3401,390
3401,924
3401,1587
3401,2096
3401,3561
3402,1129
3403,4384
3405,1354
3405,1907
3406,359
3406,417
3406,612
3406,989
3406,2762
3406,3077
3406,3703
3406,3749
3406,3759
3406,3983
3406,4185
3406,4433
3407,422
3407,4081
3413,4203
3413,4481
3414,2125
3417,4020
3418,394
3419,482
3421,181
3422,158
3424,3010
3424,4151
3426,658
3427,2046
3428,66
3429,1351
3434,475
3434,4216
3434,4389
3435,1330
3436,1721
3437,181
3437,2039
3439,1343
3439,3382
3440,2675
3441,530
3441,4219
3442,2958
3444,988
3444,1645
3444,3810
3445,3613
3447,3703
3449,4377
3451,1304
3451,2762
3451,4873
3453,636
3453,1784
3454,315
3455,2980
3455,4069
3456,1878
3457,2488
3458,756
3458,1784
3458,3621
3459,495
3460,4477
3462,2680
3463,120
3463,699
3464,404
3466,3131
3467,3206
3467,4140
3467,4457
3467,4469
3468,3548
3469,1029
3469,3372
3470,1765
3471,638
3475,578
3475,4938
3476,4857
3477,1907
3478,4187
3479,2954
3480,1615
3481,4436
3482,1778
3484,4893
3487,1169
3489,1947
3492,1047
3494,506
3495,1080
3496,2533
3497,461
3498,411
3498,743
3498,3798
3499,1620
3500,53
3501,35
3501,132
3501,200
3501,1099
3501,1235
3501,3679
3501,4382
3501,4530
3503,377
3509,2078
3510,1299
3510,2170
3511,828
3511,1157
3511,1338
3511,2024
3511,2029
3511,2991
3511,3085
3511,3513
3515,3867
3518,13
3518,277
3518,2332
3518,2392
3520,3002
3522,208
3523,3496
3524,1363
3525,96
3525,1074
3525,1980
3525,4522
3526,4545
3528,461
3532,4571
3533,4119
3536,4796
3538,4331
3540,58
3540,218
3540,682
3540,1146
3540,2558
3540,3135
3541,2844
3543,3560
3543,3889
3543,4477
3544,1154
3544,3955
3546,79
3547,613
3547,1843
3547,3327
3547,3596
3549,411
3549,2061
3549,2169
3549,3512
3549,3533
3549,3863
3551,1793
3551,3476
3553,2858
3554,2655
3555,604
3556,860
3558,313
3559,1393
3560,4757
3562,1454
3563,357
3564,2233
3565,3239
3566,2735
3568,206
3568,268
3568,314
3568,647
3568,806
3568,2391
3568,3898
3568,4279
3568,4928
3569,1137
3572,2330
3573,418
3573,2977
3573,3058
3573,4607
3574,3504
3574,3796
3575,66
3576,575
3576,801
3579,671
3579,4492
3580,252
3580,635
3580,1850
3581,3722
3581,3796
3582,637
3583,2096
3584,682
3585,25
3585,40
3585,132
3585,223
3585,400
3585,431
3585,481
3585,1253
3585,1354
3585,1427
3585,1907
3585,2047
3585,2094
3585,2934
3585,3348
3585,4837
3585,4893
3586,1433
3587,4722
3589,2415
3590,1629
3593,84
3594,118
3595,331
3595,602
3595,4118
3596,422
3596,451
3596,507
3596,1105
3596,1925
3596,4063
3596,4581
3598,481
3599,77
3601,711
3601,1342
3602,1549
3603,0
3603,425
3603,431
3603,433
3603,521
3603,947
3603,1434
3603,2418
3603,3427
3603,3476
3603,4602
3607,2806
3608,27
3608,215
3608,613
3608,2675
3608,2865
3608,3804
3608,3841
3611,222
3612,513
3613,114
3613,446
3613,801
3613,1423
3613,4772
3614,3281
3617,15
3617,700
3617,1316
3617,4007
3617,4720
3617,4893
3618,3973
3618,4866
3622,797
3622,3028
3625,1575
3626,2784
3628,521
3628,1903
3630,534
3630,694
3630,1030
3630,1079
3630,1137
3630,1668
3630,2037
3630,2308
3630,2625
3630,2744
3630,2869
3630,3220
3632,27
3632,578
3632,3592
3633,313
3633,4185
3635,262
3635,395
3635,414
3635,606
3635,647
3635,734
3635,1067
3635,1218
3635,1256
3635,1394
3635,1621
3635,1784
3635,1882
3635,2040
3635,2642
3635,3356
3635,4051
3635,4074
3635,4211
3637,2744
3638,1752
3642,738
3644,2664
3646,2378
3647,934
3650,1878
3651,4972
3654,1166
3656,1173
3659,3362
3659,3757
3660,339
3660,2486
3661,542
3664,353
3665,224
3665,1345
3666,2511
3667,1129
3670,700
3670,2520
3671,2213
3673,605
3673,4106
3673,4427
3674,32
3674,1002
3674,4722
3677,3003
3678,737
3678,824
3678,1837
3681,453
3682,949
3683,1360
3683,3831
3687,2464
3687,4876
3688,2961
3689,158
3689,532
3689,1149
3689,1248
3689,1390
3689,1585
3689,3026
3689,4852
3694,1280
3694,1608
3694,2768
3694,3779
3695,1109
3696,414
3697,1087
3697,1980
3700,3613
3700,4051
3702,2080
3704,269
3704,461
3704,570
3704,1368
3704,2723
3704,4092
3704,4972
3706,858
3708,0
3708,406
3708,782
3708,1331
3708,1668
3708,2464
3708,2691
3708,3438
3710,662
3710,3703
3711,1746
3713,2477
3714,329
3716,188
3717,96
3722,4074
3723,4271
3725,302
3727,2106
3727,2335
3730,1830
3734,807
3734,3722
3736,3204
3737,848
3738,1439
3738,2384
3738,2650
3738,4909
3742,604
3745,1280
3745,3600
3745,3684
3745,3814
3746,440
3747,1843
3748,40
3748,213
3748,331
3748,417
3748,723
3748,836
3748,1716
3748,1784
3748,2069
3748,2075
3748,2596
3748,4370
3748,4555
3748,4872
3750,2753
3751,2147
3753,3226
3754,1861
3755,2850
3755,4845
3756,110
3757,59
3757,2113
3758,1846
3758,4206
3760,326
3761,1593
3762,1801
3763,216
3763,253
3763,2094
3763,3486
3764,1129
3765,1382
3766,432
3768,299
3771,1239
3772,1789
3772,3762
3773,2456
3774,224
3775,4228
3775,4914
3776,4185
3778,18
3778,408
3778,1261
3778,1980
3778,2092
3778,2359
3780,159
3780,638
3780,700
3780,1023
3780,1117
3780,1678
3780,2407
3780,2648
3780,3615
3780,3854
3783,746
3784,867
3785,843
3785,3411
3787,2202
3787,2288
3791,417
3791,4082
3792,4898
3792,4942
3793,1746
3797,2291
3797,2417
3799,4104
3800,1949
3802,4317
3803,1537
3805,1965
3806,2782
3807,307
3807,359
3807,493
3807,966
3807,977
3807,1253
3807,1495
3807,1828
3807,3347
3807,3790
3807,4065
3807,4708
3814,881
3815,409
3815,672
3815,843
3815,1843
3815,1959
3815,2563
3815,2971
3815,3220
3815,3452
3815,4014
3815,4138
3815,4773
3819,2689
3820,1296
3820,1491
3821,40
3822,4452
3823,2782
3826,4037
3827,4544
3828,343
3828,2248
3828,3467
3828,4915
3833,1497
3837,302
3838,53
3839,852
3840,112
3842,507
3846,682
3846,4798
3847,181
3847,306
3847,1173
3847,2320
3847,2850
3847,3048
3847,3390
3847,3467
3847,3824
3847,3988
3847,4317
3847,4397
3850,1088
3851,924
3856,1280
3857,3338
3858,719
3859,424
3859,1651
3859,1712
3861,158
3862,164
3862,809
3862,1298
3862,1360
3868,2046
3871,1965
3873,3842
3874,1160
3875,2891
3876,3221
3876,3843
3876,4927
3877,1705
3877,1750
3877,1852
3877,1923
3877,2284
3878,2686
3878,4551
3884,36
3884,1828
3885,3600
3886,33
3888,182
3888,215
3888,324
3888,359
3888,478
3888,766
3888,2377
3888,4649
3888,4965
3891,417
3891,988
3892,1279
3893,1009
3895,949
3898,1593
3900,3140
3900,4185
3901,3222
3901,4599
3902,3390
3903,2703
3904,2125
3905,1477
3908,220
3908,798
3908,858
3908,1431
3908,3352
3909,530
3909,602
3909,1087
3909,1246
3909,1507
3909,1668
3910,4232
3912,507
3912,2154
3912,2161
3912,2977
3912,3190
3912,4036
3915,400
3915,1393
3915,3390
3916,2464
3917,305
3917,1423
3917,1705
3918,3724
3919,2963
3920,4902
3921,2127
3921,2438
3921,2944
3921,3722
3921,4904
3923,2147
3923,2159
3926,132
3926,238
3927,624
3927,1091
3927,2388
3927,2898
3927,3315
3927,3484
3928,155
3930,881
3931,39
3932,53
3934,3649
3935,1161
3936,3097
3938,1168
3939,638
3939,1253
3939,1461
3940,657
3942,1091
3943,4627
3943,4728
3945,1702
3946,682
3947,300
3947,1799
3950,2936
3952,1087
3952,2401
3954,2954
3954,4907
3955,149
3955,1237
3955,2965
3956,1965
3956,3652
3957,2712
3958,3572
3959,1481
3962,2064
3965,4185
3967,3090
3970,200
3972,3509
3974,1949
3975,78
3975,2374
3975,4198
3976,3304
3977,2339
3978,4331
3978,4675
3980,39
3980,404
3981,880
3981,4872
3982,238
3987,2392
3991,84
3994,253
3995,1750
3996,1964
3996,3082
3996,3336
3999,3359
3999,4055
4000,2891
4002,2556
4003,1672
4003,4218
4004,213
4004,947
4004,1204
4005,802
4008,1
4010,3054
4011,13
4011,475
4012,4195
4013,481
4013,664
4013,4635
4016,1240
4017,224
4018,1685
4018,4593
4020,1088
4021,277
4021,4949
4028,1395
4030,1339
4034,223
4036,858
4036,1843
4038,1668
4039,1091
4039,1467
4039,2577
4039,2768
4039,4033
4040,1606
4041,3416
4042,4029
4044,1298
4046,1277
4050,599
4051,4981
4052,4500
4053,78
4054,1142
4056,2800
4058,766
4058,4384
4058,4914
4058,4953
4059,1453
4063,766
4063,1299
4063,2426
4063,2552
4063,2857
4065,1215
4066,4434
4067,1029
4067,3898
4068,1280
4069,4384
4070,2512
4074,1393
4075,3368
4076,896
4077,2118
4077,2803
4079,3600
4080,2017
4084,1651
4085,3795
4087,331
4087,4133
4087,4657
4088,1500
4088,3712
4090,222
4090,662
4090,1045
4090,1347
4091,2439
4092,1821
4093,319
4093,388
4093,816
4093,3371
4093,3416
4093,3517
4093,3609
4095,461
4096,487
4096,722
4096,1480
4096,2713
4096,4477
4098,566
4098,722
4098,756
4098,1965
4100,1
4100,577
4100,635
4100,1555
4100,1717
4100,2046
4100,2982
4100,3009
4100,3738
4100,3983
4100,4556
4101,4331
4102,2215
4102,2452
4103,103
4103,738
4103,1954
4104,1765
4105,1784
4108,1390
4109,734
4109,1657
4109,4167
4109,4185
4110,3390
4112,926
4115,268
4116,3790
4117,4877
4118,746
4118,1858
4118,3983
4119,1668
4120,4377
4123,1170
4124,143
4125,166
4126,2010
4128,2372
4129,2792
4131,2705
4132,4872
4134,1758
4136,2
4136,618
4136,790
4136,2307
4140,842
4140,1185
4140,2107
4140,2807
4140,4476
4140,4942
4140,4970
4142,2123
4143,1091
4143,1965
4144,530
4144,597
4144,3469
4144,4221
4146,1302
4147,2350
4147,4728
4148,4938
4149,1
4150,1637
4154,1162
4155,3153
4156,530
4156,1620
4158,2926
4161,939
4163,3677
4164,4165
4166,1784
4167,388
4167,1354
4167,2481
4167,4238
4171,2705
4172,410
4172,559
4172,700
4172,784
4172,1155
4172,2723
4172,3053
4172,3506
4172,3521
4178,210
4178,445
4178,1280
4178,2181
4178,3983
4178,4565
4180,306
4180,1959
4180,4126
4181,350
4186,612
4187,575
4187,1267
4190,2299
4191,1521
4192,2021
4193,424
4194,2766
4194,4687
4196,119
4196,291
4196,324
4196,351
4196,1018
4196,1219
4196,1910
4196,2415
4196,3807
4197,944
4197,1071
4197,1845
4200,2050
4201,943
4201,1780
4202,2271
4202,3641
4206,3540
4206,4899
4208,120
4208,1980
4208,3036
4209,110
4209,3774
4211,664
4211,1302
4215,1517
4218,2878
4219,318
4219,414
4220,848
4220,1809
4220,2731
4222,39
4223,112
4223,189
4223,613
4223,1667
4225,514
4226,301
4227,647
4227,1875
4227,3483
4228,120
4230,2897
4230,4372
4231,36
4231,684
4231,980
4231,1828
4231,2199
4231,2531
4231,2687
4231,3889
4231,4263
4233,3637
4235,343
4237,53
4237,67
4237,724
4237,726
4237,797
4237,988
4237,1198
4237,1795
4237,1846
4237,2810
4237,3281
4237,3483
4237,3553
4237,3572
4237,3579
4239,2325
4240,1638
4241,35
4241,2563
4241,2944
4241,3220
4241,4777
4242,3158
4244,79
4245,1149
4245,4384
4246,181
4246,444
4246,631
4247,87
4247,142
4247,1334
4247,2415
4248,2492
4250,3762
4251,809
4255,3554
4256,167
4258,3779
4259,475
4261,4477
4265,17
4265,65
4265,155
4265,537
4265,654
4265,671
4265,1120
4265,1141
4265,2125
4265,2502
4265,4789
4267,1853
4269,1129
4270,1607
4273,3895
4274,1937
4275,4603
4276,1668
4279,256
4279,1093
4279,2461
4282,2496
4283,2303
4284,2954
4284,3832
4285,1822
4285,3703
4286,3485
4291,4027
4294,4317
4296,4228
4296,4918
4298,475
4299,3355
4300,1143
4300,1305
4301,1282
4302,2097
4304,1368
4304,4742
4305,2037
4307,1721
4307,4599
4308,807
4309,3488
4311,3633
4312,38
4313,1154
4314,222
4315,327
4316,1969
4318,322
4321,3205
4325,1078
4327,3989
4330,4247
4331,867
4333,857
4333,2171
4334,1248
4336,943
4337,896
4337,4128
4338,1650
4340,1148
4343,3795
4344,1350
4345,2
4347,318
4348,4224
4349,471
4349,4410
4352,2345
4353,3314
4355,36
4355,331
4357,577
4357,2983
4358,3410
4361,1401
4363,22
4364,2703
4364,4483
4365,916
4366,226
4366,4528
4368,2209
4368,2753
4373,746
4376,942
4377,58
4377,400
4377,1110
4377,1390
4377,1923
4377,2958
4377,3810
4378,414
4378,4501
4381,1570
4382,2963
4382,4822
4383,552
4385,2723
4386,16
4386,157
4386,1453
4386,1648
4386,1820
4386,1892
4386,2039
4386,3267
4386,3614
4386,4666
4387,158
4387,327
4387,1707
4387,3061
4387,3097
4387,3770
4387,3890
4389,0
4389,602
4389,2103
4389,2393
4390,1668
4391,1166
4391,1405
4391,1461
4391,2037
4393,2
4393,167
4393,939
4393,4727
4394,657
4394,790
4395,1379
4395,2969
4395,4182
4396,1563
4396,2460
4399,3995
4400,1785
4405,3832
4407,489
4407,2613
4408,851
4409,521
4409,3612
4411,1395
4413,180
4413,556
4413,3796
4413,3964
4414,516
4416,660
4417,3213
4420,3880
4423,299
4424,1
4424,2
4424,59
4424,62
4424,206
4424,326
4424,881
4424,899
4424,943
4424,1058
4424,1442
4424,2037
4424,2179
4424,2497
4424,2786
4424,3430
4424,3534
4424,4872
4430,1355
4430,3703
4431,1579
4432,2496
4433,694
4434,182
4436,392
4440,1818
4440,2844
4441,17
4443,1519
4445,3347
4448,3439
4449,1712
4450,225
4453,1172
4454,1830
4458,4082
4459,210
4462,1907
4464,318
4464,558
4464,2917
4466,746
4466,1878
4466,2435
4466,4989
4467,4074
4470,4434
4471,1627
4471,2039
4471,4254
4472,2980
4475,2937
4475,4541
4477,3234
4478,1070
4479,1447
4482,662
4484,1298
4486,4069
4488,1280
4488,3409
4489,2689
4490,865
4491,2376
4493,2171
4493,2367
4494,277
4494,301
4494,625
4494,1143
4494,1173
4494,2478
4496,2078
4497,881
4499,1481
4500,96
4503,3432
4503,4280
4504,867
4505,209
4506,1204
4508,902
4508,2445
4509,1298
4510,395
4510,601
4510,1299
4510,1305
4510,1821
4510,2055
4510,3751
4510,4549
4511,1386
4511,2050
4512,2259
4512,4461
4513,1878
4514,400
4515,232
4518,253
4520,2249
4520,3175
4520,3867
4524,2170
4525,710
4526,2096
4527,1702
4528,2028
4528,2502
4528,4085
4530,2474
4531,118
4535,518
4538,24
4541,39
4541,66
4541,110
4541,221
4541,253
4541,357
4541,390
4541,432
4541,518
4541,530
4541,698
4541,797
4541,1283
4541,1724
4541,1783
4541,1855
4541,2246
4541,2383
4541,2391
4541,2451
4541,2476
4541,3409
4541,3443
4541,4184
4541,4801
4542,3738
4543,3565
4544,597
4544,609
4544,4298
4545,3146
4546,3242
4550,4992
4553,32
4553,78
4553,772
4553,778
4553,2089
4553,2309
4554,224
4554,1947
4554,3126
4560,3159
4560,3486
4560,4069
4563,848
4563,1255
4563,2227
4563,3184
4563,3502
4564,4777
4566,867
4567,1497
4569,321
4571,2391
4573,3469
4574,532
4574,1550
4574,2522
4574,4185
4575,256
4577,2937
4578,3260
4580,436
4583,3846
4583,4991
4584,4777
4586,759
4587,2693
4593,1982
4594,939
4595,337
4596,3
4598,1799
4600,691
4601,438
4601,1485
4601,3774
4602,2813
4603,2695
4603,4893
4604,3125
4606,369
4606,772
4608,4119
4612,112
4612,660
4612,694
4612,2688
4612,3579
4612,3696
4612,4384
4614,4430
4615,694
4616,782
4617,87
4617,176
4617,242
4617,656
4617,685
4617,733
4617,792
4617,855
4617,1354
4617,1919
4617,2037
4617,2047
4617,2085
4617,3097
4617,3517
4618,1840
4619,3609
4621,692
4621,3393
4621,4872
4622,659
4623,1930
4624,1756
4625,122
4628,4549
4629,1837
4629,3035
4630,2365
4631,637
4632,59
4632,262
4632,578
4632,638
4632,990
4632,1078
4632,2911
4632,3064
4632,4477
4632,4621
4633,27
4634,1519
4634,1642
4634,2463
4634,3506
4634,3577
4634,4929
4637,84
4637,1473
4637,1830
4637,3243
4639,722
4641,3906
4642,224
4642,2330
4642,4303
4644,2128
4647,3208
4653,17
4654,451
4654,2502
4654,2856
4654,3608
4658,2596
4659,1154
4660,1923
4662,436
4663,1947
4664,3317
4664,3977
4668,4434
4669,4180
4670,32
4670,671
4670,2055
4670,2811
4670,4500
4674,1901
4676,504
4677,1184
4678,1593
4678,1949
4678,2596
4679,179
4680,662
4681,2020
4681,2388
4683,442
4685,78
4685,2019
4689,4340
4690,1029
4690,1045
4690,2237
4690,2898
4690,3751
4690,3882
4690,4257
4691,724
4693,181
4694,3788
4695,314
4696,4586
4697,664
4697,4832
4698,1142
4700,845
4700,1559
4701,4851
4702,1746
4704,1115
4704,4727
4705,880
4706,1330
4706,2733
4706,3722
4707,4379
4709,4893
4711,1040
4713,2944
4714,2894
4715,256
4716,1081
4716,1308
4716,1542
4716,3436
4716,4361
4717,934
4718,3654
4724,1007
4726,1239
4726,1421
4726,1581
4726,4039
4727,1355
4729,404
4730,417
4731,2460
4732,40
4733,924
4735,697
4736,3776
4737,988
4739,637
4740,2664
4741,4477
4743,489
4743,762
4744,244
4744,2764
4746,3369
4748,916
4749,1272
4749,2050
4751,700
4753,222
4755,1778
4756,3814
4757,318
4759,3859
4762,1363
4763,2271
4766,1389
4767,1140
4769,4206
4770,1390
4770,4425
4771,3941
4772,4384
4774,110
4774,2080
4774,3774
4774,4199
4776,2278
4778,302
4778,667
4778,1871
4778,2415
4778,3421
4779,40
4781,200
4782,2436
4783,4631
4784,2445
4784,3741
4785,1988
4786,2785
4787,331
4789,4228
4790,40
4790,216
4790,2799
4792,3409
4796,3390
4797,857
4799,4135
4800,435
4800,3190
4800,3946
4802,1274
4803,200
4806,2723
4807,92
4808,180
4809,675
4809,823
4809,1014
4809,2145
4809,2415
4809,3369
4812,2547
4813,39
4813,123
4813,400
4813,440
4813,638
4813,949
4813,1498
4813,2134
4813,2572
4813,4403
4818,1878
4819,1072
4819,1457
4819,2392
4819,3614
4820,3317
4820,4798
4821,1038
4821,1401
4821,2523
4821,3908
4821,4153
4822,215
4826,4529
4828,4873
4830,734
4830,991
4831,15
4831,274
4831,1481
4833,934
4833,980
4833,1762
4833,1967
4833,4180
4834,664
4836,698
4836,2415
4836,2762
4837,2958
4838,215
4838,671
4838,4537
4839,3368
4840,640
4840,1455
4840,2216
4840,2532
4840,2596
4840,3814
4840,4835
4842,182
4844,314
4846,4218
4847,1980
4849,3467
4850,1502
4851,93
4851,530
4851,949
4851,1423
4851,2424
4851,2937
4851,3703
4851,4401
4852,431
4852,578
4854,778
4855,1907
4856,40
4856,4422
4858,613
4858,1477
4858,1878
4858,4069
4859,150
4859,3467
4859,3985
4859,4184
4860,836
4862,4794
4866,329
4867,2415
4868,627
4869,555
4869,1501
4870,216
4871,216
4871,499
4871,991
4871,1567
4871,3304
4872,4218
4873,631
4874,3334
4875,36
4875,340
4875,484
4875,1173
4875,2725
4875,4570
4876,1030
4878,3362
4879,15
4880,4576
4881,3283
4882,667
4884,39
4884,216
4885,210
4886,4185
4890,396
4890,1280
4890,2761
4890,3944
4891,3512
4892,3724
4892,4185
4893,3639
4894,4822
4896,677
4901,2150
4901,4652
4903,4291
4904,171
4904,1877
4905,2450
4906,378
4906,742
4906,2170
4907,1316
4910,4185
4911,1925
4912,433
4912,933
4912,1069
4912,1161
4912,1654
4912,2979
4913,430
4913,1756
4917,1531
4917,2800
4917,2813
4920,896
4921,525
4922,214
4923,0
4923,3623
4923,3894
4925,302
4925,1302
4925,3751
4928,2990
4928,4045
4929,25
4929,1203
4929,1425
4929,1481
4929,2016
4929,2559
4929,4119
4929,4919
4932,988
4933,2350
4934,3009
4935,2688
4936,266
4937,52
4937,1245
4937,4433
4938,4206
4939,27
4939,583
4939,1029
4939,2929
4939,3436
4941,597
4942,433
4942,1481
4942,2008
4942,3998
4943,2805
4944,3916
4946,662
4949,57
4951,1252
4952,2693
4954,2478
4955,3929
4957,363
4958,3788
4959,643
4959,1351
4959,1408
4959,1709
4959,1982
4959,2937
4959,3971
4959,4195
4960,1995
4962,610
4963,2451
4964,1485
4966,2415
4967,435
4969,2368
4970,518
4970,1959
4971,78
4971,640
4971,1124
4971,3222
4972,4863
4975,57
4975,161
4975,213
4975,314
4975,551
4975,612
4975,2039
4975,4592
4975,4737
4975,4777
4977,782
4980,3310
4983,4788
4984,2240
4986,4085
4989,416
4989,1828
4989,1830
4989,2299
4989,2797
4989,3698
4989,3889
4990,1608
4991,3135
4992,1142
4995,1148
4995,1742
4995,2069
4995,2325
4996,4914
4997,409
4997,1633
4997,2439
4999,2342
