src,dst
0,1
2,182
2,313
2,793
2,4243
3,2273
6,2498
6,3408
8,889
8,1907
8,2189
8,3599
8,4793
9,1269
9,4762
10,472
10,612
10,1020
10,1233
10,2508
10,3386
10,3615
11,1490
12,463
14,292
14,416
14,1108
14,1120
14,3733
17,973
17,2300
17,3227
18,470
18,4044
18,4905
24,172
24,2335
27,77
28,686
28,762
28,3161
29,458
29,799
29,1688
29,2925
29,3494
29,3763
29,3800
29,3956
31,46
31,277
31,458
31,482
31,499
31,1025
31,1219
31,1427
31,1528
31,1556
31,1962
31,2157
31,2258
31,2847
31,3629
31,3861
31,3973
31,4186
31,4259
32,346
32,512
32,559
32,676
32,709
32,880
32,982
32,1016
32,1041
32,1050
32,1051
32,1088
32,1341
32,1417
32,1612
32,1966
32,2215
32,2353
32,2410
32,2895
32,3063
32,3341
32,4232
32,4408
32,4463
32,4554
32,4591
32,4620
32,4704
32,4950
34,500
34,1435
34,2246
34,3499
35,4257
36,945
36,4035
37,967
37,2618
37,2752
37,4573
37,4681
37,4762
39,266
39,303
39,626
39,719
39,756
39,1398
39,1433
39,1606
39,1728
39,2727
39,2839
39,2887
39,3188
39,3835
39,4231
39,4364
39,4428
40,1199
40,2203
41,2741
41,2824
43,1472
47,1120
47,1381
47,2218
47,2816
47,3282
47,3590
47,4569
48,674
48,1331
48,2892
48,2984
48,4757
48,4862
49,1045
50,73
50,847
50,1000
50,2223
50,3951
51,899
51,1018
51,1027
51,2836
51,3022
51,4241
51,4576
51,4828
54,377
54,1797
54,4525
54,4881
55,1757
57,245
57,535
57,707
57,1351
57,1775
57,4951
57,4954
57,4968
58,190
58,3067
58,3593
58,4290
58,4987
59,466
59,1618
59,3616
60,718
61,25
61,66
61,620
61,831
61,1199
61,1557
62,102
62,484
62,3114
62,4970
63,738
63,2482
64,807
64,3539
64,4097
65,1229
67,1612
67,4427
67,4510
68,840
68,1513
68,2221
68,2538
68,3241
68,3890
69,185
69,372
69,1413
69,1890
69,2424
69,2635
69,2687
69,2993
69,3012
69,3105
69,3372
69,3642
69,3773
69,3848
69,4601
69,4950
70,3894
70,4805
71,443
72,175
72,267
72,2218
72,2648
72,4606
74,1086
74,1494
74,3575
74,4877
74,4934
75,831
75,2925
75,4451
75,4805
76,572
76,814
76,1389
76,2325
76,4643
78,81
78,137
78,377
78,545
78,1606
78,1643
78,1843
78,3002
78,3835
78,3868
78,4654
78,4936
80,227
80,323
80,1307
80,1408
80,1719
80,2299
80,2852
80,3575
82,756
82,828
82,1140
82,1464
82,1469
82,2547
82,2770
82,3557
83,716
83,732
83,799
83,1241
83,1551
83,2209
86,2050
87,52
87,285
87,880
87,1977
90,2078
93,355
93,396
93,1633
93,2566
93,3715
95,787
95,3457
96,505
96,2601
97,2131
97,4411
97,4772
98,224
98,242
98,740
98,1101
98,1135
98,1238
98,1253
98,1397
98,1554
98,1634
98,2372
98,2824
98,4363
99,3470
100,339
100,393
100,589
100,989
100,997
100,1278
100,1646
100,1823
100,3346
100,3460
100,3939
100,4690
103,1902
104,1438
105,115
105,564
105,912
105,1125
105,1273
105,1409
105,1413
105,2414
105,2498
105,2904
105,3376
105,3521
105,3876
105,4046
105,4076
105,4740
108,4064
109,324
109,431
109,681
109,1505
109,2396
114,669
114,1325
114,4904
116,1120
116,2034
117,443
117,527
117,2041
117,3852
117,4840
118,105
121,30
121,3809
121,4144
122,3960
123,463
123,1933
123,1965
123,3628
123,4257
125,112
125,998
125,1728
125,1981
128,855
128,1209
128,2365
128,4384
130,330
130,1807
130,2173
130,2374
131,1199
131,1216
131,2486
132,2134
132,3254
133,1288
134,1197
134,2521
134,2776
134,4461
137,3620
138,2955
139,624
139,4409
142,891
142,1349
142,3636
142,4939
143,562
143,2286
143,2955
145,4554
146,3024
148,2299
148,2706
148,2863
149,895
149,1240
149,1889
149,1990
149,2349
149,3488
152,94
152,2506
153,288
153,1387
153,2806
153,3132
153,3565
154,4690
154,4705
154,4985
157,1389
157,1728
157,1869
157,3606
157,3742
158,313
158,457
158,1828
158,2579
158,4032
160,3835
163,119
163,124
163,397
163,616
163,733
163,1462
163,2053
163,2491
163,2953
163,2961
163,3607
165,206
165,577
165,778
165,4639
165,4788
166,299
169,1410
169,2300
173,106
174,4876
176,77
176,393
176,1712
176,3306
177,830
177,4355
178,101
178,325
178,3483
178,3664
179,810
179,846
180,987
183,2409
184,20
184,230
184,668
184,1828
184,4226
187,542
187,1590
187,3185
189,284
189,1025
189,2176
190,598
190,795
190,1242
190,1661
190,1847
190,2212
190,2227
190,2460
192,1104
192,2906
193,2232
193,2576
193,3004
193,3156
193,4719
195,360
196,306
196,442
196,629
196,647
196,1171
196,1663
196,2034
196,4233
197,608
198,1812
199,127
199,1032
199,3146
200,284
200,1071
200,2082
200,3044
200,4087
200,4346
201,762
201,2711
202,1725
204,209
204,505
207,1665
207,2581
207,4022
207,4521
210,1419
210,2645
210,3357
210,4310
211,608
211,1015
212,2809
212,4571
213,291
213,1571
213,1781
213,2535
213,4920
214,1126
214,3041
217,194
217,4297
218,341
218,4404
219,124
219,340
219,632
219,1510
219,1831
219,1872
219,2383
219,2496
219,3057
219,3835
220,412
220,749
220,3888
221,185
221,2466
221,3258
223,860
223,1490
223,1686
223,1834
223,2966
223,4314
223,4417
223,4486
224,1244
224,1275
224,1542
224,3879
224,4127
224,4708
224,4951
225,488
225,658
225,718
225,1372
225,2880
229,45
229,506
229,1025
229,1139
229,1994
229,2915
230,77
230,899
230,1036
230,2453
230,2505
230,2659
230,3355
230,4034
231,583
231,649
231,935
231,1686
231,2171
231,2824
231,3395
231,4366
232,2293
232,3239
232,4594
235,4635
236,459
236,808
236,2407
236,2454
236,3557
239,38
243,477
243,758
243,1538
243,2778
243,4565
244,528
244,585
244,1388
244,2626
244,3179
244,3646
246,3594
246,4502
248,1370
248,2971
250,208
250,4535
251,264
251,1060
251,1612
251,3672
251,3803
252,5
252,1053
253,119
253,559
253,619
253,989
253,1249
253,1690
253,2503
253,2566
253,2824
253,3644
253,4634
256,46
256,284
256,287
256,592
256,826
260,2717
261,549
261,777
261,2445
261,4604
262,239
262,2498
264,3660
264,4458
265,2421
265,4404
268,232
268,970
268,1309
268,1608
268,1885
268,3749
270,349
270,745
270,2029
270,2162
270,2210
270,2888
270,3195
270,4563
271,11
271,963
271,1413
271,2775
271,2923
272,1781
272,2591
272,2726
272,3653
274,25
274,121
274,636
274,841
274,1556
274,2122
274,4736
275,347
275,1528
276,673
276,697
276,1922
276,2022
276,2185
276,2863
276,2955
276,4196
278,624
278,669
278,1559
278,2218
278,2546
278,2974
278,3821
278,4015
278,4301
278,4411
281,1857
281,2055
281,4629
282,124
282,857
282,4365
282,4717
289,2238
289,2413
290,3442
291,91
291,1767
293,2049
293,2904
295,4509
296,115
297,1325
297,2171
298,266
298,945
298,981
298,1738
298,3860
299,77
305,308
305,995
305,3743
307,2062
309,644
309,671
309,1120
309,1307
309,2783
309,3483
309,3607
309,4806
309,4857
309,4951
311,2482
311,3057
312,250
312,447
312,1293
312,2172
314,112
315,209
316,986
317,273
317,534
317,1114
317,1858
317,3565
317,4902
318,465
319,705
319,927
319,2411
319,4105
322,1625
322,1857
322,2498
326,292
327,191
327,552
327,940
327,1053
327,2330
327,2806
327,3982
330,2282
332,1982
332,3212
334,1107
337,392
337,2981
337,4016
343,162
343,188
343,202
343,257
343,831
343,1346
343,4102
343,4260
343,4505
343,4850
344,3629
348,135
348,2062
348,2422
348,4170
348,4487
350,644
350,1649
350,4929
351,256
351,1503
351,1723
351,3778
351,4337
352,162
352,859
354,50
357,33
357,119
357,794
357,1586
357,2989
358,209
358,690
358,1120
358,1264
358,3259
358,3574
359,575
360,339
360,2810
361,216
362,1211
362,1859
362,1875
362,2222
362,3600
363,896
363,1534
363,1661
363,1819
364,107
364,151
364,972
364,1092
364,1211
364,1312
364,1919
364,4225
366,5
366,734
366,1740
366,2805
366,3764
366,3960
367,19
367,709
367,893
367,952
367,1710
367,1819
367,2070
367,2646
367,3561
367,4230
367,4392
369,2155
370,167
371,85
371,1685
373,502
373,762
373,1691
373,1871
373,2396
373,2543
374,111
374,395
374,847
374,1285
374,1461
374,1660
374,2244
374,2593
374,2719
374,3153
374,3348
374,3609
374,3676
374,3998
374,4020
374,4205
375,266
375,1644
375,2424
375,3782
375,4623
378,647
378,1307
378,3168
378,3254
378,3619
379,30
379,1002
379,1095
379,2073
379,2160
379,2280
379,3170
379,3932
379,4179
379,4559
379,4564
379,4570
380,216
380,600
380,624
380,696
380,796
380,1045
380,1154
380,1578
380,2356
380,2827
380,3474
380,4239
380,4452
381,338
381,498
381,737
381,1611
381,2278
381,2662
381,3999
381,4176
383,355
383,1435
383,3512
385,397
385,670
385,757
385,2422
385,2795
385,3608
387,854
387,1404
387,1748
387,2396
387,3142
387,3438
387,4170
387,4781
388,3307
388,3932
388,4194
388,4216
388,4447
388,4687
390,453
390,971
390,4784
394,1551
394,1626
394,3557
394,3724
394,4104
398,292
398,927
398,2141
398,2754
398,4369
399,119
401,77
401,2087
402,104
402,433
402,736
402,1037
402,1786
402,2801
402,2900
403,137
403,338
403,532
403,607
403,1175
403,1189
403,1361
403,1608
403,3144
403,3835
404,1183
404,2120
404,4224
405,3067
405,3615
408,517
408,1080
408,3820
409,4486
412,2007
412,3629
413,194
413,310
413,376
413,1114
413,2900
413,2903
413,2952
413,3327
413,3796
413,4541
414,945
415,817
415,1207
415,1472
417,353
417,982
417,3409
417,3867
417,4255
418,753
418,1151
418,2056
418,2396
418,3629
418,3847
419,522
419,1750
419,1958
419,3892
419,4509
420,301
421,831
421,2724
423,112
423,891
423,1230
423,1333
423,2620
424,33
424,439
424,2513
424,3835
426,2396
428,787
430,4486
432,466
432,754
432,2403
434,425
436,2392
437,2737
437,4154
438,16
438,651
438,1133
438,1858
438,2556
438,3177
439,657
440,1024
440,2356
440,3185
440,3256
440,4592
440,4811
441,486
441,686
441,2469
442,202
442,1303
442,4258
446,294
449,1805
449,4333
452,525
452,1146
452,1326
452,1849
452,2408
452,2878
452,3098
452,3113
452,3302
452,3871
452,4241
452,4488
453,1406
458,990
458,2133
458,2201
458,2708
458,4519
458,4779
460,527
460,645
460,2344
460,2428
460,3277
460,4653
461,1699
461,3866
461,4035
467,288
467,624
467,2126
468,997
468,2075
468,4299
469,1406
469,2387
469,3203
469,3804
471,79
471,1067
471,1419
471,1641
471,3666
471,4052
471,4718
473,2422
473,4208
474,3733
475,3480
475,3727
477,486
477,1560
477,1562
477,2785
477,3185
477,3937
477,4588
478,913
478,1032
478,1598
478,2888
478,3068
479,206
479,594
479,2546
480,757
480,1633
480,2759
480,3368
481,395
481,1341
481,1371
481,3962
483,1968
484,738
484,2374
484,3081
484,4091
484,4177
485,767
485,1076
485,1144
485,1146
485,2618
485,3879
485,4164
487,500
487,2719
487,3141
487,4805
489,2833
489,4329
489,4730
490,1948
490,2119
493,22
494,2925
495,439
496,1945
496,2699
503,2322
503,2573
504,1088
504,2396
505,933
507,945
507,1048
507,1272
507,3908
508,888
508,2298
508,3244
508,4263
510,285
510,1603
511,4248
513,491
513,743
513,1316
513,1457
513,3821
513,4078
513,4174
513,4198
513,4352
513,4622
513,4951
514,3179
515,454
515,1198
515,4052
516,2237
516,2566
516,2686
516,3823
516,4440
516,4950
517,1394
517,1609
517,1747
517,2121
517,2375
517,3448
517,4523
517,4729
520,209
521,1202
521,1510
521,2126
521,2699
522,422
522,586
522,891
522,3337
522,3607
523,77
523,2366
526,149
529,870
529,2658
530,172
530,306
530,4892
531,819
531,3192
531,3399
532,492
532,3437
536,762
536,1792
537,616
537,624
542,1932
542,4175
543,2599
544,4352
545,252
545,2680
546,1162
546,1541
546,1750
546,2433
547,45
547,185
547,1139
547,2566
547,2928
547,3098
547,4024
548,1249
548,4484
550,194
550,451
550,705
550,1137
551,1301
554,1666
554,2155
555,120
555,2812
555,4304
556,2938
556,3794
556,4241
557,33
557,409
557,828
557,1078
557,1674
557,1789
558,377
558,4494
559,759
559,1463
559,4101
560,511
560,1911
560,2524
560,2977
560,4091
560,4357
560,4703
560,4904
560,4970
561,383
561,1884
561,2239
561,2435
561,2464
561,3705
561,3937
565,1183
565,4257
567,555
567,1413
567,1626
568,4257
573,11
574,2327
574,4620
576,386
576,730
576,1413
576,2389
577,345
577,889
577,2254
577,2482
577,3536
580,439
580,2238
581,20
581,307
581,4509
582,264
582,827
582,1608
582,2550
582,2929
582,3662
584,3185
587,377
590,7
590,665
590,1075
590,1441
590,1997
590,2824
590,3189
591,400
592,107
592,814
593,697
593,1414
593,1604
593,2292
593,3288
593,3359
593,4736
595,2566
595,4826
596,1027
597,457
599,267
601,4322
603,40
603,710
603,1404
603,1631
603,1816
604,354
604,566
604,1504
604,4114
606,1712
606,4305
608,13
608,3142
608,4356
609,3594
610,3430
611,1448
611,2599
611,3745
614,692
617,1709
617,2093
617,2787
617,3633
617,3863
618,1582
618,4828
620,224
621,2001
622,284
622,1989
622,2219
623,527
624,450
625,1249
625,1327
626,3161
627,577
627,4596
628,457
628,2596
628,4491
630,2476
633,1435
634,3604
634,3728
635,1294
635,1880
635,2078
635,3360
635,4941
637,992
637,2407
637,3087
637,3185
638,105
638,2973
638,3303
638,4153
639,3057
639,3429
640,460
640,1475
641,2614
641,3844
641,4419
646,506
646,2505
648,336
650,466
652,1338
652,1795
652,1810
652,1936
652,1983
652,2744
652,3011
652,3756
652,4179
652,4297
652,4340
652,4682
652,4690
653,2387
653,2502
653,3056
653,3307
655,566
655,714
655,1264
655,1312
655,1313
655,1555
655,1970
655,2401
655,3374
655,3614
659,257
659,959
659,1453
659,1531
659,2405
659,2797
659,3394
660,762
660,954
660,3477
662,92
662,3435
662,3868
663,397
663,3129
663,4304
665,2054
665,3482
673,168
675,4063
675,4775
676,247
676,2581
677,383
677,1056
677,1108
677,1138
677,1165
677,1349
677,1445
677,1558
677,2154
677,3686
677,3944
677,4519
677,4537
678,222
679,175
679,301
679,1821
679,2006
679,2769
679,2866
679,3703
679,3868
679,4280
680,796
680,2787
680,4505
683,466
683,2175
684,4950
687,1612
687,1679
687,1716
687,2173
687,2253
687,2495
687,2977
687,3067
687,3732
687,4190
687,4747
688,888
689,3607
691,585
692,448
692,579
692,1289
692,1353
692,2402
692,2437
692,2857
692,3317
692,3483
692,3840
692,4764
693,408
694,3607
695,2222
695,2894
695,3276
696,2630
696,4617
697,3295
698,1221
698,3579
698,4071
699,842
699,1046
699,2346
699,3200
699,3821
702,861
702,1885
702,4626
703,79
704,326
708,110
711,660
711,1266
712,2700
712,3960
712,4465
713,52
713,2986
721,2245
721,4840
722,631
722,1049
722,3929
723,873
723,3607
724,1696
724,2061
724,2076
725,4
725,315
725,2798
725,3344
727,105
727,1151
727,2169
727,3572
728,1027
729,1053
729,2691
729,3021
729,3694
729,3807
731,777
731,2111
731,2806
731,4910
733,2955
735,292
735,1159
735,1448
739,2346
741,534
742,588
742,2151
743,377
744,41
747,730
747,810
747,3043
747,3655
747,4288
747,4820
748,284
748,685
748,841
748,1027
748,1148
748,1514
748,1593
748,2143
748,2717
748,2720
750,3911
751,345
752,338
752,381
752,1675
754,682
754,1671
754,3055
754,4425
755,1380
759,144
759,4177
759,4223
760,1011
760,1348
760,1411
760,1529
760,1596
760,3495
761,649
761,2791
761,2907
761,4908
761,4945
762,905
762,1467
762,1760
763,463
763,1613
763,1967
763,1987
764,106
764,4975
765,899
765,4707
766,499
766,759
766,950
766,1495
766,4257
767,1061
767,3122
768,1006
768,2469
769,106
770,3072
770,3646
771,1019
771,2629
771,4453
772,1957
772,4510
773,3589
773,4509
774,241
774,697
774,710
774,2245
774,3835
775,3162
776,175
778,338
779,458
780,1033
780,2811
780,4507
780,4950
780,4982
781,2209
782,73
783,1968
783,2671
784,2222
785,1074
785,2494
786,389
786,2748
789,2001
790,7
790,3650
791,255
792,228
794,40
798,670
798,923
798,975
798,2078
798,2922
798,2978
798,3253
800,1339
800,1892
800,2001
800,2062
801,757
801,3127
801,3781
803,1608
804,105
804,864
804,2504
805,2528
805,3557
806,945
806,1639
810,155
810,302
810,749
810,847
810,1728
810,2756
810,3116
811,979
811,2704
811,2714
811,4386
811,4455
811,4715
812,194
812,3960
813,3041
813,3662
814,1339
815,840
815,2205
815,2498
815,3603
815,4312
815,4492
815,4635
816,113
816,834
816,937
816,1653
816,1842
816,2417
818,3102
818,3223
818,4533
820,209
821,308
821,892
821,1108
821,1211
821,1436
821,1820
821,2213
821,2225
821,2819
822,346
822,1475
823,1401
823,3959
824,2280
824,2489
825,1265
825,1608
825,2184
825,4235
825,4279
825,4937
826,2974
830,1077
830,2391
830,2405
830,2699
830,3078
830,3108
830,4055
833,172
834,1431
835,4451
835,4992
837,732
837,3434
837,4762
839,3827
841,1188
841,2059
841,2450
841,3131
842,3382
843,1685
843,2993
843,3004
843,4957
844,3254
845,159
845,368
846,310
846,1505
846,1908
846,4383
848,2055
849,147
849,460
849,1039
849,2260
850,2093
851,1661
851,2185
852,287
852,406
852,678
852,2427
852,3376
852,3585
852,3744
852,4313
852,4480
853,206
856,685
858,1433
858,4052
858,4395
859,2831
859,4467
863,2684
865,1406
866,124
867,1446
867,1500
867,1987
867,2824
867,3747
867,3995
867,4808
867,4946
868,2855
868,3246
868,4016
870,1365
872,224
872,385
872,969
872,996
872,4647
872,4664
874,1431
874,3604
875,1505
875,2302
875,2374
876,705
876,1341
876,2510
876,4805
878,104
878,758
879,1314
879,2647
879,3125
879,3359
879,3839
881,232
881,3421
882,455
883,994
883,1608
883,3429
884,3458
886,589
887,3081
890,1824
890,2682
890,4071
890,4851
894,789
897,1284
898,1589
898,2218
900,102
901,2413
902,836
902,908
902,1347
903,542
903,585
903,4531
904,1753
906,1413
907,301
907,589
907,2262
908,705
909,1504
909,3894
910,757
910,1320
910,2168
910,3896
911,1487
911,2184
911,2322
911,3430
911,4432
912,3198
914,269
914,1470
914,2037
914,3054
916,668
916,923
916,1006
916,1066
916,1608
916,1837
916,1875
916,1886
916,2316
916,3822
916,4554
916,4601
917,3738
918,1525
918,3483
919,4911
921,146
922,33
922,2192
923,433
923,613
923,1430
923,1618
923,3106
923,3793
924,345
924,1111
924,1611
924,1847
924,2514
925,1413
925,1943
925,2641
925,2777
925,3016
925,4351
925,4544
926,110
926,2228
926,3985
926,4369
928,2374
929,119
931,273
931,956
931,1026
931,1560
931,1764
931,3024
931,3268
931,3274
931,3702
931,4130
931,4534
932,506
932,889
932,1088
932,1501
932,1781
932,1860
932,2970
932,4032
932,4409
933,1735
936,2863
938,408
941,2746
941,4678
942,3646
943,1094
943,1185
943,1296
943,4145
943,4917
944,273
944,2602
944,3933
944,3987
944,4016
944,4566
946,1108
947,1383
947,1538
947,3749
948,799
948,2302
949,1947
949,1991
949,2837
951,355
953,2805
954,2831
954,4510
955,900
955,1932
955,2585
956,232
956,255
957,115
957,836
957,3685
957,4609
958,2593
958,3768
958,3885
960,2928
961,3457
961,3787
964,2200
965,2079
965,2503
965,2869
965,3583
965,4095
965,4428
968,185
968,974
968,3502
970,453
970,869
977,528
978,52
981,4709
983,3597
983,3617
984,714
984,3899
984,4159
985,5
987,1800
987,2110
987,4304
988,2055
988,2131
988,2473
988,2999
988,4011
991,3624
993,342
993,398
993,1407
993,1641
993,1683
993,1691
993,2018
993,2367
993,2566
993,2784
993,2880
993,3209
993,4969
995,1062
995,4809
995,4997
998,2831
1001,1199
1003,709
1004,3189
1004,3286
1004,3595
1004,4409
1005,292
1006,445
1006,1693
1007,893
1007,4381
1010,757
1011,439
1011,1084
1011,2561
1011,3415
1012,280
1012,4258
1013,539
1014,77
1014,686
1014,1787
1014,4572
1014,4915
1015,2919
1015,2924
1017,284
1017,1978
1017,3627
1021,3828
1022,1864
1026,682
1026,3254
1026,4876
1028,986
1029,448
1029,554
1029,2256
1029,4081
1029,4652
1030,1330
1031,819
1033,759
1038,718
1038,1750
1038,3210
1038,3471
1038,3505
1038,3648
1038,4501
1042,237
1042,2806
1042,3231
1042,3960
1042,4894
1043,340
1043,4925
1044,1449
1045,124
1045,1497
1045,1982
1045,3265
1046,1781
1046,3717
1047,734
1047,746
1047,1065
1047,2879
1047,4222
1052,28
1052,891
1052,4285
1054,665
1054,2863
1055,1076
1055,1344
1055,4300
1057,127
1057,186
1057,263
1057,445
1057,1008
1057,1078
1057,1167
1057,1308
1057,1353
1057,1384
1057,1406
1057,1744
1057,1745
1057,2426
1057,2699
1057,2925
1057,3067
1057,3351
1057,3835
1057,4107
1057,4396
1057,4589
1057,4792
1058,986
1058,1270
1058,1528
1058,2538
1058,3196
1058,3294
1059,997
1059,2849
1061,1045
1061,3743
1063,393
1063,2877
1063,4401
1063,4973
1064,28
1064,375
1064,1250
1064,1654
1064,3164
1068,2374
1068,2421
1068,2998
1068,4684
1069,1347
1069,2874
1069,3813
1069,3815
1072,1505
1074,799
1074,830
1074,1227
1076,1558
1079,71
1079,3430
1081,1902
1082,264
1082,1019
1082,2083
1085,2402
1087,2004
1087,3066
1087,3548
1089,216
1089,3490
1090,1519
1090,3684
1091,1294
1091,1940
1091,2805
1093,286
1093,335
1093,743
1093,1662
1093,1776
1093,2866
1093,3136
1093,3138
1093,3758
1093,4650
1096,607
1096,3162
1097,579
1097,930
1097,939
1097,1904
1097,2723
1098,2052
1098,4458
1099,1327
1099,1560
1099,4346
1100,585
1102,3437
1103,38
1103,124
1103,2270
1103,2726
1103,2976
1103,4950
1104,2600
1104,2892
1105,250
1105,2335
1105,3979
1106,1124
1106,1439
1106,1661
1106,2922
1107,3845
1108,33
1109,209
1110,73
1111,710
1114,1986
1116,2461
1116,2636
1116,3254
1116,4846
1117,3057
1118,448
1119,23
1119,449
1119,1867
1119,2932
1119,3290
1119,4053
1119,4833
1122,77
1123,3192
1127,3185
1127,3786
1128,431
1128,2723
1128,3095
1128,3670
1129,602
1129,1234
1129,1553
1129,2417
1129,3024
1129,3197
1134,656
1136,413
1136,1719
1138,3161
1138,3220
1141,559
1142,301
1144,2280
1144,2561
1145,616
1146,255
1147,1009
1150,1121
1150,2294
1152,4858
1155,3
1155,2127
1156,831
1156,2315
1156,3266
1156,3283
1157,1666
1158,16
1158,1312
1158,2335
1158,2470
1161,4723
1163,1131
1163,1883
1163,3958
1166,4035
1168,22
1168,518
1169,518
1169,3244
1169,4819
1170,3824
1170,4296
1170,4962
1171,2632
1171,3223
1172,559
1173,126
1173,616
1173,2158
1174,349
1174,705
1174,1828
1174,2912
1174,3720
1174,4335
1174,4562
1176,1073
1177,450
1177,1961
1177,4245
1178,102
1178,721
1179,2405
1179,2672
1180,2955
1182,1406
1182,4152
1182,4619
1184,1009
1184,3329
1186,913
1186,3728
1186,4832
1187,156
1187,1207
1187,1907
1187,4767
1190,787
1190,2938
1190,4607
1191,4525
1192,275
1192,616
1195,396
1195,1242
1196,975
1197,1280
1199,1490
1201,1092
1201,1608
1203,660
1203,1200
1203,2287
1204,315
1204,1807
1205,997
1205,2427
1205,4611
1207,1153
1207,2156
1207,2481
1207,2512
1207,3825
1208,1130
1208,1443
1208,4799
1209,989
1210,759
1213,1045
1215,309
1220,956
1222,754
1222,3422
1223,1092
1224,4505
1226,2928
1226,4810
1228,248
1228,391
1229,307
1229,535
1229,2109
1229,2200
1229,2207
1229,4250
1231,71
1232,2909
1232,3751
1232,4582
1232,4804
1234,1181
1234,1729
1234,2133
1234,2964
1234,3192
1237,685
1237,1413
1239,2185
1239,4723
1246,491
1246,1143
1246,1261
1246,1412
1246,2704
1246,3301
1246,4258
1246,4733
1247,506
1248,624
1248,2983
1251,2422
1252,463
1254,1689
1254,3879
1255,880
1256,440
1256,1203
1256,2437
1256,2997
1257,671
1259,1060
1259,1544
1259,3230
1260,1470
1260,2650
1260,3798
1260,3836
1261,135
1261,2582
1262,1295
1262,1883
1262,2093
1263,665
1263,3094
1263,3308
1263,3315
1263,3664
1267,860
1267,1438
1267,4439
1268,1138
1272,448
1272,1875
1274,2548
1274,3723
1276,1025
1276,1524
1277,20
1279,106
1279,2022
1279,4406
1283,188
1283,3828
1283,4416
1285,840
1286,156
1286,1009
1286,2149
1286,2198
1286,4368
1290,383
1290,506
1290,1848
1290,2095
1290,2110
1290,4258
1290,4330
1291,1126
1291,2806
1291,3864
1291,4262
1292,1040
1292,1619
1292,2218
1292,3361
1292,4427
1293,470
1296,1844
1296,4951
1297,997
1297,3445
1297,3662
1298,3629
1299,315
1299,732
1301,570
1301,3748
1302,3656
1304,1221
1305,3899
1306,277
1306,2159
1308,53
1308,781
1308,2955
1308,3886
1310,331
1310,1323
1310,1677
1310,1875
1310,3535
1311,102
1311,172
1311,710
1312,836
1314,2185
1314,4143
1314,4376
1315,4523
1317,4951
1318,3607
1319,239
1319,3833
1321,682
1322,209
1322,1207
1327,920
1328,4484
1329,998
1330,497
1330,1762
1331,2487
1334,2831
1336,654
1336,4168
1337,1060
1337,1971
1337,2455
1337,3913
1337,4661
1340,3911
1342,286
1345,1728
1347,2840
1354,338
1355,888
1355,4182
1356,433
1357,170
1357,2008
1358,1165
1360,309
1360,2154
1360,2555
1362,202
1362,3369
1363,4951
1364,1181
1364,1734
1364,2974
1364,3215
1366,2505
1366,3214
1367,1735
1367,2599
1367,3958
1369,4736
1374,41
1375,33
1376,155
1377,889
1377,1675
1378,3230
1379,1351
1380,2880
1380,4325
1381,1097
1381,1221
1381,3684
1381,4710
1382,136
1382,1078
1382,1557
1382,1972
1382,2031
1385,77
1386,888
1386,1838
1386,3861
1391,308
1392,20
1393,3057
1395,1148
1399,831
1399,2977
1400,136
1401,2034
1401,2042
1402,620
1402,2219
1402,3359
1405,73
1406,3886
1413,1707
1415,1033
1415,3041
1416,124
1416,1006
1418,1045
1418,2233
1418,2381
1419,1561
1421,2405
1421,2631
1422,502
1422,2650
1422,3151
1422,3580
1424,1092
1424,2021
1425,1011
1426,704
1426,1273
1428,1656
1428,4409
1429,2078
1429,4505
1432,308
1432,389
1435,2484
1435,2717
1435,4007
1437,2717
1440,1092
1447,541
1447,1027
1447,1287
1447,1932
1447,2498
1447,2804
1447,2873
1447,3937
1447,3950
1448,273
1448,448
1448,1240
1448,4071
1448,4987
1450,1211
1451,3
1451,257
1451,258
1451,450
1451,2078
1451,2780
1451,2943
1451,3213
1451,3767
1451,3835
1451,3911
1451,4932
1454,871
1454,1165
1454,1596
1454,2699
1454,3297
1454,3923
1455,1887
1456,1726
1456,2128
1456,2397
1456,4882
1457,267
1458,470
1458,651
1458,1772
1458,2031
1459,1056
1460,1206
1460,1617
1460,1779
1460,1856
1460,2746
1460,3789
1465,393
1466,377
1466,3679
1468,254
1468,328
1468,393
1468,490
1468,757
1468,758
1468,889
1468,1088
1468,1470
1468,1661
1468,1984
1468,2215
1468,2434
1468,2517
1468,4044
1471,819
1471,2161
1472,167
1472,2058
1474,1527
1474,1607
1474,3249
1476,1840
1476,4805
1477,696
1477,1570
1477,2745
1478,709
1478,1339
1479,836
1479,1522
1479,2078
1479,2925
1479,3390
1480,608
1480,1104
1481,1702
1481,3203
1481,3604
1482,102
1482,2078
1482,3905
1483,1777
1483,3928
1484,1431
1484,2267
1484,2271
1485,124
1485,3850
1486,66
1488,389
1488,2063
1489,2780
1489,3759
1491,156
1491,2829
1492,753
1492,4413
1493,830
1493,1045
1493,3559
1496,4099
1498,224
1498,266
1498,2931
1499,84
1500,172
1500,433
1500,682
1500,1339
1500,1563
1500,1573
1500,1576
1500,1856
1500,2342
1500,2557
1500,3430
1503,945
1506,101
1506,1978
1507,137
1507,2679
1508,408
1508,2526
1508,3152
1509,4951
1510,3592
1512,66
1515,257
1515,1167
1515,2252
1517,77
1517,500
1517,1905
1517,2634
1517,2913
1517,4998
1518,146
1520,4144
1526,954
1527,4542
1530,146
1530,258
1532,519
1532,3057
1533,335
1536,150
1536,4966
1537,707
1539,167
1539,1739
1542,2708
1542,3324
1543,351
1545,3359
1546,331
1547,255
1547,676
1548,1193
1548,2393
1549,156
1549,4776
1550,1247
1552,181
1552,781
1552,1443
1552,4322
1555,3383
1558,2215
1558,3371
1562,2505
1564,101
1564,1997
1565,2633
1565,4045
1566,753
1567,77
1567,799
1568,2245
1568,2683
1569,1389
1572,233
1573,159
1573,2808
1573,4017
1574,612
1574,2755
1574,2858
1574,3966
1574,4161
1575,66
1577,4239
1579,629
1579,634
1579,3198
1579,4755
1580,1253
1580,1500
1581,1411
1583,226
1583,369
1583,448
1583,668
1583,3777
1583,4075
1584,604
1584,2654
1584,4538
1585,416
1587,185
1587,365
1587,726
1587,1049
1587,1120
1587,2588
1587,2951
1591,1234
1591,4855
1592,397
1592,518
1592,4805
1594,790
1595,643
1597,1952
1597,3662
1598,454
1598,3582
1599,2965
1599,3254
1599,4337
1600,15
1600,3172
1600,3851
1601,644
1601,3205
1601,3305
1605,124
1605,1660
1610,356
1612,249
1615,2782
1615,2878
1616,3603
1616,4951
1619,2243
1619,4510
1620,458
1621,21
1621,1720
1621,3916
1622,4950
1623,1332
1624,2669
1624,4942
1628,1463
1628,1722
1628,3389
1628,3558
1629,1372
1630,1061
1630,2980
1632,4951
1633,3142
1635,456
1635,915
1635,2321
1635,2365
1635,2992
1635,3068
1635,3131
1637,463
1638,2084
1638,2546
1638,3107
1640,828
1642,2831
1642,3357
1644,249
1645,1111
1647,1523
1648,338
1648,2280
1650,3
1650,2012
1650,2300
1651,666
1651,3472
1653,30
1653,1633
1653,2593
1653,2902
1653,3265
1653,3752
1653,3809
1653,3879
1655,897
1657,146
1657,252
1657,2280
1657,4509
1658,2977
1659,682
1659,2245
1659,2404
1659,4554
1661,891
1662,3932
1665,1855
1665,2481
1665,4404
1667,408
1668,1048
1669,1359
1669,4459
1670,3225
1670,3250
1670,3254
1670,3444
1672,849
1672,1598
1674,234
1674,499
1676,291
1676,1436
1676,2679
1676,3411
1676,4876
1678,2947
1678,3185
1678,3709
1680,1441
1680,4180
1680,4183
1681,216
1682,301
1684,767
1684,1803
1684,2674
1684,3603
1684,4380
1684,4912
1685,997
1685,1862
1685,2242
1685,4720
1686,771
1687,505
1687,2625
1689,528
1692,26
1692,330
1692,767
1692,2290
1692,2977
1692,3419
1692,3961
1692,4450
1692,4460
1694,1392
1694,2209
1696,465
1697,626
1697,2963
1697,3218
1697,4930
1698,466
1700,1886
1700,3727
1701,1115
1703,292
1704,431
1705,375
1706,612
1706,1295
1708,554
1708,2046
1708,4867
1711,3429
1713,1469
1714,1982
1715,1164
1715,4500
1718,4052
1724,1731
1724,4243
1725,4997
1727,266
1727,895
1727,1243
1727,1423
1727,1729
1727,4054
1727,4089
1727,4135
1727,4900
1728,4898
1730,996
1730,1535
1730,1612
1730,1896
1730,2199
1730,2959
1730,4916
1731,2379
1731,2666
1731,3687
1732,477
1733,257
1733,1869
1735,549
1735,585
1735,1626
1735,3646
1735,3799
1736,796
1741,1220
1741,2071
1741,2649
1742,1602
1742,2952
1743,1880
1743,2152
1749,738
1749,1410
1751,871
1751,1529
1751,4526
1752,411
1752,1588
1752,2481
1752,2574
1752,3192
1753,1690
1754,1648
1754,2094
1755,257
1755,2006
1756,1458
1756,2234
1758,1850
1758,3838
1761,854
1763,660
1763,2042
1763,2489
1763,3347
1763,3454
1763,3893
1763,4486
1765,1025
1766,2006
1766,2481
1768,381
1768,439
1768,4157
1769,1406
1771,1380
1773,1045
1773,4281
1774,110
1774,1091
1774,2387
1774,2423
1780,20
1780,329
1780,2320
1780,2576
1780,2854
1781,77
1781,992
1781,2987
1781,3427
1782,1056
1782,1466
1782,3824
1783,175
1784,1449
1785,155
1785,1119
1785,2299
1785,2848
1785,4542
1788,1608
1788,2175
1788,2725
1788,4958
1789,476
1789,998
1789,2823
1792,7
1792,670
1792,1577
1792,3927
1793,1688
1794,434
1794,1332
1794,2140
1794,2142
1794,2458
1794,4750
1796,3139
1796,4304
1796,4951
1797,146
1797,2212
1797,3948
1797,4088
1799,3090
1799,4304
1799,4610
1799,4953
1801,450
1802,2078
1803,87
1803,170
1803,209
1803,330
1803,1278
1803,1444
1803,4467
1806,77
1807,643
1807,1886
1808,356
1808,3370
1809,156
1812,1264
1812,2806
1812,3190
1813,397
1814,989
1815,360
1817,710
1817,3701
1817,4074
1818,535
1818,2799
1819,194
1819,1006
1821,233
1821,240
1821,1220
1821,2481
1821,3251
1821,3773
1822,450
1825,534
1825,4229
1826,73
1826,120
1826,431
1826,885
1826,1271
1826,3285
1826,4409
1826,4834
1827,2068
1828,2615
1832,309
1835,913
1835,2240
1839,777
1839,4878
1840,124
1840,1843
1840,2336
1841,3192
1841,3235
1845,1045
1845,3607
1845,4672
1846,194
1850,50
1850,216
1850,452
1850,524
1850,705
1850,1351
1850,1730
1850,1737
1850,1759
1850,3216
1850,3304
1851,575
1851,4472
1852,831
1852,2623
1852,4935
1853,1524
1853,3727
1854,1048
1861,2469
1861,3115
1861,3265
1861,4065
1862,1006
1862,1551
1862,3584
1863,2101
1863,2254
1863,2844
1863,4257
1863,4322
1865,245
1865,1138
1865,1449
1866,4239
1866,4655
1871,110
1871,191
1871,323
1871,644
1871,1661
1871,2058
1871,2475
1873,549
1874,291
1874,4120
1877,2284
1877,4254
1878,336
1878,1961
1878,2566
1878,3669
1878,4393
1879,77
1879,294
1879,1995
1880,2566
1881,3132
1882,45
1886,2424
1886,2491
1887,3025
1888,264
1888,3476
1891,1661
1891,2596
1893,2692
1894,771
1894,1490
1894,3702
1897,202
1898,1862
1899,540
1900,306
1900,2344
1900,3214
1900,4072
1900,4556
1901,2831
1902,2299
1906,2672
1906,4144
1909,1370
1909,2037
1909,3529
1910,3557
1910,3739
1912,1403
1912,1576
1912,2567
1912,3132
1912,3438
1912,3497
1912,3568
1913,450
1913,2346
1913,2397
1913,2875
1915,971
1915,3797
1916,849
1916,2502
1916,3899
1918,442
1920,1767
1920,3928
1921,92
1922,701
1922,2333
1923,2197
1923,3333
1923,4087
1923,4111
1924,1660
1924,2774
1925,172
1925,4838
1926,749
1926,1870
1927,429
1927,4705
1928,2559
1928,3117
1928,3324
1929,1413
1930,2288
1930,4817
1931,194
1931,3277
1932,1559
1934,331
1937,140
1937,893
1937,2972
1938,1095
1939,3458
1939,4743
1942,502
1944,250
1946,313
1946,3103
1947,273
1948,1370
1948,2175
1948,4717
1948,4959
1950,1596
1951,1404
1953,102
1953,3082
1954,678
1955,112
1955,4133
1955,4360
1956,2167
1960,1483
1963,239
1963,393
1963,2299
1964,1120
1969,1380
1970,2334
1973,472
1973,4136
1974,624
1974,2778
1975,1211
1975,3008
1979,1347
1982,3722
1985,390
1988,1860
1992,1353
1993,1211
1993,3842
1996,1133
1996,2119
1996,2362
1996,4052
1997,2003
1998,194
1999,2671
2001,1475
2002,629
2004,2361
2005,906
2009,156
2009,1146
2009,1452
2010,740
2011,1144
2011,1772
2011,1847
2012,1770
2012,2307
2012,3594
2013,73
2013,1608
2013,2645
2014,1325
2015,456
2015,3144
2016,4322
2017,2601
2017,2640
2019,50
2020,891
2020,2029
2023,4561
2024,3524
2024,4067
2024,4209
2025,1406
2025,1748
2026,1534
2026,1653
2026,2332
2026,2845
2026,2942
2026,3100
2026,3503
2026,3645
2027,1249
2027,1685
2027,2121
2027,4737
2030,671
2032,3429
2032,4252
2033,368
2034,151
2035,1576
2036,1803
2037,1203
2037,2531
2037,2583
2039,3607
2040,391
2040,3557
2044,2126
2045,300
2047,828
2048,1544
2049,767
2049,859
2049,1211
2050,1241
2051,2001
2054,3791
2055,2633
2060,2349
2060,2582
2060,3891
2060,4580
2064,1025
2065,1339
2066,267
2066,397
2067,920
2067,2351
2068,3265
2069,440
2069,1643
2072,105
2072,836
2074,313
2075,1473
2077,248
2077,2766
2078,313
2078,732
2078,1636
2078,3350
2078,3714
2080,1203
2081,466
2083,2977
2085,732
2086,442
2088,738
2088,4614
2089,1602
2090,355
2091,458
2091,3029
2091,3961
2091,4339
2092,577
2093,79
2093,497
2093,1452
2093,4519
2094,2078
2096,1855
2097,759
2099,1419
2100,966
2101,538
2101,2597
2102,1707
2103,305
2103,4552
2104,377
2105,292
2108,1504
2108,4000
2112,1612
2113,1268
2113,2000
2113,2347
2113,3131
2113,3309
2113,3704
2113,4816
2114,1725
2114,3103
2114,3328
2115,668
2115,1442
2115,2481
2115,4529
2115,4692
2116,22
2117,670
2118,661
2119,301
2119,1035
2119,1160
2119,1214
2119,1980
2119,2490
2119,4518
2123,216
2124,6
2124,4886
2125,817
2125,3530
2129,338
2130,1188
2130,2269
2135,408
2136,1431
2136,3520
2137,185
2137,1868
2137,2098
2137,4884
2139,215
2139,1902
2139,3441
2144,102
2144,182
2144,2841
2145,2335
2146,966
2147,194
2148,202
2150,4561
2153,340
2153,2612
2157,148
2157,168
2157,539
2157,1025
2157,1273
2157,1413
2157,1576
2157,1779
2157,1830
2157,4047
2157,4427
2157,4519
2162,505
2162,3391
2163,452
2163,3240
2165,376
2166,2056
2167,4297
2170,3461
2170,3879
2172,919
2172,1381
2174,1653
2178,3254
2181,102
2182,2413
2182,4405
2187,656
2187,1074
2188,1847
2189,2208
2190,3629
2191,1528
2191,2825
2193,4736
2194,492
2195,832
2195,1006
2196,434
2200,439
2200,2928
2200,3713
2204,745
2204,3722
2205,471
2205,4347
2206,2481
2208,1686
2208,2415
2208,4840
2211,2126
2214,1895
2214,3978
2215,386
2215,2022
2216,2213
2217,2925
2217,4150
2218,2001
2220,341
2220,354
2220,1504
2220,2607
2220,3387
2220,3874
2220,4079
2220,4137
2220,4977
2221,384
2221,397
2221,945
2221,3662
2221,3819
2221,4498
2221,4971
2222,1273
2224,330
2224,1365
2224,4782
2226,753
2226,3070
2226,3458
2226,4731
2226,4762
2231,2993
2235,1536
2235,2461
2235,3700
2235,3895
2236,1387
2236,2566
2236,3514
2236,4398
2240,185
2240,353
2240,1917
2240,3965
2240,4397
2240,4407
2240,4618
2240,4642
2240,4769
2241,4297
2247,819
2247,1523
2249,391
2250,313
2251,2137
2254,284
2254,641
2254,2311
2255,462
2255,4082
2257,1560
2259,969
2260,190
2260,578
2260,3493
2261,1563
2261,4103
2263,491
2264,349
2265,1088
2266,1921
2272,326
2272,2374
2272,4876
2274,224
2277,267
2279,267
2280,2405
2281,1690
2281,2362
2281,2692
2283,1463
2284,1249
2284,1413
2284,2681
2284,3773
2285,686
2286,962
2289,2081
2295,2062
2296,2469
2296,3081
2296,4724
2296,4951
2297,1779
2297,3857
2300,644
2300,970
2301,1983
2303,1265
2304,427
2305,1111
2306,2049
2308,4705
2309,710
2310,354
2310,4239
2312,320
2314,505
2314,4202
2317,79
2318,267
2319,273
2322,1772
2322,2594
2323,227
2324,2126
2324,3678
2326,899
2327,167
2327,2152
2327,3334
2328,71
2328,298
2328,1361
2328,2808
2328,3279
2328,3430
2328,3975
2329,506
2329,3586
2331,831
2334,585
2334,1602
2334,2361
2337,119
2339,2291
2339,2397
2341,2820
2341,3064
2341,3222
2341,3444
2341,4897
2343,4307
2345,892
2345,1473
2346,2207
2346,4665
2348,172
2350,346
2350,2536
2351,1941
2351,3508
2352,1490
2355,777
2355,1211
2355,2562
2355,4868
2357,134
2358,216
2358,2688
2358,4666
2359,1238
2360,2282
2360,3071
2360,4429
2362,3028
2362,3167
2362,4188
2364,577
2364,4869
2368,259
2369,1094
2373,3787
2376,88
2376,1902
2377,2111
2378,3303
2380,1772
2382,3302
2384,502
2384,3467
2385,181
2385,2437
2386,451
2386,512
2386,654
2386,1091
2386,2511
2386,2719
2386,3523
2386,3911
2386,4805
2394,56
2394,368
2394,882
2394,2447
2394,3287
2395,1850
2396,1050
2396,1426
2396,2457
2396,3765
2397,1188
2397,1420
2397,1737
2397,1959
2399,2391
2399,3889
2400,2405
2402,899
2402,1025
2403,439
2403,2998
2406,527
2406,3506
2407,1133
2407,1943
2407,4108
2409,616
2409,2055
2410,4359
2413,998
2415,1516
2415,4440
2416,4757
2417,4499
2418,2405
2418,2739
2420,1886
2420,3166
2424,3912
2425,985
2429,787
2429,4138
2430,787
2430,2248
2430,3611
2430,4257
2431,528
2431,2809
2432,997
2434,1746
2436,2977
2436,3085
2438,2209
2438,4964
2439,2556
2440,280
2441,238
2441,3036
2441,3934
2442,1273
2442,3230
2442,4778
2444,3619
2445,2391
2445,2620
2446,460
2446,4875
2448,4458
2449,887
2451,1278
2451,1982
2451,2202
2452,2155
2456,1284
2459,3
2460,3908
2462,304
2463,670
2463,1997
2463,3433
2465,828
2467,457
2468,2258
2468,3734
2470,3646
2471,522
2472,889
2474,651
2474,3208
2474,3308
2477,2414
2478,1464
2479,266
2480,3991
2481,4390
2481,4783
2487,1130
2488,982
2488,3439
2488,4530
2492,35
2493,1353
2493,1433
2499,2566
2500,237
2500,2824
2501,79
2504,870
2507,1807
2515,2388
2516,682
2518,1446
2519,1997
2520,336
2520,1024
2522,1653
2522,2736
2522,2878
2522,4437
2522,4734
2523,1571
2525,281
2526,342
2527,416
2529,1359
2529,3041
2530,464
2530,651
2532,46
2533,1273
2534,792
2534,1235
2535,205
2535,854
2535,1264
2535,3805
2537,1977
2537,4701
2538,4755
2539,1077
2539,2134
2539,2920
2539,3251
2540,455
2541,119
2542,2374
2544,188
2544,715
2547,3552
2548,110
2548,264
2548,1060
2548,1644
2548,2573
2548,3305
2549,1092
2549,3469
2551,2058
2552,4950
2553,188
2553,2710
2553,3277
2553,3302
2553,4096
2553,4817
2554,1045
2554,2403
2554,2831
2554,3716
2558,654
2560,383
2563,2287
2563,3801
2564,188
2565,151
2568,471
2568,4662
2569,636
2569,3755
2569,4170
2570,3835
2571,355
2575,1497
2575,2852
2575,3770
2577,1022
2578,84
2578,238
2578,802
2578,2264
2578,3910
2578,4440
2580,1626
2584,1919
2584,3872
2586,4409
2587,1464
2587,3661
2588,188
2589,162
2590,837
2595,411
2595,578
2595,1717
2597,472
2598,342
2598,3834
2599,2650
2601,204
2601,227
2601,302
2601,518
2601,577
2601,602
2601,608
2601,816
2601,1114
2601,1633
2601,1789
2601,1889
2601,2354
2601,2370
2601,2405
2601,2556
2601,2561
2601,2758
2601,2767
2601,3456
2601,3935
2601,4220
2601,4298
2601,4901
2606,2200
2608,2098
2609,391
2609,4348
2610,281
2610,2622
2611,88
2611,605
2611,1225
2611,1798
2612,2740
2613,2512
2614,1284
2615,682
2615,1634
2615,1884
2616,923
2617,1856
2617,2927
2617,3796
2618,3450
2618,3876
2618,4612
2619,1666
2621,1540
2624,181
2627,3144
2628,171
2628,963
2629,1772
2629,3553
2633,2512
2635,1137
2637,912
2639,1505
2642,1034
2643,321
2643,2121
2643,3539
2644,329
2644,1406
2644,2239
2650,2371
2650,2934
2651,1983
2652,499
2653,1032
2654,577
2655,1857
2655,3299
2655,3307
2655,4795
2657,2252
2657,3423
2658,2593
2660,2140
2661,2126
2663,551
2663,3171
2664,2601
2665,431
2667,1027
2668,395
2671,2950
2675,216
2676,2022
2677,2346
2678,2282
2678,4253
2685,1729
2685,3402
2689,2699
2690,1253
2692,1884
2692,2993
2693,119
2693,3173
2693,3452
2693,3470
2695,13
2696,22
2697,1612
2698,1133
2700,1770
2700,4550
2701,115
2703,1576
2703,1728
2707,1045
2707,4112
2707,4397
2709,162
2709,3265
2710,1308
2712,1202
2713,2222
2715,1343
2715,3669
2715,4241
2715,4294
2716,2593
2721,1075
2721,4257
2727,77
2727,456
2727,462
2727,589
2727,897
2727,995
2727,1556
2727,1608
2727,1798
2727,4585
2728,954
2728,2719
2728,2937
2728,4332
2729,222
2730,112
2731,4241
2732,292
2733,249
2733,720
2733,891
2733,1247
2733,2027
2733,4066
2734,209
2734,3676
2734,4601
2735,1111
2735,4192
2738,3896
2742,3662
2742,4919
2746,2557
2747,2081
2747,2414
2750,2977
2750,4042
2751,1438
2753,509
2753,3359
2753,4595
2754,284
2754,2718
2756,585
2756,4113
2757,846
2757,4412
2757,4668
2757,4826
2759,368
2760,2120
2761,2437
2761,2952
2761,4197
2762,96
2763,2095
2764,228
2764,1661
2765,2724
2766,383
2766,1442
2767,2700
2768,3430
2771,1483
2773,2482
2773,4824
2776,2743
2777,1236
2777,2333
2779,1457
2781,3784
2784,1790
2784,4736
2784,4951
2786,1840
2788,616
2788,3404
2788,4663
2789,1009
2790,831
2791,248
2791,356
2791,759
2791,795
2791,1829
2791,2749
2791,3640
2791,4004
2791,4155
2792,1982
2793,860
2793,3663
2793,4863
2794,790
2796,2031
2797,111
2797,534
2797,624
2797,980
2797,1016
2797,1194
2797,1502
2797,1721
2797,1737
2797,2210
2797,2562
2797,3603
2797,4744
2800,2946
2800,3004
2802,2361
2803,904
2807,2634
2807,3483
2808,124
2812,89
2812,1887
2813,661
2814,77
2815,857
2816,300
2816,512
2816,1009
2816,1281
2816,4694
2816,4695
2817,3
2817,77
2817,444
2817,837
2817,1673
2817,2944
2817,3397
2817,4369
2818,1914
2820,577
2820,3080
2821,1258
2821,4980
2822,194
2822,552
2822,1121
2822,1218
2822,4170
2826,202
2828,33
2828,267
2828,410
2828,827
2828,1666
2828,1958
2828,2831
2830,264
2832,514
2832,1728
2832,3431
2833,252
2834,1608
2834,3896
2834,4115
2835,1737
2835,3646
2838,3835
2843,41
2846,393
2850,2426
2851,1361
2853,3777
2856,1661
2859,2200
2860,1884
2861,413
2862,1139
2863,255
2864,522
2865,1237
2865,4525
2865,4883
2867,66
2867,767
2867,999
2867,1056
2867,1112
2867,3076
2867,3607
2867,3854
2867,3942
2867,4374
2870,25
2872,25
2876,94
2876,3877
2881,1307
2881,2817
2882,1027
2882,1932
2883,895
2884,369
2885,830
2885,982
2885,3783
2886,73
2889,4951
2890,124
2891,2218
2892,1556
2893,1504
2897,1036
2897,2623
2897,3312
2899,377
2899,3293
2901,102
2901,661
2901,1730
2901,3750
2904,397
2905,837
2908,4855
2911,1027
2914,2371
2915,2955
2915,4613
2917,3715
2918,3738
2921,486
2922,1212
2924,524
2924,754
2925,585
2925,4537
2925,4627
2926,673
2926,3817
2926,4913
2930,2387
2933,439
2935,2900
2936,2591
2938,1308
2940,681
2942,257
2942,1434
2945,1390
2945,1436
2948,1785
2949,2649
2950,439
2956,497
2956,756
2956,1798
2956,4711
2957,64
2957,3102
2959,336
2960,4409
2962,2374
2967,644
2968,2229
2969,3960
2970,1505
2974,463
2975,354
2975,2687
2979,507
2980,1242
2980,1762
2982,2806
2985,339
2985,954
2986,642
2987,2939
2987,4921
2988,995
2989,3738
2989,3886
2990,3646
2990,4431
2991,2176
2992,464
2992,1062
2993,3715
2994,643
2994,997
2994,3180
2995,3721
2995,4866
2996,101
2996,2895
2999,1264
2999,1551
2999,1553
2999,2275
2999,3784
3000,3975
3003,1855
3005,1396
3005,4525
3006,2268
3007,1483
3009,2154
3009,3914
3009,4167
3010,2300
3010,3097
3013,2998
3014,79
3014,740
3014,1025
3014,1282
3014,1467
3014,1702
3014,1959
3014,2230
3014,2509
3014,2910
3014,3168
3014,3738
3014,4238
3017,458
3018,2887
3018,4640
3019,2910
3019,3616
3020,172
3020,3780
3020,3894
3021,85
3023,1646
3024,1858
3026,309
3026,4926
3027,119
3030,2062
3031,956
3032,119
3037,1847
3038,2121
3039,1779
3040,667
3040,3656
3042,1798
3045,3722
3046,77
3046,286
3047,2574
3048,279
3048,4236
3049,2519
3050,4650
3052,4542
3053,2218
3053,4506
3057,2298
3058,2142
3058,2875
3059,1264
3060,1147
3060,3062
3061,908
3063,85
3063,1540
3063,4805
3064,148
3065,1025
3065,3309
3066,1789
3069,161
3069,2258
3069,2783
3069,3272
3073,127
3073,129
3073,266
3073,1483
3073,2778
3073,4525
3074,1997
3075,150
3077,563
3077,3089
3078,3594
3078,4319
3079,616
3079,2006
3081,991
3084,1208
3086,2475
3088,2953
3091,2949
3093,2015
3093,2481
3094,4305
3096,294
3101,2209
3104,527
3106,1559
3106,2955
3109,2787
3112,1095
3114,3619
3114,3795
3114,4454
3114,4599
3114,4649
3115,2556
3118,1073
3118,3717
3119,466
3120,3662
3120,3954
3121,2234
3126,743
3128,1612
3130,3960
3134,2392
3135,2952
3137,705
3140,458
3140,4166
3140,4889
3143,2325
3147,345
3147,4674
3148,2650
3149,156
3150,2692
3152,291
3152,2107
3152,2458
3152,3245
3152,3746
3154,1551
3155,3738
3157,2034
3160,5
3161,2593
3164,1840
3165,416
3166,1627
3168,1324
3168,3861
3168,4561
3169,971
3174,1435
3175,3089
3176,3056
3181,2824
3182,283
3182,1361
3182,2392
3182,3123
3182,3430
3183,351
3184,1953
3186,759
3187,1380
3191,1413
3192,458
3194,1578
3194,4723
3195,3646
3199,2778
3201,4373
3202,105
3204,1626
3206,1730
3207,3150
3208,998
3210,2022
3211,2427
3213,1829
3213,3035
3217,1120
3219,1075
3221,4794
3223,1958
3226,1045
3228,331
3229,4409
3229,4637
3230,3437
3230,3904
3232,2561
3233,1728
3234,452
3234,1241
3234,1413
3234,1612
3234,2001
3234,3263
3234,4451
3236,307
3237,2806
3237,2952
3237,3698
3238,434
3238,579
3242,2494
3243,119
3247,4179
3248,2692
3248,4328
3252,2396
3254,105
3254,4144
3255,534
3257,2390
3260,3607
3261,2904
3262,1280
3264,2607
3267,237
3267,1413
3267,3501
3268,53
3268,1070
3268,3373
3269,1211
3270,294
3270,4544
3273,923
3274,1121
3274,2038
3274,4983
3275,1419
3277,2209
3278,2012
3280,2977
3281,2164
3281,4514
3284,830
3284,2185
3289,1971
3291,3528
3292,484
3292,4445
3296,1734
3296,3396
3298,667
3298,2900
3298,3528
3300,320
3300,500
3300,2626
3300,4924
3303,3708
3311,368
3311,4899
3313,408
3313,3919
3314,1943
3314,2471
3314,3227
3314,4481
3314,4854
3316,3629
3318,1217
3318,3208
3319,743
3319,914
3319,2110
3320,252
3320,588
3320,700
3320,1976
3320,4065
3321,3753
3321,3879
3322,2158
3323,102
3325,202
3326,465
3326,3446
3327,1245
3327,3193
3330,2614
3331,860
3331,3102
3332,127
3332,897
3332,1758
3332,2299
3333,3099
3335,1325
3335,3594
3336,2050
3339,953
3339,3869
3340,273
3340,3429
3341,382
3341,2140
3341,2276
3341,3454
3341,3515
3341,3607
3342,435
3342,1149
3342,1493
3342,1968
3342,2731
3342,4658
3342,4697
3343,3711
3343,4241
3344,1258
3344,3197
3345,52
3345,119
3345,912
3345,3964
3349,758
3352,3085
3353,3162
3353,3567
3354,668
3355,4434
3355,4950
3356,577
3358,2819
3362,13
3363,966
3363,3142
3363,3301
3364,1766
3365,644
3366,1612
3366,4213
3370,2538
3374,400
3375,3835
3377,126
3377,922
3378,1121
3379,3738
3379,4632
3380,1426
3380,1517
3381,1731
3381,4760
3384,273
3385,3594
3392,563
3392,1505
3392,1768
3392,2547
3392,2842
3392,3428
3392,3766
3398,899
3398,2042
3399,15
3399,4510
3400,413
3401,809
3401,1626
3403,1121
3406,2233
3407,327
3410,2556
3412,1829
3413,1617
3414,783
3416,1397
3417,4559
3418,3101
3418,3706
3420,234
3422,1124
3422,2057
3424,564
3425,2679
3426,488
3430,3172
3432,1623
3434,1661
3436,2121
3436,3341
3440,2507
3442,3773
3443,1795
3443,3484
3443,4999
3447,3837
3449,1812
3451,1373
3453,470
3453,1132
3453,2684
3453,3429
3453,4546
3457,861
3459,135
3462,1101
3463,77
3463,397
3463,553
3463,877
3463,1396
3463,1560
3463,1772
3463,1833
3463,1890
3463,2043
3463,2161
3463,2180
3463,2609
3463,3110
3463,3144
3463,3388
3463,3901
3463,4093
3464,1555
3465,2268
3465,2379
3465,3178
3466,522
3468,264
3471,545
3472,2212
3475,2006
3478,2636
3479,1457
3479,3303
3485,1602
3486,497
3487,4467
3489,161
3489,1413
3489,3824
3489,4094
3491,252
3492,2209
3496,3138
3497,2730
3498,840
3499,1041
3500,338
3504,267
3507,486
3509,4085
3510,216
3510,4517
3511,368
3513,788
3513,857
3513,3033
3513,3651
3516,4559
3517,577
3518,279
3522,4044
3524,2121
3524,2177
3524,3168
3524,3367
3524,3399
3524,4264
3524,4686
3525,1230
3526,25
3526,862
3526,891
3526,900
3526,1120
3527,1472
3531,1326
3532,501
3533,3450
3534,127
3534,1309
3536,2603
3537,259
3537,294
3537,500
3537,555
3537,570
3537,615
3537,656
3537,753
3537,819
3537,1473
3537,1523
3537,3124
3538,1027
3539,1732
3540,166
3541,101
3541,427
3541,2268
3542,41
3543,1886
3544,431
3545,349
3545,2731
3546,1197
3549,202
3550,1365
3550,3835
3551,4510
3553,198
3554,209
3554,1886
3554,3057
3554,3677
3555,836
3556,4445
3557,992
3560,841
3562,339
3562,4470
3563,3177
3564,331
3566,1388
3569,1144
3570,204
3570,2229
3570,3690
3570,4071
3570,4178
3571,368
3571,1285
3572,847
3572,2831
3573,1607
3573,2641
3576,203
3576,4231
3578,1113
3581,4032
3582,135
3582,696
3582,887
3582,1368
3582,1373
3582,1511
3582,1528
3582,2604
3582,3583
3582,4512
3582,4742
3582,4817
3587,1836
3588,4409
3589,377
3589,645
3589,1445
3589,1494
3589,4203
3591,2280
3592,2740
3596,2740
3598,3192
3598,3441
3599,1107
3599,2593
3599,3884
3601,140
3602,4297
3603,3001
3604,3002
3605,3684
3606,3192
3610,404
3611,2215
3611,3057
3612,705
3613,1181
3617,986
3617,3707
3617,3828
3618,101
3618,2370
3621,2417
3622,1744
3625,1391
3625,4870
3626,1528
3627,110
3627,2443
3627,4466
3628,1782
3628,2322
3628,2958
3629,66
3629,182
3629,967
3629,2300
3629,3437
3630,1616
3631,3138
3634,540
3635,3218
3637,85
3638,4877
3639,2724
3641,100
3641,2578
3641,3159
3641,4304
3641,4837
3642,658
3643,1948
3647,2738
3649,542
3651,234
3652,3189
3653,3687
3654,2038
3654,2201
3657,1273
3657,4615
3658,257
3659,2209
3662,395
3662,1309
3662,3757
3667,465
3667,2178
3667,2869
3667,3092
3667,3830
3667,4674
3668,705
3671,2502
3673,3594
3674,2173
3675,1500
3680,4239
3681,2650
3683,3057
3684,2119
3687,2006
3688,2904
3689,239
3691,439
3692,2605
3693,1309
3693,3775
3695,524
3696,1419
3697,2160
3699,3565
3702,2898
3702,3502
3705,509
3709,2638
3710,431
3712,4525
3718,275
3719,3879
3721,2078
3722,1095
3725,4951
3726,913
3729,1902
3729,3922
3729,4323
3730,2258
3731,1027
3731,3458
3731,4352
3733,2126
3735,3662
3736,1125
3737,2831
3740,2702
3741,3333
3743,70
3744,144
3744,705
3744,3756
3746,828
3746,1690
3746,3525
3754,112
3754,194
3754,667
3754,749
3754,797
3754,934
3754,4786
3760,4510
3762,1564
3764,3831
3764,4540
3765,2599
3765,3446
3765,4758
3769,705
3771,4239
3772,209
3773,891
3774,673
3776,694
3776,1023
3785,168
3785,616
3785,1115
3785,2941
3786,2268
3790,1436
3792,2556
3795,241
3795,4676
3797,1410
3797,2412
3798,1914
3802,4058
3806,506
3808,2998
3808,4464
3810,757
3811,4106
3812,1343
3812,1351
3812,2726
3813,407
3813,2006
3814,1261
3814,1332
3814,1384
3814,1858
3814,1895
3814,1903
3814,2954
3814,3131
3814,3473
3814,3646
3814,3682
3814,4904
3816,831
3817,1083
3818,578
3825,1631
3826,1359
3827,2731
3829,4170
3832,2362
3833,124
3833,1582
3833,2398
3833,3519
3833,3665
3835,2701
3836,1757
3836,2694
3836,4567
3837,3728
3841,188
3842,1025
3843,301
3843,2631
3845,2045
3846,488
3849,533
3849,602
3849,1006
3851,164
3851,717
3851,1234
3851,1652
3853,338
3854,1726
3854,3899
3855,705
3856,102
3858,309
3859,1413
3862,233
3862,3445
3865,209
3865,4068
3867,42
3867,672
3867,688
3867,3189
3867,3616
3867,3942
3867,4123
3870,3714
3871,3456
3873,998
3875,400
3875,1008
3875,2808
3875,3777
3878,4409
3879,1522
3880,1164
3880,4119
3880,4786
3881,3960
3882,2346
3882,2784
3882,2906
3883,1397
3884,203
3884,1573
3884,1661
3887,3116
3888,431
3888,799
3888,1392
3888,2334
3888,3346
3888,3958
3894,2007
3895,339
3897,3554
3898,2521
3900,263
3900,1862
3900,4787
3900,4951
3901,1351
3901,4069
3902,998
3903,429
3903,3264
3906,1410
3907,1928
3908,3419
3909,549
3909,1958
3911,4510
3915,1171
3917,209
3917,377
3917,1065
3917,1335
3917,2335
3917,3033
3917,3158
3917,3963
3917,4509
3918,1810
3918,1871
3919,4132
3920,781
3921,2087
3922,714
3924,3911
3925,1829
3926,2078
3928,126
3930,4346
3931,1406
3936,631
3936,4839
3938,2287
3940,631
3940,995
3940,4139
3941,310
3943,660
3943,718
3943,1308
3943,4399
3946,2649
3947,4705
3949,1341
3952,1325
3953,838
3953,2578
3953,2600
3955,1101
3957,313
3961,1804
3967,1113
3967,4868
3968,2240
3969,25
3969,266
3969,668
3969,989
3969,1449
3969,1997
3969,2592
3969,3547
3971,190
3972,3515
3974,3452
3976,3056
3977,141
3977,1435
3977,1445
3977,1551
3977,1634
3977,4287
3980,1359
3980,1426
3980,3994
3981,2983
3983,989
3983,4524
3984,1627
3984,4753
3985,1505
3986,2923
3986,4008
3988,4585
3988,4698
3989,1828
3990,847
3991,1368
3992,1078
3993,3721
3996,643
3997,757
3997,1361
3997,1695
4001,1218
4001,2000
4002,4510
4003,2110
4005,445
4005,2485
4006,4510
4006,4690
4009,888
4010,3409
4011,2236
4011,4424
4012,458
4013,2058
4014,1024
4014,3455
4018,2831
4018,3224
4019,989
4021,2003
4021,4477
4022,2422
4023,797
4024,1433
4024,4129
4025,2955
4026,1951
4027,2063
4029,1762
4029,1935
4030,2433
4031,1280
4032,3558
4033,937
4035,1707
4036,3348
4037,2521
4038,3908
4039,2566
4040,1015
4041,2784
4043,1556
4043,4574
4044,3123
4048,1860
4049,710
4049,882
4050,2806
4051,685
4055,2906
4056,3665
4057,3271
4058,1977
4059,2246
4060,4065
4060,4738
4061,1092
4062,439
4062,3956
4063,1413
4064,1435
4070,1436
4071,486
4073,1325
4077,1325
4080,2538
4083,449
4084,2015
4085,2417
4086,1022
4086,3078
4087,2691
4088,836
4088,1886
4088,2865
4090,33
4092,3893
4096,4411
4097,4572
4098,252
4099,1265
4100,377
4106,4007
4109,2724
4110,94
4110,248
4110,2808
4116,3281
4117,1778
4117,2186
4117,3227
4118,974
4121,3565
4121,4657
4122,1914
4123,1735
4124,1503
4124,3956
4125,1837
4126,2062
4127,291
4128,257
4128,4258
4131,3919
4131,4261
4134,368
4136,4759
4138,222
4138,4858
4140,939
4140,3804
4141,66
4141,338
4141,340
4141,2371
4141,2572
4141,3034
4141,3528
4141,4010
4142,252
4146,3428
4147,383
4147,2021
4147,3481
4148,1936
4149,4409
4151,162
4151,1876
4151,2396
4152,2443
4154,3098
4156,300
4158,77
4158,279
4160,3960
4162,705
4162,2626
4163,2494
4163,4714
4164,19
4164,40
4164,1997
4165,3684
4167,136
4167,3851
4169,1120
4171,2390
4172,2142
4173,2407
4175,3163
4177,2240
4181,1024
4181,1381
4184,2857
4185,756
4187,2306
4188,2717
4189,4912
4190,3051
4191,128
4193,4104
4193,4420
4195,976
4195,3054
4197,111
4197,539
4197,559
4197,740
4197,847
4197,1836
4197,2390
4197,3338
4197,3359
4199,1463
4199,2916
4199,3083
4199,3133
4201,257
4204,1591
4204,3189
4206,1240
4207,891
4210,974
4211,4736
4212,3218
4214,1702
4215,1828
4217,997
4218,1441
4219,3804
4221,975
4228,966
4231,338
4231,448
4231,497
4231,743
4231,2171
4234,2502
4235,264
4237,3104
4240,3905
4242,1728
4244,3240
4246,4235
4247,3775
4249,651
4249,667
4249,2473
4249,2784
4251,442
4252,1560
4252,4628
4252,4780
4256,1350
4259,3467
4265,710
4266,838
4267,448
4268,3678
4269,341
4270,3594
4271,502
4272,1608
4273,182
4274,1620
4274,1949
4275,2081
4275,4677
4276,529
4276,1983
4277,2556
4278,1829
4281,2923
4282,111
4283,4180
4284,77
4284,124
4284,895
4284,1048
4284,2476
4284,3271
4284,3788
4285,71
4285,518
4285,1320
4285,1352
4285,1614
4285,2424
4285,2626
4285,3743
4285,4804
4286,1452
4288,3281
4289,4705
4291,1661
4292,112
4293,1982
4297,502
4297,620
4297,706
4297,975
4297,1034
4297,1404
4297,1451
4297,1559
4297,1785
4297,2081
4297,2183
4297,2494
4297,3393
4297,3405
4299,291
4300,2538
4302,3067
4303,79
4305,3348
4306,2001
4307,3533
4308,2062
4309,1540
4311,669
4313,4881
4315,1745
4316,5
4317,354
4318,94
4319,44
4319,4119
4320,4294
4321,1590
4324,2335
4326,3727
4327,2808
4328,94
4328,1438
4328,1811
4328,2419
4328,2722
4328,3923
4328,3970
4328,4723
4329,4854
4331,1045
4331,2646
4333,2670
4333,3144
4334,3904
4336,771
4338,349
4340,408
4340,710
4340,1528
4341,3975
4342,190
4343,188
4343,3656
4344,466
4345,776
4349,671
4350,2482
4352,1406
4353,313
4353,592
4353,1346
4354,1598
4358,3818
4361,1347
4362,720
4362,794
4364,4177
4367,454
4370,923
4370,4777
4371,1027
4371,2209
4373,3861
4375,2461
4377,2699
4377,4774
4378,2888
4379,518
4382,3490
4383,228
4383,1121
4383,2137
4385,3062
4387,4346
4387,4508
4388,564
4389,120
4390,3835
4393,4950
4394,754
4396,1022
4396,2605
4396,2925
4396,4818
4400,94
4402,2530
4403,997
4404,4757
4409,140
4410,893
4411,2140
4414,1271
4415,1111
4416,2871
4418,2362
4421,2641
4422,2234
4423,450
4423,2338
4423,3623
4423,4372
4425,1073
4426,2031
4429,841
4430,561
4433,112
4433,499
4433,651
4433,1752
4433,2702
4433,3738
4433,3804
4433,3835
4435,2063
4436,1269
4438,1665
4441,1983
4442,1578
4443,545
4444,1234
4445,3629
4446,3590
4447,470
4447,1528
4447,2028
4448,4231
4449,796
4449,2730
4449,4791
4456,1560
4458,2186
4461,116
4462,4359
4468,2078
4469,486
4471,2701
4472,1325
4473,3653
4473,4918
4474,2028
4475,888
4475,4970
4476,2556
4477,575
4478,3837
4479,3144
4480,2362
4482,3817
4484,636
4485,3611
4486,1590
4487,4635
4489,1563
4489,2469
4489,4578
4490,77
4491,2138
4493,457
4495,2579
4496,1167
4497,1273
4500,3001
4503,1027
4504,1737
4510,4297
4511,1611
4513,2550
4515,2600
4516,1588
4519,2132
4519,3634
4520,3807
4522,1112
4527,3886
4528,1131
4532,3043
4533,140
4533,2853
4536,275
4537,1406
4537,1837
4537,2245
4537,2405
4537,2545
4537,2705
4537,4523
4539,564
4542,1350
4543,1819
4545,14
4545,1284
4545,2483
4546,1521
4547,1884
4548,4323
4549,589
4551,124
4553,2489
4554,4732
4555,2021
4557,294
4558,2600
4560,4572
4564,2955
4568,383
4569,2045
4569,3905
4575,1011
4577,4283
4581,1265
4581,2955
4581,4990
4582,1200
4583,904
4584,3402
4586,1265
4587,2503
4590,3627
4591,2898
4593,2215
4594,3557
4597,3350
4598,206
4600,1104
4600,2050
4600,2313
4600,2896
4600,3281
4600,3629
4602,2566
4603,3268
4605,2906
4605,4483
4607,2142
4608,2741
4612,77
4614,2139
4614,3254
4614,4865
4615,146
4615,829
4615,2838
4615,4037
4616,2904
4618,237
4618,1350
4618,1653
4618,2340
4618,2969
4618,3619
4618,3623
4618,4391
4619,106
4619,269
4619,2656
4619,3084
4619,3801
4620,5
4620,287
4620,1608
4621,266
4624,2087
4625,913
4626,3619
4630,2469
4631,1621
4633,3767
4636,1608
4638,2666
4639,420
4641,2078
4644,2063
4644,4788
4645,891
4646,759
4646,1131
4648,287
4651,3603
4652,831
4656,3592
4659,4723
4667,1108
4668,5
4669,1862
4669,4955
4670,1902
4671,3801
4673,1884
4674,1300
4674,2179
4675,3450
4679,1446
4679,4836
4680,3789
4681,828
4681,1102
4681,1490
4681,2497
4683,4261
4685,759
4688,528
4689,572
4691,1777
4693,1516
4696,4155
4699,1626
4700,1732
4702,119
4703,790
4705,577
4706,2278
4708,324
4712,2806
4712,3458
4713,2658
4715,434
4715,1449
4715,1621
4715,2772
4715,4579
4716,2958
4716,4557
4719,3646
4719,4868
4721,96
4722,3922
4723,181
4723,191
4723,2213
4724,313
4724,1695
4724,2302
4724,3779
4725,4509
4726,3864
4727,799
4728,854
4733,1446
4735,3185
4736,2868
4736,3880
4741,124
4745,141
4746,861
4748,676
4749,2397
4751,3140
4751,4909
4752,342
4754,2219
4755,451
4755,882
4755,1875
4755,1921
4755,4005
4755,4483
4761,1548
4761,3594
4762,571
4762,643
4762,1271
4762,1661
4762,2388
4763,950
4765,647
4766,895
4767,2724
4767,4457
4768,4405
4770,1540
4771,1214
4773,564
4782,1987
4782,4106
4785,156
4785,4830
4786,4805
4789,4451
4790,1709
4794,643
4796,209
4797,2021
4797,4322
4798,326
4800,2699
4801,3702
4802,3724
4803,1709
4806,4756
4807,1027
4812,836
4813,676
4814,497
4814,4961
4815,570
4821,540
4822,4762
4823,1702
4825,168
4827,3129
4829,1737
4831,753
4831,4872
4832,3215
4833,4227
4833,4739
4834,331
4834,4660
4835,589
4841,3824
4842,2261
4843,4032
4844,2371
4844,4232
4845,238
4846,4950
4847,855
4847,4690
4848,3359
4848,4467
4849,2001
4849,2365
4852,3763
4853,836
4856,395
4858,3502
4859,1217
4860,608
4861,4529
4864,1728
4864,2181
4864,3111
4871,275
4871,304
4871,453
4871,525
4871,569
4871,674
4871,1151
4871,1609
4871,1664
4871,1702
4871,2106
4871,2673
4871,2796
4871,3145
4871,3540
4871,3632
4871,3905
4871,3934
4871,3945
4871,4510
4873,831
4873,4649
4874,3738
4876,4313
4879,166
4879,2880
4879,3577
4880,451
4880,3246
4885,188
4887,4036
4888,2287
4890,25
4891,45
4891,329
4891,1614
4891,1791
4891,2041
4891,3015
4891,4295
4893,2471
4894,3584
4895,1151
4896,4701
4903,53
4906,105
4907,383
4912,3810
4914,1524
4914,4065
4922,2160
4923,4951
4924,746
4924,1246
4924,1288
4924,3372
4924,3881
4926,6
4926,228
4926,4028
4927,383
4928,561
4931,2034
4933,4819
4935,150
4935,216
4935,250
4935,3629
4938,3686
4939,452
4939,501
4939,3761
4940,4614
4942,757
4942,2631
4943,333
4943,1617
4944,2816
4947,2679
4948,433
4948,2239
4948,3310
4949,249
4952,3359
4956,182
4956,664
4956,1313
4956,2280
4956,2356
4956,4200
4960,794
4963,3429
4965,1207
4967,1783
4968,221
4970,4186
4972,1265
4974,3422
4976,3894
4978,2363
4978,3168
4979,1457
4981,1840
4984,1797
4986,4037
4988,1801
4989,611
4991,641
4993,1772
4994,2121
4995,1111
4996,2389
