src,dst
0,1
0,624
0,2478
0,2963
3,312
3,514
3,1085
3,1387
3,1573
3,2035
3,2725
3,3459
3,3923
3,3926
3,4746
3,4966
4,780
4,3307
6,7
6,316
6,984
6,1552
6,1871
6,2199
6,2456
6,2820
6,3432
7,615
7,1507
7,4783
8,238
8,1015
8,1290
8,1379
8,2212
8,2313
8,3100
8,3228
8,4028
8,4613
11,74
11,703
11,1501
11,1590
11,1708
11,2129
11,2282
11,2351
11,3130
11,3285
11,3583
11,3660
11,4581
11,4676
13,57
13,4326
13,4411
14,241
14,4018
15,249
15,312
15,351
15,609
15,952
15,1227
15,1699
15,2259
15,2364
15,2709
15,2725
15,2777
15,2883
15,3124
15,4433
15,4596
21,134
21,135
21,396
21,408
21,585
21,802
21,1054
21,2297
21,2906
21,4800
22,2820
22,4018
22,4322
23,18
23,144
23,352
23,2014
23,2313
23,4471
24,2386
24,2413
24,4089
28,323
28,3533
35,30
35,748
35,3066
36,3180
36,4297
39,410
39,1267
39,1949
39,4771
41,1276
41,2297
41,2423
41,2862
41,3259
41,3465
41,3502
41,4707
43,252
43,378
43,681
43,707
43,729
45,182
45,297
45,335
45,356
45,430
45,1044
45,1629
45,1795
45,2297
45,2568
45,2961
45,3327
45,4140
45,4356
45,4693
48,145
48,1577
48,1933
48,2779
48,4450
49,161
49,1254
49,2327
49,3711
53,615
53,1171
53,1789
53,3175
53,4473
56,1177
57,3537
58,122
58,2087
58,4182
60,38
60,144
60,311
60,673
60,914
60,946
60,1212
60,1569
60,1688
60,1805
60,2093
60,2281
60,3702
60,4018
60,4077
60,4530
60,4702
64,42
64,81
64,597
64,1714
68,707
68,2305
69,1092
70,5
70,588
70,745
70,844
70,2219
70,2346
70,2540
70,3498
70,3581
72,485
72,779
72,1286
72,1514
72,1758
72,1867
72,2102
72,2436
72,2552
72,3330
72,3575
72,4838
72,4969
75,947
75,2077
75,2419
75,2962
75,3069
75,3837
75,4809
75,4932
77,130
77,447
77,662
77,1600
77,2051
77,2357
77,4458
77,4780
79,1400
80,2196
82,143
82,325
82,1710
82,1721
82,2107
82,3537
87,325
87,2428
87,4909
87,4948
88,2193
88,3381
89,909
89,2725
89,2985
89,4132
90,4577
93,76
93,936
93,1168
93,1916
93,3315
93,4028
95,506
95,2054
95,4575
96,32
96,250
96,822
96,1851
96,2618
96,2986
96,3182
96,3916
99,128
99,971
99,1914
99,2398
99,3384
99,3633
99,4140
99,4148
99,4253
99,4728
100,5
100,292
100,3356
101,311
101,447
101,546
101,686
101,2203
101,2362
101,3466
101,3696
101,3822
101,4672
104,1470
107,555
107,651
107,1198
107,1882
107,1992
107,3645
107,4201
107,4378
108,2017
109,2
109,159
109,205
109,280
109,444
109,728
109,950
109,1072
109,1357
109,1931
109,2234
109,2877
109,2890
109,3587
109,4009
110,1328
110,4126
111,396
111,736
111,1483
114,532
114,1299
114,3641
115,850
115,2535
115,2721
115,4411
117,237
117,1483
118,291
118,1355
118,1411
118,2834
118,4133
118,4663
119,91
119,512
119,675
119,1913
119,2419
119,3334
119,3423
119,4014
119,4693
121,1223
122,290
122,1026
122,1231
122,3106
122,3765
122,3794
122,3862
123,3094
126,116
126,1572
126,3261
127,205
127,502
127,1424
127,1772
127,2224
127,2939
129,1228
130,336
131,93
131,1471
131,2049
131,2915
133,161
133,1070
133,1234
133,1366
133,1576
133,1919
133,2114
133,2132
133,4469
134,2434
136,231
137,5
138,3293
138,4112
138,4152
138,4844
138,4940
141,3680
149,30
149,2246
149,3601
149,4283
149,4309
150,3469
153,1039
154,62
155,317
156,615
158,236
158,454
158,1718
158,1737
158,1930
158,1977
158,2524
158,2725
158,2921
158,2945
158,3974
160,1439
160,3649
162,2410
162,3308
165,32
165,38
165,530
165,781
165,1056
165,1071
165,1260
165,1551
165,2220
165,3652
165,3937
165,4148
165,4216
165,4428
165,4843
166,40
167,778
167,1737
167,2089
167,4127
167,4222
168,3951
168,4452
170,130
170,2164
170,2202
170,2594
170,3170
171,31
173,392
173,1285
173,1377
173,1442
173,1781
173,1825
173,2143
173,2260
173,2275
173,2649
173,3998
173,4028
173,4595
174,97
174,1033
175,65
175,1086
175,4914
176,194
176,2031
176,2726
176,4063
178,1052
178,2963
178,3647
178,4000
178,4467
179,91
179,278
179,513
179,1697
179,1876
179,2264
179,3998
179,4472
179,4916
180,116
180,3733
180,4472
183,155
183,276
183,2386
183,2492
183,2650
184,700
184,1874
184,2394
184,4738
184,4745
185,1588
185,1708
186,241
186,420
186,4861
186,4951
187,2891
188,779
189,1671
189,3591
191,2
191,210
191,611
191,1062
191,1268
191,1275
191,2913
191,2945
191,4693
192,190
192,1663
192,3654
195,480
195,1239
196,62
196,3498
197,842
197,3680
198,145
198,233
198,615
198,1193
198,2284
198,2624
198,3871
198,4018
198,4771
199,1444
199,2102
199,3396
199,4946
200,3489
201,25
201,40
201,132
201,263
201,342
201,641
201,707
201,1037
201,1195
201,1239
201,1626
201,1712
201,1864
201,2267
201,2540
201,2819
201,3256
201,3626
201,4238
201,4807
202,718
202,1015
202,1599
202,3780
202,4079
202,4970
203,966
203,1405
203,3620
206,93
206,3863
209,61
209,4465
212,65
212,232
212,862
212,1051
212,3052
212,4260
212,4701
212,4908
213,460
213,1329
213,2957
213,4694
214,116
214,1067
214,1502
214,2211
214,3920
215,97
216,193
216,487
216,584
216,1086
216,3694
216,3790
216,4693
219,38
219,506
220,1436
220,2440
220,2480
220,2692
223,4463
224,121
224,422
224,571
224,917
224,1356
224,2210
224,3254
224,3812
224,3922
224,3923
226,368
226,729
226,1216
226,2789
226,3291
226,4092
226,4143
228,121
228,306
228,1053
228,2231
229,690
229,1859
229,2192
229,3332
229,3650
229,4992
231,876
232,942
232,1151
232,1393
232,2062
232,4045
232,4595
232,4730
233,983
233,1074
233,3383
233,4208
233,4510
234,137
235,1111
235,2419
235,3205
239,129
239,713
239,1538
239,2075
239,3377
239,4948
240,2820
241,3005
244,218
244,731
244,1889
244,2444
244,2500
244,4989
245,2239
245,4693
246,190
246,2220
246,2779
246,4573
247,1393
247,1455
248,531
248,691
248,1587
248,2170
248,2184
248,2265
248,2780
253,776
253,1212
253,1913
253,2659
253,2945
254,2473
254,4333
258,230
258,330
258,452
258,848
258,1576
258,2394
258,2433
258,2729
259,30
259,1708
259,1793
259,3095
259,3943
259,4452
260,190
260,4820
261,3242
261,3843
262,139
262,3422
264,692
265,1925
266,3777
267,161
267,2012
267,2349
271,807
271,1000
271,1711
271,3777
273,78
273,1519
273,3756
274,105
274,1928
276,888
276,1175
276,1589
279,2629
280,93
280,238
280,297
280,313
280,503
280,565
280,704
280,842
280,949
280,1020
280,1137
280,1214
280,1347
280,1715
280,1854
280,1933
280,2266
280,2277
280,2567
280,2891
280,2944
280,2994
280,3843
280,3973
280,4022
280,4222
280,4320
280,4582
280,4771
280,4951
281,32
281,1032
281,2018
281,3210
281,4274
282,703
282,754
282,2876
282,4252
282,4572
282,4908
282,4980
283,181
283,337
283,780
283,1005
283,2903
283,3319
283,3393
284,703
284,896
284,1704
284,2688
284,3479
285,125
285,2479
285,3794
285,3923
286,1150
286,3612
289,280
290,487
290,1264
290,4140
294,2032
294,2221
295,145
295,614
295,1262
295,1913
295,2065
295,3569
295,3580
295,4914
296,2820
299,1549
300,19
300,1702
300,4140
303,890
303,3121
303,3169
303,3457
303,4309
303,4981
304,3680
305,31
305,2927
305,3642
308,945
308,969
308,2522
308,3620
309,94
309,373
309,411
309,468
309,1152
309,1391
309,1404
309,1812
309,2149
309,2591
309,3136
309,3148
309,3388
309,3453
309,3511
309,3586
309,3859
309,4578
309,4828
310,1599
313,669
314,297
314,763
314,2165
314,2601
314,4772
315,76
315,802
315,1793
315,1814
315,2328
317,248
317,492
317,917
317,962
317,1144
317,1539
317,1801
317,1825
317,1922
317,2775
317,2906
319,2035
319,2131
321,592
322,444
323,575
323,2277
323,2711
323,4148
323,4389
323,4818
324,92
324,140
324,3485
325,819
325,978
325,1300
325,3544
325,4169
325,4452
325,4766
326,163
327,217
327,770
327,1504
327,1883
329,503
329,1841
329,2501
329,3057
329,3312
329,4274
329,4404
331,30
334,193
334,670
334,1146
341,125
341,988
341,3282
341,3581
344,40
344,92
344,539
344,1067
344,1469
344,1738
344,2010
344,2273
344,3238
344,4290
344,4385
344,4767
344,4848
345,1033
345,2652
345,2928
345,3476
345,4867
346,778
346,1503
346,3704
346,3746
346,4187
348,578
348,615
348,1023
348,1231
348,1511
348,1781
348,2023
348,2808
348,4149
349,1378
349,1632
352,1389
354,144
354,156
354,320
354,321
354,680
354,871
354,920
354,968
354,1146
354,1220
354,1416
354,2142
354,2246
354,2913
354,2993
354,3553
354,4277
355,76
358,3800
359,972
359,1162
359,2725
359,4391
361,7
361,696
361,1033
361,1386
361,1609
361,2302
361,2653
361,2726
361,3257
361,3300
361,3478
361,3606
361,3647
361,3678
361,3867
361,3885
361,3900
361,4652
361,4896
361,4954
362,2628
362,2746
362,3743
365,1689
365,3238
366,1070
366,3307
366,3665
367,414
367,649
367,1106
367,1314
367,1721
367,2663
367,4604
367,4954
368,29
370,3944
372,1501
372,2415
374,807
374,818
374,2455
374,4148
377,242
377,615
377,659
377,1110
377,1412
377,1413
377,1992
377,2720
377,4574
379,442
379,1119
379,1501
379,3307
380,42
380,93
380,1436
380,1489
380,2245
380,3427
380,4464
380,4659
380,4961
381,93
381,828
381,4711
382,1503
383,1267
386,1222
386,1746
386,2512
386,3072
386,3587
386,4140
386,4730
387,230
387,1195
387,1337
388,514
389,5
390,463
391,1483
393,256
394,2389
394,2622
394,3909
395,251
397,733
397,742
397,1140
397,2870
398,4438
399,280
399,1999
399,2211
399,2277
401,894
403,524
403,1074
403,1150
403,2227
403,3461
403,3815
405,352
405,3183
406,746
406,4078
408,1598
408,1965
408,2046
408,3201
408,3837
408,4105
408,4269
409,2199
409,2545
416,521
416,3199
416,4954
417,210
418,1370
418,1536
418,1758
418,2109
418,2258
418,3239
419,582
419,4940
427,4299
428,3275
429,3292
429,4842
434,9
434,2085
435,330
435,2277
435,2946
437,118
439,652
439,1483
439,1649
439,1881
439,2294
439,2840
440,1420
443,3661
444,102
445,30
445,3416
445,4343
445,4479
446,762
448,1446
448,2977
448,3028
448,3035
448,3459
450,2877
451,1447
451,2782
451,3600
453,1944
453,3307
455,19
455,2774
456,3130
456,3814
458,2246
459,205
459,373
461,161
461,442
461,1596
461,1729
461,2277
461,3319
461,3405
461,3632
461,4771
461,4786
462,1193
462,2134
462,2340
462,2782
464,31
464,78
464,1042
466,514
466,1803
467,2327
468,205
468,2780
468,2945
470,4730
471,292
472,2364
472,4574
473,397
473,1180
473,2482
473,4824
473,4918
474,288
474,910
476,92
476,1167
476,3145
476,4991
477,2492
477,2779
477,3714
479,1393
479,2149
479,2900
479,3981
479,4646
480,802
481,3529
482,592
482,1011
482,1276
483,978
483,4086
484,5
484,2659
486,211
486,2820
486,2962
488,222
488,1506
488,1524
488,2659
489,25
489,325
491,208
491,2436
493,51
493,619
493,1348
493,4039
494,1567
494,2798
495,4693
496,91
496,979
496,1133
496,3264
496,3643
497,320
497,352
497,507
497,675
497,773
497,1519
497,2740
497,3568
497,4242
502,2820
504,2779
505,695
505,887
505,1067
505,1451
505,3209
505,3248
505,3742
506,207
506,2537
506,3013
507,328
507,636
507,1883
507,2398
507,2409
507,2728
507,4872
508,292
508,934
508,1014
509,1067
509,1201
509,1501
509,2221
509,4019
510,321
514,2695
514,3165
515,78
516,600
516,2327
516,4628
516,4842
517,132
517,565
517,2203
517,2565
518,320
520,1501
520,1587
523,3345
523,4606
525,1577
525,2306
525,2686
526,95
528,3416
529,46
529,565
529,2474
529,3907
533,125
533,268
533,1280
533,1836
536,820
536,1283
536,4842
537,1357
538,527
538,609
538,1804
538,1870
538,2021
538,4367
541,33
542,707
543,904
545,1284
545,1324
545,2009
545,2061
545,2279
545,3229
545,3270
545,4715
548,373
548,977
548,1898
548,2928
548,3980
549,771
549,1232
549,1405
549,2809
549,3498
549,4273
549,4708
549,4954
550,1413
551,807
551,1334
551,3260
552,3923
554,4549
555,4389
556,592
556,1512
557,159
557,845
557,1398
557,1974
557,3309
557,3564
557,3875
558,210
558,874
558,2696
558,3100
559,251
559,3644
559,4001
560,802
561,336
564,92
567,3562
567,3802
569,65
569,93
569,125
569,343
569,641
569,782
569,819
569,824
569,1149
569,1261
569,2234
569,4184
569,4603
570,615
570,651
570,3999
573,40
573,316
573,363
573,1067
573,1426
573,2877
573,3073
576,893
576,1241
576,1548
576,3389
576,4687
577,147
577,3380
580,511
580,749
580,893
580,2029
580,2139
580,2290
582,869
582,2051
583,2497
584,243
584,1514
584,2542
584,4709
586,381
587,1416
587,4611
590,836
590,1272
590,3362
590,3537
592,990
592,1443
592,1446
592,2908
592,4981
593,4582
595,340
595,661
595,969
595,984
595,1266
595,1620
595,1833
595,1876
595,1968
595,2124
595,2242
595,3100
595,3147
595,3813
598,63
598,1282
598,1723
599,225
599,261
599,2323
599,4318
601,454
602,134
602,874
602,1403
602,2259
602,2461
602,4151
602,4500
603,709
603,2277
603,3330
603,3543
604,1243
604,1336
604,2210
604,2353
604,2889
606,607
606,1314
606,2811
606,4138
610,316
614,2460
615,12
615,684
615,3138
615,3823
616,1819
617,336
617,1077
617,1829
617,3293
618,1422
618,2834
618,3430
620,205
620,278
620,734
620,1759
620,2205
620,2949
620,3214
620,4031
620,4667
620,4933
621,139
621,330
621,1625
621,2105
621,4497
621,4976
623,1379
623,1436
623,1483
623,1549
625,1086
626,139
626,352
626,449
626,707
626,2144
626,2643
626,3076
626,3094
626,3821
626,4693
626,4738
627,30
627,66
627,116
627,691
627,910
627,1075
627,1086
627,1377
627,4021
627,4037
627,4140
627,4389
628,307
629,2587
630,2591
631,2743
635,190
635,492
635,1039
635,1552
635,2725
635,4730
636,1455
636,1993
636,3182
638,205
638,993
638,1888
639,100
639,1348
639,4105
643,1023
643,2234
643,2388
644,4266
645,3327
647,1545
647,2324
650,447
650,3681
650,3884
651,2726
651,3387
654,2872
655,842
655,1204
655,2292
655,3466
655,4438
656,772
656,1966
658,161
658,343
658,499
658,546
658,1267
658,2414
658,2779
658,2781
658,4121
658,4294
658,4477
662,276
662,1991
662,4604
663,4922
664,232
666,396
669,1052
675,506
675,4224
676,125
676,1125
676,2115
677,1
677,238
677,1412
677,1575
677,2725
677,3094
677,4089
678,732
678,4332
683,232
683,321
683,674
683,2474
683,3932
684,1034
685,934
685,1077
685,1704
685,2455
688,1589
692,10
692,73
692,682
692,1553
692,1592
692,2616
692,2684
692,3182
693,134
693,378
693,4325
694,47
694,937
694,1507
694,2520
694,3413
694,3837
694,4558
698,161
698,321
698,463
698,465
698,3348
698,3764
699,3620
701,3094
701,4096
701,4203
703,591
705,1357
706,413
708,4888
711,1543
711,2155
712,132
712,369
712,3494
715,98
715,584
715,642
715,861
715,1234
715,1467
715,1815
715,3713
715,4465
715,4888
717,19
717,1166
717,1240
717,1569
717,2348
717,3249
718,513
719,152
719,3603
719,4024
719,4450
720,4188
720,4450
721,336
721,2941
721,4814
724,387
725,634
725,1149
725,1440
725,1613
725,2370
725,2820
725,3011
725,3083
725,3798
726,132
730,172
730,637
730,2581
730,3707
733,2910
734,25
735,1964
738,1402
738,4465
739,3136
740,537
740,1416
740,1483
740,1688
741,903
741,1164
741,3544
742,2820
743,313
744,145
744,1015
744,1116
744,1222
744,1377
744,1851
744,1872
744,2197
744,2326
744,2966
744,4771
750,589
750,3171
751,1356
752,44
752,159
753,237
753,807
753,908
753,2589
753,4981
755,2105
757,132
757,3998
758,875
758,2279
758,2373
758,3413
758,4617
758,4640
760,250
760,770
760,2318
760,2353
761,731
761,879
761,1165
761,2145
761,3963
761,4545
761,4669
764,2207
764,2878
764,3307
764,3327
764,4359
764,4946
767,106
768,1481
768,2168
768,2936
768,3544
768,4939
769,1323
769,1549
774,251
774,2584
775,2963
777,1483
778,337
778,608
778,1086
778,2796
778,3383
783,842
783,1854
783,1917
783,3676
783,4436
784,127
784,164
784,827
784,1145
785,166
785,292
785,384
785,507
785,622
785,796
785,933
785,1020
785,1743
785,1924
785,2703
785,4503
785,4971
787,1549
787,4842
789,208
789,333
789,834
790,848
790,2726
790,4370
791,40
791,442
791,619
791,1383
791,1816
791,3554
791,3876
791,4148
793,4720
794,1328
794,4977
795,1462
799,1240
799,1375
799,1920
799,2350
799,4219
799,4409
801,163
802,592
802,934
802,1317
802,2708
802,3441
803,99
803,1101
803,3989
804,1879
804,3706
805,485
805,636
805,798
805,802
805,1274
805,1625
805,1936
805,1944
805,2085
805,2176
805,2321
805,2328
805,3375
805,4222
805,4485
805,4639
805,4675
807,140
807,3799
808,132
810,463
811,1073
814,1589
815,121
815,232
815,1593
815,2404
815,3042
816,879
816,2218
816,2706
816,3257
817,148
819,1431
821,2297
825,796
825,2136
825,2267
825,4300
826,503
826,689
826,1716
826,1848
826,2147
826,3841
829,2364
830,325
830,975
830,1184
830,2234
830,2783
831,2389
831,3051
832,912
832,3544
834,3085
835,2015
835,4693
838,221
838,3457
838,4665
840,1404
840,3270
840,3782
841,532
843,2659
843,4453
846,30
846,874
846,1725
846,2852
849,3340
849,4842
851,2277
852,240
852,1274
852,4084
853,674
855,3289
856,2652
856,4308
856,4911
858,1410
858,1454
858,2324
858,2741
859,193
859,1333
859,2196
860,501
860,1774
860,3187
861,836
863,1446
863,2510
863,3493
863,4913
864,1504
865,92
866,528
867,614
867,1039
867,2008
867,3512
867,4631
868,765
870,444
870,4598
872,332
876,2392
876,3040
877,182
880,312
880,873
881,1206
881,1524
882,337
882,1578
883,337
883,3011
883,3307
883,3516
885,4730
889,616
889,4900
891,1224
891,1879
891,4089
892,1486
894,3498
895,1490
895,2738
895,4842
897,894
897,1430
897,2417
897,4178
897,4495
898,519
898,1222
898,1562
898,1891
898,3537
898,3916
899,4014
900,1470
900,4951
901,442
902,661
903,1539
903,2609
906,318
907,565
907,2085
914,3970
916,63
916,1323
916,1995
916,2492
916,3131
916,3824
916,4282
916,4404
916,4671
918,629
919,42
919,2299
922,4274
923,616
924,1701
924,2246
925,182
925,680
925,1310
925,4119
926,501
927,413
928,1460
930,2171
930,3094
930,3572
930,4687
931,1235
931,2718
931,4481
935,1355
938,1051
939,2725
940,1381
940,2512
940,2513
940,3307
940,3483
940,4602
943,18
943,2129
944,2052
944,4028
944,4979
945,292
945,297
945,387
945,594
945,985
945,1199
945,1969
945,3159
945,4738
945,4993
947,105
949,1714
949,2394
951,3552
954,4263
955,1305
955,3987
955,4465
958,913
959,1356
959,1560
961,426
961,1800
961,4704
962,323
964,1476
964,2831
964,3293
965,447
965,987
965,1353
965,3182
966,729
967,4948
970,3416
973,2962
973,2991
974,649
974,2283
974,2442
974,4191
978,633
980,729
980,2881
982,578
982,1183
982,4098
984,1232
985,3158
989,322
989,1166
989,3256
991,978
991,990
991,1697
991,1750
991,1894
991,3126
991,3332
994,62
994,227
994,1823
994,1867
994,2129
994,2921
995,132
995,210
996,2263
996,3254
997,356
997,1461
998,4914
999,9
999,122
999,540
1002,2703
1003,32
1003,1234
1003,1690
1003,1782
1003,2875
1003,4293
1003,4740
1004,1468
1004,4140
1007,4225
1008,691
1008,1065
1008,1648
1008,2211
1008,2475
1008,4174
1009,62
1009,256
1009,819
1009,1519
1009,2062
1009,2648
1009,3613
1010,4468
1012,907
1012,1408
1012,1537
1012,2010
1012,4469
1012,4677
1015,734
1015,1499
1015,3933
1015,4635
1017,1925
1018,3293
1021,63
1022,132
1024,2587
1027,2394
1028,145
1028,1177
1028,1309
1028,1735
1028,3383
1028,4582
1030,147
1030,270
1030,332
1030,707
1030,713
1030,788
1030,984
1030,1075
1030,1156
1030,1219
1030,1308
1030,1455
1030,1928
1030,2693
1030,3528
1030,3718
1030,4495
1031,1148
1031,4661
1035,807
1039,426
1039,3142
1040,155
1040,578
1040,3379
1043,3544
1043,3587
1045,116
1045,152
1046,38
1047,4573
1048,1146
1048,2087
1048,2661
1049,605
1049,1296
1049,2450
1052,2580
1054,37
1054,320
1054,779
1054,1357
1054,3025
1057,453
1057,1577
1057,2051
1057,2939
1057,4247
1058,1836
1058,4665
1059,1067
1059,1341
1059,1956
1059,2455
1059,2797
1059,4666
1063,976
1063,1023
1064,2913
1065,40
1065,76
1065,590
1065,2014
1065,2358
1065,3980
1065,4465
1068,932
1069,529
1073,2701
1073,2839
1074,4389
1077,475
1077,1502
1077,1946
1077,2214
1077,4972
1079,1149
1079,2511
1080,2631
1080,2753
1081,222
1081,402
1081,929
1081,2859
1082,507
1083,2743
1084,446
1084,1672
1084,2612
1084,2652
1084,2835
1084,4574
1087,2392
1088,413
1088,2231
1090,1014
1090,2931
1090,3261
1092,4148
1093,363
1094,119
1096,807
1097,336
1097,1538
1097,1739
1097,3721
1097,4379
1099,798
1099,3182
1102,837
1102,1904
1102,1987
1102,3563
1103,1632
1104,485
1105,802
1105,1149
1105,3761
1105,4148
1105,4176
1107,3661
1107,4858
1108,615
1109,2277
1113,2703
1114,2532
1115,131
1115,2049
1115,3039
1117,581
1118,332
1118,592
1118,3443
1118,4585
1120,106
1120,716
1120,1998
1120,2945
1121,93
1121,1752
1121,2351
1123,413
1123,1470
1126,1038
1128,802
1128,1929
1128,2010
1128,2030
1129,19
1129,4981
1130,2851
1131,336
1131,3293
1131,4693
1132,842
1134,1298
1135,172
1135,3109
1135,3299
1136,2754
1137,640
1137,2998
1138,263
1141,360
1141,833
1141,1248
1147,308
1148,2123
1148,2307
1150,1956
1151,4673
1154,125
1154,3375
1155,1430
1156,453
1157,32
1157,1310
1157,1692
1157,3100
1157,3156
1158,2538
1158,4614
1160,710
1160,713
1160,1215
1160,2216
1160,3938
1166,1504
1172,330
1172,4383
1173,600
1174,201
1174,1538
1174,4215
1176,3460
1178,105
1178,2536
1179,454
1179,3810
1181,2234
1181,2415
1181,4294
1181,4495
1186,634
1186,2052
1188,25
1188,3017
1189,2645
1190,707
1194,1100
1195,313
1195,1222
1195,1409
1195,1909
1195,3381
1195,3802
1196,1676
1197,4472
1197,4705
1200,2210
1205,1684
1205,4463
1206,10
1206,590
1206,1067
1207,1598
1207,2574
1209,163
1209,438
1209,1612
1209,3154
1209,4425
1210,3145
1211,275
1211,2244
1214,278
1214,1357
1214,3181
1215,432
1215,1591
1215,2036
1217,1054
1221,1483
1224,613
1224,1243
1224,1378
1224,2203
1224,2751
1224,3977
1224,4919
1225,4028
1229,2053
1229,2708
1230,911
1233,211
1233,1050
1233,3805
1235,26
1235,578
1235,892
1235,1194
1235,1328
1235,1446
1235,2336
1235,2363
1235,2782
1235,2939
1236,1482
1236,2670
1236,3591
1236,4317
1237,494
1237,2148
1237,3077
1238,1405
1238,3923
1238,4414
1242,1500
1242,2568
1242,3040
1242,3542
1242,3840
1244,1163
1245,972
1245,4091
1246,1209
1249,2221
1250,1091
1250,1258
1250,1784
1250,2560
1250,2782
1250,4312
1251,4842
1252,292
1253,700
1253,833
1255,1501
1255,2406
1257,5
1257,92
1257,105
1257,2679
1257,3992
1257,4451
1259,2160
1259,2652
1265,736
1267,2003
1269,457
1270,819
1270,2915
1270,3166
1271,1019
1273,134
1273,233
1273,2752
1273,3502
1273,3923
1276,2486
1277,172
1277,1469
1277,3348
1277,3531
1277,3555
1277,3833
1277,3843
1277,4405
1279,3998
1281,649
1282,3115
1282,3974
1284,2725
1285,487
1285,2599
1285,3537
1285,4831
1286,3802
1288,2394
1288,2760
1289,1773
1291,574
1293,263
1293,1768
1293,2373
1293,4612
1297,73
1297,1535
1297,2703
1298,3005
1301,921
1301,1626
1302,4329
1303,1149
1304,766
1306,2035
1307,1829
1309,1139
1309,4410
1311,540
1312,1971
1312,3654
1316,1360
1316,2297
1317,148
1318,4274
1319,1966
1320,3571
1322,3680
1322,3797
1325,778
1327,105
1329,257
1330,469
1330,3278
1331,1519
1331,2439
1331,2441
1335,672
1335,3039
1335,3684
1336,501
1339,1209
1339,4404
1340,38
1340,1263
1340,1394
1342,2110
1342,2810
1344,550
1345,221
1345,4568
1347,4670
1347,4799
1349,7
1349,52
1349,169
1349,325
1349,336
1349,3923
1349,3978
1350,2221
1351,111
1351,3438
1352,575
1352,3296
1352,3689
1352,4148
1352,4844
1352,4953
1352,4963
1354,579
1354,4363
1354,4845
1358,494
1358,668
1358,3153
1359,7
1363,837
1364,448
1364,1408
1364,1654
1364,2710
1365,763
1365,2725
1365,3890
1365,4299
1366,1056
1368,32
1368,2725
1368,3350
1368,4412
1369,4694
1370,1074
1370,2455
1370,4173
1371,1635
1371,4394
1372,2203
1372,2616
1373,345
1376,653
1376,1760
1376,1984
1378,1791
1378,2258
1379,177
1379,1205
1379,1846
1379,2203
1379,3455
1380,32
1380,194
1380,1212
1380,2241
1381,4658
1382,193
1383,242
1383,365
1383,1726
1383,1891
1383,2275
1383,2384
1383,2400
1383,2779
1383,2962
1383,4113
1383,4623
1384,243
1385,7
1388,1405
1388,1826
1388,3967
1388,3973
1388,4886
1390,1331
1390,1684
1390,2418
1391,144
1391,4687
1392,707
1392,2313
1395,412
1397,2114
1397,2171
1399,428
1399,893
1400,501
1400,1578
1400,1777
1400,1918
1400,4066
1401,249
1405,59
1405,308
1405,2210
1406,947
1406,1589
1407,1067
1407,3736
1407,4140
1407,4220
1413,1649
1413,2151
1413,3256
1413,3803
1414,161
1414,1074
1414,4014
1415,3601
1417,78
1417,145
1417,532
1417,707
1417,779
1417,1142
1417,1263
1417,1285
1417,1585
1417,1922
1417,2429
1417,3027
1417,3069
1417,3409
1417,4169
1417,4894
1418,1150
1419,1972
1419,4954
1421,802
1421,1891
1421,2163
1425,2085
1427,498
1427,3917
1428,4018
1429,344
1430,81
1430,529
1430,1666
1430,4061
1432,1329
1433,668
1433,781
1435,74
1435,2911
1435,4509
1435,4781
1437,241
1437,1992
1437,2564
1438,1170
1439,78
1439,1516
1441,325
1441,2535
1441,3196
1441,4842
1442,485
1442,2659
1442,4449
1442,4796
1445,1337
1446,67
1446,2597
1446,4725
1449,261
1449,2256
1449,2834
1452,1191
1453,4294
1455,769
1458,1577
1458,2529
1458,3336
1458,3499
1458,4253
1459,91
1459,444
1459,703
1459,3626
1459,4164
1459,4573
1459,4768
1463,145
1464,957
1465,2203
1466,970
1466,1880
1466,2563
1466,3616
1472,1742
1472,4720
1473,1874
1473,2545
1473,3091
1473,3407
1473,3978
1474,1347
1475,596
1475,1773
1475,2018
1477,703
1479,680
1480,2843
1480,4436
1483,605
1484,487
1484,2732
1486,40
1486,400
1486,2751
1486,3919
1487,3005
1487,3502
1487,4028
1487,4434
1488,1276
1488,3253
1491,1077
1491,1523
1491,2602
1491,3084
1492,1741
1492,2616
1492,4377
1493,2154
1493,2271
1493,4299
1494,1077
1495,2913
1496,722
1497,340
1498,1598
1498,3212
1498,4869
1500,578
1500,1036
1501,1443
1503,447
1503,2257
1503,4148
1503,4730
1504,132
1504,204
1504,1337
1505,936
1508,55
1508,1837
1508,3449
1508,3540
1508,4871
1509,232
1509,1604
1513,3974
1515,511
1515,3464
1516,2388
1518,592
1518,2253
1518,3693
1518,4424
1520,679
1521,1202
1521,2725
1521,4555
1522,319
1523,514
1523,1393
1523,3358
1523,4148
1523,4938
1525,2945
1526,297
1526,4950
1527,3756
1528,350
1528,642
1528,2165
1530,210
1530,390
1530,1379
1530,1625
1530,1639
1530,2597
1531,444
1532,2945
1533,4093
1534,1355
1534,1695
1534,4640
1539,519
1539,565
1540,490
1540,893
1540,1649
1540,1651
1540,4526
1541,1992
1541,4595
1543,911
1544,2859
1544,3101
1545,1184
1545,1501
1546,238
1546,529
1546,1599
1546,1674
1547,714
1547,1704
1549,4089
1550,32
1551,292
1551,1771
1551,2820
1551,3017
1551,4081
1552,1314
1552,3552
1554,1086
1554,2515
1554,3538
1554,4104
1555,93
1556,1309
1556,2182
1556,3418
1556,4823
1558,2303
1558,3514
1558,4208
1559,292
1563,686
1564,1014
1564,1519
1565,263
1565,298
1565,345
1565,356
1565,387
1565,2737
1565,3974
1565,4321
1565,4433
1565,4566
1566,590
1566,4592
1567,1120
1570,4363
1572,1844
1574,4018
1576,2253
1579,691
1579,3607
1580,597
1580,4712
1581,716
1582,210
1582,3293
1583,1396
1583,2345
1584,65
1584,4125
1586,125
1587,320
1587,323
1589,2795
1590,913
1590,1648
1594,707
1594,3518
1595,990
1599,1457
1599,3969
1601,1093
1603,337
1603,2043
1603,2375
1603,3274
1603,4460
1603,4550
1603,4574
1605,2234
1606,302
1606,633
1606,4143
1607,279
1607,434
1607,611
1607,784
1607,3327
1608,40
1608,1066
1608,1874
1608,2758
1610,2014
1610,2069
1610,2087
1610,2547
1610,4005
1610,4394
1610,4490
1611,156
1612,3509
1615,1619
1616,267
1617,2736
1618,487
1619,249
1619,812
1619,4744
1621,729
1621,1988
1621,2207
1621,2556
1623,1124
1623,1739
1623,2587
1623,4452
1623,4936
1624,1166
1624,2725
1624,3445
1624,3937
1627,680
1627,2492
1627,2550
1627,2799
1627,3310
1627,3655
1630,4463
1631,700
1633,2614
1633,3414
1634,4244
1636,67
1636,837
1636,1654
1636,2221
1636,4948
1638,255
1638,3590
1638,4028
1641,161
1642,189
1642,756
1642,1091
1642,1561
1642,1945
1642,2255
1642,2790
1642,3282
1642,3314
1642,3532
1643,649
1643,1013
1643,1956
1643,2277
1643,2298
1644,557
1644,1733
1644,2114
1645,4452
1649,3783
1650,1194
1650,1263
1650,2472
1650,4542
1652,1419
1652,4162
1653,2501
1653,3146
1653,4310
1654,1420
1655,65
1658,1418
1659,2080
1660,463
1661,12
1661,807
1662,152
1664,1688
1664,3956
1665,38
1665,1706
1665,3705
1667,1577
1669,669
1669,3206
1670,844
1670,3618
1675,356
1676,1538
1676,1873
1678,400
1680,2652
1681,1420
1682,426
1683,1726
1683,2277
1683,4313
1685,396
1687,1367
1687,1648
1687,1759
1688,140
1688,2301
1693,385
1693,1737
1693,2113
1693,3598
1693,3692
1695,302
1700,130
1700,1528
1701,44
1701,387
1701,649
1701,3335
1701,3340
1701,4093
1703,4767
1705,1161
1705,3825
1707,1604
1708,1161
1708,3122
1708,3776
1709,1194
1712,1117
1712,1296
1712,2013
1717,1592
1717,4406
1719,969
1719,1536
1724,775
1727,1716
1728,830
1729,364
1730,579
1731,4771
1732,1792
1732,2787
1732,3950
1732,4388
1732,4549
1732,4689
1736,947
1736,2834
1736,3049
1738,293
1738,1077
1738,1145
1738,2114
1738,3680
1738,4311
1738,4667
1738,4906
1740,292
1740,2181
1740,2536
1740,3150
1741,2816
1741,2846
1741,4078
1741,4585
1741,4691
1742,32
1742,307
1742,4373
1744,1051
1747,4093
1748,1501
1749,40
1749,424
1749,941
1749,1334
1749,1937
1749,2020
1749,2095
1749,2870
1749,3298
1751,18
1753,343
1753,1420
1753,4521
1754,145
1754,854
1754,1734
1754,4767
1756,4694
1757,412
1757,1517
1758,2820
1758,4689
1761,1231
1762,242
1762,2226
1762,2867
1762,3686
1762,4246
1762,4341
1763,532
1764,3525
1764,4720
1765,3206
1769,145
1769,969
1769,3359
1770,312
1770,1386
1770,2273
1770,4713
1775,277
1775,609
1775,979
1775,3465
1775,4730
1776,152
1776,2542
1778,155
1778,2820
1778,3210
1779,325
1779,2121
1780,159
1780,2055
1780,2256
1780,3688
1781,3669
1783,4148
1785,553
1785,3013
1785,3357
1786,1718
1787,30
1787,710
1790,833
1790,1598
1794,3845
1794,4582
1796,1473
1796,4028
1796,4694
1796,4844
1797,1231
1798,116
1799,1144
1806,512
1806,2277
1807,2271
1807,4481
1808,874
1808,2087
1809,166
1809,633
1809,703
1809,1647
1809,4140
1809,4387
1809,4601
1809,4658
1811,707
1811,1258
1811,3172
1811,4483
1813,492
1813,1501
1813,3993
1813,4716
1814,2058
1814,2120
1814,3631
1814,4315
1814,4350
1817,1310
1817,3376
1818,217
1818,2221
1820,1436
1820,3620
1827,177
1828,125
1828,2205
1832,618
1832,2550
1832,4383
1832,4693
1834,2962
1834,3795
1834,3821
1835,1470
1835,3238
1838,506
1838,3218
1839,3257
1840,108
1840,2137
1840,2494
1840,4357
1843,387
1843,2019
1843,3473
1845,1890
1847,217
1847,463
1847,2897
1847,4613
1849,387
1849,3925
1850,78
1850,1895
1850,2007
1850,2187
1850,2992
1852,1851
1852,3426
1852,3473
1855,759
1855,2458
1856,78
1856,3041
1857,392
1857,2474
1857,3255
1857,3617
1857,4953
1858,353
1858,3467
1860,1127
1862,125
1862,280
1862,2446
1862,3174
1862,3294
1862,4931
1863,93
1863,2670
1863,3529
1865,4189
1865,4720
1866,181
1868,969
1868,3365
1868,4641
1869,76
1873,2114
1874,1502
1874,1713
1874,3293
1874,4332
1874,4447
1875,1407
1876,1676
1876,3394
1877,1925
1885,1819
1887,2322
1887,2389
1887,3531
1888,84
1889,1729
1889,4874
1893,1148
1894,978
1894,2945
1896,759
1897,447
1900,1177
1900,1356
1903,297
1903,2382
1903,4841
1905,375
1905,1177
1905,3023
1906,498
1906,2699
1907,334
1908,1071
1908,2617
1910,152
1913,942
1913,4824
1914,4693
1915,1404
1916,85
1916,148
1916,155
1916,501
1916,806
1916,2011
1916,2448
1916,2744
1916,3089
1916,3128
1916,4334
1920,187
1921,347
1925,1122
1925,3209
1926,32
1926,1023
1926,1367
1926,2721
1927,124
1927,244
1927,874
1927,1347
1927,2779
1927,3108
1927,3744
1928,4478
1930,923
1930,4867
1930,4952
1932,1356
1932,2164
1932,3080
1934,592
1935,312
1936,1100
1938,38
1939,3794
1940,613
1941,2820
1942,272
1942,2808
1943,5
1945,125
1945,251
1945,356
1945,1041
1945,2567
1945,2988
1945,4342
1947,1020
1947,4866
1948,1733
1949,30
1949,802
1949,1460
1949,1485
1949,2149
1949,2483
1949,2765
1949,3340
1949,3524
1949,3630
1949,4463
1950,327
1950,669
1952,1137
1952,3160
1953,4484
1953,4952
1954,3224
1954,4222
1955,4809
1957,134
1957,342
1957,806
1957,1313
1957,1393
1957,1679
1957,2051
1957,2435
1957,2473
1957,2690
1957,2744
1957,2849
1957,2935
1957,4027
1957,4193
1957,4794
1959,172
1960,193
1960,1981
1960,2549
1961,306
1961,1982
1962,478
1962,2437
1962,4253
1963,30
1964,4694
1965,2486
1966,969
1969,1020
1969,1060
1969,2074
1969,2894
1969,4883
1970,2496
1970,2690
1970,4197
1971,1202
1971,2724
1971,2906
1973,1557
1974,31
1974,139
1974,225
1974,347
1974,663
1974,878
1974,1946
1974,2427
1974,3477
1975,3028
1976,765
1976,1080
1976,4028
1978,1338
1979,3293
1980,707
1980,2989
1983,2497
1983,2543
1985,640
1985,2394
1986,613
1989,766
1994,802
1995,3707
1995,4450
1995,4463
1996,1552
1996,1602
1996,1995
1996,2987
1996,4148
2001,2530
2002,779
2002,2025
2003,3661
2004,1588
2006,1588
2016,1538
2016,1946
2016,2743
2022,1602
2022,4879
2024,2659
2024,4573
2026,802
2028,9
2028,578
2028,4809
2030,4769
2031,1
2031,813
2031,1649
2031,2595
2031,2782
2032,73
2032,1032
2033,1848
2033,4725
2034,1241
2034,2237
2034,2737
2038,798
2039,511
2039,3355
2039,3834
2040,40
2040,236
2040,2199
2042,2747
2042,4466
2044,675
2044,1023
2044,3135
2045,134
2048,727
2049,707
2050,4089
2051,1470
2057,211
2059,1074
2059,1214
2061,3886
2063,418
2063,798
2063,981
2063,1896
2064,669
2064,2606
2064,3725
2065,457
2069,3153
2070,312
2070,1305
2070,1734
2071,487
2071,802
2071,1169
2071,4452
2072,3799
2073,3544
2075,20
2075,61
2075,177
2075,312
2075,449
2075,453
2075,976
2075,1374
2075,1622
2075,2177
2075,2246
2075,3375
2075,3581
2076,1296
2078,30
2078,38
2078,95
2078,2220
2078,2317
2078,3446
2078,3540
2079,4463
2081,1463
2082,400
2083,3276
2084,132
2084,3416
2086,3973
2087,2703
2088,38
2088,44
2088,52
2088,112
2088,217
2088,312
2088,334
2088,563
2088,986
2088,1338
2088,1614
2088,2620
2088,3030
2088,3345
2088,4256
2088,4825
2091,3239
2092,2043
2092,4089
2094,275
2094,1871
2094,2586
2096,19
2097,1451
2098,152
2098,412
2100,4144
2101,12
2101,2737
2102,125
2102,553
2102,697
2102,773
2102,2333
2104,3209
2104,3806
2105,446
2105,4567
2106,2708
2106,3036
2108,585
2112,634
2117,438
2117,575
2118,874
2118,1375
2119,233
2119,649
2119,765
2119,1324
2119,2659
2120,1195
2120,2099
2120,4795
2121,969
2124,616
2124,798
2124,2080
2125,211
2126,1355
2126,4577
2127,78
2127,340
2127,659
2127,4207
2128,30
2128,97
2128,143
2128,236
2128,338
2128,347
2128,675
2128,1448
2128,1455
2128,1987
2128,2008
2128,3036
2128,3158
2128,3257
2129,340
2129,2019
2130,1246
2132,710
2133,1704
2133,2942
2133,3222
2133,4953
2135,2780
2137,292
2138,276
2138,2716
2140,1429
2141,3457
2146,343
2146,1404
2146,2293
2147,1202
2152,3036
2153,1149
2153,2882
2153,4303
2153,4638
2156,2725
2157,128
2157,1290
2157,2247
2157,2657
2158,529
2159,1015
2159,3135
2161,1483
2162,55
2162,4396
2166,2123
2166,4277
2167,2962
2168,1867
2168,2309
2168,2423
2168,4299
2169,1356
2169,4099
2171,34
2171,1033
2171,3238
2172,4842
2173,4140
2174,1402
2178,2817
2179,540
2179,1001
2179,1168
2179,1476
2179,3230
2179,3749
2180,205
2180,1551
2180,1676
2180,2191
2180,2252
2180,2297
2180,3127
2183,786
2183,824
2185,105
2185,4478
2186,1379
2187,2412
2188,4468
2189,956
2189,3866
2189,3938
2190,2645
2190,2970
2193,3537
2194,1168
2194,2202
2194,2591
2195,1716
2196,189
2198,1600
2198,2308
2198,3710
2198,4275
2199,454
2199,3308
2200,1714
2201,1286
2201,2466
2201,4912
2203,1020
2203,1185
2203,2455
2203,2530
2204,1461
2204,3098
2204,3261
2206,463
2208,802
2209,81
2209,3869
2210,891
2214,2725
2217,1486
2222,1296
2223,1666
2223,2109
2223,4274
2225,528
2225,807
2226,3421
2229,1061
2230,1718
2231,76
2231,151
2231,440
2231,915
2231,3058
2231,3962
2232,519
2233,385
2233,2554
2233,4692
2234,1034
2235,1519
2235,3505
2236,387
2238,499
2238,763
2238,4064
2240,313
2240,3584
2240,3873
2240,4430
2240,4469
2241,40
2241,1158
2242,839
2242,1292
2242,2560
2242,3191
2246,929
2247,566
2247,1305
2248,2494
2249,2550
2250,91
2251,1443
2253,1355
2255,4476
2256,809
2256,2080
2256,4953
2258,512
2258,1909
2258,3429
2259,978
2259,3669
2261,766
2262,2151
2263,1422
2263,2058
2266,1268
2266,1362
2266,1937
2267,592
2267,1371
2267,2707
2267,3055
2267,4527
2268,983
2268,1698
2268,2392
2272,256
2272,2390
2274,2512
2275,205
2276,2043
2278,2410
2278,4720
2279,4356
2280,3257
2281,1938
2281,3510
2281,4307
2285,2659
2287,1125
2287,1825
2287,3056
2288,1542
2289,210
2290,673
2290,4463
2294,2562
2296,59
2296,3600
2296,4809
2300,4670
2301,2149
2302,155
2304,2324
2304,2394
2304,4202
2307,605
2307,956
2307,2886
2308,636
2310,1909
2310,2934
2310,3506
2311,487
2311,2225
2312,1931
2314,210
2314,942
2314,1729
2314,2202
2314,4089
2315,2080
2315,4003
2316,3502
2319,2383
2319,2579
2319,3293
2319,4014
2319,4127
2320,932
2320,3218
2321,152
2327,221
2327,249
2327,979
2327,2516
2327,3974
2327,4067
2327,4326
2327,4645
2327,4882
2329,4018
2330,911
2331,1677
2331,2246
2331,2423
2331,3460
2332,1576
2333,3117
2334,2062
2335,1600
2335,2545
2335,3646
2335,3882
2335,3961
2335,4245
2337,4383
2338,487
2338,4010
2341,4426
2344,325
2344,3971
2347,1061
2352,155
2352,2080
2354,2221
2354,4179
2355,1361
2355,3789
2355,4726
2355,4795
2356,1913
2356,3799
2359,1
2360,29
2361,149
2365,668
2365,2820
2367,1714
2369,4404
2371,1913
2371,2754
2372,1605
2373,91
2373,2497
2375,2085
2376,1446
2376,2205
2376,3327
2376,3532
2377,2
2377,4712
2378,125
2379,1519
2380,1019
2380,1148
2380,4870
2381,4743
2383,250
2385,2072
2386,3804
2386,3923
2387,1448
2391,263
2393,1806
2394,990
2394,4472
2395,1243
2396,874
2397,4014
2399,615
2399,4779
2399,4817
2401,411
2402,1290
2402,2343
2403,447
2405,1483
2406,2526
2406,4182
2406,4824
2407,1023
2407,2259
2408,2031
2411,833
2411,2450
2411,4088
2412,3864
2420,4253
2421,992
2424,1925
2424,2770
2424,3188
2424,4138
2425,116
2426,1698
2426,4649
2427,91
2427,347
2427,500
2427,1729
2427,2902
2429,93
2430,2036
2431,3182
2431,3307
2432,4743
2435,2207
2437,1039
2439,31
2439,687
2439,3430
2439,3817
2443,3552
2445,336
2445,1482
2447,2749
2447,3308
2449,1067
2449,3846
2451,1519
2452,634
2452,3130
2452,3252
2453,4463
2456,2213
2456,2593
2456,3004
2456,3779
2457,2961
2459,609
2461,1694
2461,4954
2462,1483
2463,1232
2465,1407
2465,3661
2467,169
2467,1694
2467,4381
2469,3544
2470,321
2471,1504
2471,1909
2474,1506
2476,1067
2477,105
2477,4695
2481,665
2484,2455
2485,2996
2487,156
2487,3494
2487,4499
2487,4687
2488,121
2488,1738
2489,134
2489,795
2490,4976
2491,2645
2492,449
2492,2220
2494,2008
2494,2366
2494,2392
2494,3062
2494,4577
2495,631
2495,2605
2495,4018
2498,609
2499,890
2499,4492
2502,1023
2503,1913
2503,2947
2504,242
2504,780
2504,1451
2504,4148
2505,1177
2506,227
2507,1263
2508,966
2514,833
2514,4042
2518,387
2519,1377
2519,3064
2521,850
2521,3657
2523,2676
2524,674
2524,2607
2525,539
2525,2005
2527,2545
2527,2964
2528,731
2531,2820
2532,2171
2532,2497
2532,4392
2534,3416
2536,255
2536,766
2536,893
2536,1919
2536,2533
2536,3899
2539,1677
2539,1804
2541,1019
2542,1348
2546,2386
2546,3344
2548,1375
2548,4727
2551,914
2553,888
2553,2284
2555,972
2555,2570
2555,3043
2556,4908
2557,3030
2558,343
2559,312
2560,1276
2565,671
2565,4842
2566,2080
2566,3695
2566,4553
2567,444
2568,1077
2569,478
2571,4472
2573,1321
2573,2080
2575,2373
2576,18
2576,40
2576,347
2576,952
2576,3116
2576,3179
2576,3559
2576,3722
2576,4014
2576,4221
2576,4338
2577,819
2577,1913
2577,2500
2578,4108
2578,4253
2584,737
2584,1830
2584,3778
2584,4463
2584,4833
2585,2342
2585,2635
2587,1841
2588,415
2592,2331
2593,501
2593,3612
2593,4739
2596,1051
2598,2302
2598,4478
2600,1098
2603,2545
2604,1913
2607,775
2608,986
2611,614
2613,585
2613,2928
2615,2423
2615,3627
2617,83
2617,637
2617,4610
2619,478
2619,1901
2619,2591
2621,261
2621,1411
2621,2707
2621,4368
2623,4953
2626,1355
2626,4981
2627,550
2627,4584
2632,3707
2632,4543
2633,2298
2634,2512
2636,4730
2637,1033
2638,369
2638,1618
2638,1824
2641,2501
2641,3947
2642,4785
2644,1889
2644,4347
2645,1067
2646,2436
2647,4389
2649,591
2649,1637
2649,1990
2649,1995
2649,2139
2649,2560
2650,2114
2650,4627
2651,4093
2651,4302
2651,4952
2652,4124
2654,3973
2655,1668
2656,1356
2657,312
2657,1649
2657,3257
2657,4148
2657,4953
2659,1863
2659,2933
2660,828
2660,1966
2662,277
2663,3370
2664,392
2664,2764
2664,4110
2665,2820
2666,1243
2667,1053
2667,4946
2668,217
2668,1074
2668,1098
2668,2905
2668,2973
2668,3581
2668,3853
2668,4262
2668,4340
2669,1715
2671,1314
2672,249
2673,2545
2673,3261
2673,3707
2673,4551
2674,988
2674,3307
2677,1649
2677,2149
2678,4865
2679,3211
2681,38
2682,3308
2683,7
2683,328
2683,635
2683,1159
2683,1482
2683,1589
2683,2963
2683,3162
2683,3394
2683,4090
2683,4569
2683,4648
2683,4951
2685,105
2685,2820
2689,155
2691,352
2692,98
2693,463
2693,498
2695,482
2695,802
2695,2496
2695,3868
2697,1033
2698,1422
2699,759
2699,874
2700,812
2701,532
2701,3516
2702,205
2704,2595
2708,92
2708,2798
2713,2227
2717,1033
2717,3038
2717,4699
2719,4467
2722,773
2722,2332
2722,4953
2727,1620
2730,463
2730,480
2730,544
2730,640
2730,710
2730,933
2730,1148
2730,1575
2730,1721
2730,1722
2730,2122
2730,2132
2730,2351
2730,2875
2730,3027
2730,3503
2730,3542
2730,4028
2730,4222
2730,4353
2730,4372
2730,4641
2730,4650
2730,4662
2730,4844
2731,323
2733,1152
2734,251
2734,3544
2735,76
2735,3661
2736,1968
2738,1324
2738,4429
2739,4463
2744,874
2744,2981
2745,2425
2745,4097
2745,4356
2748,4009
2749,1309
2749,1729
2749,2602
2750,1429
2752,529
2754,874
2754,3081
2755,311
2755,1402
2755,1557
2755,1666
2755,1845
2755,1992
2755,2759
2755,3315
2755,4953
2756,1023
2758,5
2758,10
2758,241
2758,277
2758,933
2758,988
2758,1482
2758,3443
2758,4795
2761,420
2762,1163
2762,2562
2763,1995
2764,4231
2766,527
2767,1286
2768,2479
2769,152
2769,353
2769,441
2769,506
2769,1708
2769,1913
2769,1995
2769,2165
2769,3535
2769,4443
2769,4984
2770,2397
2770,3829
2771,149
2772,4948
2773,3268
2776,426
2776,2410
2776,4026
2778,134
2778,2850
2778,3213
2779,3241
2780,71
2780,137
2780,448
2780,585
2780,641
2780,1112
2780,1143
2780,1416
2780,1597
2780,2295
2780,2591
2780,2687
2780,4756
2784,1220
2785,2770
2786,641
2786,3182
2788,1393
2788,3333
2790,1246
2791,2046
2792,980
2792,2612
2793,333
2794,1119
2797,84
2797,3015
2798,40
2804,4140
2804,4855
2805,1206
2805,2912
2805,4712
2806,420
2806,2639
2807,1918
2811,619
2812,2210
2813,2129
2814,2639
2814,2809
2815,1483
2817,27
2817,222
2817,1061
2817,1080
2817,1226
2817,2658
2818,1589
2820,2018
2821,1812
2822,1187
2822,2336
2823,779
2824,453
2825,413
2826,842
2827,2272
2828,2259
2829,121
2829,929
2829,4954
2830,1337
2832,649
2833,3066
2834,222
2836,2779
2837,531
2838,2394
2839,1469
2841,2743
2842,2601
2844,124
2844,148
2844,242
2844,1116
2844,1429
2844,3667
2844,3941
2846,915
2847,948
2854,2014
2855,506
2855,3857
2856,263
2856,802
2856,1191
2856,2102
2856,3339
2857,3537
2858,292
2858,942
2858,2595
2860,1436
2861,972
2861,1285
2861,1632
2861,2517
2863,2743
2863,3593
2863,3703
2863,4340
2864,802
2866,1635
2867,1191
2867,1926
2867,3081
2867,4547
2868,823
2869,1483
2871,990
2873,144
2874,976
2878,1203
2878,1422
2879,2516
2879,2900
2880,2963
2880,3560
2884,1619
2885,2812
2887,1718
2888,347
2892,616
2893,3141
2893,3802
2895,161
2895,3144
2896,1146
2899,2725
2901,1033
2904,823
2904,3368
2904,4299
2905,16
2905,1161
2905,1304
2905,1846
2905,3303
2905,3782
2907,833
2907,3319
2909,67
2909,511
2909,3141
2911,2871
2914,1589
2916,469
2916,913
2916,1243
2916,1355
2917,1455
2917,3551
2918,633
2918,1062
2919,822
2920,649
2922,2049
2925,63
2926,3080
2929,3756
2930,1502
2932,892
2938,297
2940,2492
2943,485
2943,2234
2944,78
2945,4486
2946,1910
2948,161
2950,1272
2951,942
2952,3661
2953,2843
2953,4564
2954,848
2955,3395
2955,4014
2956,2720
2958,1576
2959,1514
2959,1997
2961,2720
2963,3094
2963,3499
2963,3802
2965,1411
2967,320
2967,522
2967,2676
2967,2712
2967,3175
2968,4078
2969,307
2972,501
2972,1710
2972,3489
2975,2277
2975,3854
2976,95
2976,1019
2976,2018
2976,2906
2976,4085
2976,4212
2978,1436
2979,723
2979,1191
2979,2149
2979,2325
2979,3167
2979,4140
2979,4416
2982,723
2982,4946
2983,616
2984,145
2984,1958
2987,649
2987,1735
2987,3068
2988,2610
2988,4277
2988,4693
2990,1247
2991,31
2991,105
2991,232
2991,269
2991,707
2991,1234
2991,2049
2991,2831
2991,2898
2991,3268
2991,4995
2992,4148
2992,4270
2995,910
2995,1886
2995,2434
2995,2960
2995,3070
2995,3878
2997,1874
2997,4649
2999,1355
3000,2493
3001,915
3001,4299
3002,1455
3003,4625
3006,61
3007,2612
3008,619
3008,2374
3010,2154
3011,1696
3011,4408
3012,3991
3012,4730
3014,1109
3014,1501
3014,2277
3014,3122
3014,4556
3016,1625
3018,842
3019,2676
3020,544
3020,4601
3020,4644
3021,432
3021,490
3021,3067
3021,3680
3022,2701
3024,917
3026,2062
3026,3457
3029,592
3030,2408
3031,511
3033,1519
3033,2591
3034,710
3037,38
3040,2286
3044,669
3047,2530
3048,311
3050,2913
3053,278
3053,1030
3053,3374
3054,4772
3059,4730
3060,2474
3061,529
3063,3563
3064,131
3064,640
3064,1510
3064,4875
3065,1234
3067,1287
3074,1628
3075,2107
3078,3457
3080,2275
3080,2937
3082,4343
3087,243
3087,3996
3088,159
3090,4585
3091,3489
3092,1846
3092,2114
3092,2587
3092,4437
3093,544
3096,969
3097,640
3099,1109
3099,2049
3101,31
3102,2268
3103,1231
3103,2808
3104,420
3107,142
3109,2881
3109,3597
3110,256
3111,210
3112,2294
3112,3579
3115,966
3118,4093
3119,913
3119,1968
3119,2087
3119,3624
3120,1951
3121,263
3121,3615
3123,238
3127,1315
3127,1789
3128,3419
3129,1086
3132,232
3133,1404
3134,911
3137,1393
3140,350
3140,1853
3140,4463
3143,1924
3145,1056
3146,2109
3146,2725
3146,4851
3147,2851
3149,2398
3149,4236
3151,3053
3151,3364
3151,3763
3152,663
3152,3263
3153,16
3153,244
3153,672
3153,1470
3153,2090
3153,2923
3153,3032
3153,4148
3153,4395
3153,4574
3155,2779
3163,1925
3163,3190
3164,616
3164,4563
3166,161
3166,415
3166,2056
3166,2493
3166,2803
3166,3762
3168,181
3169,4452
3170,1016
3172,40
3172,3114
3172,4741
3173,244
3173,281
3173,534
3173,703
3173,722
3173,1313
3173,1356
3173,1773
3173,3009
3173,3080
3173,3661
3173,4014
3173,4901
3174,2562
3176,469
3176,3784
3177,3923
3178,1991
3178,3269
3179,2912
3181,3307
3184,30
3185,4954
3186,807
3189,2226
3189,3545
3192,3454
3192,4689
3192,4964
3193,707
3194,4340
3194,4974
3195,365
3197,1051
3197,2123
3198,1599
3202,4140
3207,780
3208,4342
3209,2464
3209,2705
3209,3811
3211,531
3215,1007
3217,2259
3219,3837
3220,1689
3223,2606
3224,4616
3225,2568
3226,211
3226,2313
3227,2176
3229,2102
3229,2723
3231,501
3233,1278
3234,325
3234,709
3235,3544
3236,1726
3238,152
3238,1173
3238,2708
3238,3237
3240,562
3240,1013
3240,2035
3240,2742
3240,3654
3242,227
3243,2018
3244,3015
3244,3450
3244,4570
3245,2207
3245,4750
3246,929
3247,798
3247,2564
3247,3475
3250,91
3250,3748
3251,121
3251,230
3251,578
3251,619
3251,1209
3251,1296
3251,2545
3251,3023
3251,3157
3252,205
3252,1557
3252,2936
3258,579
3258,842
3258,1588
3258,1766
3258,1967
3258,2802
3258,3221
3261,1745
3262,2461
3265,2165
3266,402
3267,396
3271,3216
3271,3295
3272,365
3273,2455
3276,3216
3277,1411
3277,1421
3277,3498
3277,4082
3277,4588
3279,189
3279,947
3280,181
3281,553
3283,7
3283,3858
3284,4481
3286,2482
3287,1910
3288,4948
3290,238
3294,318
3294,3136
3294,3872
3294,4579
3294,4844
3297,4343
3301,788
3302,32
3304,2939
3304,3426
3305,4078
3306,2568
3306,3686
3308,1716
3308,1767
3308,3232
3310,1831
3311,3389
3311,3416
3313,313
3313,350
3313,1275
3313,4465
3315,81
3315,193
3315,301
3315,1571
3315,2725
3315,3319
3315,4157
3316,1170
3316,4515
3317,3498
3317,4719
3318,292
3320,1170
3321,807
3321,1377
3321,3887
3322,4148
3324,2599
3325,1967
3326,1483
3327,1243
3328,1149
3329,4687
3330,1262
3331,431
3331,4537
3337,892
3338,1053
3340,3289
3341,320
3341,332
3341,977
3341,979
3341,2610
3341,2645
3341,3121
3341,3891
3341,4052
3341,4771
3342,2683
3343,1694
3343,3353
3346,1274
3347,3046
3349,2123
3352,3158
3353,1092
3354,819
3354,4976
3358,125
3358,632
3358,1841
3358,1851
3358,1909
3358,2111
3358,3444
3360,608
3360,2524
3360,4597
3363,2877
3366,1754
3366,4789
3367,3268
3369,32
3371,2277
3371,4413
3371,4484
3373,1066
3375,30
3375,37
3375,272
3375,1483
3375,2041
3378,1388
3379,2317
3382,38
3382,1153
3382,3005
3385,30
3385,38
3386,2923
3390,2593
3391,873
3391,2671
3392,40
3392,166
3392,807
3392,2225
3397,1070
3398,94
3399,649
3399,2270
3399,3457
3400,2545
3401,400
3402,337
3402,1505
3403,498
3404,1202
3406,256
3406,313
3406,671
3406,1013
3406,1788
3406,3466
3406,3955
3406,4569
3408,2000
3408,4389
3410,2891
3410,3756
3411,1051
3412,311
3412,4735
3413,1673
3413,4007
3414,452
3414,1396
3414,2149
3414,4158
3416,62
3417,1169
3417,2889
3420,2726
3424,3209
3424,4501
3425,3923
3428,242
3428,1470
3429,1011
3431,911
3433,4946
3434,1299
3435,1362
3436,3293
3437,4438
3439,2068
3440,1268
3440,4726
3442,837
3442,1461
3445,2694
3447,1020
3448,2790
3451,318
3455,250
3455,971
3455,1080
3456,2263
3458,1598
3460,2416
3462,963
3462,2423
3468,316
3468,3836
3468,4758
3469,813
3470,144
3470,1568
3471,306
3472,1689
3472,4377
3474,1314
3480,1039
3481,3094
3482,1733
3484,2906
3486,105
3486,2630
3487,1416
3488,2414
3490,1654
3490,3889
3491,2242
3495,4946
3496,3011
3497,2455
3500,1853
3500,4887
3501,1019
3504,3978
3507,2284
3508,2545
3509,2923
3511,1152
3513,343
3515,763
3516,50
3516,91
3516,151
3516,371
3516,407
3516,781
3516,953
3516,1029
3516,1169
3516,1706
3516,1737
3516,2027
3516,2067
3516,2317
3516,2845
3516,3576
3516,3916
3516,4296
3516,4343
3517,2256
3517,2834
3519,2324
3519,3416
3520,249
3520,519
3521,3537
3522,1080
3523,30
3523,3350
3523,4400
3526,1576
3527,1305
3530,333
3530,1119
3531,2820
3532,2725
3533,1689
3534,2991
3534,3574
3534,3740
3534,4506
3535,177
3535,1017
3535,2686
3535,3071
3535,3113
3535,3261
3535,3844
3535,4218
3535,4277
3535,4530
3535,4867
3536,2500
3539,1195
3541,339
3541,2394
3542,3897
3546,641
3546,4204
3547,904
3547,4809
3549,2652
3550,1502
3550,3699
3553,4775
3553,4941
3557,18
3558,297
3558,3613
3561,340
3561,4582
3565,62
3565,3498
3566,1347
3566,1407
3567,4658
3571,614
3571,4159
3573,861
3575,2342
3577,1071
3578,71
3580,3270
3580,4580
3582,4018
3587,1017
3588,116
3589,1366
3589,1460
3592,779
3592,2243
3594,312
3595,25
3595,1304
3595,3446
3595,3734
3596,2010
3598,244
3598,1007
3598,4011
3598,4880
3599,287
3599,436
3599,1426
3599,1569
3600,54
3600,390
3600,1523
3600,3532
3602,431
3602,1191
3602,1315
3602,1599
3602,2105
3602,3268
3602,3916
3602,4788
3604,3179
3605,2779
3608,263
3609,2579
3610,2123
3611,216
3612,3553
3614,1602
3619,2343
3620,105
3621,503
3622,932
3623,680
3624,527
3625,1519
3625,4459
3628,347
3629,1671
3634,4089
3635,759
3636,4469
3637,2046
3638,4720
3639,42
3640,1537
3641,1863
3644,2203
3647,2339
3648,2434
3648,2529
3648,2552
3651,3289
3651,4340
3653,92
3656,2622
3657,547
3658,3393
3659,4641
3662,2663
3663,1355
3663,1591
3664,134
3668,3502
3670,130
3670,302
3670,387
3670,1689
3671,1742
3672,1742
3672,2080
3672,2652
3673,2693
3674,2199
3675,4404
3676,4148
3677,1519
3677,1718
3679,4411
3680,65
3680,1729
3682,132
3683,2761
3685,2690
3687,3159
3688,592
3688,795
3688,4116
3688,4180
3690,673
3691,485
3691,2114
3691,4802
3697,1968
3697,2974
3697,2996
3697,3094
3698,93
3700,1286
3701,3430
3708,319
3708,753
3709,1095
3709,1502
3709,2197
3709,4306
3713,4723
3716,1674
3717,205
3717,2116
3717,3114
3719,578
3719,1608
3719,2010
3719,3552
3719,3712
3719,4467
3720,2210
3720,4127
3722,4771
3723,263
3723,1649
3723,2991
3723,3351
3724,1151
3725,431
3725,1425
3725,1428
3725,2565
3726,4040
3726,4824
3727,44
3728,1314
3729,648
3730,1861
3731,278
3732,1668
3734,956
3734,1483
3734,2963
3734,3203
3734,3415
3735,152
3737,1738
3737,4054
3738,30
3739,2680
3741,446
3744,2085
3745,654
3745,4689
3746,2931
3746,4418
3747,3126
3750,547
3750,1077
3751,2210
3752,2290
3753,156
3753,4080
3754,263
3755,3005
3757,4140
3758,2891
3759,4658
3764,2308
3766,4585
3767,119
3768,17
3768,116
3768,340
3768,442
3768,1089
3768,1278
3768,1294
3768,2339
3768,2402
3768,2624
3768,3788
3768,4261
3768,4463
3768,4693
3769,432
3770,1853
3771,3964
3771,4994
3773,3307
3774,2631
3775,347
3777,3799
3781,731
3781,753
3783,2835
3785,507
3785,3115
3786,3620
3786,3901
3792,585
3792,2080
3793,4946
3794,1951
3794,4981
3796,1937
3800,878
3800,3145
3801,1773
3802,29
3808,2820
3809,1571
3814,3556
3816,3525
3816,4009
3818,511
3818,1030
3818,1514
3818,1602
3818,3861
3818,4590
3818,4757
3818,4869
3819,2877
3820,1892
3823,4369
3826,444
3826,1697
3826,1853
3827,4267
3827,4457
3827,4844
3828,1357
3830,1314
3831,4140
3832,146
3833,869
3833,2590
3835,38
3835,42
3835,511
3835,640
3835,1470
3835,1718
3835,2203
3835,2373
3835,2591
3835,2675
3835,2754
3835,3418
3835,4034
3835,4141
3835,4276
3835,4423
3835,4922
3838,3473
3839,4595
3842,572
3842,1538
3842,2068
3842,3825
3842,4305
3843,2008
3847,3469
3848,1434
3848,1625
3849,1485
3851,4299
3852,1504
3855,3094
3860,2295
3863,4028
3865,1357
3870,1581
3870,1608
3870,4170
3871,423
3874,277
3874,561
3874,634
3874,1821
3874,2931
3874,3772
3877,2560
3879,343
3880,1095
3881,409
3883,2820
3885,1050
3886,25
3886,1407
3888,1635
3889,798
3889,992
3889,1349
3893,1469
3894,1455
3895,942
3895,4049
3896,116
3896,4103
3898,163
3898,501
3899,2047
3899,3903
3899,4277
3902,2454
3904,217
3904,1163
3904,1334
3904,2639
3904,4529
3905,2939
3908,3455
3911,78
3911,679
3911,784
3911,1899
3911,2561
3911,2848
3911,4006
3912,125
3913,336
3914,2351
3915,182
3918,4140
3921,4693
3924,547
3924,1019
3925,976
3927,1182
3928,325
3929,1067
3930,4253
3931,2699
3932,3446
3933,2010
3934,336
3935,3275
3936,336
3936,4157
3939,3537
3940,59
3942,1694
3942,4390
3943,145
3943,2027
3945,51
3945,3307
3948,30
3948,177
3948,807
3948,1093
3948,4605
3949,249
3949,1006
3949,1111
3949,1501
3949,2014
3949,2143
3949,2640
3949,3319
3954,1599
3957,85
3957,1720
3957,3919
3958,336
3959,1163
3960,480
3965,2281
3966,1374
3967,2801
3968,492
3968,4140
3972,356
3973,369
3973,2591
3975,55
3975,357
3975,857
3975,1052
3975,1204
3975,1396
3975,1646
3975,1822
3975,2072
3975,3797
3975,3910
3975,3923
3976,3457
3979,2151
3979,3505
3982,2962
3983,3545
3984,1092
3985,2652
3986,275
3986,311
3986,648
3986,1066
3986,1243
3986,2215
3986,2346
3986,2631
3986,4018
3986,4206
3986,4249
3986,4370
3986,4636
3988,1944
3988,2989
3990,3544
3993,78
3993,807
3993,1247
3993,1517
3993,1892
3993,2291
3993,3585
3993,4165
3994,948
3994,1614
3994,4174
3995,4842
3996,2291
3996,2314
3996,4589
3997,297
3998,465
3999,65
4000,937
4000,2924
4002,1909
4004,1461
4004,2132
4006,592
4006,1212
4006,1714
4006,3204
4006,3452
4008,1674
4008,3161
4008,4363
4012,3307
4013,350
4015,232
4016,148
4017,412
4018,2349
4020,513
4020,874
4020,2908
4020,3015
4020,3085
4020,3125
4020,3361
4021,426
4023,244
4023,511
4023,905
4023,3389
4024,1560
4024,1863
4024,2966
4025,2743
4028,2681
4029,2939
4030,3821
4032,3252
4033,4140
4035,2253
4037,1686
4037,2811
4038,2910
4041,2363
4043,313
4043,4840
4044,1716
4044,3581
4045,242
4046,1326
4046,3812
4047,2463
4048,2544
4048,3040
4048,3375
4048,4050
4051,707
4053,660
4053,747
4053,894
4053,963
4053,1181
4053,1192
4053,1343
4053,1396
4053,1598
4053,2635
4053,3052
4053,3105
4053,3743
4053,4748
4055,1019
4056,2281
4057,2268
4058,44
4058,1749
4058,1894
4058,2714
4058,2803
4058,3807
4058,4632
4059,4299
4060,1916
4060,4436
4061,1507
4062,727
4063,422
4065,724
4066,333
4066,1755
4066,1900
4068,125
4069,340
4070,337
4070,4842
4071,1334
4073,3158
4074,4072
4074,4363
4075,2207
4076,113
4076,892
4076,1150
4076,1708
4076,1749
4076,2043
4076,2203
4076,4123
4076,4721
4080,7
4080,4788
4083,3535
4084,62
4084,1538
4084,1587
4087,1450
4087,3107
4087,4222
4087,4340
4091,86
4091,972
4091,1256
4094,646
4094,4024
4095,313
4098,268
4098,3041
4099,163
4099,2882
4100,1688
4101,985
4102,447
4103,1861
4103,2099
4103,2234
4103,2655
4103,2706
4103,3216
4103,3548
4103,3811
4103,4493
4105,1913
4106,4725
4107,2221
4108,649
4108,792
4108,980
4108,4548
4109,4588
4111,1066
4111,1677
4111,1956
4112,1023
4113,1346
4114,4665
4115,332
4115,3903
4116,1483
4117,2277
4118,211
4118,336
4118,2703
4120,433
4120,1467
4122,2891
4124,387
4124,2144
4124,2561
4124,2937
4124,3714
4124,4308
4126,4665
4127,1055
4127,2800
4127,2808
4127,3666
4127,4864
4128,1436
4128,1971
4129,4693
4130,667
4130,1460
4131,3777
4134,32
4134,4173
4135,3626
4136,278
4137,3552
4139,707
4140,32
4142,312
4143,149
4143,4148
4144,3951
4145,4788
4146,4018
4147,507
4148,2639
4150,3733
4151,365
4151,4479
4153,2152
4154,4588
4155,649
4155,823
4156,125
4160,105
4161,537
4161,1673
4161,1802
4161,1891
4161,2438
4161,2600
4161,3303
4161,3570
4166,2542
4166,3952
4166,4105
4166,4908
4167,1944
4167,3270
4167,3791
4167,3856
4167,3906
4167,4588
4167,4997
4168,3788
4169,873
4170,1014
4171,1333
4172,227
4172,707
4172,873
4172,1019
4172,1402
4172,1657
4172,2037
4172,2512
4172,4248
4172,4771
4175,893
4177,4976
4183,2612
4185,336
4185,1204
4185,1842
4185,2582
4185,2906
4186,3025
4186,4234
4190,1506
4192,219
4195,1710
4195,3255
4196,325
4197,432
4197,1124
4197,1153
4198,3973
4199,779
4200,44
4200,4230
4205,1347
4205,2132
4205,2743
4208,243
4209,2018
4210,689
4211,426
4213,1572
4214,1551
4217,52
4217,211
4217,256
4217,434
4217,966
4217,1529
4217,2221
4217,2422
4217,2454
4217,2865
4217,3224
4217,4450
4217,4478
4217,4967
4219,459
4219,2205
4223,3465
4226,3261
4227,1841
4228,313
4229,1514
4231,2018
4232,93
4233,32
4233,4859
4235,3205
4237,3394
4238,36
4238,181
4238,345
4238,589
4238,675
4238,797
4238,847
4238,1423
4238,2128
4238,2152
4238,2455
4238,2741
4238,3046
4238,3430
4238,3581
4238,4924
4239,159
4240,340
4241,2506
4244,3654
4246,2971
4250,2036
4251,2046
4252,103
4252,2129
4252,2622
4252,2725
4253,2246
4254,2810
4254,3510
4255,250
4257,2058
4258,731
4259,2085
4260,512
4260,574
4263,1694
4263,2275
4265,3584
4266,40
4268,2207
4270,4404
4271,932
4272,325
4272,1020
4272,2228
4272,2802
4277,2625
4278,501
4278,507
4279,1483
4280,3587
4281,1355
4281,2474
4284,95
4285,3811
4286,1599
4286,4624
4287,992
4287,4401
4288,511
4288,1025
4289,306
4289,929
4291,1193
4292,532
4294,4227
4295,710
4295,1870
4299,904
4301,2327
4304,3652
4307,862
4308,211
4310,2
4310,120
4310,702
4310,884
4310,957
4310,1076
4310,1165
4310,1911
4310,2103
4310,2129
4310,2591
4310,2980
4310,3686
4310,3946
4310,4293
4310,4778
4311,807
4311,1263
4311,1542
4311,1872
4311,2269
4311,2277
4312,501
4312,2500
4314,145
4316,2460
4316,4491
4322,3953
4323,3427
4324,4452
4327,243
4328,421
4328,3538
4329,869
4330,1393
4331,263
4334,714
4335,413
4336,1396
4337,3228
4338,4842
4339,707
4344,2043
4345,4844
4346,2282
4348,457
4349,836
4350,782
4351,595
4351,4194
4352,3000
4354,1379
4355,1851
4356,376
4356,3268
4358,217
4359,972
4359,1404
4360,794
4361,3661
4362,1754
4362,2820
4362,3873
4363,4678
4364,3005
4365,85
4366,1871
4369,2367
4369,3492
4369,4640
4371,613
4374,1067
4374,2517
4375,2746
4376,2351
4380,3383
4382,3591
4384,65
4386,1201
4388,400
4390,519
4390,1691
4390,2254
4393,2277
4397,1086
4398,822
4399,448
4399,755
4401,102
4401,425
4401,1519
4401,2509
4401,2757
4401,4319
4402,4173
4403,2779
4404,3180
4406,26
4406,4836
4407,4104
4408,337
4408,553
4408,820
4408,1430
4408,1446
4408,2913
4413,1073
4415,3540
4417,333
4419,210
4420,2705
4421,635
4422,99
4426,430
4427,2281
4431,1676
4432,2065
4435,4981
4436,703
4438,1342
4439,2292
4440,61
4441,2578
4441,2752
4442,2351
4444,65
4445,3293
4446,1116
4448,4089
4452,653
4454,2844
4455,2635
4456,4078
4459,263
4459,347
4459,1561
4459,1902
4459,4981
4460,1672
4461,2725
4461,4214
4462,4014
4464,3182
4466,1276
4467,3270
4468,4090
4470,3158
4472,152
4474,2205
4480,38
4481,469
4482,3857
4487,4104
4488,3169
4489,369
4494,561
4496,313
4497,422
4498,512
4500,1332
4500,3112
4501,55
4501,4298
4502,3122
4504,571
4504,2703
4505,1072
4505,2591
4507,222
4508,4463
4511,2263
4512,634
4513,42
4514,2765
4516,91
4517,550
4518,413
4518,507
4518,1876
4518,4484
4519,1924
4519,4587
4520,2342
4521,3837
4522,4677
4523,3028
4523,4294
4523,4475
4524,2875
4525,1807
4528,112
4531,292
4532,222
4533,788
4534,210
4535,249
4535,4148
4538,1491
4539,731
4540,155
4541,1463
4541,4978
4544,1254
4544,1878
4546,1416
4549,485
4549,800
4549,1656
4549,2060
4549,2468
4549,2876
4549,3323
4552,1853
4554,297
4554,4434
4556,3272
4557,369
4559,3482
4560,3257
4561,453
4561,485
4561,3581
4561,3661
4561,3850
4561,4036
4561,4163
4562,4921
4563,612
4563,1456
4563,4849
4565,2273
4571,2639
4572,73
4572,339
4572,2511
4572,3079
4572,3372
4572,3760
4573,1426
4573,2562
4573,3502
4574,1936
4574,2572
4574,2994
4574,4181
4574,4734
4574,4808
4576,4501
4577,210
4583,892
4586,1793
4588,4148
4589,400
4589,3045
4590,311
4591,1519
4593,157
4593,1051
4593,1470
4593,2600
4593,2795
4593,3971
4593,4089
4593,4536
4594,1061
4598,1070
4599,105
4600,2114
4604,4070
4607,1372
4608,3270
4609,1793
4611,3196
4615,336
4618,4423
4619,201
4620,3211
4620,4686
4621,1501
4622,227
4625,3005
4626,140
4626,2774
4626,4688
4629,3787
4630,1019
4633,426
4633,1212
4633,1640
4633,2963
4633,2971
4634,1268
4637,376
4642,4771
4642,4948
4643,447
4646,55
4646,232
4646,568
4646,1149
4646,2553
4647,4018
4650,151
4650,163
4650,412
4650,528
4650,734
4650,822
4650,911
4650,1078
4650,2008
4650,2174
4650,2663
4650,3715
4650,4091
4650,4148
4650,4865
4651,691
4653,3005
4654,1116
4654,2175
4656,920
4657,5
4657,7
4657,2087
4657,2259
4657,2690
4657,4635
4657,4694
4659,3256
4660,762
4662,3768
4664,4636
4665,125
4668,1502
4668,3260
4670,1431
4674,40
4679,3733
4680,85
4680,474
4680,4712
4681,3951
4682,1146
4683,190
4684,4738
4685,3980
4687,4834
4688,146
4690,1329
4692,3722
4693,478
4693,613
4693,1038
4693,1175
4693,2197
4693,4811
4694,1884
4694,2087
4694,3086
4694,3200
4694,4093
4696,1268
4697,1482
4698,3875
4700,343
4703,4595
4706,3544
4710,336
4712,3932
4714,132
4714,960
4714,1170
4714,1213
4717,1296
4717,3073
4718,501
4720,1482
4722,2253
4724,2695
4725,2149
4729,3532
4731,3466
4732,501
4733,313
4734,2853
4736,448
4737,413
4738,159
4739,615
4740,392
4742,4014
4743,4321
4747,828
4749,1671
4751,4691
4752,487
4753,400
4754,2639
4755,132
4755,313
4758,208
4758,665
4758,886
4758,1342
4758,2834
4758,4260
4758,4465
4759,501
4760,4481
4761,2275
4762,3799
4763,93
4764,4221
4765,1067
4767,3175
4768,592
4770,3938
4771,457
4772,2820
4773,1078
4774,4014
4776,4411
4777,669
4780,422
4780,3800
4780,4834
4782,864
4782,1721
4782,4243
4784,910
4785,786
4785,1056
4785,2221
4785,3927
4787,501
4790,4408
4791,498
4791,1361
4792,691
4793,1444
4797,1328
4798,2342
4798,4891
4801,345
4803,33
4803,312
4803,404
4803,1923
4803,2242
4803,2945
4803,3991
4804,1329
4805,649
4806,3179
4806,4093
4810,2574
4812,145
4813,4824
4815,890
4816,3542
4819,1974
4821,92
4821,370
4821,1161
4821,1208
4821,1679
4821,2583
4821,3787
4822,1504
4824,1374
4826,216
4827,97
4829,3144
4830,2775
4832,4434
4835,343
4836,276
4836,673
4836,1153
4836,1553
4836,1739
4836,2150
4836,2630
4837,263
4838,169
4838,1080
4838,1628
4838,1810
4838,2268
4838,4105
4839,3799
4840,1851
4842,4775
4843,3554
4844,433
4846,511
4847,1846
4850,3336
4852,3579
4853,2389
4853,4392
4853,4655
4854,1859
4856,340
4857,1107
4860,3032
4862,378
4863,2701
4865,412
4865,2066
4865,2680
4865,2801
4865,3892
4867,3268
4867,3747
4868,4290
4869,3136
4873,2133
4874,2394
4875,1218
4875,1478
4875,1506
4875,1688
4875,1874
4876,339
4877,249
4878,1098
4881,81
4884,1317
4884,4994
4885,3795
4889,1992
4890,912
4892,236
4892,346
4892,3368
4893,1396
4893,2779
4895,4313
4897,3802
4898,193
4899,3601
4900,352
4902,62
4903,2936
4904,4800
4905,2437
4905,4264
4906,2243
4906,4960
4907,276
4908,360
4908,535
4908,657
4908,852
4908,1166
4909,2834
4909,2959
4910,4689
4915,4173
4917,905
4918,447
4920,2014
4921,913
4921,1912
4921,3859
4922,2368
4922,2981
4923,2753
4925,4808
4926,222
4927,3158
4928,4794
4929,1867
4930,4216
4934,4452
4935,3344
4937,669
4940,2594
4942,1668
4943,590
4944,2595
4945,962
4946,148
4946,277
4946,507
4946,727
4946,759
4946,968
4946,1127
4946,1326
4946,1677
4946,2003
4946,2267
4946,2423
4946,3587
4946,4871
4947,3681
4949,2365
4949,3139
4949,4089
4955,634
4955,1886
4955,3542
4956,3544
4957,635
4957,966
4958,2080
4959,3704
4962,1169
4965,3829
4968,236
4973,346
4975,1204
4976,4916
4979,297
4979,734
4979,2715
4981,802
4982,2012
4983,337
4985,85
4986,2891
4987,4809
4988,4140
4990,2005
4990,2343
4990,3544
4992,4179
4994,4946
4996,1759
4996,3463
4998,1295
4998,1301
4998,2820
4999,2780
