src,dst
0,1
2,36
2,1040
2,1370
2,2474
3,121
3,174
3,175
3,222
3,483
3,560
3,1171
3,1567
3,1640
3,1745
3,2638
3,3035
3,3937
3,3972
3,4236
3,4691
4,29
4,528
4,554
4,1492
4,1873
5,996
5,1067
5,1196
5,1244
5,2114
5,2844
5,3932
5,4296
5,4306
8,721
8,3534
8,3971
11,2976
11,3328
12,2205
13,513
13,782
13,847
13,1080
13,1741
13,2009
13,2242
14,3695
15,363
15,379
15,1077
15,1085
15,1259
15,2104
15,2649
15,3038
15,3572
15,3649
15,4541
15,4657
17,655
18,130
18,199
18,2312
18,2641
18,4180
18,4931
21,79
21,148
21,314
21,1853
21,2147
21,2367
21,2848
21,3471
21,3695
21,4030
22,261
22,1498
22,3937
23,363
23,575
26,248
26,743
26,921
26,958
26,1195
26,1966
26,2969
26,3695
27,64
27,4104
28,44
28,367
28,465
28,941
28,1447
28,2907
28,4411
28,4508
28,4696
30,546
31,4186
32,368
32,1570
32,1929
32,2039
32,2365
32,3932
32,4165
34,4047
35,121
36,674
36,854
36,1607
36,2592
37,408
37,2311
37,3167
40,1654
40,2354
40,3328
40,3932
41,1606
41,3043
42,34
42,916
42,977
42,1072
42,1295
42,4967
47,2189
47,2311
47,3528
47,3561
49,176
49,253
49,1053
51,277
51,469
51,502
51,616
51,619
51,788
51,1602
51,1635
51,3328
51,3695
52,142
52,253
52,371
52,379
52,465
52,735
52,904
52,1035
52,1540
52,1761
52,2142
52,2205
52,2287
52,2534
52,2704
52,2883
52,3001
52,3423
52,3510
52,3932
52,3973
52,4270
52,4958
53,10
53,147
53,1214
53,1444
53,1602
53,1606
53,1660
53,1939
53,2529
53,3454
53,3632
53,4923
53,4949
61,2409
61,2470
61,4692
62,0
62,19
62,25
62,50
62,94
62,144
62,255
62,277
62,279
62,412
62,854
62,915
62,1037
62,1133
62,1309
62,1437
62,1646
62,1664
62,2307
62,2325
62,2493
62,2605
62,2612
62,2719
62,2953
62,3338
62,3375
62,3475
62,3635
62,3676
62,3691
62,3932
62,4050
62,4066
62,4198
62,4207
62,4521
65,55
65,94
65,96
65,328
65,408
65,483
65,490
65,644
65,691
65,859
65,871
65,1018
65,1082
65,1143
65,1576
65,1727
65,1873
65,2159
65,2948
65,2980
65,3145
65,3739
65,3854
66,1458
66,2650
67,74
67,854
67,1180
67,1529
67,1828
67,1994
67,2584
67,2590
67,2980
67,3146
67,3167
67,3643
67,3691
67,3695
67,4672
68,3930
69,1587
69,2195
69,2266
70,322
70,1562
70,1602
70,1843
70,2516
70,2841
70,3833
70,4313
70,4514
71,898
71,2231
71,4565
72,3135
73,192
73,367
73,1091
73,1250
73,1300
73,2001
73,2066
73,2135
73,2846
73,3069
73,3370
73,4099
73,4649
73,4986
74,1833
74,2686
74,3850
76,48
76,60
76,802
76,3175
76,4003
77,2808
78,679
78,827
78,1059
80,277
80,396
80,2306
80,2385
80,4266
80,4719
81,111
81,462
81,848
81,996
81,1057
81,1447
81,1619
81,1805
81,2432
81,4739
81,4786
81,4788
82,61
82,254
82,2117
82,2768
82,3118
82,3203
82,4126
82,4598
83,34
83,148
83,205
83,379
83,564
83,814
83,821
83,1027
83,1032
83,1285
83,1610
83,2336
83,2430
83,2457
83,2701
83,2740
83,2880
83,2964
83,3328
83,3809
83,4863
83,4887
84,262
84,637
84,931
84,1186
84,1200
84,2361
84,2421
84,2754
84,3328
84,3785
84,4270
86,746
86,1560
86,4074
86,4633
87,100
87,181
87,616
87,3328
87,4973
89,867
90,29
90,55
90,61
90,164
90,205
90,356
90,380
90,483
90,540
90,953
90,1221
90,1391
90,1721
90,1813
90,1867
90,2015
90,3381
90,3534
90,3850
90,4180
91,278
91,919
91,1404
91,1853
91,2147
91,2168
91,2542
91,3397
91,4048
91,4802
93,244
93,287
95,898
95,1556
97,3748
98,1843
98,3478
100,255
100,809
100,2121
100,2335
100,4439
100,4863
102,7
102,222
102,691
103,2064
103,2606
103,3522
104,268
104,4598
105,121
105,795
105,1544
105,1650
105,2102
105,2332
105,2980
105,4633
107,55
107,913
107,1258
107,1274
107,2070
107,2458
107,2849
107,2990
107,3534
108,802
108,1077
108,2976
110,174
110,347
110,714
110,2605
110,2752
110,3534
110,4015
110,4180
110,4998
112,184
112,608
112,816
112,1031
112,3175
112,3770
112,3847
112,4207
112,4247
112,4317
112,4531
112,4670
112,4882
113,635
113,743
113,1416
115,100
115,1370
115,1842
115,2224
117,2106
117,2677
117,3052
117,3517
118,119
118,4590
118,4958
119,915
119,984
119,2259
119,3466
120,994
120,2897
122,39
122,3910
125,1059
125,1124
125,1544
125,2176
126,459
126,1100
126,1926
126,3174
126,3254
126,3708
126,3931
126,4009
126,4217
126,4832
127,231
127,325
127,828
127,2026
127,2408
127,3534
127,3716
127,4449
128,299
128,897
128,917
128,4796
130,613
130,847
130,1853
130,2872
130,4501
131,645
131,1316
131,1461
131,1479
131,1602
131,1742
131,1843
131,2264
131,2360
131,2599
131,2632
131,2634
131,3118
131,3609
131,3858
131,4029
131,4185
131,4186
131,4269
131,4598
133,234
133,347
133,796
133,859
133,1232
136,462
136,1748
139,1230
139,4717
139,4930
140,7
140,3155
141,46
141,1030
141,1796
141,3600
143,613
143,1586
143,2312
143,3043
143,3408
143,3478
143,3604
143,4236
146,434
146,1949
146,2064
146,3175
146,3972
147,465
147,682
147,3276
150,137
150,260
150,756
150,1602
150,1687
150,2365
150,3722
150,4277
150,4838
152,94
152,313
152,745
152,1479
152,1952
152,4922
154,724
154,2079
154,3765
156,229
156,356
156,1053
156,1539
156,2365
156,2714
156,3328
156,3597
159,469
159,1748
159,2321
159,3167
159,3389
160,512
160,564
160,1682
160,1839
160,2186
160,2397
160,2876
160,3604
160,4128
160,4151
160,4465
160,4859
161,1306
161,2266
161,4690
163,1471
165,466
165,779
165,1682
165,2112
165,2390
165,2980
165,3171
165,4229
166,337
166,3718
168,662
168,1857
168,2337
170,153
170,546
170,837
170,1494
170,1717
170,1748
170,1966
170,2148
170,2353
170,2738
170,2955
170,3143
170,3180
170,3475
170,3562
170,3581
170,3665
170,3763
170,4053
170,4054
170,4321
170,4545
170,4675
170,4744
172,209
172,1002
172,1131
172,1161
172,2128
172,2478
172,2796
172,3167
172,4652
173,647
173,811
173,1082
173,1959
173,2382
173,2568
175,755
175,887
175,911
175,1367
175,1879
175,2182
175,2755
175,4247
177,356
177,1121
177,1972
177,3634
178,356
178,620
178,1094
178,1547
178,4564
179,119
179,574
179,2575
182,395
182,3266
183,1006
183,2976
185,268
185,863
185,866
185,1063
185,1633
185,2121
185,2153
185,2358
185,2855
185,3267
185,3423
185,4061
185,4323
185,4621
185,4628
186,3136
186,4077
186,4508
187,3420
188,1921
189,63
189,1001
189,1916
190,2831
190,3674
190,3760
193,271
193,743
193,3072
193,4207
195,1806
195,1968
195,3680
196,1529
196,1535
196,3405
196,4545
197,977
197,2848
197,3124
197,3674
198,148
198,219
198,441
198,856
198,989
198,1169
198,1880
198,1916
198,2266
198,2306
198,2390
198,2769
200,310
200,352
200,629
200,1029
200,2848
200,4382
201,207
201,613
201,735
201,1009
201,1428
201,3052
201,3132
201,4586
202,356
202,462
202,767
202,908
202,1636
202,2570
203,90
203,796
203,1397
203,4411
203,4597
207,1712
207,3951
207,4597
208,3768
212,3267
215,3703
216,214
218,7
218,279
218,370
218,409
218,659
218,1317
218,1529
218,1607
218,1989
218,2349
218,2897
218,3175
218,3257
218,4296
220,583
220,1816
221,309
221,1206
221,1602
221,1830
221,2366
221,4340
221,4433
221,4521
226,235
226,2443
226,4269
230,246
230,877
230,1183
230,1765
230,3420
230,3933
230,4875
230,4931
236,2176
237,1307
238,106
238,1108
238,1687
238,4002
239,4842
240,174
240,371
240,406
240,408
240,592
240,990
240,2964
240,3167
240,3396
240,4272
241,4296
242,49
242,1365
242,1988
242,2829
242,3367
242,4582
244,54
245,25
245,2365
247,53
247,2080
247,4334
249,162
249,377
249,700
249,1849
249,2158
249,2306
249,2848
250,623
250,674
250,730
250,1488
250,1978
250,2306
250,3313
250,3991
250,4432
251,930
251,4545
253,19
253,912
254,500
254,765
254,859
255,119
255,1574
255,1972
255,3621
255,4446
256,246
257,332
257,724
257,1977
257,2209
257,2303
257,2700
257,3050
257,3604
257,4074
259,121
259,769
259,977
259,1363
259,2298
259,2664
259,2976
259,3311
259,4622
263,130
263,875
264,1081
264,1748
264,2011
265,61
265,96
265,1843
266,110
266,2332
266,2700
266,3292
266,4280
269,19
269,101
269,826
269,2276
269,4397
269,4738
270,448
270,762
270,1232
270,1833
270,2150
270,2867
272,1180
272,1765
272,2675
272,2916
272,3748
273,46
273,884
273,1521
273,1617
273,2268
273,2494
273,2714
273,2969
273,3276
273,4165
275,44
275,100
275,441
275,540
275,730
275,1879
275,2351
275,2388
275,2434
275,2962
275,3353
275,3533
275,4090
275,4100
275,4862
276,94
276,516
276,1607
276,3715
280,409
280,1718
280,1772
280,3005
280,3087
280,3779
282,431
282,617
282,648
282,817
282,1529
282,1660
282,2119
282,2279
282,2496
282,2962
282,4233
282,4249
282,4973
283,48
283,74
283,168
283,194
283,277
283,313
283,710
283,950
283,976
283,1092
283,1133
283,1183
283,1427
283,1561
283,1617
283,1846
283,2842
283,2931
283,2979
283,2980
283,3810
283,3838
284,2365
286,2980
290,921
290,1714
290,2373
290,3260
290,3311
290,4938
291,409
291,4269
292,1
292,685
293,205
293,1157
293,2441
296,3287
297,581
297,1896
297,2596
297,2630
297,3112
297,3200
299,7
299,36
299,39
299,377
299,1600
299,1646
299,1665
299,1718
299,1843
299,2037
299,2272
299,3013
299,3160
299,3668
299,3674
299,3728
299,3857
299,4153
299,4272
299,4551
299,4660
303,521
303,1048
303,1236
303,1454
303,1546
303,2176
303,2913
303,3582
303,4380
303,4965
304,175
304,997
304,1391
304,1523
304,1540
304,2649
304,3330
304,3827
304,4077
304,4247
304,4857
305,4834
306,2311
311,48
311,60
311,406
311,533
311,617
311,1471
311,1547
311,1663
311,2503
311,2986
311,3295
311,3592
311,3999
311,4069
311,4956
312,4222
315,43
315,134
315,302
315,338
315,367
315,582
315,652
315,706
315,1259
315,1285
315,1316
315,1539
315,1710
315,1718
315,1870
315,2287
315,2526
315,2629
315,3118
315,3221
315,3355
315,3892
315,4243
315,4973
316,455
316,998
316,1176
316,2054
316,3215
316,4433
319,1655
319,2158
319,2493
320,384
320,3313
320,3389
320,4325
323,19
323,1980
323,2421
323,3052
324,977
324,1076
327,410
327,1295
327,2529
327,3157
327,4156
327,4318
329,743
329,796
331,1147
331,4634
333,363
333,3474
333,3939
334,920
334,1036
334,2604
334,2808
334,3328
334,4967
336,2066
336,3328
339,398
339,2808
339,3607
339,3746
340,3765
343,3167
343,4692
344,100
344,735
345,1612
345,2287
345,2725
345,3849
345,4733
346,1892
346,3637
346,3660
346,4648
348,583
349,34
349,333
349,465
349,2125
349,2587
349,2647
349,3342
349,3739
350,205
350,277
353,46
353,1152
353,4177
353,4186
354,2532
354,4450
356,618
356,647
356,1103
356,1384
356,2944
356,3781
357,408
357,868
357,948
357,1653
358,193
358,268
358,279
358,763
358,1122
358,1662
358,2633
358,2990
358,4366
358,4496
359,258
360,3420
362,49
362,3937
362,4521
364,542
364,745
364,2856
364,3328
364,3577
364,4037
365,347
366,668
366,700
366,717
366,898
366,1267
366,1456
366,1598
366,1696
366,2058
366,3043
366,4938
369,322
369,1491
372,4134
373,1076
373,4324
374,269
374,483
374,717
374,1795
374,1846
374,2179
374,2510
374,3386
374,3604
374,4670
375,2311
375,3444
375,3768
375,3773
375,4658
378,123
378,399
378,1086
378,1597
378,2906
378,4122
380,93
380,3498
383,410
383,3509
384,2176
385,36
385,121
385,1211
385,1373
385,2677
385,4264
386,280
387,757
387,1718
387,2476
387,4333
387,4639
388,96
388,246
388,546
388,742
388,831
388,1018
388,1200
388,1239
388,1718
388,2001
388,2047
388,4264
388,4449
388,4692
388,4778
390,237
392,353
392,1186
392,1904
392,4465
393,7
393,333
393,406
393,489
393,887
393,3730
393,4180
394,59
394,2853
399,3218
399,4346
402,66
402,1369
402,2101
402,3193
403,2964
403,4226
404,54
404,94
404,953
404,1705
404,1989
404,2663
404,3038
404,3175
406,747
406,2349
407,1038
407,2004
407,2134
407,4191
407,4277
413,2360
413,4341
414,207
414,4808
415,512
415,525
415,538
415,980
415,1602
415,2172
415,3388
420,148
420,500
420,635
420,763
420,997
420,1712
420,1800
420,2015
420,2314
420,2496
420,4450
421,19
421,37
421,763
421,788
421,1229
421,1415
421,1947
421,4217
422,176
422,566
422,581
422,747
422,1122
422,1239
422,1325
422,1989
422,2110
422,2160
422,2270
422,2571
422,2644
422,4002
422,4119
422,4257
425,101
426,231
426,1309
426,1455
426,1800
426,1889
426,4096
427,195
427,1156
427,4659
428,347
429,268
429,670
429,1635
429,1734
429,4071
429,4744
430,2964
436,10
436,547
436,1686
436,1971
436,2451
436,4648
436,4929
437,1427
437,2980
437,3745
437,4664
438,34
438,1539
439,1561
440,1792
442,421
442,655
442,898
442,1072
442,2268
442,2675
442,2894
442,3920
442,4002
443,540
443,1701
443,2474
443,2996
443,4247
444,9
444,1278
444,3433
444,3937
445,614
445,1412
445,1556
445,2142
445,3434
445,3607
445,4830
449,401
449,822
450,43
450,75
450,185
450,377
450,400
450,1148
450,1302
450,3328
450,3739
450,4597
451,315
451,3724
451,4726
452,157
452,2776
454,36
454,957
454,997
454,3937
456,96
456,229
458,378
458,623
458,657
458,1508
458,1527
458,1792
458,3166
458,3266
458,4696
458,4893
460,173
460,266
460,363
460,379
460,2236
460,3031
461,6
461,758
461,1297
461,1577
461,2178
461,2189
461,2231
461,2852
461,4302
463,851
463,1285
463,3420
464,2740
467,194
467,274
467,490
467,585
467,888
467,949
467,995
467,1232
467,2061
467,2826
467,2847
467,4589
467,4943
468,581
468,3131
470,50
470,469
470,521
470,1039
470,3649
470,3739
471,43
471,269
471,391
471,872
471,1897
471,2474
471,4018
471,4874
473,539
473,2906
473,3630
473,4782
474,244
474,693
476,503
476,1352
476,1535
476,2039
476,3172
476,3562
476,4879
477,328
477,2094
477,2266
477,3867
478,36
478,761
478,2231
478,3068
478,3311
479,116
480,1600
480,2895
481,207
482,9
482,36
482,260
482,432
482,4217
484,2026
484,4704
485,575
485,879
485,1010
485,2474
485,3313
485,4539
488,36
488,795
488,1648
488,1718
488,2101
488,2285
488,3277
488,4264
492,2980
494,335
494,582
494,930
496,3148
496,3475
496,4582
498,1444
501,295
504,157
504,333
504,2141
504,2362
504,2791
505,1018
505,1623
505,2106
505,3274
505,3516
505,3886
505,4692
506,493
506,603
506,2537
506,3313
506,3521
507,268
507,281
507,363
507,664
507,3534
507,4203
507,4816
507,4982
508,1660
509,1
509,1962
509,2853
509,4247
509,4726
509,4890
510,74
510,742
510,1383
510,2121
510,3167
510,3288
510,4086
510,4433
511,307
511,341
511,898
511,1071
511,1091
511,1879
511,3574
511,3838
512,194
512,1782
512,3817
515,148
517,2158
519,1076
519,2287
519,2846
519,2980
520,1710
520,2581
522,2897
522,2918
523,1508
523,3298
523,4207
525,3167
525,3175
525,3259
525,4141
525,4254
525,4263
526,1540
526,4690
530,55
530,87
530,1277
530,2447
530,2979
530,3167
530,4932
531,4121
532,206
532,325
532,552
532,2598
532,3356
532,4713
534,623
534,951
534,1621
534,2158
534,2848
534,2980
534,4967
536,489
536,706
536,1698
536,2349
536,2478
536,4278
538,260
538,737
538,796
538,1636
538,3316
540,262
540,1819
540,2114
540,2742
540,4732
541,2677
545,3186
548,2019
548,3660
548,4093
549,379
549,590
549,1023
549,1252
549,1321
549,1562
549,1635
549,2079
549,2171
549,2853
549,3380
549,4086
553,469
553,539
553,2522
553,4453
556,898
556,1144
556,1650
556,1748
556,2233
556,2617
556,4631
557,210
557,926
557,4728
558,1607
558,2101
558,2848
559,261
559,884
559,1730
559,2047
559,2141
559,3195
561,1076
561,1160
561,1258
561,2093
561,2138
561,2643
561,2895
561,3420
561,3597
561,3610
561,3719
561,4857
562,109
562,288
562,785
562,2503
562,2641
562,3607
562,4556
563,94
563,309
563,2824
563,3937
563,4184
563,4247
563,4668
565,1718
565,2228
567,243
567,418
567,818
567,879
567,1366
567,1718
567,3703
567,4323
567,4666
567,4749
568,309
568,2176
569,2808
569,4508
569,4690
571,693
571,1505
571,2980
571,3072
571,4264
572,1681
572,2493
572,3569
573,277
573,1058
573,2101
573,2759
573,3019
573,3328
573,4217
573,4855
575,767
575,874
575,898
575,1916
575,2980
575,3254
577,46
577,4514
578,92
578,400
578,601
578,729
578,982
578,1029
578,1032
578,1571
578,2101
578,3014
578,3184
578,3475
579,942
579,2474
580,1232
581,341
581,483
581,875
581,3267
581,4477
583,149
583,441
583,514
583,898
583,1192
583,1592
583,2688
583,2704
583,3251
583,3313
583,3550
583,3561
583,3962
583,4188
586,849
586,3048
586,4670
586,4738
588,3328
588,4180
589,616
589,2306
590,3167
590,4011
590,4207
592,1
592,9
592,2847
593,48
593,60
593,233
593,514
593,1123
593,3991
593,4024
595,121
597,61
597,94
597,109
597,948
597,977
597,2101
597,3297
598,4738
599,376
599,3041
599,3763
599,4186
600,1058
600,1718
600,1980
600,4899
602,19
604,962
604,1550
604,1943
604,2425
604,3731
605,434
605,2189
605,2474
605,2902
605,4243
606,554
606,1258
606,2837
606,3328
606,3344
606,3820
607,1164
607,1329
607,2581
607,3846
608,831
608,1428
608,1954
608,4692
612,2853
612,3266
615,6
615,2095
619,255
619,260
621,3120
624,524
624,1076
625,370
625,760
626,2195
626,4896
627,779
629,1718
629,4576
630,94
630,232
631,105
631,157
631,547
631,862
631,4708
632,101
632,158
632,288
632,1271
632,1397
632,1523
632,2052
632,4374
634,109
636,898
636,1183
636,2591
636,2897
636,3737
636,4983
637,266
639,409
639,977
639,1233
639,1373
639,2980
639,3070
639,3276
639,3968
640,409
640,738
640,1339
643,1521
644,2383
644,2650
646,111
646,596
646,1176
646,1451
646,2229
647,1076
649,299
649,379
649,1602
649,2366
649,3306
651,83
651,310
651,341
651,411
651,743
651,977
651,1415
651,2470
651,3061
651,3095
651,3912
651,4180
653,4247
654,85
654,252
654,524
654,1223
654,1404
654,3360
654,3618
654,3645
654,4342
656,409
656,462
656,1297
656,2399
656,2491
658,535
658,1663
658,4001
661,7
661,620
661,2740
661,4155
663,3841
663,4104
665,980
665,1056
665,1229
665,2935
665,4151
666,25
666,301
666,1071
667,2147
669,4535
671,546
671,2211
671,4002
672,1230
673,558
673,1642
675,898
675,2847
676,2287
676,3083
676,4355
677,333
677,1709
677,1996
677,2231
677,2701
678,853
678,1030
678,2401
678,2597
678,3081
681,539
681,551
684,727
684,1673
684,1978
684,2287
686,441
686,587
686,1073
686,1177
686,1254
686,2049
686,2747
686,3276
689,119
689,302
689,379
689,1273
689,1710
689,1999
689,2976
689,3206
689,3328
689,3776
691,298
694,2094
697,817
697,2342
697,2503
699,288
699,3921
699,4757
702,642
702,1481
702,2979
702,3365
702,4414
702,4964
703,985
704,3186
705,222
705,518
705,801
705,874
705,1789
705,3739
705,4277
707,363
707,379
707,825
707,1036
707,1978
707,3489
707,4179
707,4421
708,1081
708,2158
708,4249
708,4372
708,4381
709,44
709,66
709,489
709,537
711,4216
712,193
712,397
712,1036
712,2638
712,3287
712,4899
712,4976
713,3759
714,490
714,885
716,19
716,742
716,999
716,1276
716,1764
716,4773
718,3215
719,730
719,2293
719,2362
719,4954
721,169
721,2179
722,512
723,174
723,1391
723,2016
723,3358
723,3740
723,3847
723,4101
723,4692
724,210
724,489
724,1900
724,2254
724,2496
724,3205
724,3847
724,4586
725,859
725,3964
725,4967
726,1053
726,2114
726,3937
728,55
728,297
728,502
728,1717
728,2342
728,3167
728,3690
728,4483
730,2010
731,258
731,688
731,953
731,1015
731,1035
731,1398
731,1491
731,1540
731,1590
731,1745
731,1870
731,2605
731,2810
731,3003
731,3252
731,3453
731,4194
731,4255
731,4496
731,4517
731,4667
732,1176
732,1808
734,371
735,25
735,376
735,1682
736,377
736,1748
740,446
740,1015
740,2398
740,2882
740,3562
741,897
741,1710
744,3554
745,25
745,137
745,352
745,1008
745,1427
745,1802
745,1918
745,2629
745,2980
745,3543
745,4536
745,4701
745,4710
746,244
748,289
748,412
748,416
748,609
748,743
748,1779
748,2401
748,2677
748,3167
748,3313
748,4272
748,4481
749,174
749,743
749,1126
749,4096
749,4692
750,57
750,3695
751,2742
751,4317
752,2147
756,691
756,1839
759,233
759,747
759,4055
759,4236
764,299
764,1571
764,2965
764,4217
764,4449
766,3311
768,623
768,1058
768,3083
768,3999
771,525
771,2922
771,3038
771,4056
771,4466
771,4554
772,823
772,1493
772,1556
772,3352
772,4565
773,94
774,229
775,859
776,34
776,379
776,2336
776,2723
776,3225
776,3277
778,328
778,1241
778,1420
778,2287
778,2343
778,2848
778,3228
778,3267
778,3274
780,60
780,322
780,840
780,1952
780,2392
780,3662
784,1068
784,2853
784,2976
784,2990
784,3561
786,94
786,109
786,1192
786,1476
786,1609
786,1711
786,2266
786,2705
787,116
787,315
787,347
787,1512
787,2269
787,4180
787,4846
788,2517
789,859
789,2549
789,2889
789,3218
789,3699
791,898
792,581
792,2026
797,133
797,409
797,702
797,1494
797,3058
797,3513
798,74
798,194
798,269
798,379
798,745
798,837
798,905
798,1053
798,1199
798,1607
798,1843
798,2121
798,2248
798,2334
798,2680
798,2848
798,3349
798,3764
798,4858
799,1165
799,2227
800,25
800,279
800,405
800,1016
800,1572
800,1602
801,717
801,898
801,1361
801,1532
801,1761
801,3023
801,3200
801,3880
801,4247
801,4583
804,1060
804,1302
804,1633
804,1792
804,2647
804,2794
804,3313
804,3590
805,1370
805,3417
807,229
807,315
807,1464
807,1880
807,3091
808,1086
808,2366
808,4456
811,529
811,2980
812,778
812,3714
815,333
815,730
817,300
819,433
819,739
819,1157
819,2192
819,2362
819,2701
819,3695
819,3759
819,4726
820,289
820,371
820,739
820,1608
820,2032
820,2095
820,2266
820,3617
824,335
824,2474
824,2878
824,4830
825,3250
828,260
828,535
828,685
828,1078
828,1762
828,1779
828,2173
828,2457
828,2581
828,2590
828,2694
828,4705
828,4726
829,6
829,36
829,53
829,213
829,222
829,384
829,869
829,1056
829,1421
829,1845
829,2634
829,2742
829,3120
829,3341
829,4080
829,4132
829,4360
829,4519
829,4658
829,4692
829,4915
832,101
833,416
833,2686
833,2791
833,4073
834,1686
834,3475
835,1607
835,1826
835,2767
838,777
838,2243
839,4323
840,3534
840,4128
842,268
842,1147
842,1682
842,2474
842,3052
842,3313
842,4650
844,3621
844,4421
850,29
850,1351
850,1804
850,2857
850,3105
850,3795
852,66
852,1858
855,1241
855,3101
855,3150
855,4966
857,2047
858,926
858,1576
858,3038
858,3218
858,4329
860,174
860,1205
861,1086
861,1952
861,2583
864,662
864,1209
865,318
865,380
867,772
867,1092
867,4030
870,492
870,1343
870,2630
870,3210
870,4597
873,46
873,1952
873,4128
873,4441
873,4465
876,25
878,4450
880,2061
880,2640
880,2897
880,3607
880,3960
881,3422
883,4967
884,30
884,36
884,299
884,701
884,1082
884,1560
884,1718
884,1769
884,1810
884,2312
884,3932
884,4477
886,1588
886,2158
888,4662
889,1028
889,1086
889,1602
890,496
890,744
890,1070
890,1076
890,1383
890,1948
890,3101
890,3810
890,4791
891,838
892,663
894,74
895,130
895,169
895,756
898,924
899,782
899,811
899,901
899,1087
899,1095
899,1487
899,1571
899,3534
900,57
900,592
900,924
900,2209
900,3523
900,4180
900,4945
902,130
902,2317
902,2356
902,3200
902,4126
902,4277
903,448
903,3739
906,2912
906,3950
907,56
907,353
907,642
907,1177
907,1809
907,3906
909,482
909,1057
909,1631
909,1669
909,2427
909,4126
909,4371
910,258
910,1640
910,4101
911,421
911,706
911,1718
911,3798
914,754
918,472
918,524
918,3283
922,94
922,3378
922,4921
923,4535
923,4536
926,1707
927,2241
927,2861
927,4502
928,253
928,4179
929,1889
929,1897
929,3036
931,3031
933,101
933,379
933,743
933,944
933,1686
933,1839
933,2322
933,3703
933,4164
933,4180
933,4247
935,410
935,3122
936,1323
936,1806
936,4751
938,2964
941,379
941,2026
941,4930
943,59
943,951
943,4264
944,2243
944,2564
944,4866
945,224
946,4717
947,1816
947,2094
947,2670
947,2848
947,3328
951,301
952,175
952,262
952,1617
952,3521
952,4199
952,4531
954,4385
955,50
955,1735
955,3297
959,409
959,683
960,100
960,455
960,2307
961,3097
963,3910
964,289
964,1397
964,3328
964,4046
964,4805
965,400
965,1258
965,2324
965,4350
966,2134
966,3252
967,411
967,416
967,1177
967,2042
967,2367
967,3091
967,3129
967,3314
967,3643
967,4564
967,4717
969,715
971,1169
971,2226
971,4501
971,4658
972,3649
973,1105
974,4332
975,1718
978,94
978,756
978,1980
978,3129
978,3360
981,29
981,54
981,114
981,399
981,514
981,2103
985,1360
985,3252
987,19
987,613
987,1585
987,1819
987,2080
987,2222
987,2830
987,3338
987,3980
988,94
988,3101
988,3789
988,4690
988,4891
993,74
993,735
993,1267
993,2191
993,3467
995,3607
999,188
1001,74
1001,564
1001,754
1001,1019
1001,1376
1001,2306
1001,4268
1001,4976
1002,46
1002,308
1002,353
1002,885
1002,3502
1002,4246
1002,4425
1002,4597
1003,409
1003,1917
1004,4502
1005,739
1005,3813
1007,224
1007,333
1007,1825
1009,2271
1009,4597
1011,706
1011,1302
1011,1846
1013,898
1013,977
1013,2563
1013,4930
1017,571
1017,1245
1017,2275
1017,3097
1017,3104
1018,94
1018,3991
1020,124
1020,546
1020,936
1020,991
1020,1150
1020,2031
1020,2306
1020,2901
1020,4210
1020,4829
1022,1384
1022,2028
1022,2094
1022,2095
1022,3557
1024,924
1024,2271
1033,862
1034,502
1034,1874
1034,3038
1040,121
1040,2101
1041,2980
1042,1076
1042,4094
1043,977
1043,2237
1045,174
1045,356
1045,1593
1045,3220
1045,3328
1045,3739
1046,1152
1047,92
1049,33
1051,772
1051,3739
1051,4222
1051,4951
1052,60
1052,368
1053,2979
1053,3729
1054,356
1054,582
1054,985
1054,4502
1055,94
1055,416
1055,524
1055,1405
1055,2457
1055,2848
1055,4409
1059,1870
1059,4073
1061,219
1061,380
1064,36
1064,958
1065,503
1066,94
1066,135
1066,546
1066,583
1066,920
1066,1260
1066,1718
1066,1770
1066,1978
1066,1994
1066,3343
1069,1407
1069,3892
1069,4517
1070,9
1070,428
1070,3045
1070,4331
1074,796
1075,1459
1075,3252
1077,294
1079,301
1079,1948
1079,3252
1079,3518
1080,3187
1081,280
1083,288
1083,1216
1089,260
1093,96
1093,656
1093,854
1093,888
1093,1610
1093,3352
1093,3780
1093,4545
1097,4598
1098,843
1098,1259
1098,1671
1098,1741
1098,2109
1098,3167
1101,743
1101,1232
1101,1720
1101,3002
1101,4002
1101,4121
1103,893
1103,3559
1104,4598
1105,1673
1106,45
1106,2036
1106,2953
1107,428
1107,1026
1107,1252
1107,1547
1107,2026
1107,2476
1107,2580
1107,2853
1107,2966
1109,803
1109,3982
1109,4969
1110,924
1111,465
1111,701
1111,743
1111,1169
1111,3276
1111,4910
1112,55
1112,135
1112,3062
1112,3258
1112,3878
1112,4151
1112,4200
1112,4920
1113,462
1114,837
1114,4692
1116,3167
1116,3821
1119,341
1119,2614
1119,3209
1120,132
1120,268
1120,318
1120,1930
1120,2172
1120,2331
1120,3674
1120,4603
1121,74
1121,134
1121,142
1121,465
1121,769
1121,1178
1121,1231
1121,1411
1121,1738
1121,2004
1121,2388
1121,2433
1121,3252
1121,3471
1121,4207
1121,4275
1121,4663
1123,285
1123,620
1123,4830
1125,232
1125,253
1125,897
1125,989
1125,1540
1125,1745
1125,1823
1125,1839
1125,1979
1125,2507
1125,2655
1125,2785
1125,2848
1125,2892
1125,2926
1125,3008
1125,4329
1125,4600
1125,4726
1125,4789
1128,280
1128,3332
1128,4416
1131,4997
1132,613
1132,2804
1132,3022
1132,3220
1134,400
1135,1295
1136,609
1136,1059
1136,1820
1138,36
1138,1482
1138,2654
1138,3600
1139,87
1139,144
1139,1533
1139,4893
1140,1978
1143,2876
1143,3328
1143,4128
1146,123
1146,769
1146,1239
1146,1245
1146,1759
1146,3287
1146,4889
1147,333
1147,518
1147,847
1147,1200
1147,1931
1147,1999
1147,3979
1147,4057
1147,4249
1147,4502
1147,4730
1147,4964
1149,500
1151,2311
1152,6
1152,1039
1152,1718
1152,2349
1152,2630
1152,3390
1152,4297
1152,4502
1152,4668
1153,54
1153,2750
1153,4542
1154,96
1154,1427
1154,2856
1155,1058
1155,2412
1156,717
1156,794
1157,1
1157,668
1157,854
1157,1333
1157,1570
1157,2311
1157,2528
1157,2529
1157,2609
1157,4011
1157,4430
1157,4512
1159,379
1159,818
1160,1211
1160,3748
1162,157
1162,462
1162,2549
1163,1602
1165,48
1165,1297
1166,398
1166,2909
1166,3099
1167,60
1168,3252
1168,4578
1170,867
1172,356
1172,3734
1173,465
1173,1232
1173,1903
1173,2055
1173,2553
1173,2979
1173,3654
1174,2455
1174,3010
1174,3375
1174,3495
1174,3746
1174,4149
1174,4427
1175,4060
1178,4222
1179,2243
1180,1185
1180,1345
1180,2581
1181,2287
1182,516
1182,1811
1182,3120
1184,4976
1187,1157
1187,3176
1187,3667
1188,493
1188,778
1189,924
1189,3736
1190,755
1190,1810
1190,2306
1190,2430
1190,2772
1190,3112
1190,4173
1192,405
1192,897
1192,1339
1192,1983
1192,2005
1192,3768
1192,4398
1193,767
1193,1447
1194,400
1196,991
1196,4402
1197,483
1197,2179
1197,4570
1198,243
1199,1060
1199,1471
1199,2097
1199,4180
1199,4393
1199,4475
1199,4916
1201,3276
1202,4362
1204,4283
1207,106
1207,185
1207,299
1207,1439
1207,1479
1207,2207
1207,2932
1207,3101
1207,3328
1207,4128
1207,4180
1207,4427
1208,376
1208,3643
1210,75
1210,162
1210,1835
1210,2494
1210,3710
1212,898
1212,1076
1212,3230
1213,285
1213,363
1213,435
1213,619
1213,1006
1213,1240
1213,1792
1213,2271
1213,3276
1213,3680
1213,4038
1217,582
1217,1876
1217,2658
1217,2893
1217,3276
1217,3807
1217,4301
1218,4717
1219,1894
1219,2377
1219,2806
1219,3276
1219,3932
1220,3521
1221,783
1221,1102
1222,592
1224,325
1224,904
1224,2112
1225,87
1225,94
1225,244
1225,1825
1225,1937
1225,3968
1225,4217
1228,1038
1228,1316
1228,3457
1230,3739
1231,2853
1232,110
1232,1416
1232,4860
1233,409
1233,2002
1233,4149
1234,50
1234,1741
1234,1827
1234,2852
1235,158
1235,1220
1235,3657
1237,222
1237,1557
1237,1602
1237,2721
1237,3475
1242,121
1242,1493
1242,2889
1242,4763
1244,1568
1244,2314
1247,4525
1248,592
1251,1734
1252,524
1252,3649
1252,4774
1253,74
1253,810
1253,913
1253,2912
1253,3674
1253,4597
1255,985
1257,3932
1258,475
1258,2419
1258,2861
1258,3677
1258,4027
1260,837
1260,1662
1261,455
1261,521
1262,96
1262,3621
1262,4863
1263,730
1263,2880
1263,2964
1263,4564
1264,746
1264,2063
1264,2647
1264,3467
1264,3695
1264,4206
1264,4478
1265,391
1265,811
1265,3009
1268,94
1268,97
1268,101
1268,169
1268,252
1268,371
1268,378
1268,397
1268,453
1268,462
1268,696
1268,743
1268,872
1268,1044
1268,1329
1268,1402
1268,1535
1268,1683
1268,1764
1268,1925
1268,2147
1268,2295
1268,2311
1268,2805
1268,3056
1268,3167
1268,3297
1268,3775
1268,3974
1268,3982
1268,4006
1268,4030
1268,4283
1269,3167
1272,1094
1278,623
1278,898
1278,1200
1278,2040
1278,2081
1278,3539
1278,3703
1278,4217
1278,4900
1279,2980
1281,3167
1282,4893
1283,1748
1284,688
1284,926
1284,1330
1287,1804
1287,2393
1287,2422
1287,2651
1287,3823
1287,4048
1287,4668
1288,90
1288,581
1288,1825
1288,2654
1288,2770
1288,3921
1288,4598
1289,56
1289,254
1289,1015
1289,1417
1289,1869
1289,2916
1289,4331
1290,2474
1292,904
1293,45
1293,96
1293,1529
1293,4641
1294,3620
1294,4076
1294,4508
1295,279
1295,3517
1295,4396
1295,4677
1296,483
1296,854
1296,1682
1298,100
1301,1447
1301,2257
1301,2634
1301,3600
1301,3900
1301,4726
1301,4971
1302,9
1302,377
1302,715
1302,1513
1302,3948
1302,3989
1303,2176
1304,3142
1304,3148
1304,4726
1305,96
1307,61
1307,904
1307,3650
1307,3716
1308,19
1308,289
1308,4128
1308,4612
1310,1989
1311,341
1311,746
1311,1071
1311,2332
1311,2848
1312,255
1312,847
1312,2368
1312,3482
1312,3785
1312,3795
1313,399
1313,2474
1313,2864
1313,4028
1313,4247
1314,25
1315,100
1318,3607
1319,1586
1319,3868
1320,821
1321,94
1321,3434
1322,148
1324,145
1326,434
1326,2103
1326,2592
1326,3017
1326,3475
1326,3557
1326,4157
1327,1323
1327,3450
1327,4088
1328,371
1328,1531
1329,356
1329,1053
1329,3932
1331,1240
1333,416
1333,1082
1333,1755
1333,4329
1334,59
1334,524
1334,3052
1335,20
1335,1133
1335,2192
1337,29
1337,61
1338,4564
1340,837
1340,3735
1340,4502
1341,603
1341,2625
1341,3926
1342,483
1342,4653
1343,660
1343,2408
1343,4287
1344,3535
1344,3561
1346,2169
1347,3043
1348,3167
1349,893
1349,1917
1349,2075
1349,3674
1350,434
1353,411
1353,1816
1353,1994
1353,2899
1353,2980
1354,2434
1354,4217
1354,4318
1355,469
1357,25
1357,370
1358,130
1358,1162
1359,743
1361,181
1361,355
1361,610
1361,717
1361,754
1361,939
1361,1342
1361,1648
1361,1789
1361,2100
1361,2432
1361,2590
1361,2632
1361,3733
1361,4099
1361,4247
1361,4771
1362,946
1362,2101
1362,2105
1362,2211
1362,3800
1362,4247
1362,4520
1362,4961
1364,3052
1364,4171
1366,1169
1367,2227
1368,1914
1371,1000
1371,1682
1371,1687
1371,3916
1371,4411
1372,194
1372,594
1372,977
1372,2846
1372,2933
1372,4207
1373,1718
1373,2386
1373,2607
1373,3140
1374,119
1374,1947
1375,608
1375,2332
1375,3399
1375,3947
1376,1019
1376,2408
1377,48
1377,3817
1378,338
1378,620
1378,1450
1378,2287
1378,2338
1378,2432
1378,3043
1378,3475
1378,3534
1378,3810
1378,3847
1378,4470
1379,328
1379,1032
1379,1195
1379,1628
1379,1886
1379,2002
1379,2924
1379,2988
1379,3167
1379,3686
1379,4940
1380,1013
1380,1316
1380,4718
1381,130
1383,3097
1383,4002
1385,326
1387,2457
1388,1147
1389,1030
1389,2037
1390,50
1390,811
1390,4790
1392,3647
1393,2121
1393,3097
1393,4692
1394,571
1394,2009
1395,1192
1395,2519
1395,3560
1396,53
1396,314
1396,867
1396,3257
1397,37
1397,847
1397,2231
1397,2467
1397,2607
1397,4793
1398,36
1399,106
1400,130
1400,2219
1401,297
1401,1105
1402,410
1403,435
1403,1529
1403,2129
1403,3124
1403,4924
1404,258
1404,849
1404,1091
1404,2147
1404,4173
1406,277
1406,514
1406,1092
1406,1892
1406,3531
1406,4450
1408,142
1409,214
1409,4942
1410,946
1410,1765
1410,2853
1411,872
1411,1845
1411,3630
1412,3259
1412,3297
1414,1543
1414,2824
1418,3739
1419,61
1419,2511
1419,2628
1419,4998
1422,50
1422,1815
1422,2676
1422,4828
1423,34
1424,898
1424,2524
1425,1084
1425,2630
1427,92
1427,2304
1430,1323
1432,2101
1434,4973
1436,2785
1436,3166
1437,979
1437,1483
1437,4676
1438,277
1440,745
1440,4009
1441,54
1441,3110
1442,2780
1443,34
1443,4272
1444,3297
1445,730
1446,720
1448,811
1448,2401
1450,381
1450,4151
1450,4650
1451,356
1452,979
1452,1239
1452,1868
1452,2425
1452,2804
1453,4274
1454,1318
1454,1746
1454,2408
1454,3366
1457,1521
1457,3027
1457,4315
1460,66
1460,564
1460,617
1460,1316
1460,1964
1460,3271
1460,3519
1460,4717
1462,2480
1463,596
1463,1092
1467,96
1468,1402
1468,1833
1468,2968
1468,3020
1469,1143
1469,1715
1469,2507
1470,2023
1470,2474
1470,4339
1471,743
1471,1556
1471,1558
1473,363
1473,3141
1473,4597
1473,4709
1474,483
1474,652
1474,2067
1474,2808
1474,4613
1477,2655
1477,4150
1478,958
1480,152
1480,1447
1480,3052
1480,3297
1481,111
1481,148
1481,379
1481,862
1481,1226
1481,1471
1482,410
1482,1067
1482,3168
1482,4726
1483,582
1483,4476
1483,4967
1484,1456
1485,25
1485,2758
1485,2980
1485,3362
1485,4192
1485,4717
1486,181
1486,2026
1486,2306
1486,3212
1486,3534
1489,1816
1491,4222
1492,121
1492,132
1492,465
1492,912
1492,1060
1492,1412
1492,1459
1492,2765
1492,3610
1492,4126
1492,4329
1492,4878
1495,3485
1496,1240
1497,540
1497,1595
1498,285
1498,2946
1499,898
1501,550
1501,1232
1502,1130
1502,4611
1503,4067
1504,871
1507,4633
1509,2892
1510,173
1510,1370
1510,3200
1511,56
1511,157
1511,295
1511,408
1511,540
1511,575
1511,744
1511,898
1511,1317
1511,1523
1511,2305
1511,2848
1511,3134
1511,3304
1512,261
1512,3167
1512,4532
1513,483
1513,879
1513,2326
1513,4331
1516,148
1516,1370
1517,61
1517,555
1517,717
1517,2547
1517,2581
1518,2625
1520,500
1522,3832
1524,43
1524,344
1524,483
1524,1846
1524,2464
1524,2915
1524,4247
1525,244
1526,2474
1526,3700
1526,4511
1529,550
1529,1548
1530,1295
1530,3383
1531,173
1531,1203
1534,984
1536,2026
1536,2029
1536,2524
1538,489
1541,754
1541,4247
1542,2003
1543,984
1543,1447
1544,395
1544,1491
1544,2497
1544,2990
1547,31
1547,411
1547,3526
1548,123
1548,138
1548,1416
1548,1718
1548,2588
1548,2979
1548,4406
1549,328
1549,441
1549,3739
1549,4534
1550,4329
1551,4514
1552,667
1552,2002
1553,581
1553,747
1554,94
1554,2804
1554,3052
1554,3739
1554,3889
1555,252
1555,1633
1555,2026
1555,3060
1555,3984
1558,431
1558,662
1558,1872
1558,2094
1558,2607
1558,4501
1559,1001
1561,260
1561,1839
1561,3879
1561,4346
1565,611
1568,4983
1573,616
1574,2779
1575,537
1577,123
1577,2575
1577,3966
1577,3991
1578,619
1578,2868
1578,3266
1580,757
1581,3600
1581,3921
1582,9
1582,356
1582,2266
1582,3121
1583,483
1584,2052
1588,92
1588,2266
1588,2897
1589,3167
1589,4433
1589,4651
1591,763
1594,433
1594,4207
1595,1276
1595,1429
1595,1843
1595,3441
1595,3607
1596,2194
1596,2606
1596,4172
1596,4554
1596,4726
1598,16
1598,174
1599,3739
1599,3910
1601,100
1603,222
1604,109
1604,210
1604,411
1604,459
1604,700
1604,871
1604,1192
1604,2701
1604,2733
1604,3517
1604,3600
1604,3621
1604,3718
1604,4260
1604,4437
1605,3713
1607,19
1607,575
1607,2124
1611,281
1611,3768
1613,431
1614,274
1615,3097
1616,616
1617,3562
1618,1646
1618,2474
1620,1
1620,594
1620,1987
1622,1488
1624,277
1624,591
1624,1630
1624,3510
1625,96
1625,280
1625,1843
1625,2210
1626,1447
1627,573
1627,2147
1629,4956
1632,74
1632,1967
1632,1978
1632,2020
1634,2688
1636,371
1636,738
1636,818
1636,1686
1636,2419
1636,2851
1636,3555
1636,4408
1636,4567
1639,3043
1639,4582
1641,1871
1644,9
1644,347
1647,231
1647,1778
1647,2644
1647,3427
1647,4180
1649,1843
1656,979
1656,2952
1656,3695
1657,50
1657,495
1657,3420
1658,33
1658,39
1658,299
1658,692
1658,898
1658,1100
1658,1141
1658,2017
1658,2450
1658,2846
1658,2848
1658,2919
1658,2976
1658,3130
1658,3628
1658,4008
1658,4270
1666,417
1666,3674
1667,1588
1667,2595
1668,1026
1668,1260
1668,1693
1668,4105
1668,4239
1672,1839
1673,924
1674,879
1675,592
1675,1528
1675,2121
1675,3311
1675,3420
1675,4852
1676,1593
1678,573
1678,1540
1678,4717
1679,1447
1679,2541
1680,3127
1680,3167
1681,4296
1684,4177
1685,3276
1687,2878
1688,1506
1689,441
1689,3769
1690,2300
1690,3105
1691,499
1691,743
1691,887
1691,2182
1691,3414
1691,3857
1692,50
1692,802
1692,2442
1692,3805
1692,4317
1694,1240
1695,926
1695,3757
1697,755
1699,379
1699,1050
1700,144
1700,962
1700,4564
1702,43
1702,769
1702,861
1702,2964
1703,67
1703,145
1703,516
1703,1532
1703,2048
1703,2158
1703,3088
1703,3252
1703,3491
1704,542
1706,301
1707,2980
1708,866
1708,1316
1708,2848
1708,2967
1708,3969
1710,2531
1713,1226
1716,7
1717,3004
1719,279
1719,2195
1722,1458
1722,2335
1723,234
1723,2559
1723,4614
1724,224
1724,2231
1725,830
1726,1299
1726,1931
1726,2332
1726,2848
1728,623
1729,50
1729,2980
1731,100
1731,313
1731,388
1731,446
1731,623
1731,655
1731,687
1731,992
1731,1232
1731,1751
1731,2897
1731,3869
1731,4616
1733,4180
1734,222
1734,730
1734,743
1734,1532
1734,1682
1734,2188
1734,2213
1734,2287
1734,2976
1734,3177
1734,3932
1734,4033
1734,4264
1734,4502
1737,379
1737,772
1737,1602
1737,3328
1737,4521
1739,2607
1739,3718
1739,3874
1740,48
1740,308
1740,554
1740,1571
1740,2135
1740,2804
1740,2818
1741,60
1741,174
1741,419
1741,2062
1741,3695
1744,74
1744,613
1744,637
1745,462
1745,1787
1745,1967
1745,4605
1746,2524
1746,3087
1746,4993
1747,20
1748,66
1748,1939
1748,3256
1749,74
1749,1030
1749,4648
1753,2808
1754,401
1754,3344
1755,2511
1758,1117
1759,3159
1759,3328
1759,3402
1760,710
1760,3043
1763,2830
1763,4820
1764,4475
1765,3674
1767,4582
1768,409
1768,3167
1771,416
1771,1018
1773,2243
1774,43
1775,495
1775,2338
1775,2808
1775,3678
1776,1748
1776,3894
1777,527
1777,724
1778,3043
1780,1449
1780,4439
1781,92
1782,288
1783,743
1783,871
1783,906
1783,4180
1784,9
1785,2717
1785,2815
1785,4670
1786,4648
1788,2243
1788,3181
1788,4738
1790,4931
1791,43
1792,188
1793,847
1794,733
1794,2853
1794,4696
1794,4863
1797,1160
1797,2035
1797,2974
1797,4967
1798,10
1798,818
1798,1032
1799,2365
1799,2580
1801,908
1801,2610
1802,535
1803,3458
1803,4836
1805,4500
1806,309
1806,645
1806,2485
1806,4276
1806,4361
1806,4416
1807,1085
1811,4967
1812,944
1812,2806
1812,2976
1813,1077
1818,1183
1818,3722
1818,3956
1818,4178
1821,252
1821,268
1821,338
1821,446
1821,618
1821,2804
1821,3722
1821,4292
1821,4810
1822,148
1822,3921
1823,850
1824,1792
1826,753
1826,814
1826,4411
1827,9
1827,237
1827,3428
1831,176
1831,3328
1831,3601
1831,4262
1832,2740
1832,3105
1832,4638
1833,2524
1834,796
1834,1057
1834,1893
1834,4692
1836,4726
1839,55
1839,514
1839,2076
1839,2650
1839,2964
1839,4107
1840,4790
1843,3041
1844,1002
1844,3876
1844,4054
1845,728
1845,848
1845,1817
1845,2454
1845,4121
1845,4834
1847,252
1847,341
1847,576
1847,770
1848,1427
1850,253
1850,1044
1850,2674
1850,4505
1851,205
1854,2312
1855,96
1855,1955
1855,1966
1856,121
1856,4662
1859,2270
1859,3921
1860,540
1860,693
1860,706
1860,2541
1861,3167
1862,3534
1862,4450
1863,4692
1864,3715
1865,448
1865,1275
1871,33
1871,581
1871,1566
1871,1602
1871,3002
1871,4554
1872,475
1872,495
1872,569
1872,2314
1872,3695
1872,4009
1874,45
1874,49
1874,50
1874,72
1874,377
1874,483
1874,512
1874,609
1874,743
1874,1014
1874,1270
1874,1370
1874,2255
1874,2722
1874,3170
1874,3275
1874,3636
1874,3661
1874,3727
1875,96
1875,167
1877,39
1877,525
1877,1319
1877,3778
1877,4973
1878,352
1878,698
1882,261
1882,267
1882,537
1882,1471
1882,4692
1883,1572
1883,3252
1883,3704
1885,92
1885,155
1885,219
1885,341
1885,645
1885,1281
1885,1500
1885,2006
1885,3414
1885,3621
1885,4586
1885,4689
1887,569
1887,1084
1888,742
1889,3680
1891,137
1891,2853
1895,1755
1895,3014
1897,1830
1897,1916
1897,2748
1897,3313
1897,3481
1898,231
1899,142
1899,2640
1900,206
1900,667
1900,1660
1900,3426
1900,4010
1901,1318
1901,4411
1902,930
1902,986
1902,3352
1905,1239
1906,3043
1907,2964
1908,14
1908,90
1908,210
1908,992
1908,1077
1908,1543
1908,1653
1908,2984
1908,3265
1908,3660
1908,3681
1908,3986
1908,4026
1909,325
1910,742
1912,4128
1913,96
1914,647
1915,1670
1915,3861
1919,147
1920,4278
1922,2419
1922,2625
1924,2581
1924,3254
1927,1792
1927,2837
1927,3765
1927,3917
1927,4098
1929,1512
1929,1687
1932,45
1932,277
1932,408
1932,1879
1932,1928
1932,3101
1932,4475
1933,1030
1934,3069
1936,1082
1936,2470
1937,1010
1937,2119
1937,2811
1937,3252
1937,4294
1938,816
1938,2337
1938,3504
1938,4292
1938,4692
1940,96
1940,4270
1941,4598
1942,99
1942,155
1942,191
1942,376
1942,680
1942,735
1942,931
1942,1435
1942,1546
1942,2585
1942,2796
1942,3200
1942,3475
1942,4473
1943,745
1945,2001
1948,1595
1950,181
1951,3297
1953,847
1956,62
1956,398
1956,613
1957,121
1957,1270
1957,1727
1957,2641
1957,3745
1958,4448
1961,2847
1963,763
1963,1746
1963,2742
1970,43
1971,222
1971,1102
1971,1543
1971,2122
1971,2451
1971,2527
1971,3167
1971,3366
1971,3430
1971,3606
1971,3695
1971,4214
1971,4335
1974,79
1974,94
1974,847
1974,3600
1974,4559
1975,255
1976,1302
1978,19
1979,500
1979,1012
1979,1586
1981,181
1982,743
1982,1370
1982,2216
1982,2463
1982,2493
1982,2574
1982,2980
1982,3739
1982,4005
1982,4554
1983,1727
1984,2848
1985,287
1985,702
1985,4129
1985,4717
1985,4845
1986,475
1993,408
1993,3175
1993,3218
1993,3649
1995,124
1995,328
1995,926
1995,3680
1995,4370
1997,1745
1998,2336
1998,2474
2000,1795
2000,3562
2001,1394
2001,4250
2001,4813
2002,1972
2002,3046
2002,3817
2007,1057
2008,161
2010,436
2010,3718
2012,75
2012,205
2012,379
2012,416
2012,465
2012,1450
2012,2179
2012,2420
2012,3043
2012,3253
2012,3695
2012,3939
2012,4411
2012,4803
2013,6
2014,1939
2014,2455
2018,1839
2018,4468
2021,1091
2022,706
2022,4411
2024,3604
2024,4853
2024,4930
2027,856
2028,717
2028,2123
2028,2438
2030,269
2033,540
2033,1652
2034,94
2034,326
2034,462
2034,2404
2034,3048
2038,6
2038,2990
2038,3893
2041,59
2041,756
2041,763
2041,926
2041,2308
2041,3167
2044,74
2045,1001
2046,499
2046,659
2046,4389
2050,279
2051,3764
2051,4151
2053,3109
2053,4331
2057,483
2058,2150
2059,388
2059,2980
2060,145
2060,3065
2061,730
2062,29
2062,614
2062,717
2062,1177
2062,1372
2062,2914
2062,3962
2062,4296
2065,25
2065,36
2065,1964
2065,2158
2065,3415
2065,4460
2071,2998
2072,2528
2073,2147
2074,3311
2074,3524
2078,1331
2081,948
2081,3584
2081,3674
2083,1195
2083,3896
2084,9
2084,3066
2085,1529
2086,106
2087,4940
2088,299
2089,3279
2089,3678
2090,4876
2091,1411
2092,39
2094,1648
2096,730
2096,1962
2096,2788
2096,3006
2098,299
2098,3440
2103,1115
2108,512
2108,4207
2111,1026
2111,4286
2111,4717
2113,371
2113,645
2115,54
2115,410
2116,939
2118,56
2118,229
2118,1129
2120,3344
2120,4249
2121,2243
2122,1297
2125,2430
2126,2054
2126,2926
2127,1556
2127,2069
2128,2629
2132,260
2132,784
2132,2630
2133,3311
2136,2279
2136,2980
2136,4550
2137,2980
2139,1529
2140,3660
2143,431
2143,2243
2143,3276
2144,2474
2145,2189
2149,2848
2149,3660
2151,246
2151,260
2151,667
2151,1001
2151,1311
2151,1506
2151,3751
2151,3921
2152,135
2152,205
2152,1843
2152,2755
2152,3168
2152,3290
2152,4235
2154,946
2155,4562
2156,767
2156,2562
2157,670
2157,690
2157,1038
2160,194
2160,3038
2161,110
2161,2312
2162,4270
2164,817
2164,1789
2164,2979
2164,4128
2165,9
2165,1302
2165,3313
2165,4087
2166,254
2170,2642
2170,3885
2170,3977
2170,4603
2170,4777
2170,4857
2172,462
2174,318
2175,2650
2175,4238
2177,991
2177,2101
2177,3334
2180,99
2180,1076
2180,2447
2181,616
2182,100
2182,123
2182,611
2182,796
2182,926
2182,2043
2182,2309
2182,2556
2182,3725
2182,4085
2182,4180
2182,4785
2183,4842
2184,79
2184,134
2184,916
2184,3931
2185,3268
2187,650
2187,1008
2187,1973
2187,2480
2190,2675
2190,3777
2190,3991
2190,4967
2193,310
2193,441
2193,660
2193,1852
2193,2783
2193,3311
2193,3567
2193,3695
2193,4078
2194,1528
2194,2039
2194,2821
2194,4261
2195,4975
2196,3720
2197,1736
2198,1635
2198,3280
2198,4433
2198,4535
2199,185
2199,3717
2200,4189
2201,1276
2202,260
2202,482
2202,588
2202,874
2202,3003
2202,4906
2203,260
2203,328
2203,333
2203,462
2203,822
2203,1795
2203,3748
2203,3937
2203,4289
2204,164
2204,4247
2204,4632
2205,43
2205,199
2205,210
2205,1715
2205,2225
2205,2677
2205,3133
2206,1401
2208,4676
2212,410
2212,1887
2214,252
2215,289
2215,1663
2215,2353
2217,2318
2217,4694
2218,946
2218,2865
2219,722
2219,1745
2219,2101
2220,9
2220,2266
2221,100
2223,1508
2226,2052
2228,1886
2228,2231
2228,2579
2228,3892
2228,4745
2234,94
2234,1452
2234,2336
2235,3097
2235,4658
2238,123
2238,389
2238,1687
2240,1622
2240,4023
2242,244
2243,2871
2243,4670
2245,1890
2246,757
2247,1323
2247,2464
2247,4179
2247,4195
2247,4634
2249,94
2249,1001
2249,3321
2250,153
2250,391
2250,1506
2250,1515
2250,1610
2250,1939
2250,2325
2250,2416
2251,2004
2252,4565
2253,3097
2256,4851
2257,1595
2258,898
2258,4126
2260,3420
2261,53
2261,121
2261,347
2261,581
2261,1240
2261,1442
2261,2025
2261,2106
2261,2518
2261,3473
2261,3474
2261,3524
2261,3596
2261,3976
2261,4179
2261,4367
2262,744
2262,2365
2263,9
2263,1008
2267,2518
2273,3475
2274,297
2274,4314
2275,2306
2275,3420
2277,465
2278,347
2278,999
2280,43
2281,3254
2281,3469
2282,555
2282,675
2282,1018
2282,1529
2282,2917
2282,3101
2282,4967
2283,821
2283,4123
2283,4179
2284,333
2286,574
2286,1820
2286,4128
2288,377
2288,893
2288,898
2288,970
2288,1077
2288,1476
2288,1533
2288,4626
2289,3768
2290,363
2290,3420
2291,173
2291,1967
2292,1946
2294,258
2294,882
2294,2847
2295,3043
2295,3344
2295,3474
2295,3871
2296,9
2296,3434
2296,3932
2297,1471
2297,1926
2297,3053
2297,4544
2297,4676
2297,4849
2301,318
2301,735
2301,1853
2302,1939
2305,743
2306,2524
2308,94
2308,1060
2309,317
2309,363
2309,3607
2310,795
2310,898
2312,1084
2313,338
2313,871
2315,581
2315,1096
2315,1718
2315,1743
2315,1904
2315,2069
2315,2121
2315,2266
2315,2808
2315,2977
2315,3817
2315,3873
2319,133
2319,173
2319,310
2319,387
2319,1059
2319,1727
2319,2340
2319,2529
2319,3815
2319,3911
2319,3991
2319,4488
2319,4744
2319,4759
2319,4999
2320,254
2323,401
2324,1931
2324,2270
2324,2838
2326,756
2327,1606
2328,119
2329,1994
2330,2901
2332,231
2333,1540
2335,2082
2336,92
2336,4516
2336,4775
2339,1660
2341,3465
2343,4391
2344,434
2344,3016
2345,1792
2345,3133
2346,795
2348,743
2348,1966
2348,2576
2348,4103
2348,4739
2350,2189
2350,3687
2352,4690
2355,1816
2357,527
2357,701
2357,1455
2357,1815
2357,2686
2358,205
2358,1313
2358,4548
2359,1652
2359,1819
2359,2311
2363,253
2364,347
2364,1979
2367,667
2370,268
2371,1319
2371,1931
2371,2695
2372,401
2372,3653
2374,1147
2374,3652
2376,1359
2378,4864
2380,2640
2383,4761
2384,1274
2384,1916
2384,2128
2387,3739
2389,4563
2391,730
2391,1479
2393,121
2393,213
2393,2675
2393,2908
2393,3043
2394,2243
2395,279
2396,502
2396,2705
2400,400
2401,333
2402,2980
2405,2848
2406,1357
2407,229
2407,1663
2407,3611
2408,465
2408,1035
2408,1465
2408,2833
2408,3267
2408,4565
2411,60
2411,337
2411,690
2411,1162
2411,1417
2411,1512
2411,2158
2411,2581
2411,2808
2411,2848
2411,3475
2411,4502
2411,4692
2413,96
2413,409
2413,3571
2414,96
2414,2379
2414,2979
2414,4009
2414,4042
2415,173
2417,2609
2418,2505
2422,434
2422,1302
2422,2570
2424,2791
2424,3356
2425,1285
2425,1978
2426,100
2426,1682
2426,1755
2426,3967
2428,7
2428,3079
2429,83
2431,489
2432,912
2432,2306
2432,2365
2432,2906
2435,3175
2437,148
2437,499
2437,2546
2437,4876
2440,1082
2441,698
2441,1027
2442,779
2443,262
2443,3187
2444,642
2444,3297
2445,274
2448,79
2448,194
2448,688
2448,767
2448,2056
2449,455
2451,269
2452,54
2452,4514
2453,1529
2456,1029
2456,3268
2457,1631
2461,199
2462,2980
2465,735
2467,760
2468,3252
2469,252
2469,2945
2470,681
2471,2229
2473,9
2473,39
2473,130
2473,223
2473,431
2473,447
2473,1394
2473,1542
2473,1945
2473,2159
2473,3371
2473,4109
2473,4236
2473,4247
2473,4331
2473,4348
2475,722
2477,326
2477,4497
2478,594
2480,1429
2480,2048
2480,3147
2482,637
2483,1769
2483,3139
2485,30
2485,2980
2485,3932
2486,1336
2487,1994
2488,841
2489,1221
2490,295
2493,581
2493,1745
2493,2270
2495,410
2495,535
2495,1014
2495,1200
2495,1978
2495,2009
2495,4330
2496,3336
2499,746
2500,1476
2501,3267
2501,4650
2502,38
2502,379
2502,499
2502,502
2502,638
2502,897
2502,1072
2502,3229
2503,1514
2503,3524
2504,495
2505,75
2505,4324
2508,2388
2509,214
2509,540
2509,1450
2509,2481
2512,555
2512,717
2512,925
2512,2904
2512,4023
2514,1602
2514,3268
2515,2980
2515,3739
2520,884
2521,4269
2521,4545
2523,246
2525,149
2525,701
2525,4331
2527,1545
2527,2701
2528,366
2530,3170
2530,3695
2530,4998
2531,459
2533,1059
2533,2813
2535,2980
2536,1077
2538,1556
2538,2573
2539,109
2539,817
2540,462
2540,2421
2540,4717
2541,3583
2544,1748
2546,233
2546,537
2546,796
2546,1736
2546,1889
2548,1400
2550,2116
2550,2179
2551,408
2551,2758
2554,1764
2555,675
2557,269
2558,3921
2560,2492
2561,25
2561,472
2561,1458
2561,1545
2565,2980
2566,617
2566,4114
2567,769
2569,4082
2572,434
2572,2897
2575,4868
2578,2176
2579,851
2579,1058
2579,2366
2579,3125
2580,2134
2582,3652
2583,186
2583,1556
2583,4184
2583,4904
2586,667
2586,1127
2586,1839
2586,2179
2586,2617
2586,3363
2587,1841
2589,1
2590,244
2590,489
2590,2542
2591,6
2591,119
2591,133
2591,138
2591,434
2591,688
2591,1142
2591,1241
2591,2316
2591,2677
2591,3064
2591,3898
2591,4613
2591,4801
2593,683
2593,937
2593,1077
2593,1246
2593,1881
2593,1999
2593,2270
2593,2369
2593,2980
2593,3021
2593,4180
2593,4392
2593,4501
2593,4538
2593,4564
2594,1543
2594,3074
2594,3255
2596,210
2596,1398
2596,2028
2596,3533
2598,2957
2598,4184
2600,100
2600,537
2600,808
2600,1607
2600,2325
2602,3420
2603,1199
2603,1633
2603,3716
2608,3652
2610,137
2610,1837
2610,3311
2611,1966
2612,573
2612,1735
2612,2848
2613,2808
2615,1090
2615,3233
2616,4450
2618,2360
2619,4662
2620,946
2621,483
2622,2117
2623,1916
2623,4717
2623,4995
2624,2287
2624,4405
2625,3921
2626,1295
2627,274
2630,0
2630,30
2630,389
2630,592
2630,1003
2630,2639
2630,4411
2630,4967
2631,2808
2635,63
2635,3097
2636,137
2637,2412
2637,2691
2639,24
2639,49
2639,119
2639,228
2639,321
2639,898
2639,1268
2639,1461
2639,1607
2639,3072
2639,3311
2639,3459
2639,4428
2639,4954
2639,4976
2645,2001
2646,555
2648,4270
2649,1092
2649,1302
2649,1830
2649,2441
2650,2740
2652,1365
2653,2941
2653,3015
2653,3346
2656,1241
2656,2205
2656,4565
2657,3534
2658,43
2658,57
2658,1602
2658,2306
2658,2347
2658,3471
2658,4545
2659,462
2660,3695
2661,222
2662,255
2662,524
2662,634
2662,767
2662,2581
2662,3187
2662,3297
2662,3690
2662,4564
2665,176
2665,253
2666,2176
2666,4685
2667,887
2667,1892
2668,2257
2668,3933
2668,4074
2669,1828
2670,408
2670,1117
2670,2101
2670,2629
2670,3434
2670,3607
2670,4630
2671,2189
2672,1781
2673,992
2673,3651
2677,94
2677,803
2677,2353
2677,3518
2677,3906
2678,2848
2679,94
2679,1091
2679,3143
2679,3195
2680,3817
2681,92
2681,2397
2683,145
2684,229
2684,409
2684,592
2684,2416
2684,2457
2684,2990
2684,3112
2684,4556
2685,3252
2687,60
2687,4017
2689,89
2689,2286
2689,3315
2689,4126
2690,356
2692,1309
2693,596
2693,2724
2693,3501
2696,4278
2697,837
2698,525
2699,2455
2700,2243
2701,1057
2703,262
2703,3105
2706,4128
2706,4979
2707,335
2707,1978
2708,4598
2708,4681
2709,1792
2709,3950
2710,1660
2711,3352
2712,3695
2713,3297
2715,3344
2715,4077
2716,266
2716,616
2716,1299
2716,1523
2716,1748
2716,3434
2718,3739
2720,325
2720,4135
2721,1259
2721,3957
2726,39
2726,2805
2727,48
2728,309
2728,379
2728,3062
2728,3191
2728,4450
2730,1540
2731,1916
2731,4140
2731,4513
2732,4439
2734,174
2735,407
2735,1156
2735,2481
2736,1529
2736,2128
2736,3471
2737,2848
2737,3083
2737,4020
2737,4067
2739,2742
2740,3167
2741,2138
2743,837
2744,1415
2745,2103
2745,3840
2746,4692
2749,2701
2751,796
2753,3674
2754,3834
2756,1539
2757,1959
2759,2495
2760,3101
2760,3380
2761,1896
2762,61
2763,854
2765,158
2765,2211
2765,2682
2765,4207
2766,924
2766,1351
2766,2103
2771,3167
2771,3674
2772,1055
2772,1866
2772,4357
2773,645
2774,363
2775,376
2775,2722
2775,3317
2777,1229
2778,53
2778,579
2778,1715
2778,3549
2780,1243
2780,1466
2781,61
2781,681
2781,1130
2781,2075
2781,2861
2784,2470
2787,106
2787,4283
2788,7
2789,92
2789,1660
2791,39
2791,262
2791,338
2791,524
2791,1084
2791,2077
2791,2192
2791,2458
2792,3292
2792,4186
2793,1782
2795,137
2795,879
2795,924
2795,1962
2795,2176
2796,277
2796,2349
2796,2978
2796,3091
2796,3600
2796,3837
2797,1849
2798,3252
2799,2601
2800,659
2800,1402
2800,3313
2801,760
2802,3390
2803,3038
2803,4220
2803,4298
2805,4063
2805,4411
2807,2231
2807,4919
2808,2643
2809,3287
2812,1433
2814,2772
2816,2980
2817,898
2819,147
2819,2742
2820,341
2822,83
2822,1148
2822,3863
2822,4117
2823,3276
2824,1471
2828,3423
2831,4332
2832,3234
2834,2247
2835,1000
2835,1948
2835,2545
2835,4305
2835,4631
2835,4672
2836,733
2836,1244
2836,1543
2836,4101
2836,4318
2836,4758
2836,4789
2837,44
2839,356
2840,2242
2842,409
2842,2577
2842,3313
2842,4350
2843,152
2843,1027
2845,3172
2845,3980
2845,4236
2847,2547
2853,164
2853,299
2853,1302
2854,2481
2855,106
2855,121
2855,266
2855,271
2855,341
2855,608
2855,642
2855,660
2855,735
2855,1471
2855,1646
2855,1746
2855,1814
2855,2472
2855,2474
2855,2702
2855,2827
2855,3112
2855,3313
2855,3420
2855,3607
2855,4064
2855,4217
2856,401
2856,1881
2856,2105
2859,1091
2860,2748
2862,4502
2863,44
2863,3802
2868,36
2868,4505
2869,2980
2869,3198
2869,3765
2873,2868
2874,537
2875,2527
2875,4938
2877,2457
2879,66
2879,2457
2879,2580
2879,2985
2881,1521
2881,3739
2882,2563
2884,1156
2886,301
2886,379
2886,608
2886,662
2886,683
2886,730
2886,1118
2886,1456
2886,1547
2886,1830
2886,1853
2886,1971
2886,2841
2886,2936
2886,3167
2886,3357
2887,371
2888,94
2888,244
2890,199
2890,1523
2890,2524
2891,4180
2892,325
2892,1745
2896,184
2897,3167
2898,3690
2900,57
2901,502
2902,755
2903,44
2903,116
2903,205
2903,401
2903,441
2903,655
2903,660
2903,1091
2903,2116
2903,2855
2903,3607
2903,3695
2903,3860
2905,2790
2905,3890
2905,4143
2908,4013
2909,1540
2909,3525
2910,1053
2910,4658
2916,4022
2916,4025
2916,4064
2917,277
2917,294
2917,2205
2917,3674
2917,4243
2918,525
2919,1268
2921,738
2923,592
2925,2036
2926,448
2926,1587
2926,2563
2926,2868
2928,174
2928,356
2928,410
2928,448
2928,691
2928,744
2928,884
2928,1529
2928,1564
2928,2006
2928,2216
2928,2764
2928,3046
2928,3126
2928,3309
2928,3478
2928,3552
2928,4237
2928,4508
2929,1642
2929,2378
2930,657
2931,423
2931,2311
2934,1391
2934,4489
2935,869
2935,1308
2935,4692
2937,199
2937,3679
2938,592
2938,2176
2939,2303
2939,3607
2939,4380
2939,4823
2940,2189
2940,4315
2942,2980
2943,822
2944,608
2944,2782
2946,2848
2946,3114
2947,3991
2948,1677
2949,2347
2951,1241
2954,1323
2959,1843
2960,271
2961,2094
2962,2670
2965,2265
2970,1239
2971,832
2971,1370
2971,2243
2971,3901
2972,1384
2973,3739
2974,1652
2974,2796
2975,1959
2979,1302
2979,1643
2979,1948
2979,2204
2981,1370
2982,205
2983,2266
2987,232
2989,4277
2990,175
2990,1721
2991,2528
2992,9
2993,151
2993,641
2993,3350
2993,4690
2994,119
2995,904
2997,1476
2997,3335
2999,109
2999,1471
2999,3213
3000,4341
3005,48
3005,176
3005,235
3005,566
3005,1560
3005,2207
3005,3311
3005,3475
3005,3932
3005,4345
3011,341
3011,2658
3012,3475
3014,2229
3015,1057
3016,211
3016,1652
3016,3716
3016,3937
3016,4055
3018,2002
3021,174
3021,434
3021,581
3021,940
3021,1009
3021,1502
3021,1718
3021,2349
3021,2478
3021,4431
3021,4629
3023,46
3023,769
3023,1072
3023,1491
3023,1661
3023,1718
3023,1919
3023,2484
3023,3137
3023,4170
3024,763
3025,3097
3026,1718
3028,856
3028,1661
3028,2847
3029,2195
3029,3097
3030,957
3030,3066
3032,6
3034,2416
3037,416
3039,926
3039,2528
3044,2704
3047,1556
3047,2071
3048,1829
3049,2883
3049,4229
3051,121
3054,142
3055,2805
3058,351
3058,3915
3058,4627
3059,391
3059,2178
3059,3485
3064,921
3065,104
3065,176
3065,206
3065,222
3065,1002
3065,1521
3065,1867
3065,2248
3065,2473
3065,3849
3065,3939
3065,4624
3067,3475
3071,1455
3071,4385
3071,4953
3072,393
3072,1842
3072,2418
3072,2663
3072,4041
3075,742
3076,2897
3077,2454
3078,795
3079,1570
3079,2953
3079,4634
3079,4799
3080,233
3080,318
3080,2094
3080,4217
3082,2617
3084,1447
3084,2000
3084,3313
3084,3720
3084,3845
3084,4502
3085,706
3086,1574
3087,96
3087,253
3087,825
3087,1339
3087,1490
3087,1661
3087,1843
3087,2001
3087,3765
3087,4236
3087,4850
3089,2876
3090,93
3092,318
3092,4531
3092,4611
3093,328
3093,1077
3094,1488
3097,2024
3097,3448
3097,4902
3098,3765
3099,4996
3100,3838
3101,1227
3101,2266
3101,4825
3102,4564
3103,2740
3107,1461
3107,1843
3107,3709
3108,229
3111,582
3111,2529
3113,119
3115,1
3116,4435
3120,838
3120,1318
3123,1926
3133,2581
3136,2011
3136,3867
3136,4193
3136,4565
3138,482
3138,503
3140,4543
3143,1609
3143,3377
3143,4015
3143,4264
3144,56
3145,1176
3149,1792
3149,2964
3149,4802
3151,702
3152,1200
3153,542
3153,613
3153,717
3153,1249
3153,1325
3153,3297
3154,769
3154,2853
3156,114
3158,1916
3161,120
3162,36
3162,1710
3162,3117
3162,3299
3163,465
3164,4613
3165,4236
3166,511
3169,428
3173,2717
3176,36
3176,3410
3176,4095
3178,2336
3179,1529
3179,2128
3179,2146
3179,2227
3179,2231
3179,3564
3179,4564
3182,693
3182,2231
3182,4130
3185,130
3185,964
3188,767
3188,2641
3188,3040
3188,3353
3188,4889
3189,4124
3189,4270
3192,148
3194,94
3195,1978
3196,1286
3197,288
3197,3206
3199,3765
3201,1091
3202,130
3204,2421
3204,3068
3206,45
3206,763
3207,613
3208,2125
3210,2106
3212,3167
3214,2309
3215,56
3215,253
3215,382
3215,838
3215,987
3215,989
3215,1087
3215,1370
3215,2266
3215,4315
3215,4400
3216,3200
3217,1008
3217,2178
3218,1291
3219,2362
3222,1980
3223,124
3224,3660
3225,7
3225,313
3226,2366
3227,2980
3230,4309
3230,4971
3231,745
3231,1879
3231,4215
3231,4601
3232,1331
3232,1761
3232,3567
3232,4163
3232,4609
3233,1602
3233,2913
3234,2507
3234,3278
3235,3297
3236,920
3237,2804
3238,58
3238,173
3238,379
3238,795
3238,1396
3238,1651
3238,1664
3238,3268
3238,3794
3238,4117
3238,4180
3238,4341
3238,4826
3239,851
3240,1687
3242,489
3243,3186
3244,83
3244,395
3244,525
3244,897
3244,1816
3244,3007
3244,3328
3244,3534
3244,3829
3244,4186
3245,1408
3246,2205
3247,123
3248,66
3248,921
3248,3660
3249,2254
3249,2306
3252,4514
3253,356
3253,1807
3253,4936
3254,2094
3261,145
3261,620
3261,4830
3262,367
3262,1529
3262,2581
3262,3545
3263,181
3263,793
3264,1490
3265,1934
3266,2868
3268,114
3268,2001
3268,3388
3269,1360
3269,1694
3270,2311
3272,3038
3273,3674
3276,2176
3277,234
3277,1433
3279,1591
3281,209
3282,94
3284,1529
3285,1076
3285,4812
3286,1323
3287,3891
3287,3942
3287,4670
3288,3008
3288,4403
3289,416
3291,100
3294,299
3294,2870
3294,3913
3294,4284
3296,848
3296,1533
3297,1894
3298,1999
3299,4313
3300,416
3300,482
3300,611
3300,1317
3300,1514
3300,2314
3300,2460
3300,2755
3300,2920
3300,3043
3300,3175
3300,3768
3300,4633
3300,4925
3301,1889
3301,3389
3302,1053
3303,596
3303,4522
3305,1450
3308,1002
3310,1980
3310,3112
3311,2458
3311,4414
3312,2830
3315,322
3315,2980
3318,2192
3320,2299
3320,4696
3322,1035
3322,1911
3323,408
3324,4744
3325,590
3325,633
3326,489
3326,1346
3326,1561
3329,3991
3331,459
3331,3220
3333,151
3333,1158
3333,1437
3333,1727
3333,4049
3338,3048
3338,3648
3338,4002
3339,109
3339,155
3339,489
3339,730
3339,813
3339,2583
3339,2844
3339,2900
3339,2950
3339,3040
3339,4002
3340,865
3340,4555
3341,74
3345,1989
3345,4817
3346,1169
3347,4967
3348,977
3351,110
3354,1782
3357,217
3357,1008
3357,1466
3357,1602
3357,2159
3357,2639
3357,2885
3357,3006
3357,3423
3357,3932
3357,4554
3359,1321
3359,4608
3361,4323
3362,1748
3364,2962
3364,4928
3373,1076
3373,3252
3374,25
3379,2663
3382,1232
3383,3607
3384,3991
3385,570
3387,3341
3390,1827
3390,4324
3391,1370
3392,2266
3392,2581
3392,3895
3392,4121
3394,1994
3395,502
3398,1241
3400,1397
3402,893
3403,332
3404,1512
3404,3833
3407,252
3409,2242
3409,4481
3411,347
3412,862
3413,2494
3414,3033
3416,1550
3418,1
3418,101
3418,132
3418,133
3418,356
3418,378
3418,424
3418,511
3418,794
3418,806
3418,810
3418,1280
3418,1512
3418,1662
3418,1833
3418,2232
3418,2446
3418,2524
3418,2729
3418,2892
3418,3006
3418,3658
3418,4180
3419,647
3419,1053
3419,3573
3420,3740
3421,110
3421,111
3421,524
3421,934
3421,1569
3421,1612
3421,2210
3421,3234
3422,75
3422,489
3422,642
3422,1557
3422,2041
3422,2205
3422,3810
3422,3831
3422,4331
3424,728
3424,3600
3424,3817
3425,363
3425,3297
3425,4680
3429,2328
3430,145
3430,278
3430,777
3430,952
3430,1000
3430,1459
3430,1645
3430,1732
3430,1755
3430,2714
3430,3105
3430,3473
3430,3674
3430,3790
3430,4382
3431,3357
3432,4644
3436,757
3436,1513
3437,484
3437,2004
3438,1710
3439,1099
3440,157
3440,335
3442,2899
3443,74
3443,138
3443,175
3443,274
3443,701
3443,728
3443,846
3443,911
3443,1122
3443,1935
3443,2061
3443,3335
3443,3542
3443,3703
3443,3946
3443,4558
3444,88
3444,243
3444,830
3444,1050
3444,1660
3444,1990
3444,4475
3444,4565
3446,1302
3447,33
3447,1243
3447,2279
3447,4692
3449,3847
3451,176
3451,260
3451,570
3451,1085
3451,1815
3451,2848
3451,3006
3451,3319
3451,3393
3451,3487
3451,4077
3451,4236
3451,4310
3451,4437
3452,29
3452,48
3452,269
3452,338
3452,765
3452,1849
3452,1853
3452,2897
3452,4753
3453,4716
3455,455
3455,2897
3456,743
3456,1008
3456,2439
3456,3736
3456,4041
3457,222
3457,1372
3458,4132
3458,4564
3460,1161
3460,4697
3461,266
3462,1229
3462,4530
3463,2318
3463,3074
3465,1082
3465,1774
3468,4406
3470,1682
3471,581
3471,2913
3472,2836
3473,1574
3473,4474
3474,2347
3475,4127
3476,1032
3477,465
3477,3748
3478,3695
3479,2837
3479,4247
3479,4907
3480,25
3483,2894
3484,1978
3486,3297
3488,2150
3490,2855
3493,4830
3494,295
3494,1050
3494,3175
3496,3560
3496,4625
3497,224
3497,743
3497,926
3497,4569
3499,1351
3500,2266
3503,344
3503,368
3503,1191
3503,3684
3505,36
3506,409
3506,1181
3506,1226
3506,1978
3506,2204
3506,2314
3506,3607
3506,3938
3506,4247
3506,4390
3507,1082
3508,1721
3508,1825
3509,9
3509,355
3509,623
3509,1607
3509,3038
3512,838
3512,1346
3515,2368
3516,915
3516,1587
3516,3707
3517,2286
3518,4094
3519,1838
3519,4530
3519,4564
3520,2855
3523,1229
3523,1734
3523,2897
3524,3097
3524,4059
3525,500
3526,3089
3527,45
3529,1
3530,4930
3532,2581
3532,4377
3532,4857
3536,2647
3538,1843
3540,167
3541,3988
3541,4521
3543,423
3544,2189
3545,19
3545,46
3545,57
3545,310
3545,428
3545,441
3545,521
3545,573
3545,743
3545,1018
3545,1137
3545,1343
3545,1394
3545,1718
3545,1750
3545,2150
3545,2383
3545,2617
3545,3023
3545,3492
3545,3994
3545,4101
3546,588
3546,2605
3547,638
3548,2026
3551,262
3553,4099
3556,379
3556,879
3556,1152
3556,2657
3556,3389
3556,4290
3558,3549
3562,61
3562,341
3562,584
3562,701
3562,2524
3563,2700
3565,1090
3566,59
3566,838
3566,1077
3566,2647
3566,3739
3566,4279
3567,1633
3567,3038
3567,3912
3567,4477
3568,1321
3568,1816
3568,3514
3569,3343
3570,849
3575,2568
3576,732
3576,1402
3576,1972
3578,2159
3579,3276
3580,1026
3580,4060
3581,36
3581,94
3581,388
3581,400
3581,660
3581,796
3581,1008
3581,1076
3581,1890
3581,2024
3581,2243
3581,2423
3581,3038
3581,3045
3581,3228
3581,3406
3581,3776
3587,1429
3588,1686
3589,893
3590,157
3590,2147
3590,2229
3591,10
3593,3423
3594,235
3594,1402
3594,2107
3594,2980
3594,4072
3594,4940
3595,743
3598,795
3598,4865
3599,893
3601,2464
3602,2629
3603,119
3604,156
3605,2192
3605,3652
3607,3038
3610,4439
3612,483
3613,2324
3613,3604
3613,4501
3614,33
3614,4662
3615,267
3615,2171
3616,3313
3616,3742
3619,3739
3621,2248
3622,513
3622,2125
3623,1600
3623,3352
3624,4449
3626,1431
3626,1748
3627,99
3627,2425
3627,4645
3627,4940
3629,142
3629,175
3629,714
3629,847
3629,950
3629,1254
3629,1474
3629,2063
3629,2325
3629,4884
3631,301
3631,522
3631,743
3631,1815
3633,3618
3636,544
3636,550
3636,887
3636,1232
3636,1413
3636,3128
3636,3458
3636,4353
3637,743
3638,50
3638,418
3638,537
3638,1076
3638,1842
3638,2375
3638,2950
3639,3696
3640,199
3641,4889
3642,63
3642,657
3642,3259
3644,1521
3644,2866
3644,3268
3644,3942
3644,4100
3646,1447
3647,2676
3647,3045
3649,2243
3651,19
3651,204
3651,524
3651,888
3651,958
3651,992
3651,1082
3651,1843
3651,2592
3651,3211
3651,4586
3655,770
3656,489
3657,2434
3658,4195
3659,1527
3661,1456
3662,1152
3663,1006
3664,2134
3666,4085
3668,2122
3669,229
3669,4413
3669,4440
3671,1195
3671,3750
3672,1556
3673,1053
3675,333
3678,1449
3682,175
3682,732
3682,4894
3683,3252
3683,3870
3685,4179
3689,2534
3692,1545
3693,1241
3694,3390
3695,4151
3696,1396
3697,546
3697,795
3698,2725
3701,1002
3702,1612
3702,2503
3702,3610
3703,162
3703,1750
3704,371
3705,754
3705,1297
3705,2791
3705,4542
3706,3287
3711,788
3712,3038
3712,4737
3713,3343
3721,2759
3723,1394
3723,2804
3725,1718
3726,258
3728,1295
3731,3446
3732,3586
3737,1972
3737,3511
3738,431
3739,2647
3740,2248
3741,1577
3744,2472
3745,851
3745,2412
3745,3293
3747,660
3748,1087
3748,1696
3748,2243
3748,4151
3749,4610
3752,1274
3752,4842
3753,3142
3754,3691
3755,130
3756,233
3756,964
3758,1346
3758,3716
3758,4055
3759,2647
3760,2808
3761,262
3761,4618
3762,3213
3765,926
3765,1152
3765,4074
3766,874
3767,1833
3768,779
3768,868
3768,898
3768,994
3768,1088
3768,1090
3768,1946
3768,2581
3768,2897
3768,3674
3768,4712
3771,363
3772,3167
3772,4475
3773,495
3773,1317
3774,2964
3779,1370
3779,1792
3779,3372
3780,1833
3781,3319
3782,101
3782,455
3782,4092
3783,3328
3784,1076
3784,3787
3786,391
3786,4331
3786,4512
3786,4635
3787,395
3787,4692
3788,363
3789,288
3789,1853
3791,1646
3792,3167
3793,1846
3796,1539
3797,1249
3797,3313
3797,4151
3799,1652
3803,3277
3804,148
3806,497
3807,3696
3808,499
3809,56
3809,269
3809,1472
3809,2163
3809,2474
3811,214
3811,233
3811,269
3811,637
3811,921
3811,1057
3811,1215
3811,1660
3811,2128
3811,4125
3811,4180
3811,4341
3811,4510
3812,377
3814,2880
3815,64
3815,499
3815,2131
3817,83
3817,302
3817,717
3817,769
3817,1652
3817,1813
3817,2069
3817,2108
3817,2479
3817,2808
3817,3254
3817,3832
3817,4597
3818,9
3819,280
3820,2813
3820,2958
3820,3368
3820,4207
3820,4885
3820,4893
3821,194
3821,224
3821,482
3821,487
3821,497
3821,777
3821,1426
3821,1579
3821,2176
3821,2306
3821,2324
3821,2416
3821,2492
3821,3042
3821,3760
3821,3773
3821,3817
3821,3872
3821,4200
3821,4521
3821,4978
3822,313
3824,1091
3825,109
3826,3130
3828,1250
3830,2740
3833,898
3833,2634
3835,416
3836,2314
3839,616
3842,1039
3842,1200
3842,3748
3844,3652
3846,1081
3846,2428
3846,3168
3846,3557
3846,3971
3848,1648
3848,4502
3851,391
3851,3816
3852,913
3852,2176
3852,3297
3852,3342
3853,3564
3855,3027
3856,1718
3857,2036
3858,59
3858,745
3858,986
3858,1710
3858,4033
3858,4488
3859,2146
3860,61
3860,199
3860,258
3860,269
3860,623
3860,962
3860,1082
3860,1336
3860,1643
3860,1843
3860,2080
3860,2680
3860,3313
3860,3492
3860,3921
3862,1241
3862,2306
3864,1057
3866,1966
3866,2701
3870,45
3870,2182
3870,2434
3870,2858
3870,2980
3870,3695
3872,142
3874,524
3875,882
3877,3664
3878,25
3878,164
3878,333
3878,389
3878,398
3878,762
3878,1025
3878,1082
3878,1924
3878,2963
3881,854
3882,628
3883,3006
3884,3925
3887,662
3887,2900
3888,277
3888,4913
3892,2243
3892,4198
3894,3183
3896,2825
3898,733
3899,2026
3902,418
3902,579
3902,856
3902,1969
3902,2101
3902,2225
3902,3376
3903,970
3904,64
3904,121
3904,341
3904,409
3904,447
3904,465
3904,743
3904,1865
3904,2225
3904,2231
3904,2552
3904,2866
3904,2963
3904,3307
3904,3435
3904,3708
3905,3625
3905,4126
3907,3534
3908,96
3909,638
3911,3006
3912,271
3912,1727
3912,3703
3914,638
3914,1458
3914,1610
3914,2459
3914,4151
3916,36
3918,788
3919,1948
3920,261
3920,3623
3922,194
3923,4159
3923,4545
3925,2365
3927,1648
3927,2150
3927,2209
3927,2378
3927,2819
3928,1839
3929,583
3929,806
3929,879
3929,1476
3929,1965
3929,2087
3929,2605
3929,3241
3929,3521
3929,3703
3930,743
3930,2543
3930,2848
3930,3167
3930,3749
3930,3794
3930,4377
3931,767
3934,4633
3934,4710
3935,164
3936,144
3936,587
3936,784
3936,809
3936,1822
3936,3328
3936,3567
3936,4255
3936,4521
3936,4976
3937,594
3937,2192
3939,3167
3940,871
3940,1062
3940,1746
3940,1991
3940,4127
3941,3006
3943,521
3943,2948
3943,3335
3944,2069
3945,4329
3949,3720
3950,1643
3952,3168
3953,1718
3954,3674
3955,56
3955,591
3958,1476
3959,353
3959,2790
3961,1815
3962,94
3963,2990
3963,3674
3965,137
3970,2176
3970,4958
3975,690
3978,2808
3979,2121
3981,1428
3983,2314
3985,346
3987,49
3987,176
3987,355
3987,380
3987,706
3987,1036
3987,1226
3987,1673
3987,2805
3987,2902
3987,4063
3990,985
3992,854
3993,1032
3993,1502
3993,4169
3995,423
3995,1076
3995,2466
3995,3043
3995,4034
3995,4530
3996,1718
3997,258
3998,436
3998,2211
3998,2306
3998,3925
3998,4545
4000,148
4001,145
4001,341
4002,4545
4004,3935
4005,57
4005,728
4006,1256
4007,3167
4008,1091
4008,1772
4008,2607
4008,2850
4009,1978
4012,255
4012,913
4012,3052
4013,168
4014,59
4014,4307
4015,524
4015,695
4015,787
4015,983
4015,1456
4015,1701
4015,1967
4015,2855
4016,56
4016,371
4016,762
4019,2307
4021,502
4022,39
4024,462
4026,148
4026,401
4026,874
4026,4136
4027,110
4027,1870
4031,4270
4031,4320
4032,2104
4033,1682
4033,2113
4033,3690
4033,4180
4034,1192
4034,1240
4035,1876
4036,281
4036,325
4036,623
4036,1302
4036,2518
4037,3040
4039,1652
4040,138
4042,180
4042,2205
4042,2980
4042,3112
4042,3833
4042,3932
4044,1330
4044,2805
4044,3962
4045,366
4050,3716
4051,46
4051,1002
4051,1072
4051,1081
4051,1302
4051,1738
4051,4273
4052,2464
4055,194
4055,1019
4058,730
4058,1881
4059,379
4060,301
4062,1232
4064,4180
4065,4186
4070,1640
4074,524
4075,2714
4078,1021
4079,4217
4081,1718
4082,3022
4083,730
4084,2484
4085,540
4088,4474
4089,1060
4091,1747
4094,109
4097,743
4098,171
4098,376
4098,418
4098,502
4098,555
4098,715
4098,788
4098,1240
4098,1766
4098,2239
4098,2451
4098,3167
4098,3585
4098,3621
4098,4213
4098,4450
4098,4613
4100,2195
4102,252
4104,1082
4106,1260
4108,2848
4110,4433
4111,4099
4112,408
4113,363
4113,4144
4115,25
4115,60
4115,528
4115,788
4115,843
4115,1027
4115,1156
4115,1540
4115,2158
4115,2353
4115,3778
4116,3139
4118,205
4118,547
4118,2314
4118,2786
4120,4459
4122,227
4122,1990
4122,2244
4127,20
4127,44
4127,104
4127,176
4127,313
4127,493
4127,1076
4127,1757
4127,3179
4127,3540
4127,3604
4127,3608
4127,4118
4131,1232
4133,1796
4133,4024
4134,483
4134,4666
4136,612
4136,1461
4137,3252
4138,43
4139,3937
4141,2980
4142,879
4142,4893
4145,133
4146,4820
4147,2870
4148,4015
4150,4564
4152,1200
4154,3352
4157,781
4157,3843
4158,3870
4159,308
4160,326
4161,54
4161,74
4161,101
4161,130
4161,205
4161,495
4161,668
4161,690
4161,743
4161,957
4161,2097
4161,3096
4161,3374
4161,3568
4161,4283
4161,4506
4162,2427
4165,1241
4165,2147
4165,3817
4166,1062
4166,4591
4167,2058
4168,3193
4173,132
4173,342
4173,944
4173,1607
4173,1748
4173,4729
4174,9
4174,55
4174,121
4174,830
4174,1028
4174,1748
4174,1944
4174,2848
4174,2960
4174,3043
4174,3328
4174,4256
4175,92
4175,246
4175,318
4175,486
4175,514
4175,591
4175,614
4175,1396
4175,1400
4175,1669
4175,2231
4175,2963
4175,3033
4175,4165
4176,3820
4179,1316
4181,958
4182,596
4183,1230
4183,2675
4183,3101
4186,555
4187,555
4188,2518
4189,1029
4190,2450
4196,4317
4197,837
4197,4260
4201,2028
4202,2848
4204,701
4204,1663
4205,225
4205,652
4205,1275
4205,1402
4205,1769
4205,2789
4205,3695
4205,4002
4206,924
4206,2888
4207,2629
4208,46
4208,3537
4209,3328
4211,587
4212,2314
4216,4011
4218,3101
4219,4439
4220,94
4220,121
4220,193
4220,344
4220,682
4220,1082
4220,1718
4220,2336
4220,2897
4220,3157
4220,3328
4220,3498
4220,3638
4221,194
4223,279
4224,38
4224,379
4224,401
4224,1416
4225,3420
4227,330
4227,1245
4228,1018
4229,683
4229,2628
4229,3328
4229,4342
4230,826
4231,4179
4232,744
4233,310
4233,1072
4233,1876
4233,3937
4234,347
4240,1980
4240,3097
4241,3091
4242,3175
4243,4710
4244,2880
4245,3521
4247,2189
4247,2892
4247,3143
4248,874
4249,514
4249,601
4249,633
4251,3734
4252,837
4253,132
4258,1835
4259,706
4263,2287
4263,3695
4264,570
4264,1080
4265,9
4267,3167
4268,3015
4270,3064
4271,1673
4271,2130
4271,2430
4271,2956
4271,3023
4271,3181
4271,4207
4272,1238
4274,3167
4274,4694
4276,299
4281,24
4282,3467
4283,977
4285,3097
4288,36
4288,222
4288,341
4288,3801
4290,36
4291,3695
4293,4692
4295,879
4296,1816
4297,173
4297,936
4297,4875
4299,831
4300,1050
4303,1259
4304,3297
4307,3057
4307,4821
4308,1274
4310,56
4310,110
4310,145
4310,167
4310,1260
4310,1670
4310,1734
4310,1765
4310,1884
4310,2147
4310,2165
4310,3063
4310,3464
4310,4051
4310,4312
4310,4787
4310,4842
4311,4930
4313,106
4315,49
4315,3023
4316,1542
4318,261
4319,3607
4322,544
4322,879
4322,3652
4324,3120
4326,3290
4327,434
4328,3097
4331,9
4331,158
4331,3865
4332,400
4332,1050
4335,660
4335,1508
4335,2410
4336,2121
4337,94
4338,4330
4339,325
4339,968
4339,1537
4339,3498
4339,4424
4340,790
4340,2219
4340,2457
4340,3187
4340,3534
4340,3607
4341,932
4341,3837
4341,4068
4342,1076
4342,4184
4343,4323
4344,1574
4347,1058
4349,3306
4350,361
4351,1833
4352,1508
4352,4411
4354,2163
4356,3695
4356,4607
4358,2740
4359,944
4359,4780
4361,483
4362,1158
4363,377
4364,2457
4365,1867
4366,841
4366,3105
4368,4564
4369,193
4373,2195
4375,1459
4376,2101
4378,100
4379,2647
4379,4833
4383,2889
4384,310
4386,2650
4387,865
4388,1709
4394,2276
4395,2470
4399,455
4399,2979
4399,3445
4400,9
4400,94
4400,824
4400,1755
4400,4449
4401,555
4401,1556
4404,3030
4407,3628
4410,254
4412,298
4415,2804
4417,3742
4418,321
4419,879
4420,1105
4422,2368
4425,645
4425,1084
4425,1099
4425,1978
4425,2630
4426,133
4426,1316
4426,1637
4427,2475
4427,4625
4428,260
4428,701
4428,1386
4428,1879
4428,2243
4428,3279
4428,4880
4429,983
4434,4274
4435,1825
4435,3420
4436,401
4438,1813
4439,55
4439,205
4439,224
4439,710
4439,1659
4439,1960
4439,2205
4439,2580
4439,3397
4439,4028
4439,4514
4442,583
4442,1487
4443,4109
4444,2866
4445,1989
4447,3104
4448,2980
4449,1529
4449,1603
4449,3604
4451,16
4451,244
4451,396
4451,1492
4451,2230
4451,2484
4451,2688
4451,2907
4451,3678
4451,4439
4451,4477
4451,4613
4452,763
4453,222
4454,4180
4455,956
4457,2855
4458,518
4458,2790
4459,2432
4460,3105
4461,3879
4462,3475
4462,3485
4463,4329
4464,582
4467,3758
4468,244
4468,287
4469,367
4470,788
4470,4531
4471,514
4472,46
4473,10
4473,483
4479,1060
4480,3033
4482,1239
4482,4243
4484,1082
4485,2965
4486,109
4487,1044
4490,2796
4491,266
4491,4163
4492,36
4493,1652
4494,4956
4495,610
4497,121
4498,1076
4499,314
4501,121
4502,743
4502,2306
4503,255
4503,623
4503,2640
4503,3311
4503,3338
4503,3342
4504,882
4504,3266
4504,3930
4504,4151
4504,4318
4506,3328
4507,2748
4508,4670
4509,592
4509,3112
4510,134
4510,205
4510,310
4510,535
4510,1080
4510,1145
4510,1266
4510,1519
4510,2036
4510,2381
4510,2754
4510,2941
4510,3193
4510,3328
4510,3420
4510,3670
4510,3837
4510,4165
4510,4690
4510,4692
4515,1058
4518,3860
4520,3190
4521,1275
4522,120
4522,4376
4524,4350
4525,434
4527,739
4528,4041
4529,2848
4531,1669
4532,124
4533,2529
4537,867
4537,2176
4540,524
4540,1481
4540,1761
4540,1820
4540,1890
4540,1919
4540,1926
4546,3087
4547,3146
4549,3600
4552,4502
4553,3167
4554,1996
4554,3421
4554,3607
4554,4835
4557,2990
4560,2926
4561,2889
4563,1072
4563,4500
4566,9
4567,96
4567,758
4567,3338
4567,3586
4568,224
4568,738
4568,898
4571,1602
4572,2604
4573,161
4573,310
4573,1835
4573,2068
4573,3600
4574,1539
4575,701
4577,434
4577,734
4577,994
4577,1370
4577,1674
4577,2142
4577,2397
4577,3337
4580,2837
4581,2103
4582,634
4584,3006
4585,1302
4587,1249
4588,1566
4588,4094
4592,2347
4593,87
4594,3810
4594,4650
4595,2848
4596,174
4597,4180
4597,4508
4599,3287
4600,1602
4600,3105
4600,4876
4604,550
4606,1331
4606,1661
4607,2231
4611,3779
4612,2527
4615,2037
4616,34
4616,743
4616,2287
4616,4173
4617,135
4619,4564
4620,253
4620,537
4620,720
4620,1370
4620,1482
4620,2506
4620,3006
4623,706
4623,4706
4624,185
4624,645
4627,735
4627,3847
4630,151
4630,288
4630,584
4630,743
4630,778
4630,1015
4630,1640
4630,1650
4630,1718
4630,1757
4630,2990
4630,3695
4630,4603
4630,4650
4636,898
4637,60
4637,1382
4640,3768
4640,4699
4642,144
4642,347
4642,524
4642,622
4642,633
4642,757
4642,897
4642,942
4642,1259
4642,1373
4642,1752
4642,1908
4642,2001
4642,2248
4642,2287
4642,2368
4642,2436
4642,2563
4642,2953
4642,2969
4642,3369
4642,3418
4642,4077
4642,4565
4642,4568
4642,4746
4643,4333
4644,1053
4646,2036
4647,2855
4652,157
4652,743
4652,986
4652,2403
4652,3083
4652,4731
4654,2353
4655,1748
4656,3524
4660,3915
4661,2455
4663,74
4665,706
4666,145
4666,181
4666,1241
4666,2980
4667,926
4667,1050
4667,1631
4668,45
4669,1391
4670,3038
4671,4930
4672,4001
4673,1053
4674,10
4677,1563
4678,2360
4679,56
4680,423
4682,2094
4683,347
4683,793
4683,1032
4684,3449
4685,1682
4686,4272
4687,205
4688,1076
4692,325
4692,1574
4692,1650
4692,2172
4692,2498
4692,3743
4693,363
4695,700
4695,904
4697,688
4697,836
4697,896
4697,956
4697,1074
4697,1638
4697,1978
4697,2655
4697,3221
4697,3401
4698,43
4698,229
4698,280
4698,341
4698,537
4698,949
4698,1617
4698,1992
4698,2099
4698,2176
4698,2635
4698,2738
4698,3106
4698,3994
4698,4423
4698,4523
4698,4738
4700,1602
4701,2178
4702,2209
4703,1428
4707,3586
4708,184
4708,502
4708,652
4708,692
4708,1540
4708,1593
4708,2205
4708,2634
4708,2927
4708,3276
4708,4579
4708,4692
4708,4967
4711,806
4712,1318
4714,2189
4715,73
4715,1874
4717,4924
4720,738
4721,1241
4722,944
4723,483
4724,843
4725,25
4725,499
4725,720
4725,2421
4725,3485
4725,3688
4725,4009
4726,816
4726,818
4726,852
4726,1421
4726,1479
4726,1718
4726,2078
4726,2630
4726,2851
4726,3645
4726,4502
4727,2129
4732,100
4732,904
4732,1455
4732,1612
4732,2808
4732,3266
4734,1241
4735,4180
4736,4940
4738,2813
4740,2433
4741,3660
4742,229
4742,326
4742,1360
4742,2103
4742,3925
4742,4580
4743,3759
4747,847
4748,1566
4749,377
4750,1839
4752,1687
4754,2638
4755,1121
4756,2211
4759,219
4759,929
4759,1076
4759,1748
4760,333
4761,1
4761,111
4761,186
4761,193
4761,1356
4761,1456
4761,1670
4761,1682
4761,2601
4761,2911
4761,3327
4761,3534
4761,4043
4761,4236
4761,4411
4762,2061
4764,387
4765,132
4765,4784
4766,93
4767,130
4768,4380
4769,1080
4770,279
4771,1030
4772,2231
4776,1779
4778,33
4778,36
4778,234
4778,491
4778,583
4778,1232
4778,1332
4778,1571
4778,1756
4778,1966
4778,2233
4778,3073
4778,3119
4778,3184
4778,3932
4778,3962
4778,4670
4779,4971
4781,1703
4782,704
4783,274
4785,767
4789,243
4791,96
4791,222
4791,280
4791,281
4791,338
4791,1498
4791,2095
4791,3526
4791,4959
4792,2589
4794,3810
4795,2271
4797,769
4797,4981
4798,843
4800,3739
4802,400
4802,2897
4804,94
4806,3129
4807,60
4807,1746
4809,260
4811,2758
4814,63
4814,2990
4815,3399
4818,575
4819,560
4819,843
4819,898
4819,2447
4819,2650
4820,1556
4821,1543
4822,462
4824,2293
4827,1978
4831,1659
4834,235
4837,1852
4839,2005
4840,3567
4840,3621
4841,2759
4842,555
4842,678
4842,2026
4842,2427
4843,682
4844,36
4846,867
4846,1449
4847,173
4848,26
4848,93
4848,512
4848,879
4848,929
4848,1076
4848,2513
4848,3234
4848,3932
4848,4443
4848,4835
4851,683
4852,767
4854,7
4855,929
4856,1412
4858,54
4858,299
4858,436
4858,535
4858,1239
4858,1461
4861,3414
4863,56
4863,59
4863,130
4863,745
4863,754
4863,2243
4863,2908
4863,4318
4863,4449
4864,722
4867,1258
4869,4169
4870,2048
4871,4126
4872,412
4873,3023
4876,3810
4877,93
4878,845
4879,409
4881,3423
4883,3335
4886,2312
4888,1741
4889,119
4892,3167
4893,1825
4895,2806
4897,1972
4898,616
4901,384
4903,123
4905,728
4905,1277
4905,3315
4906,744
4908,4329
4909,743
4911,4400
4912,614
4914,4030
4917,3832
4918,4563
4922,36
4922,405
4922,628
4922,898
4922,2110
4922,2167
4922,3910
4922,4602
4924,581
4924,4526
4926,1025
4927,3186
4928,2306
4929,192
4929,500
4929,1461
4929,1475
4929,1923
4930,299
4930,757
4931,4002
4933,1571
4933,2176
4933,3244
4934,958
4935,1057
4935,1795
4935,2474
4936,129
4936,546
4936,861
4937,4264
4938,1429
4939,199
4939,2155
4941,2052
4943,591
4943,1227
4943,1602
4943,2980
4944,224
4946,525
4947,3446
4948,3420
4950,243
4952,3600
4954,1682
4955,9
4955,96
4955,222
4955,457
4955,543
4955,1479
4955,3736
4955,3924
4955,4184
4955,4753
4957,1761
4960,75
4961,4193
4962,3036
4963,207
4965,2153
4967,401
4968,4128
4970,2638
4972,79
4972,167
4972,352
4972,659
4972,822
4972,1080
4972,1286
4972,1703
4972,2306
4972,3600
4972,4726
4974,924
4975,398
4977,4971
4980,4393
4983,2503
4984,4207
4985,1240
4986,1232
4986,1398
4987,2547
4988,4484
4989,3932
4990,4198
4991,94
4991,233
4991,623
4991,3897
4991,4967
4992,3244
4994,3450
