src,dst
0,1
0,990
3,21
3,2522
7,1205
7,1987
7,2099
7,4651
10,4063
13,3875
13,3881
14,80
14,83
14,2957
18,113
18,746
18,1217
18,1679
18,1911
18,2206
18,2335
18,3230
18,3518
18,3871
21,4065
22,42
22,375
22,462
22,1822
22,3840
22,4485
27,2053
27,3613
28,268
28,372
28,420
28,964
28,1420
28,2743
28,3561
28,4084
30,640
30,4239
31,121
32,3013
32,3891
33,414
33,1560
33,2687
33,4921
36,1472
36,2751
36,3143
36,3307
36,3570
36,3612
36,4239
37,436
37,3515
38,585
38,1157
38,3329
42,1269
42,2493
42,2678
43,4788
44,1797
45,3840
46,536
46,727
46,1050
46,1824
46,2045
46,3469
46,3710
48,743
48,1072
48,2883
48,4029
49,1472
51,15
51,274
51,480
51,732
51,869
51,1389
51,2574
51,2773
51,4530
52,470
54,828
54,914
54,4417
55,742
55,4863
56,3604
58,1481
58,1483
58,2381
60,15
62,50
62,784
62,3956
62,4455
64,136
64,2363
65,1274
66,3421
66,3840
69,239
69,369
69,571
69,1810
69,2096
69,2804
69,4808
70,167
70,1076
70,1981
70,4875
72,850
72,2178
73,899
74,1237
77,4319
78,571
79,316
79,334
81,172
81,1005
81,3423
82,269
82,552
82,916
82,947
82,959
82,2028
83,1948
84,742
84,3439
86,358
86,2041
86,4153
86,4301
87,953
88,1999
88,3093
89,363
89,652
89,1910
90,986
92,151
92,3145
93,1981
94,130
94,162
94,196
94,551
94,1883
94,1891
94,1976
94,2021
94,3239
95,387
95,1632
95,2873
95,4826
97,343
97,447
97,575
97,648
97,678
97,972
97,1133
97,1134
97,1228
97,1245
97,1703
97,1863
97,1928
97,1953
97,2000
97,2256
97,2826
97,3311
97,3335
97,3573
97,3604
97,4399
97,4840
100,3027
101,1698
101,2159
101,2574
101,3537
102,1297
105,2132
105,3828
105,3879
105,3991
105,4239
110,130
110,137
110,238
110,542
110,562
110,628
110,1055
110,1087
111,3204
111,3927
115,1589
115,3213
115,3478
115,4035
116,342
116,394
116,548
116,698
116,993
116,1724
116,1787
116,2213
116,2274
116,2394
116,2509
116,2850
116,2972
116,3096
116,3117
116,3234
116,3531
116,4033
116,4153
119,4239
122,2081
122,3390
122,4900
123,536
123,790
123,2879
123,2894
124,302
124,311
124,1067
124,2128
124,3116
125,114
125,2655
125,2728
125,4101
126,143
126,1177
127,104
127,649
127,1640
128,1274
128,1868
128,2448
128,4411
131,4921
132,198
132,1274
132,1472
132,1960
134,113
134,176
134,286
134,2207
137,188
137,283
137,881
137,1730
137,2168
137,4905
138,211
138,1243
138,1615
138,1932
138,3804
138,3885
138,4370
139,1320
139,2556
139,3717
139,4087
140,63
140,1457
140,3512
140,4425
142,3652
144,288
144,1080
147,593
147,2129
148,1934
148,1970
148,2934
149,4000
150,40
150,171
150,1303
150,1832
150,2008
150,2405
150,3201
151,740
151,1389
152,1086
152,1103
152,1676
153,225
153,1587
153,1679
153,3750
160,2225
161,2296
164,151
165,2342
166,241
166,365
166,407
166,658
166,3762
166,4226
168,156
168,4466
170,77
170,2605
170,2927
174,98
174,2300
175,2070
175,3970
176,4144
177,834
177,862
177,1405
177,1472
177,1659
177,2913
177,3858
177,4098
177,4931
178,1373
183,1442
185,233
185,4239
185,4819
186,234
186,899
186,3776
186,4004
187,852
188,561
188,1224
188,1911
188,2188
188,2561
191,4887
192,536
192,1583
192,4384
193,211
193,2188
201,336
201,675
201,910
201,963
201,1610
202,5
204,107
205,268
205,1683
205,3144
206,944
207,2172
208,178
208,495
208,3384
209,85
209,494
209,1530
209,2704
209,2736
209,3968
209,4861
210,809
210,1232
210,2265
210,2465
210,3355
210,3544
210,4857
212,1565
213,252
213,618
213,914
213,978
213,1285
213,1501
213,1994
213,2536
213,3228
213,3340
213,4773
214,59
214,2640
215,4855
218,67
218,124
218,2428
219,1472
219,2344
219,2997
219,3066
219,3217
219,3988
221,419
221,647
221,1198
221,1338
221,3476
222,4599
224,522
224,1801
224,2527
224,2591
226,107
226,3237
227,469
232,3294
236,1155
236,1274
236,2421
236,3819
236,4342
241,329
241,1241
241,1281
241,3665
241,3709
242,2074
242,3847
243,4523
248,482
248,1315
248,3812
248,4862
249,15
249,4633
251,1472
253,17
253,577
253,986
253,1078
253,2112
253,2297
253,2426
253,3100
253,3758
253,4387
254,234
254,4357
255,960
256,1189
256,1477
256,4758
257,122
257,660
257,1236
257,1675
257,3061
257,3169
257,4394
259,173
262,491
262,804
262,1030
263,1178
263,1796
264,2307
265,235
265,690
265,751
265,1973
265,4645
267,2876
267,3251
267,3974
269,899
269,1217
269,3634
269,4195
271,2912
271,3598
271,3646
271,3826
272,1181
272,1577
273,114
273,1097
273,2990
276,855
276,1137
276,1536
276,1773
276,2255
276,3194
276,4413
277,2528
278,424
278,1319
278,3093
281,3988
282,1078
282,1472
282,3306
282,4439
283,909
283,1531
284,133
284,4747
284,4865
287,68
287,113
287,313
287,381
287,445
287,1546
287,2330
287,2381
287,3121
287,3391
287,3834
288,3049
288,3182
288,3456
288,3571
289,2441
290,448
290,644
290,821
290,964
290,1245
290,2224
290,2874
290,3210
290,3985
290,3990
290,4579
291,1912
291,3043
291,3228
292,67
292,3357
293,816
293,3392
294,339
294,4581
298,1055
300,899
300,2404
301,1578
303,1070
303,1981
304,2125
304,2331
304,2981
304,3247
304,3501
305,2491
305,3482
305,3742
308,427
308,3228
308,3345
310,453
310,1030
310,1373
310,4853
312,1679
314,645
314,774
314,1052
314,3100
314,4909
315,3378
317,715
317,1346
318,3840
318,4492
319,229
319,401
319,913
319,1434
319,1473
319,1942
319,2308
319,2342
319,2699
319,4188
320,808
320,1546
320,2697
320,3582
320,4538
320,4958
322,1884
322,4106
322,4379
323,2511
324,46
324,330
324,482
324,781
324,822
324,1167
324,3312
324,3942
324,3960
325,388
325,692
325,988
325,1028
325,2016
325,3772
327,648
327,921
327,995
327,1373
327,1669
327,1772
327,1969
327,2286
327,2825
327,3300
327,3873
327,4912
330,414
330,726
330,3268
330,3340
331,120
331,3702
332,1630
332,3911
335,1274
335,3518
338,112
338,602
338,3244
340,401
340,763
340,1982
341,91
341,721
341,1887
341,2882
341,3267
341,3587
341,4770
342,2105
342,2227
342,2588
344,2413
348,2268
348,2496
348,4153
348,4200
349,445
349,1144
349,1555
349,3423
349,3534
349,4901
352,237
352,3951
355,579
355,4679
356,2412
356,2615
356,3163
356,3586
356,4328
357,230
357,1386
357,2760
359,217
359,2098
360,3633
361,943
361,3710
362,2590
362,2703
362,4798
368,976
368,1472
368,3232
369,485
369,629
369,1320
369,1482
369,4440
373,2209
374,234
374,456
374,525
374,1802
374,2054
374,3032
374,3108
374,3507
374,3979
376,563
376,960
376,1175
376,3569
376,3688
376,4723
377,211
377,975
377,1292
377,2816
377,3159
378,442
378,1853
380,694
382,899
385,14
385,4190
389,245
389,504
389,1427
389,1977
389,2285
389,2450
389,2646
389,2906
389,3606
389,4230
390,1704
390,4754
391,245
391,551
391,2293
391,4243
392,386
392,960
392,1193
392,1431
392,1757
392,2307
392,2926
392,2967
392,3065
392,3196
392,3460
392,3465
392,3774
392,4134
393,2333
395,1174
396,6
396,68
396,1086
396,1543
396,2259
396,2349
396,3612
396,3824
396,4515
397,184
397,384
397,1462
397,1839
397,2742
397,3924
397,4432
398,104
399,3606
400,1116
402,25
402,812
402,1881
402,2181
402,2367
402,2479
402,3925
402,4875
404,64
405,1492
408,37
408,350
408,1916
408,4669
410,8
410,19
410,1838
410,2754
410,3535
410,4371
413,1492
413,1643
418,6
418,1265
420,900
420,3326
421,539
421,1587
421,2809
423,997
423,1272
423,1510
423,1515
423,3202
423,4905
425,14
425,747
425,810
428,4447
429,67
429,430
429,1057
429,1114
429,1415
429,1703
430,133
430,2676
432,678
432,1661
432,3784
432,4337
434,3350
435,199
435,275
435,588
435,2495
435,3366
435,3711
435,4034
436,2537
436,3988
437,1853
438,307
439,20
439,57
439,108
439,433
439,1579
439,1698
439,1861
439,2086
439,2225
439,2734
439,2902
439,3266
439,3696
440,4390
441,804
442,2293
442,4013
442,4463
446,1422
446,1867
446,2851
448,1781
448,2557
448,3764
449,297
451,1015
452,61
452,536
452,1369
452,3055
452,3903
452,4316
452,4670
453,1190
453,2333
453,2697
453,4139
453,4973
453,4974
454,1376
455,2851
457,470
457,1373
457,1379
457,1387
458,217
458,3945
459,1701
460,1531
461,270
461,3572
464,40
467,454
467,4188
468,4770
469,336
471,330
471,1090
471,1620
473,14
473,1119
473,2487
473,2574
473,3286
473,3527
473,3784
475,1274
476,1274
476,3676
476,4306
476,4997
477,1631
481,1008
483,41
483,1552
483,3457
484,3391
485,2439
489,1425
489,1502
489,2160
489,3110
489,3346
490,2823
490,4508
492,2037
492,2970
496,3795
500,1472
500,1905
500,3109
502,2444
502,3063
503,1645
503,2402
503,4014
504,868
505,350
505,844
506,151
507,196
507,4260
509,195
509,1410
509,1478
509,1526
509,4547
510,309
510,3134
511,301
511,330
511,1543
511,4616
512,114
514,4815
516,103
516,194
516,296
516,653
516,775
516,806
516,984
516,1112
516,1242
516,1735
516,2805
516,3473
519,144
519,189
519,4290
519,4571
520,261
520,684
520,1295
520,2817
521,788
521,2221
521,2731
521,4240
523,223
523,762
523,4138
523,4643
524,117
525,167
525,547
525,691
525,751
525,1422
525,1918
525,4490
527,218
527,724
527,740
530,136
530,422
530,573
530,2334
531,2823
532,445
532,791
533,4390
533,4470
534,136
534,238
534,744
534,950
534,2140
534,2516
534,4074
534,4391
534,4757
537,811
537,868
537,1101
537,2907
537,3189
538,316
538,2862
538,3046
538,4482
543,1473
543,1549
544,454
544,865
545,61
545,198
545,820
545,3865
546,1939
546,4888
547,799
547,2618
547,2883
549,351
550,12
550,757
550,2446
550,3472
550,4183
554,106
554,1744
554,3430
555,2755
555,4735
557,239
557,3412
559,563
559,830
559,1124
559,1415
559,1839
559,2871
559,2910
559,3244
559,3478
559,3747
561,299
564,218
564,4871
565,316
565,1297
565,2843
566,120
566,1106
566,1171
566,2836
566,3546
566,3697
566,4494
566,4774
567,2172
567,3988
568,3315
569,761
569,4905
570,844
570,899
571,518
573,1479
576,64
576,216
576,2346
576,4713
579,415
582,2404
582,4103
584,531
587,1279
587,1679
590,4421
592,4396
593,194
593,3239
594,910
594,2522
594,2774
594,3288
594,4177
595,313
595,719
595,766
595,832
595,1282
595,2939
595,3092
595,3142
595,3748
596,180
598,411
598,518
599,133
599,463
599,939
603,118
603,229
603,2161
603,3599
603,3601
603,3638
605,526
606,157
606,3897
606,4308
606,4323
608,2941
608,4640
609,1451
609,1738
609,2035
609,3644
610,113
610,454
610,686
610,1026
610,2835
611,1485
611,3425
612,4031
613,472
614,788
614,2500
615,1550
615,2094
615,2423
615,2537
615,3321
615,3657
615,4123
615,4200
615,4972
618,3226
619,4770
620,1730
624,750
624,818
624,1007
624,1674
624,2435
624,3183
624,3315
625,2613
625,3624
625,4253
627,765
627,985
627,1430
627,4916
633,216
634,899
635,1163
635,1262
635,1569
635,1846
635,2211
635,2476
635,2549
635,4153
636,37
636,244
636,802
639,2848
641,642
641,1541
641,4295
642,272
643,1853
650,279
650,3281
650,4216
651,370
651,4503
655,574
656,137
656,180
656,1120
656,4855
657,117
661,122
661,3949
662,217
662,366
662,426
662,899
662,3329
664,474
665,1510
666,4342
670,0
670,587
671,280
671,513
671,692
671,996
671,1211
673,107
673,3301
673,3853
676,67
676,1025
676,1319
677,122
679,1437
679,1753
679,1898
679,2374
679,3483
679,3784
679,4166
681,2219
682,2326
682,3301
683,339
683,3935
685,2397
685,3234
685,4905
686,3664
687,3623
688,493
688,1814
691,1492
693,9
693,371
693,1914
693,2323
693,2668
695,339
697,309
697,772
697,2393
697,2578
697,3231
697,3423
697,4028
697,4482
699,339
699,993
700,431
700,2274
701,426
701,994
701,2193
701,2862
702,1174
702,1757
702,1955
702,2041
703,309
705,1219
705,2172
706,3315
706,3467
707,1100
707,1801
707,4477
711,20
711,61
711,289
711,443
711,616
711,985
711,1116
711,3710
712,771
712,1430
712,1991
712,3670
712,4107
713,1934
713,2604
714,543
717,1757
717,3787
718,23
720,4724
722,346
722,830
722,3728
723,1492
724,50
724,330
724,1255
724,1878
724,3891
725,1765
728,1170
728,3239
729,279
731,77
733,3606
734,3894
735,1201
735,2575
736,2415
736,3231
737,2940
737,3563
737,3575
738,737
738,1180
738,2190
738,3194
739,2049
739,3260
739,3267
739,4488
741,2044
741,2404
741,4286
741,4892
745,1486
745,2307
752,190
753,181
754,239
755,1282
756,1506
756,1709
756,2056
756,4743
756,4953
758,68
758,1322
759,126
759,1947
759,3012
759,3868
760,2645
763,234
763,4145
764,239
768,2685
768,3030
768,3905
770,3089
773,478
776,1107
776,1476
776,2012
776,2688
776,3343
777,14
777,730
777,2986
777,4953
778,1120
778,1182
778,3525
778,4640
779,26
779,2285
779,3901
780,465
781,2917
781,3315
782,501
783,2661
783,3163
785,104
785,4051
786,804
789,2648
791,11
792,347
793,1977
794,2616
795,2381
795,4109
795,4912
796,151
796,433
796,1085
796,1234
796,1707
798,1127
798,2575
798,2956
799,3354
800,2081
800,3439
800,3797
800,3867
801,3894
801,4905
803,85
803,498
803,3176
804,238
804,245
804,336
804,845
804,1846
804,2658
804,2699
804,4990
805,689
805,1220
805,4316
807,1179
807,3986
807,4342
808,339
810,829
810,1048
810,1456
810,1748
810,2180
813,642
813,906
813,1273
813,1396
814,956
814,2353
814,2707
814,3635
815,3478
817,1735
817,2573
819,167
823,788
823,1273
823,4110
824,3343
825,1587
825,3378
826,513
826,1528
827,40
827,1348
827,2476
827,3666
827,3730
828,2700
831,1589
831,2053
831,2119
831,3239
838,194
838,589
839,107
839,1679
840,1984
841,1563
842,1293
842,1509
842,3373
842,4496
842,4637
843,696
843,4316
846,1679
847,5
847,1168
847,1693
848,858
848,2206
848,3669
853,386
853,1086
853,1098
853,2593
854,1356
854,1782
854,3063
857,4838
859,223
859,1266
859,1856
859,2808
859,2850
859,4391
860,140
861,421
863,67
864,2992
866,473
867,2272
867,4463
868,4149
868,4283
870,250
870,3652
871,927
871,2585
873,4771
873,4867
873,4905
874,117
874,171
874,1010
874,1030
874,1321
874,1824
874,3050
874,3353
874,4009
875,581
875,3025
875,4153
876,2763
876,4533
877,302
877,513
877,3613
878,1461
878,2111
878,4105
879,4338
880,602
880,1784
882,247
883,179
883,3385
884,5
884,1274
885,306
885,3131
886,29
886,1246
886,1735
886,2846
886,3941
887,112
887,1314
888,3103
890,908
890,2053
890,2590
890,3063
890,3225
891,865
891,1616
891,1649
891,1735
891,2135
891,2458
891,2844
891,2982
891,3161
891,3199
891,4565
892,411
893,3020
896,245
896,270
896,339
896,351
896,1384
896,3188
896,4146
896,4392
896,4571
899,275
899,336
901,3231
902,680
902,1064
902,1470
902,2076
902,2093
902,2689
902,3069
902,3249
902,3851
902,4504
902,4725
903,313
903,3905
905,522
905,1398
905,2589
905,4175
907,1563
907,2107
908,43
908,2981
911,3346
911,4396
912,2970
913,799
915,4469
917,346
917,1886
922,59
922,899
922,1348
922,2015
922,2743
922,2903
922,3971
922,4316
923,204
923,1101
923,4187
924,2521
925,1531
925,2883
928,1828
928,4841
929,159
929,563
929,1860
929,2487
930,848
931,3459
932,19
932,1165
932,2319
932,2372
932,4153
932,4309
932,4724
933,64
933,1595
935,669
935,1299
935,3064
935,4131
937,126
937,3707
937,4864
938,571
940,339
941,4305
942,157
942,200
942,932
942,1237
942,3396
942,3870
942,4694
944,419
944,547
944,1288
944,1306
944,1369
944,2263
944,2401
944,2758
944,3948
944,4874
945,23
948,2796
948,4515
948,4568
951,42
953,1194
953,1587
953,2738
953,4493
954,15
954,1039
954,3308
955,702
955,2227
955,2296
955,3158
955,4499
955,4912
957,173
957,1533
958,137
962,1826
962,2270
962,3104
966,747
968,456
968,3448
969,351
969,655
969,2577
969,4347
970,17
971,501
971,1334
971,3073
971,3304
971,3466
972,2730
973,333
974,1218
974,1915
974,2844
977,444
977,2135
978,53
981,960
983,1981
983,2301
983,3501
988,130
988,178
988,296
988,1344
988,4668
989,424
991,187
991,1200
992,370
993,747
993,1757
993,3617
993,3679
993,3831
993,4209
997,2
997,412
997,1497
997,1520
997,3024
997,3119
997,3239
997,3748
997,3959
997,4477
997,4563
998,180
998,200
998,1762
998,1953
998,3370
998,3371
1000,1406
1000,4181
1001,199
1003,40
1004,727
1006,1981
1008,1494
1008,2307
1008,3120
1008,4698
1009,162
1009,1472
1009,1733
1009,1938
1011,3195
1012,473
1013,1394
1013,1902
1013,2106
1013,2426
1013,2718
1013,4059
1013,4643
1013,4873
1014,1560
1014,2276
1014,2789
1014,3340
1014,3681
1016,43
1017,17
1017,190
1018,1871
1018,2142
1018,2911
1018,4555
1019,1244
1019,2067
1020,631
1021,640
1022,1201
1022,1492
1023,618
1026,689
1026,943
1026,1574
1026,3414
1026,4606
1027,435
1030,238
1030,1149
1030,1942
1030,2009
1030,2382
1030,4943
1031,473
1032,678
1032,3137
1033,518
1033,980
1033,2104
1033,2185
1033,4599
1033,4643
1034,53
1034,2985
1035,3600
1035,4295
1035,4346
1035,4834
1036,4925
1038,3455
1040,85
1040,1233
1041,426
1042,230
1043,477
1043,513
1043,704
1043,822
1043,869
1043,1024
1043,1174
1043,1327
1043,1684
1043,1733
1043,2507
1043,3118
1043,3507
1043,3818
1043,4202
1044,121
1046,905
1049,230
1051,420
1051,1977
1053,339
1054,167
1054,332
1054,424
1054,4760
1055,1151
1055,1181
1055,2237
1055,2539
1055,3287
1056,11
1058,869
1058,1543
1059,192
1059,501
1061,3478
1062,420
1062,710
1062,769
1062,1085
1062,1161
1062,2602
1062,2641
1062,2960
1062,3151
1062,3191
1062,4338
1063,280
1063,1274
1063,2906
1063,3402
1065,732
1065,3955
1066,200
1068,1732
1068,2958
1071,2809
1072,2347
1072,4236
1073,15
1073,57
1073,1181
1073,1510
1073,1836
1073,4755
1074,247
1074,1373
1074,2545
1074,4350
1075,448
1075,1270
1075,4104
1077,94
1079,8
1080,3457
1083,2244
1083,2355
1085,173
1085,4938
1088,3478
1088,4549
1091,229
1092,563
1092,3145
1093,2441
1099,2067
1102,1192
1102,2139
1104,40
1104,3761
1104,4005
1105,2081
1105,2811
1105,4115
1111,855
1113,34
1115,4746
1117,143
1117,2429
1117,2675
1121,4316
1122,336
1122,542
1123,434
1123,3181
1123,4759
1125,899
1125,2391
1126,747
1129,1136
1130,57
1131,655
1132,482
1133,250
1133,1491
1133,3756
1133,4664
1135,956
1135,4513
1136,4934
1138,874
1138,1668
1138,4473
1139,865
1139,2086
1139,3239
1140,3168
1141,585
1143,167
1143,613
1143,848
1143,883
1143,977
1143,1425
1143,1756
1143,2657
1143,2824
1143,2887
1143,4558
1143,4952
1144,1617
1144,1632
1144,2490
1145,563
1145,1713
1145,3023
1145,3642
1150,1198
1153,3484
1154,463
1154,1961
1158,2191
1158,4551
1159,75
1159,1367
1159,2574
1159,4125
1159,4524
1160,938
1160,1771
1160,4048
1164,112
1164,3290
1165,4342
1166,4873
1174,1940
1174,3289
1176,1716
1176,4396
1178,934
1178,2038
1178,2057
1178,2396
1178,3565
1178,4458
1180,3261
1183,3239
1184,106
1185,850
1188,247
1192,558
1192,1652
1192,1828
1192,3649
1192,3767
1193,184
1193,618
1193,1309
1196,167
1196,1203
1196,2318
1197,198
1197,379
1198,469
1199,965
1204,850
1204,3340
1205,630
1205,2424
1206,563
1208,1813
1208,2600
1208,2657
1208,3137
1209,184
1209,2956
1212,237
1212,2612
1212,2654
1212,3583
1212,3625
1213,3541
1214,1274
1214,4237
1215,188
1216,583
1216,1162
1216,1641
1216,3079
1216,3283
1216,4465
1221,622
1223,788
1223,802
1225,858
1226,3340
1227,2012
1229,3240
1231,69
1232,1779
1232,2014
1235,2066
1238,3259
1238,4838
1239,4838
1240,943
1240,1679
1240,3489
1240,3701
1247,196
1247,574
1247,3486
1248,1052
1248,1393
1248,2980
1248,3407
1250,333
1250,1556
1250,1944
1250,2628
1250,3180
1250,3752
1250,3899
1250,4825
1251,943
1251,1274
1251,1606
1252,203
1252,2343
1252,4221
1252,4659
1256,602
1257,1679
1257,1869
1257,4095
1258,2640
1261,43
1263,231
1264,2975
1267,3748
1268,1981
1268,3472
1277,439
1280,927
1281,621
1283,3309
1283,3329
1283,4587
1284,1414
1284,2266
1286,261
1286,1679
1286,2027
1286,2032
1286,3478
1287,1782
1287,2393
1289,344
1289,3236
1289,3381
1289,4153
1290,680
1290,1888
1290,2721
1293,738
1293,4721
1294,133
1296,1474
1297,1084
1297,1095
1297,1654
1298,825
1298,1083
1298,1378
1298,2205
1298,3292
1298,3423
1298,3643
1300,93
1300,588
1300,822
1301,1913
1302,42
1302,321
1302,1198
1304,339
1304,1500
1304,1592
1305,234
1307,702
1307,960
1307,1390
1307,1941
1307,1972
1308,585
1308,3223
1310,4931
1311,689
1311,1352
1312,648
1312,1734
1312,4342
1315,513
1316,1809
1316,3239
1317,4028
1320,196
1328,816
1328,3329
1329,1673
1329,2529
1329,2734
1329,3093
1329,3322
1329,3437
1330,295
1331,245
1331,294
1331,2586
1332,1070
1332,1866
1332,4806
1333,709
1333,1492
1333,1875
1333,2710
1333,2766
1334,2209
1335,5
1335,965
1335,1890
1336,133
1339,124
1339,448
1339,2582
1340,999
1341,3967
1341,4632
1342,1461
1342,2465
1342,4636
1343,552
1345,469
1347,182
1349,1542
1349,1589
1349,2342
1349,3594
1350,8
1350,915
1350,982
1351,1999
1353,133
1353,272
1353,4818
1354,4900
1355,332
1355,465
1355,2512
1355,2553
1355,2822
1357,1007
1357,1677
1357,4405
1359,1761
1359,3803
1359,4049
1360,895
1360,3803
1361,2531
1362,3455
1362,4207
1364,133
1364,2302
1364,2651
1364,4832
1365,473
1366,692
1366,2153
1366,3296
1366,4169
1368,3356
1370,4207
1370,4909
1371,29
1371,1473
1374,950
1375,1529
1377,5
1377,526
1377,1917
1379,1499
1379,1915
1379,3492
1379,4001
1379,4042
1380,261
1382,3356
1383,1165
1388,4614
1390,2502
1395,120
1397,2027
1397,3660
1397,4398
1400,2873
1401,2809
1402,136
1402,2459
1403,245
1403,1809
1406,1249
1406,1563
1406,3737
1406,3898
1407,2937
1411,944
1411,1949
1411,2233
1411,4195
1412,2923
1412,2999
1413,1710
1416,67
1416,2247
1416,3658
1417,2082
1417,3272
1417,3652
1419,230
1419,3645
1419,3886
1419,4465
1420,88
1420,1953
1420,3157
1420,4733
1421,1822
1421,2135
1421,4525
1421,4937
1423,1735
1423,2441
1423,4741
1424,339
1424,3183
1426,1076
1427,4700
1428,14
1429,581
1429,1790
1429,3343
1430,2172
1432,366
1432,2027
1432,4957
1435,224
1435,1466
1436,140
1438,1011
1438,2096
1439,1109
1439,1557
1439,3083
1440,2827
1441,266
1441,2229
1443,525
1443,546
1445,1951
1445,4893
1448,447
1448,4256
1449,4788
1451,1472
1451,2416
1453,1450
1453,1712
1453,4118
1454,491
1454,1862
1455,1274
1459,2823
1460,732
1461,722
1463,944
1463,3341
1463,4650
1463,4809
1463,4812
1464,370
1464,4345
1465,302
1465,3840
1466,904
1466,1611
1466,3521
1467,354
1468,1513
1469,1255
1470,571
1471,1108
1474,1230
1475,738
1475,889
1475,2799
1475,4148
1478,1169
1478,2914
1478,4769
1480,1735
1484,1098
1484,2933
1487,436
1489,29
1489,946
1489,1191
1489,4634
1492,445
1493,2862
1493,4581
1495,1412
1495,4631
1496,4058
1498,689
1499,3242
1499,4700
1504,378
1504,2225
1505,120
1507,114
1507,4419
1508,146
1512,106
1513,268
1513,3700
1514,915
1514,3696
1515,508
1515,1955
1515,4873
1516,37
1516,2552
1516,4124
1517,1217
1517,2333
1517,2422
1521,339
1522,585
1522,1491
1523,4614
1524,383
1525,473
1527,869
1527,2889
1529,3075
1532,53
1532,2186
1534,40
1534,1510
1535,943
1535,1559
1535,4829
1536,234
1539,149
1544,104
1544,195
1544,336
1544,431
1544,932
1544,2304
1544,3068
1544,3343
1544,3780
1544,3789
1544,4375
1544,4746
1545,4969
1546,1431
1546,4878
1548,268
1551,71
1551,295
1551,1762
1551,4534
1552,85
1554,149
1555,1274
1555,1781
1555,2134
1555,3082
1561,3137
1563,1039
1563,3555
1563,3773
1563,3784
1563,4597
1563,4992
1564,1743
1564,3532
1565,336
1568,1479
1570,899
1572,1000
1572,1686
1572,2150
1573,1170
1575,1358
1581,683
1582,1210
1584,2526
1586,364
1586,2252
1586,2823
1586,4681
1588,336
1588,3392
1590,4905
1591,118
1591,235
1591,3071
1592,367
1592,478
1592,1142
1594,3439
1596,847
1596,2013
1597,157
1597,473
1597,1189
1597,1693
1597,3163
1597,3508
1597,4649
1598,1560
1599,4581
1600,1509
1602,454
1602,4653
1603,1910
1604,1589
1605,2388
1605,4875
1606,195
1606,563
1606,1742
1606,1744
1606,2084
1606,2963
1606,4043
1606,4460
1607,727
1609,1596
1612,358
1613,8
1613,3827
1613,4340
1618,508
1619,453
1623,5
1623,802
1623,1373
1624,1549
1625,535
1626,501
1626,3790
1627,808
1627,1883
1627,2182
1628,1151
1632,530
1632,2110
1632,2664
1633,2661
1633,2787
1633,3353
1633,3970
1634,466
1634,513
1634,656
1634,1307
1634,1344
1634,2797
1634,3037
1634,4939
1635,229
1636,2441
1637,4614
1638,85
1638,106
1638,469
1638,1045
1638,3310
1642,104
1642,872
1642,894
1642,1069
1642,3562
1644,1955
1646,1259
1646,3387
1648,1181
1650,154
1651,1237
1651,3510
1652,1848
1653,3492
1653,3827
1656,42
1656,924
1656,1758
1656,1853
1656,2198
1656,3770
1656,4300
1657,244
1662,1478
1662,2451
1662,3685
1663,466
1664,218
1665,4581
1666,244
1666,246
1666,1885
1666,2081
1667,732
1670,470
1670,793
1670,1632
1670,1676
1671,12
1671,2198
1672,1313
1672,1466
1672,4370
1675,2793
1678,740
1680,2073
1681,2381
1684,113
1684,3864
1685,252
1685,2869
1687,18
1687,647
1687,899
1687,1702
1687,2719
1687,2880
1687,4310
1687,4365
1689,3105
1690,1745
1690,3958
1691,2453
1691,3492
1691,4454
1694,67
1695,4770
1697,984
1697,2944
1700,67
1700,740
1700,2673
1701,4905
1703,586
1703,1191
1705,738
1705,3099
1705,3102
1706,617
1706,1529
1706,1957
1706,2274
1706,2572
1706,4551
1706,4687
1706,4749
1708,1578
1714,1385
1714,2111
1714,2576
1717,775
1717,2691
1717,4620
1718,4875
1720,578
1722,1291
1722,2034
1722,4517
1723,2170
1723,3916
1725,3394
1726,4581
1727,61
1727,536
1727,1513
1727,2671
1727,4406
1728,982
1729,3343
1729,3398
1731,437
1731,4393
1732,748
1732,1679
1732,1853
1732,2457
1732,2558
1732,3857
1732,4860
1736,743
1737,551
1737,3653
1738,4376
1740,2986
1740,3014
1741,1472
1741,3930
1746,1961
1746,3507
1749,1276
1751,3625
1752,674
1754,365
1754,2764
1755,2862
1757,1444
1757,3173
1760,1293
1760,2858
1760,3668
1760,4238
1760,4912
1761,1939
1763,1491
1763,4293
1765,1500
1766,463
1766,1747
1766,3019
1767,313
1768,453
1773,4346
1774,2536
1776,2335
1778,394
1780,1011
1780,2833
1782,4447
1783,909
1783,2809
1786,4730
1787,3960
1788,404
1789,3973
1791,309
1791,466
1792,4391
1793,1812
1793,2501
1793,2522
1793,4643
1794,2131
1794,2933
1794,4534
1795,329
1796,387
1796,1348
1797,883
1798,14
1799,24
1799,158
1799,558
1799,581
1799,1017
1799,3264
1799,3343
1799,4153
1799,4624
1800,1846
1800,2714
1803,299
1803,2872
1804,684
1804,1513
1805,4973
1809,477
1809,1230
1811,159
1811,4873
1813,187
1813,646
1813,2146
1813,4791
1815,463
1816,1128
1816,4335
1816,4711
1818,2039
1818,2915
1818,3865
1820,12
1820,122
1820,648
1820,1192
1820,1808
1820,2095
1821,126
1823,218
1823,1712
1823,4066
1825,631
1825,3683
1827,35
1827,239
1827,313
1827,316
1827,560
1827,864
1827,1412
1827,1587
1827,3932
1829,88
1829,458
1829,1029
1829,1926
1829,3252
1830,1119
1830,3951
1831,716
1831,1205
1831,2370
1831,4164
1831,4732
1832,653
1835,1977
1836,337
1836,1690
1836,4148
1836,4701
1837,64
1839,4873
1840,247
1840,849
1840,4117
1841,924
1841,1089
1841,3343
1841,3507
1841,4916
1843,551
1843,2535
1844,4046
1844,4463
1845,244
1845,3995
1846,197
1849,270
1850,14
1850,642
1851,486
1851,4733
1852,217
1852,3135
1853,1521
1853,4262
1853,4652
1853,4854
1854,899
1855,744
1855,1858
1855,2493
1855,4770
1856,556
1856,1055
1856,1660
1856,1777
1856,2162
1856,2215
1856,2961
1856,3567
1856,4541
1857,2066
1861,4507
1864,632
1865,678
1868,149
1868,3351
1870,811
1870,3426
1872,4153
1873,2227
1874,68
1875,1839
1875,2464
1875,2652
1876,1583
1876,2471
1877,691
1879,1173
1879,3957
1880,604
1881,4614
1882,1492
1882,1744
1883,17
1883,106
1883,835
1883,1511
1883,3880
1888,67
1888,231
1888,579
1888,638
1888,680
1888,993
1888,1195
1888,1566
1888,3046
1888,3259
1888,3919
1888,4239
1893,433
1893,2727
1893,3455
1893,3911
1893,4291
1894,358
1897,1809
1897,3336
1899,2135
1899,2419
1900,1826
1904,1529
1904,1958
1906,2160
1908,3507
1908,3732
1908,4389
1909,1977
1909,2098
1909,2543
1910,1647
1910,4623
1912,473
1912,4007
1913,2712
1913,3256
1913,3286
1919,1917
1920,3396
1921,274
1921,4335
1922,1769
1922,3686
1923,1326
1923,1529
1925,339
1925,3517
1927,1546
1927,2497
1927,2995
1927,4247
1927,4509
1929,15
1929,285
1929,2994
1929,3630
1931,572
1933,1069
1934,513
1935,156
1936,1379
1937,1703
1937,2783
1937,2830
1937,4069
1939,621
1943,383
1948,487
1952,1562
1952,1735
1954,16
1955,1621
1956,719
1957,306
1957,889
1957,977
1957,1490
1957,2138
1963,3840
1964,1325
1964,4012
1964,4428
1965,1921
1966,1072
1967,1319
1967,2576
1967,3563
1968,17
1968,245
1968,4797
1975,722
1975,3647
1978,133
1978,3270
1978,3486
1980,456
1980,3480
1983,113
1983,220
1983,579
1983,899
1983,2971
1985,1473
1986,330
1986,358
1986,659
1986,1169
1986,1177
1986,1326
1986,1447
1986,1710
1986,1773
1986,3524
1986,3905
1986,4429
1986,4779
1987,868
1988,2823
1990,235
1992,351
1993,107
1996,692
1996,1979
1996,3077
1997,126
1998,410
2001,1942
2002,244
2002,626
2002,1518
2003,881
2005,3093
2006,4316
2007,1682
2007,3183
2010,1911
2010,3896
2011,469
2017,1173
2018,333
2019,108
2020,1834
2020,2435
2022,217
2022,1536
2022,3993
2023,40
2024,1369
2024,2897
2024,4813
2024,4999
2026,799
2029,1109
2029,2820
2029,3026
2030,151
2031,2319
2033,294
2038,238
2038,1047
2040,1048
2041,1587
2042,268
2043,4179
2044,40
2044,370
2044,3706
2045,57
2045,245
2045,266
2045,309
2045,518
2045,1764
2045,2002
2045,2163
2045,2482
2045,2947
2045,3014
2045,3089
2045,3439
2045,4143
2046,126
2046,1260
2046,1533
2046,3302
2046,3815
2046,4122
2047,1488
2048,69
2051,4733
2052,1601
2052,4239
2055,899
2055,3513
2058,944
2059,113
2060,1276
2060,2788
2060,2863
2060,4967
2061,1541
2062,765
2062,2627
2062,4746
2063,1081
2064,1641
2065,698
2067,607
2067,1060
2067,1303
2067,2073
2067,3177
2067,4366
2067,4511
2067,4579
2068,1415
2071,12
2071,738
2071,897
2071,1002
2071,3095
2072,157
2074,499
2074,856
2075,956
2077,3672
2077,4050
2078,2381
2079,2381
2080,3793
2081,4193
2082,113
2082,228
2082,240
2082,2004
2082,3085
2082,3687
2085,2376
2085,2475
2085,2791
2085,3922
2085,4114
2085,4618
2086,3251
2087,628
2087,2113
2088,3259
2089,719
2090,3806
2090,4457
2091,1881
2091,2595
2092,1848
2092,2234
2092,4081
2093,944
2093,2480
2094,15
2094,3105
2096,401
2096,623
2096,864
2096,1146
2096,2238
2096,2289
2096,4462
2096,4626
2096,4859
2097,39
2100,3499
2101,830
2101,4264
2101,4351
2102,995
2103,63
2103,667
2103,1409
2103,1785
2103,3273
2107,1767
2108,852
2108,1682
2108,3900
2111,274
2113,830
2114,360
2115,1047
2115,3972
2116,1863
2116,4711
2117,1276
2118,4532
2118,4640
2120,1862
2121,245
2122,1513
2123,67
2124,935
2124,2288
2124,3137
2126,2531
2127,517
2127,1703
2127,2282
2127,2686
2130,1508
2130,4231
2133,184
2133,1007
2133,1108
2133,1688
2133,1863
2136,694
2136,1221
2136,2317
2136,2823
2137,3885
2143,1210
2144,631
2145,445
2145,583
2147,486
2147,1274
2147,1946
2147,4163
2148,822
2149,3192
2151,561
2154,2067
2155,1108
2156,628
2157,11
2157,864
2157,1945
2157,2202
2157,2688
2158,1
2164,136
2164,347
2164,401
2164,1157
2164,1629
2164,1715
2164,1903
2164,1928
2164,1971
2164,1984
2164,2222
2164,3251
2164,3960
2164,4453
2165,35
2166,3096
2167,1116
2167,2392
2167,3033
2171,4814
2172,122
2173,3239
2173,3966
2174,1771
2175,1617
2175,3591
2176,401
2176,1770
2176,1924
2177,158
2177,350
2177,851
2177,1162
2177,1272
2177,2276
2177,2531
2177,3428
2178,874
2178,3191
2178,3760
2179,2885
2183,480
2184,371
2184,2704
2187,775
2187,2517
2187,3291
2187,3423
2188,234
2189,329
2189,1201
2189,4515
2192,556
2194,3712
2195,802
2195,1037
2195,2998
2195,3444
2196,1060
2197,401
2200,3967
2200,4968
2201,437
2201,4746
2202,513
2202,2957
2203,508
2205,270
2205,1682
2205,3367
2208,1318
2208,3775
2210,1984
2210,3335
2212,2326
2214,4031
2216,1319
2217,299
2219,647
2220,899
2220,1541
2222,3457
2223,1596
2223,2825
2223,3138
2223,4925
2224,529
2224,1770
2225,1242
2226,474
2226,2594
2226,3398
2228,370
2228,1601
2228,4906
2230,229
2230,3221
2231,1735
2232,3445
2235,1203
2235,2343
2238,3439
2241,1173
2242,43
2243,487
2243,2379
2243,4614
2245,1928
2246,668
2246,760
2248,366
2250,1739
2252,2862
2257,3507
2257,3533
2258,1683
2260,1098
2260,3228
2260,3365
2260,3492
2261,1502
2262,4119
2263,98
2263,323
2263,1181
2264,1949
2264,2724
2264,3809
2266,2851
2266,2901
2266,2906
2266,3685
2267,993
2267,1317
2268,2073
2268,2170
2268,2656
2268,3439
2271,1254
2271,4422
2273,637
2273,1896
2273,2624
2273,3230
2275,799
2277,965
2277,3258
2277,3488
2278,235
2278,2878
2279,3439
2279,3620
2281,1773
2282,258
2282,3479
2284,157
2284,4467
2285,4049
2287,1494
2287,4604
2290,1888
2291,822
2292,268
2292,3856
2294,869
2294,4207
2295,50
2295,3595
2298,274
2298,3095
2299,1744
2303,518
2303,3241
2305,107
2306,3563
2307,61
2309,1210
2310,4642
2311,692
2312,4390
2313,777
2313,2667
2314,2581
2315,2202
2320,2013
2320,3938
2321,296
2321,943
2321,949
2321,979
2321,1275
2322,404
2322,2255
2322,3048
2324,571
2325,1096
2325,1917
2325,2111
2326,169
2326,1441
2326,2404
2326,2505
2326,2781
2326,3007
2326,4417
2326,4811
2327,3103
2328,330
2329,4390
2332,64
2332,96
2332,126
2332,1473
2332,2319
2332,3851
2332,4207
2336,1762
2336,3875
2337,5
2337,109
2337,3051
2337,4881
2338,1472
2338,2554
2339,1677
2340,43
2340,2361
2341,943
2342,1892
2345,2135
2345,2606
2345,4973
2348,2809
2350,106
2350,585
2350,1108
2350,2581
2350,2836
2351,2637
2351,3178
2351,3439
2352,14
2353,1942
2354,987
2354,1530
2354,2991
2354,3325
2354,3944
2356,445
2356,2316
2356,2850
2357,3093
2357,3840
2358,3228
2358,4546
2358,4787
2359,621
2359,3179
2360,1415
2361,1962
2362,581
2365,825
2368,1124
2369,4658
2371,585
2371,4388
2373,1955
2373,2633
2375,2307
2377,370
2378,640
2380,463
2384,3239
2384,3492
2385,4094
2386,844
2387,5
2387,3343
2387,3794
2388,15
2388,467
2388,2642
2388,2954
2389,474
2389,3905
2390,149
2390,995
2390,2849
2393,2227
2395,2637
2398,12
2398,2728
2399,965
2400,1413
2402,738
2402,899
2402,4574
2403,2015
2403,3463
2406,1543
2406,1977
2407,1106
2407,3472
2408,2525
2408,4555
2410,474
2411,513
2413,2555
2414,41
2417,19
2417,692
2417,3458
2418,4175
2419,26
2419,868
2419,994
2419,1037
2419,1136
2419,2170
2419,2455
2419,2933
2419,3433
2419,4985
2420,121
2425,847
2427,2239
2430,1466
2431,536
2431,3906
2431,4096
2431,4210
2431,4985
2432,397
2433,1824
2434,1808
2436,1274
2437,2381
2438,1529
2439,660
2440,889
2440,2254
2441,2335
2442,80
2442,617
2443,1356
2444,1297
2444,3727
2447,231
2447,4798
2449,4427
2452,674
2454,690
2456,898
2456,1710
2460,1892
2461,365
2462,4957
2466,279
2467,1492
2467,3137
2468,421
2468,2406
2468,4063
2469,299
2470,4321
2474,100
2474,4199
2475,952
2475,3609
2476,4505
2476,4767
2477,834
2477,2366
2477,3340
2477,4245
2478,330
2478,4063
2481,478
2483,4653
2484,964
2485,297
2485,3468
2486,167
2487,1655
2491,114
2491,307
2491,632
2491,1492
2491,3343
2492,4791
2495,514
2495,4685
2498,4657
2500,261
2500,427
2500,1639
2500,1889
2500,1911
2500,3333
2500,4336
2503,2347
2506,2910
2508,194
2508,4136
2510,2150
2510,3072
2510,4522
2510,4802
2513,1491
2515,1948
2519,988
2523,3052
2524,1293
2524,3768
2526,3757
2528,3612
2531,4162
2533,1513
2541,1396
2541,2595
2541,4612
2542,1715
2543,551
2543,689
2543,767
2544,1970
2546,416
2546,1549
2548,668
2550,4
2550,3980
2551,3228
2559,53
2559,149
2559,994
2559,1011
2559,1271
2559,2344
2560,1914
2561,3618
2561,3960
2562,578
2564,3655
2564,4450
2565,638
2566,85
2566,4317
2566,4449
2567,4563
2568,252
2569,245
2570,252
2570,2135
2570,3106
2571,1809
2579,3885
2580,1472
2580,4150
2580,4319
2580,4914
2584,1953
2584,2603
2585,1652
2587,697
2587,1948
2590,895
2591,515
2592,1274
2593,1719
2596,4207
2597,1341
2597,3731
2599,588
2599,816
2599,1819
2599,2996
2601,2283
2601,4292
2601,4953
2604,29
2604,4548
2607,1617
2608,228
2609,3190
2609,4770
2611,858
2614,330
2616,1579
2617,3341
2617,4241
2619,316
2620,715
2621,1560
2621,3276
2622,104
2622,4443
2623,944
2623,4485
2625,2540
2626,67
2626,3334
2629,1910
2630,64
2630,3216
2631,163
2634,995
2634,2988
2635,114
2636,642
2636,1140
2636,2777
2636,3443
2637,1485
2639,2590
2640,2012
2640,2455
2640,2507
2644,832
2644,1693
2647,1179
2649,2674
2649,3987
2653,4404
2654,196
2654,541
2654,629
2654,3424
2654,3992
2654,4032
2659,1606
2660,944
2662,4646
2663,1136
2663,2937
2665,1622
2667,4962
2668,788
2669,149
2670,410
2670,2445
2672,2074
2672,2572
2674,1110
2677,628
2679,1205
2680,1652
2681,1142
2682,347
2682,1404
2683,4342
2684,2516
2690,2381
2691,3597
2692,3865
2692,4451
2693,660
2695,1797
2696,2563
2696,3784
2696,4479
2698,2253
2698,3629
2701,588
2702,501
2705,1550
2709,504
2712,2643
2713,3722
2713,3840
2715,1334
2715,4063
2715,4708
2716,1436
2720,702
2722,4457
2723,3499
2725,271
2725,604
2725,1042
2725,1260
2725,3568
2725,3719
2725,4613
2726,1414
2726,1984
2729,722
2729,1550
2731,2253
2732,435
2732,508
2733,1513
2733,4691
2734,918
2737,4957
2739,137
2739,4363
2740,4953
2741,136
2742,1979
2744,360
2744,1072
2745,1981
2745,2851
2746,2356
2747,114
2747,181
2747,528
2747,1302
2747,1538
2747,1853
2747,1977
2747,2249
2747,2583
2747,2892
2747,4463
2747,4579
2748,994
2749,240
2750,156
2750,4430
2752,2054
2753,3865
2755,235
2757,1953
2759,112
2761,409
2762,4365
2767,196
2768,1177
2768,3769
2769,1386
2769,4889
2770,196
2772,751
2776,628
2778,1477
2779,945
2779,1172
2779,1948
2779,2558
2779,3466
2783,149
2783,3840
2785,4887
2786,2891
2786,2899
2786,3440
2786,3793
2790,189
2792,1181
2794,944
2795,2012
2798,247
2798,2906
2798,2994
2800,3378
2801,1991
2802,501
2803,4453
2807,3329
2810,1425
2810,2067
2812,2170
2812,4940
2813,420
2813,3846
2814,1207
2815,112
2818,4909
2819,309
2819,1488
2821,156
2823,2921
2823,3614
2827,136
2828,426
2828,1867
2829,604
2831,2771
2831,2823
2832,2307
2834,107
2834,4966
2837,1216
2837,2150
2837,3285
2839,899
2840,2012
2845,473
2847,2862
2848,2198
2850,133
2853,579
2855,3439
2856,1953
2857,727
2864,157
2866,1415
2866,3928
2866,4322
2867,1708
2870,2606
2873,2575
2874,659
2877,690
2877,4956
2881,2012
2883,977
2884,118
2884,1510
2885,501
2886,1100
2888,668
2890,1712
2893,1846
2894,465
2894,1167
2894,2505
2896,1398
2898,309
2898,669
2898,1291
2898,3498
2898,4365
2898,4561
2898,4705
2900,775
2905,1027
2906,234
2907,223
2908,2907
2909,339
2910,557
2910,3224
2910,4463
2912,1647
2912,2522
2912,3368
2912,4584
2916,1149
2918,120
2918,850
2919,616
2919,3403
2920,113
2922,847
2922,1436
2922,4344
2924,3046
2924,3063
2925,1109
2929,107
2929,1066
2930,2025
2930,4657
2931,1683
2932,995
2933,830
2933,2838
2933,3528
2935,960
2935,2731
2936,3524
2938,1981
2940,344
2940,4011
2942,133
2942,4828
2943,367
2945,1531
2946,4693
2947,517
2947,3189
2948,1901
2949,581
2951,3286
2951,4667
2953,167
2953,617
2959,1173
2962,4058
2964,2339
2965,159
2965,479
2965,1293
2965,4852
2966,3346
2967,2625
2968,2401
2969,1984
2970,1414
2973,1124
2973,1907
2973,2066
2973,4168
2974,2263
2974,3233
2975,799
2975,2889
2976,454
2976,3046
2977,818
2978,1833
2978,1926
2979,40
2983,67
2984,431
2987,272
2987,1201
2987,4137
2989,1363
2993,2464
3001,2708
3001,3885
3002,4581
3003,195
3003,3038
3003,3492
3004,2475
3005,1430
3006,61
3006,3606
3007,522
3008,25
3008,339
3009,1974
3010,809
3010,3743
3010,4895
3010,4930
3015,43
3015,702
3015,1152
3015,1646
3015,4394
3016,2593
3016,4203
3017,2054
3017,2218
3018,3356
3020,2463
3020,4227
3020,4514
3021,453
3022,2780
3022,3286
3027,57
3028,4
3029,689
3031,952
3034,1415
3034,3081
3035,4733
3036,2232
3039,1622
3040,1413
3041,2806
3041,3556
3042,122
3044,926
3047,173
3052,57
3052,126
3052,3174
3054,4119
3056,4099
3057,474
3057,1350
3058,19
3059,1543
3067,12
3070,183
3074,965
3074,1398
3075,1008
3076,775
3076,1186
3080,29
3082,172
3084,383
3084,1080
3084,1110
3084,1399
3084,1550
3084,3623
3084,3703
3084,4955
3086,146
3086,196
3086,760
3086,1318
3086,1413
3086,2868
3086,3784
3087,181
3087,447
3087,2012
3087,4246
3087,4390
3088,2239
3091,16
3091,1444
3091,3547
3091,4534
3091,4893
3092,155
3092,488
3092,696
3092,4693
3093,266
3093,980
3094,2230
3094,4764
3097,2002
3098,47
3098,3248
3098,4855
3101,1008
3101,1683
3101,1808
3103,2150
3104,1028
3105,579
3105,1128
3105,1647
3105,3212
3105,4780
3107,108
3107,678
3107,1221
3107,2025
3107,2036
3107,2462
3107,2803
3107,3486
3107,4423
3107,4920
3110,15
3110,2253
3110,2841
3110,3860
3111,285
3112,1179
3113,1415
3114,2868
3115,347
3115,689
3115,1418
3117,106
3117,556
3117,2904
3123,504
3124,183
3126,366
3126,571
3126,680
3126,2273
3126,2765
3127,1478
3127,3471
3127,3817
3128,3767
3129,3100
3130,815
3130,1100
3132,333
3133,1373
3133,4121
3134,1494
3134,4595
3135,1350
3135,3579
3136,63
3136,133
3136,2227
3136,2735
3136,2842
3136,4582
3139,1158
3139,1580
3141,1292
3145,1540
3145,1986
3146,2652
3147,2110
3148,2404
3149,2012
3150,4053
3153,103
3154,3840
3155,1472
3157,316
3160,411
3160,788
3160,1089
3160,1472
3160,3682
3162,924
3164,2140
3166,1274
3170,3140
3170,3785
3171,4770
3172,3121
3174,435
3175,528
3181,3329
3183,2236
3183,2280
3183,4921
3184,2234
3184,3659
3185,944
3186,571
3187,732
3189,1211
3189,1938
3189,3246
3191,589
3191,1608
3193,2451
3193,4056
3194,1615
3197,1202
3198,551
3200,4007
3200,4929
3201,585
3201,2547
3201,4036
3203,3135
3204,196
3204,1124
3205,2135
3206,1272
3207,14
3207,678
3208,2012
3209,4770
3211,1797
3215,1813
3218,1953
3219,1198
3220,244
3222,642
3222,3409
3225,571
3225,1408
3225,1582
3225,3619
3226,1237
3227,2054
3229,1531
3229,4530
3230,1479
3231,1733
3232,19
3235,107
3236,245
3236,2846
3236,4306
3238,2053
3240,2997
3241,1658
3241,4944
3243,2849
3244,1501
3245,2525
3250,40
3253,1744
3254,482
3254,3751
3255,3093
3255,4528
3257,1450
3257,2230
3259,3917
3259,3967
3261,3704
3262,2002
3263,4117
3265,2185
3265,4641
3268,353
3268,1350
3268,3214
3269,822
3271,1237
3273,1806
3274,1140
3274,3380
3275,1540
3275,2854
3275,4396
3277,2718
3278,558
3278,1959
3278,4912
3279,435
3281,1696
3281,3493
3281,4729
3282,727
3284,561
3284,1108
3290,3286
3293,403
3293,472
3293,4432
3294,2168
3295,2185
3297,3657
3298,2851
3299,2381
3301,3152
3303,3195
3303,4653
3305,1273
3307,1629
3308,1537
3310,1995
3314,1939
3315,383
3315,631
3315,3821
3316,2394
3317,977
3319,616
3320,1622
3322,76
3324,217
3327,230
3327,3639
3328,2862
3330,1234
3331,2507
3332,529
3333,14
3335,106
3335,384
3335,451
3335,663
3335,1348
3335,3324
3337,990
3337,2724
3337,4635
3338,339
3338,1446
3338,1567
3338,2771
3338,3062
3338,3538
3339,434
3339,3343
3340,241
3342,1759
3343,3396
3344,336
3346,2152
3346,3759
3347,1097
3348,200
3348,1246
3348,4641
3349,149
3352,1120
3356,740
3358,2081
3359,15
3359,3053
3359,4566
3360,1696
3360,4809
3361,1319
3362,2067
3363,4391
3366,1950
3368,3239
3369,1276
3372,297
3372,787
3374,183
3375,448
3376,154
3376,157
3376,1775
3376,1797
3377,1538
3377,3504
3378,1178
3379,591
3379,3983
3382,1274
3383,246
3383,1276
3383,1699
3383,1842
3383,2861
3383,3283
3383,4479
3385,159
3385,223
3386,4028
3388,2828
3389,2285
3390,299
3390,2597
3390,3017
3392,158
3393,1907
3394,280
3394,669
3394,3872
3394,4041
3395,1379
3395,4197
3396,183
3396,2771
3397,672
3397,3323
3397,3439
3397,3497
3397,4112
3397,4785
3398,4028
3399,2110
3400,583
3400,3125
3400,3307
3401,182
3401,1186
3401,3507
3401,4642
3401,4945
3405,3242
3408,994
3410,3068
3411,113
3411,4776
3413,403
3415,2456
3416,579
3416,4684
3416,4969
3417,4432
3419,738
3420,1953
3420,3791
3420,4703
3421,107
3422,1488
3424,328
3424,742
3425,1764
3427,2353
3429,1025
3431,1205
3432,740
3432,3635
3434,5
3434,196
3434,2219
3435,950
3436,1734
3438,1322
3439,4391
3441,616
3442,1589
3446,194
3447,797
3447,1158
3447,3011
3447,3321
3449,1579
3450,2708
3451,3251
3451,4234
3452,572
3452,2109
3452,2520
3452,3423
3453,1344
3453,2782
3454,3310
3457,435
3457,4464
3459,535
3459,539
3459,3271
3460,3204
3462,167
3464,2335
3465,3457
3468,4734
3470,583
3474,1373
3474,3119
3475,522
3475,3455
3477,196
3478,1583
3481,2606
3482,234
3484,680
3485,183
3485,822
3485,1367
3485,1503
3485,2499
3485,3682
3485,4040
3487,1779
3487,3584
3487,3991
3487,4728
3487,4975
3490,1344
3491,950
3492,431
3494,715
3495,1278
3495,2686
3495,4599
3495,4614
3496,2678
3496,3911
3496,4718
3499,211
3499,3076
3499,4436
3500,918
3502,4506
3502,4880
3503,645
3506,2232
3509,585
3511,1008
3511,1148
3511,1202
3511,1260
3516,1703
3520,246
3520,4870
3522,1318
3522,3796
3524,29
3524,1558
3524,2955
3525,1477
3526,157
3526,4769
3529,4463
3530,4327
3532,1571
3532,3976
3536,3182
3537,3201
3539,112
3539,1109
3540,1243
3540,2756
3541,3353
3542,988
3543,4346
3545,1546
3547,493
3547,1254
3547,1901
3548,3267
3549,137
3550,1977
3551,4070
3551,4417
3552,149
3552,578
3552,1249
3552,2059
3552,3060
3552,3931
3552,4232
3553,828
3554,574
3554,2240
3557,1552
3558,3183
3559,952
3560,1319
3561,3672
3564,702
3566,4905
3574,2039
3576,2344
3577,1938
3577,4534
3578,1951
3579,3090
3580,299
3581,4931
3585,4
3588,1828
3589,3717
3590,3847
3592,1249
3593,1611
3593,4676
3596,542
3602,583
3602,3414
3603,403
3604,811
3605,1969
3606,1363
3606,3816
3607,1186
3608,299
3608,309
3608,709
3608,716
3608,1187
3608,4395
3610,23
3610,583
3610,1094
3610,1631
3610,2451
3610,2928
3611,3014
3614,64
3614,4733
3615,927
3616,985
3621,945
3621,4638
3622,1765
3626,2163
3627,301
3627,411
3627,692
3627,738
3627,2598
3628,1939
3630,3696
3630,4468
3631,347
3632,3013
3632,3937
3636,640
3637,3025
3640,593
3641,2021
3645,1081
3648,631
3650,2288
3661,3457
3662,1174
3663,2956
3665,2496
3665,4542
3667,740
3669,330
3671,3757
3672,4778
3673,858
3674,431
3675,828
3676,2232
3677,742
3678,157
3678,424
3680,742
3682,2296
3684,1085
3688,43
3688,965
3688,1698
3688,1930
3688,4008
3689,350
3690,2232
3690,3997
3691,445
3692,3343
3693,4028
3694,984
3694,2711
3695,3624
3695,3672
3698,159
3698,585
3700,1817
3705,501
3705,3391
3708,3353
3708,3712
3713,2253
3714,386
3715,163
3715,988
3715,1078
3715,1274
3715,3192
3715,4147
3716,3741
3718,1587
3720,3958
3721,2782
3723,469
3724,4465
3724,4974
3725,2012
3725,3418
3726,16
3726,2789
3729,3979
3729,4447
3730,3096
3733,1729
3734,3472
3736,2554
3738,2009
3739,1732
3741,1702
3741,3461
3744,406
3744,418
3745,944
3746,181
3748,156
3748,4628
3749,1348
3750,1011
3750,2383
3753,3423
3754,1174
3755,2975
3757,454
3763,3329
3765,1282
3765,1414
3765,3991
3766,2126
3767,211
3771,3024
3773,453
3773,946
3773,2240
3773,2534
3773,3318
3775,1025
3777,543
3777,1593
3778,3221
3779,114
3779,4083
3782,3404
3783,330
3786,3251
3787,2952
3788,1770
3789,47
3789,239
3789,4736
3792,2140
3793,1641
3795,245
3798,517
3799,1095
3800,133
3800,4965
3801,762
3802,3340
3805,53
3805,543
3805,1547
3805,1692
3805,2530
3806,1391
3806,1452
3806,2456
3806,2697
3807,1472
3808,16
3810,1114
3811,1529
3813,1981
3814,1028
3817,34
3817,2269
3817,4869
3819,403
3820,3228
3822,247
3822,833
3823,367
3825,3404
3829,250
3829,1492
3830,122
3832,1147
3832,2718
3833,307
3834,3341
3835,3231
3836,1492
3837,604
3838,811
3838,3455
3839,508
3840,3190
3841,1684
3842,690
3842,2083
3842,2127
3843,196
3843,204
3843,417
3843,421
3843,775
3843,946
3843,967
3843,1118
3843,2251
3843,2488
3843,3311
3843,3404
3843,3482
3843,3877
3843,4378
3844,157
3845,4450
3845,4973
3847,4733
3848,1683
3849,920
3849,1807
3849,2536
3849,3364
3849,3706
3849,4196
3850,3572
3852,1608
3854,4463
3855,2904
3856,99
3856,157
3856,730
3856,1253
3856,3156
3858,4898
3859,250
3859,409
3859,1458
3859,1492
3861,2039
3862,1431
3869,4221
3874,2335
3875,229
3875,3545
3875,4119
3876,29
3878,4390
3881,1228
3882,285
3882,581
3882,837
3882,1553
3882,1608
3882,3140
3882,3812
3883,2708
3884,553
3884,601
3884,810
3884,1210
3884,1622
3884,1989
3884,3623
3884,4782
3885,1521
3888,1585
3889,1337
3889,1949
3890,1540
3892,3660
3893,822
3895,3770
3895,4052
3902,808
3904,1148
3904,3929
3907,3472
3909,1742
3910,1510
3911,899
3913,445
3914,3448
3915,1137
3915,4276
3916,3563
3918,350
3918,1530
3920,1260
3921,3789
3923,61
3923,91
3923,145
3923,491
3923,1373
3923,1696
3923,2141
3923,2789
3923,2852
3923,3505
3926,2094
3926,4151
3927,1392
3929,620
3929,2331
3929,2504
3934,2734
3936,4342
3937,3244
3939,899
3940,3879
3941,1742
3941,3699
3942,1266
3942,1984
3942,2610
3942,4491
3943,3357
3946,1971
3947,3457
3950,406
3950,456
3951,1489
3952,3163
3953,690
3953,4775
3954,2342
3958,1503
3961,944
3962,1853
3963,1299
3964,556
3965,67
3965,4277
3966,2555
3966,4763
3967,465
3969,1222
3970,2094
3973,1136
3975,1987
3975,2950
3976,156
3976,597
3977,122
3977,654
3977,1002
3977,1519
3977,1701
3977,2801
3978,3307
3981,1711
3981,2865
3981,3315
3981,4271
3987,944
3987,3804
3989,2808
3994,238
3996,1483
3996,3017
3998,1254
3999,3857
4002,337
4003,493
4003,2066
4003,2169
4003,2788
4006,749
4006,899
4006,2190
4007,1614
4007,4644
4010,5
4011,1325
4011,4792
4015,1530
4016,659
4017,868
4018,604
4019,68
4019,3887
4020,2012
4020,4756
4021,196
4022,719
4023,899
4024,2172
4025,822
4025,2638
4026,2957
4027,187
4030,1200
4031,3346
4032,960
4035,552
4035,1995
4035,4615
4036,3656
4038,994
4039,316
4042,43
4042,1253
4042,1838
4042,2169
4042,4877
4044,1124
4045,4925
4047,2637
4048,381
4048,741
4048,1647
4049,3388
4050,999
4050,1571
4053,1119
4053,2218
4054,4479
4055,2648
4055,4013
4057,383
4058,1796
4060,422
4060,1237
4062,180
4064,3256
4067,4581
4068,2610
4071,3572
4072,2012
4073,421
4075,1938
4076,241
4077,2686
4078,825
4079,692
4080,83
4082,3510
4084,2877
4085,3898
4086,2505
4088,4033
4089,469
4090,2874
4091,2755
4091,4922
4092,2836
4093,628
4094,1642
4094,1782
4096,129
4098,1078
4099,1114
4100,604
4102,1531
4106,3239
4108,1782
4109,738
4111,4653
4113,2760
4113,4710
4116,2615
4119,3840
4120,2409
4123,874
4125,882
4125,1152
4125,1509
4126,8
4127,4153
4128,1217
4129,3665
4130,3259
4130,4224
4132,868
4133,3912
4133,4432
4135,2906
4135,3096
4139,296
4140,3867
4141,1886
4142,3404
4142,4537
4150,600
4150,1769
4150,2302
4150,3461
4150,3523
4150,4278
4150,4434
4152,4640
4154,2364
4154,2697
4155,3345
4156,3987
4157,15
4157,2070
4158,1292
4158,4254
4159,2903
4160,2686
4161,435
4161,3967
4162,3093
4165,3173
4167,121
4167,513
4170,889
4170,945
4170,4288
4171,3024
4172,1243
4173,456
4174,3722
4175,121
4175,2027
4176,889
4176,934
4176,1313
4176,1510
4176,1576
4176,3237
4176,4435
4178,445
4179,4921
4180,4805
4182,1260
4184,15
4184,1672
4184,2097
4186,1682
4189,113
4191,3418
4192,4097
4194,1086
4198,3247
4198,4037
4198,4648
4200,1488
4201,4153
4203,572
4203,680
4203,4993
4204,1274
4205,1174
4206,2532
4206,4770
4207,23
4208,106
4211,339
4213,1632
4214,422
4215,4188
4217,3301
4218,588
4219,722
4220,453
4221,680
4222,2734
4223,200
4225,3199
4228,5
4229,113
4233,1173
4233,1596
4235,1207
4240,1324
4240,2409
4240,3125
4242,952
4243,4212
4244,2190
4245,858
4245,1379
4245,2706
4248,1971
4249,235
4250,1510
4251,2222
4251,4304
4251,4456
4252,4614
4253,15
4255,2012
4257,3121
4258,621
4259,1868
4261,678
4262,1744
4263,2501
4264,188
4264,230
4264,3045
4264,3654
4264,4212
4265,1163
4266,1543
4267,1858
4268,1378
4269,147
4269,3260
4270,1028
4272,965
4273,585
4274,2903
4279,1327
4280,4069
4281,2862
4282,2997
4284,1759
4284,1764
4284,2860
4285,732
4286,3514
4287,1942
4289,889
4290,120
4294,423
4295,3256
4296,244
4297,1796
4298,2583
4298,3908
4299,104
4302,1515
4303,3906
4305,430
4307,1497
4307,4437
4308,275
4308,3740
4311,0
4311,260
4311,1433
4311,1847
4311,1883
4311,2632
4311,2784
4311,3356
4311,3885
4311,4185
4311,4417
4312,2556
4313,1797
4314,2160
4315,4770
4315,4835
4316,2522
4318,850
4318,2254
4319,1658
4319,4057
4320,1327
4324,4168
4325,1112
4326,2165
4327,403
4329,1167
4330,1492
4331,3239
4332,674
4332,2140
4333,3545
4333,4733
4334,1953
4338,2501
4338,4385
4339,3125
4341,1478
4342,1320
4343,3191
4346,691
4346,1632
4348,1177
4349,4918
4352,436
4353,3204
4354,4084
4355,1962
4356,112
4356,2650
4358,960
4359,578
4360,1822
4361,367
4361,1372
4362,339
4362,4153
4362,4783
4363,3000
4364,2688
4365,3504
4366,3401
4367,279
4367,420
4368,675
4369,1078
4372,1742
4373,3563
4374,3894
4377,684
4377,2296
4380,1696
4381,366
4382,235
4383,926
4383,3343
4386,299
4387,591
4390,68
4390,2990
4391,1710
4396,247
4397,3062
4398,3439
4400,965
4401,1379
4402,1082
4403,2221
4404,4009
4407,2763
4408,3109
4409,1472
4409,2775
4410,1472
4411,547
4414,311
4415,749
4416,3032
4418,2119
4420,551
4421,552
4425,1156
4425,3819
4426,61
4427,932
4429,3866
4431,1412
4433,1596
4433,2019
4435,604
4437,3078
4438,3072
4441,126
4442,1178
4442,4673
4443,2016
4443,3165
4444,103
4444,1274
4444,2239
4444,3651
4444,4793
4445,613
4446,1181
4447,1237
4448,1434
4452,1669
4455,961
4455,1342
4455,1560
4455,3001
4457,2793
4457,4661
4459,184
4459,3287
4461,3046
4463,1485
4463,3193
4471,868
4472,3341
4474,4123
4475,1868
4476,3082
4477,15
4477,67
4477,2049
4477,2204
4478,2766
4479,2227
4480,2342
4481,3523
4483,117
4484,1536
4485,4
4485,2636
4487,3301
4489,3784
4495,2788
4496,2657
4497,1560
4497,2041
4498,1237
4500,1094
4501,522
4502,2067
4506,1355
4507,1596
4510,4202
4510,4921
4512,1878
4516,4316
4518,50
4518,384
4519,1319
4520,830
4521,156
4521,1917
4526,4530
4527,1938
4529,2119
4531,4212
4533,4724
4535,691
4536,3748
4539,3725
4540,2234
4543,680
4544,3165
4545,3665
4550,1629
4551,306
4551,350
4551,497
4551,1222
4551,2470
4552,1806
4553,1442
4554,180
4555,12
4555,135
4555,674
4555,1207
4555,1288
4555,1319
4555,1808
4555,2002
4555,2209
4555,2473
4555,3340
4555,3478
4556,1712
4557,986
4558,924
4558,2190
4559,61
4559,197
4559,354
4559,1895
4559,1979
4559,2053
4559,2118
4559,2638
4560,944
4562,852
4563,332
4563,4594
4564,4733
4567,333
4567,1045
4567,1767
4567,2489
4567,2494
4569,3247
4570,1409
4570,1891
4571,2892
4572,4730
4573,1254
4573,4902
4575,73
4576,4190
4577,678
4579,8
4579,1918
4580,1991
4581,972
4581,2666
4581,4590
4582,1834
4583,2734
4585,2012
4585,3406
4586,2239
4588,3505
4589,2263
4591,2648
4592,1867
4593,3121
4596,1550
4596,4424
4598,3905
4600,3672
4601,2002
4602,2025
4603,1491
4605,140
4605,2095
4605,4239
4607,180
4608,326
4608,2012
4609,3898
4610,1604
4611,551
4617,4096
4619,243
4619,642
4619,3735
4620,531
4621,4342
4622,4099
4622,4119
4625,1181
4627,808
4629,3414
4630,4104
4637,742
4637,1508
4637,2895
4639,2470
4640,384
4640,599
4640,2413
4640,3313
4640,4578
4640,4765
4642,435
4644,749
4646,667
4647,107
4653,1578
4654,3790
4655,1274
4656,478
4656,2404
4658,3784
4660,240
4660,270
4660,791
4660,1319
4660,3388
4660,3682
4660,3933
4660,4486
4662,847
4663,4328
4664,738
4664,868
4665,4190
4666,4979
4670,1853
4671,1846
4672,1220
4673,836
4673,1794
4675,2997
4677,1083
4678,1537
4680,2251
4682,1302
4682,1974
4682,4275
4682,4470
4683,672
4686,1892
4686,2152
4686,3020
4688,4389
4688,4777
4690,855
4692,3455
4694,184
4694,655
4694,1464
4694,2353
4694,3052
4694,3167
4694,4585
4694,4769
4694,4919
4695,3770
4696,3231
4697,2190
4699,235
4700,540
4700,2815
4700,3887
4702,4565
4704,360
4704,451
4704,580
4704,673
4704,715
4704,1351
4704,1620
4704,2069
4704,2230
4704,2410
4704,2493
4704,3054
4704,3519
4704,3573
4704,3984
4704,4097
4706,4013
4707,4293
4709,404
4711,1520
4712,994
4712,1473
4714,4534
4715,1242
4716,749
4717,3457
4719,4710
4720,2193
4721,91
4722,211
4726,799
4727,1373
4729,3122
4729,3625
4730,247
4731,663
4731,708
4731,1070
4731,1381
4731,1955
4731,2648
4734,1563
4735,1730
4736,2050
4737,420
4737,1955
4737,4798
4739,1187
4740,217
4741,642
4742,157
4744,668
4745,740
4747,3863
4748,872
4750,1750
4751,252
4752,471
4753,3886
4754,994
4758,371
4758,4599
4760,2054
4760,3840
4761,3095
4762,4439
4762,4931
4766,3302
4768,4295
4769,2719
4770,1158
4771,3125
4772,5
4778,952
4778,1323
4781,401
4784,802
4785,2808
4786,40
4786,1472
4789,180
4789,450
4789,1580
4789,1721
4790,2404
4794,1742
4795,1698
4796,1712
4799,1133
4800,1448
4801,4770
4803,329
4804,747
4805,4061
4806,4061
4807,1431
4808,874
4809,14
4809,312
4810,732
4815,2538
4816,889
4817,2111
4819,3781
4820,4710
4821,2865
4822,2555
4823,3747
4824,4011
4827,2632
4830,1653
4831,2347
4833,4439
4835,28
4835,655
4835,4814
4836,696
4837,3639
4839,3404
4842,2782
4843,2140
4844,4673
4845,2496
4846,344
4846,1632
4847,3329
4848,3623
4849,1661
4849,1750
4849,1808
4850,1596
4851,160
4856,104
4858,4491
4859,2199
4860,275
4860,869
4860,919
4861,37
4861,2717
4861,4412
4866,4490
4867,507
4867,936
4867,1571
4867,1714
4867,2463
4867,2806
4868,2764
4872,473
4874,294
4876,3523
4879,2202
4879,3537
4879,4738
4882,91
4882,2859
4883,529
4884,3335
4885,2163
4886,1942
4887,339
4888,1779
4890,821
4891,558
4891,1976
4891,1977
4891,2809
4891,3982
4894,2381
4896,3341
4897,1319
4897,2724
4897,2875
4898,2472
4898,2694
4899,2697
4900,4076
4900,4394
4903,574
4903,4689
4904,2595
4905,1536
4907,3613
4908,3748
4910,583
4911,4073
4912,3797
4913,647
4915,1676
4916,2404
4917,2413
4917,3885
4918,1430
4918,2094
4923,431
4924,474
4926,3387
4927,529
4928,1421
4932,2892
4933,4394
4934,235
4935,571
4936,3062
4941,2606
4942,1478
4945,126
4945,1082
4945,1585
4945,1739
4945,1859
4946,1274
4947,141
4947,2246
4947,2514
4947,2529
4947,4674
4947,4905
4948,2227
4949,3774
4950,3789
4951,4705
4952,4061
4953,245
4954,365
4959,517
4960,1808
4961,1254
4963,144
4964,252
4964,345
4964,410
4964,1358
4964,1759
4964,3280
4964,4523
4966,855
4966,1217
4967,1109
4967,2518
4970,112
4971,120
4973,986
4976,4730
4977,2848
4978,4494
4979,3381
4980,397
4981,333
4982,14
4983,2263
4984,3853
4986,4492
4987,3905
4988,339
4989,3191
4991,5
4991,579
4991,1590
4991,3725
4994,3421
4995,988
4996,2928
4998,285
