src,dst
0,1
0,929
0,1664
0,2383
0,3037
0,3176
0,4783
4,415
4,727
4,1056
4,2145
4,2390
4,4324
7,364
7,1377
7,1546
7,1701
7,2358
7,2379
7,3007
7,3580
7,3846
7,4074
7,4461
7,4730
9,4257
10,506
10,798
10,849
10,917
10,1050
10,2330
10,2646
13,2855
15,1985
15,3268
15,3910
17,280
17,1421
17,2464
18,277
18,449
18,573
18,813
18,2408
18,2489
18,2762
18,4052
19,149
19,765
19,2600
19,4885
21,480
21,1895
21,2450
21,3111
21,3212
21,3677
21,4035
22,224
22,277
22,279
22,577
22,775
22,1090
22,1364
22,1434
22,1775
22,1825
22,1951
22,2003
22,2364
22,3021
22,3246
22,3315
22,3454
22,4369
23,227
23,702
23,774
23,1137
23,1493
23,1925
23,2487
23,3174
23,3571
23,3968
23,4282
25,4868
26,205
26,3228
26,3559
27,145
27,1104
28,387
28,1051
28,2154
29,1719
30,110
30,137
30,552
30,2489
32,4289
33,2747
34,8
34,63
34,85
34,620
34,1404
34,1652
34,1912
34,1931
34,2104
34,2234
34,2822
34,2980
34,3242
34,3283
34,3462
34,4426
34,4655
35,59
36,378
36,1173
36,2962
36,4063
36,4989
37,4202
38,2379
38,2954
38,4867
39,4005
40,1559
40,3024
43,894
43,3714
45,239
45,897
45,1794
45,2195
45,2855
45,3877
45,4237
46,912
46,1952
46,2822
46,3403
48,1334
48,3503
48,4769
49,278
51,1296
52,267
52,1510
52,2304
52,3059
52,4262
52,4992
53,942
54,1459
54,1734
55,417
55,489
55,1562
55,3190
56,3766
57,2089
57,2149
58,573
58,1028
58,1762
58,3071
60,615
61,1132
61,1714
61,2626
61,3032
61,4130
62,314
62,478
62,573
62,605
62,645
62,974
62,1369
62,1554
62,1595
62,2109
62,2273
62,2280
62,2656
62,3901
62,4839
63,2531
63,4659
63,4996
64,163
64,4270
64,4777
65,46
65,409
65,3854
66,530
66,4005
66,4791
67,879
67,2166
68,547
68,746
68,2451
68,3566
68,4763
69,896
69,1934
69,2308
69,4261
69,4867
70,1359
71,267
71,1099
71,1298
71,1346
71,1550
71,2400
71,2976
71,3437
71,3781
71,4710
72,671
72,1189
72,2342
72,4316
73,392
73,1634
73,4588
74,386
74,697
74,1186
74,1203
74,1838
74,2249
74,2605
74,3330
74,3973
74,4163
74,4177
76,1493
77,657
77,1392
77,1905
77,1952
77,1991
77,2522
77,2624
77,4946
78,422
78,2188
78,4820
79,1177
79,1192
79,1378
79,2698
80,279
80,1522
80,1923
80,2087
80,2154
80,4822
82,147
83,95
83,1539
83,1646
83,1874
83,2329
83,2762
83,2860
83,2914
83,4432
84,3064
84,3979
85,2918
85,3775
85,4437
88,3683
88,4459
89,277
89,1079
89,1177
89,1838
89,1878
89,2149
89,2334
89,2450
89,2541
89,2752
89,3158
90,1941
90,2522
90,3214
91,2209
91,2536
91,2927
91,4064
91,4597
92,1193
92,1214
92,2670
92,4555
92,4868
93,3798
93,4416
97,309
97,381
97,762
97,2704
97,4858
97,4860
97,4924
100,320
100,328
100,839
100,871
100,910
100,1728
100,2023
100,2443
100,2496
100,2762
100,3045
100,3202
100,3611
101,320
101,1878
101,2031
102,622
102,849
102,3310
104,3600
105,381
105,768
105,1314
105,2523
105,2859
105,4436
106,129
106,155
106,211
106,304
106,521
106,1056
106,2269
106,2394
106,2481
106,2797
106,2822
106,3115
106,3383
106,4275
106,4335
106,4429
107,475
107,4608
109,2307
109,4856
113,319
113,1744
115,330
115,1168
115,1257
115,1693
115,2000
115,4163
116,108
116,506
116,854
117,51
117,301
117,428
117,2762
117,3737
119,211
119,769
119,928
119,2185
119,2225
119,2295
119,3222
119,3309
119,3963
119,4055
119,4438
120,321
120,664
120,1114
120,1301
120,3493
122,451
122,934
122,1219
122,1423
122,1607
122,2091
122,2884
122,3821
122,4370
122,4461
122,4559
122,4881
123,391
123,450
123,575
123,742
123,1640
123,1707
123,3857
123,4917
124,145
124,257
124,415
124,1431
124,1691
124,2319
124,3260
124,4881
125,154
125,2458
125,2954
126,309
126,588
126,1277
126,1743
126,2256
126,2281
126,2600
126,3084
126,3171
127,358
127,913
127,1026
127,1278
127,4408
128,2903
128,4344
131,1713
131,2950
131,3775
131,4100
131,4734
132,1290
132,1310
132,2634
132,4919
133,505
133,530
133,2379
133,4131
134,6
134,68
134,447
134,1643
134,4149
135,964
135,2924
135,3358
135,4947
136,461
136,514
136,755
136,1499
136,1576
136,1680
136,1749
136,1780
136,3147
136,3237
136,4164
138,187
138,738
139,173
139,227
139,771
139,1742
139,2078
139,2712
139,2900
139,3018
139,3200
139,3563
139,3582
139,3807
139,3912
139,4163
139,4700
140,909
142,68
142,161
142,578
142,2177
142,4881
143,235
143,415
143,777
143,789
143,893
143,939
143,1103
143,2605
143,3106
143,3172
143,4286
144,854
144,2926
146,3410
146,4201
147,2067
148,1034
148,1623
148,1847
149,3764
150,16
150,633
150,710
150,777
150,1714
150,2658
150,3818
150,4798
151,1444
151,2059
151,3481
151,4693
153,433
153,2487
153,3473
157,4138
160,1537
160,2118
160,2194
160,2597
161,307
161,2004
161,4035
162,280
163,4916
164,3871
167,168
167,1034
167,2266
167,3369
167,4846
169,279
169,330
169,610
169,954
169,2340
169,3520
169,4883
170,835
170,2182
170,3695
171,1420
171,2056
171,3871
171,3906
172,16
173,156
174,2021
175,168
175,405
176,4958
177,103
177,1034
177,1199
177,1372
177,2145
177,3190
177,3543
177,3924
177,4413
178,53
178,129
178,4324
179,176
180,624
180,1662
180,2541
180,3065
182,3201
185,85
185,309
186,282
186,472
186,1766
186,4067
186,4163
187,4220
190,760
190,1315
190,3668
190,4578
194,503
194,1029
194,1659
194,1732
194,2299
194,2348
194,3109
194,4929
195,1883
195,1940
195,3204
196,277
196,342
196,1712
196,1802
196,2106
196,2199
196,2692
196,3127
196,3942
197,311
197,543
197,1641
197,3233
197,3623
197,4709
197,4741
198,33
199,1005
199,4111
199,4305
200,461
200,569
200,768
200,818
200,832
200,1273
200,1355
200,1631
200,1993
200,2477
200,2782
200,2968
200,3832
200,4310
200,4384
200,4997
201,732
201,1498
201,3477
201,4175
202,348
202,4472
203,2428
203,3200
204,447
204,1492
204,2136
204,2235
204,2494
204,2992
204,3496
204,3932
205,1491
206,1302
207,573
207,745
207,1196
207,3309
209,723
209,3506
210,33
210,4477
212,2080
212,2215
212,4437
213,8
213,20
213,679
213,704
213,992
213,1035
213,1167
213,1194
213,1235
213,1404
213,3179
213,4694
213,4707
214,3378
217,1208
217,2136
217,3676
219,173
220,1643
221,645
222,1361
222,1564
222,1624
222,1668
223,698
223,2559
223,2855
226,659
226,1198
226,2029
226,2154
226,3866
226,4001
226,4316
228,3366
233,617
233,624
233,1217
233,1287
233,2673
233,4226
234,1580
234,3111
234,3380
236,558
237,675
237,1559
238,3264
241,1599
241,2255
241,4816
242,124
242,4308
243,679
243,1147
243,1531
243,2089
243,3644
243,4147
243,4959
243,4963
245,1532
245,2762
246,881
246,1755
246,2263
246,3264
247,1241
248,1736
248,1947
249,4638
250,410
250,610
250,1298
250,1771
250,2893
250,3798
250,3881
252,255
252,388
252,612
252,1140
252,1378
252,1776
252,3205
252,3513
252,4814
253,974
253,1421
253,2373
254,32
254,268
254,2002
256,573
259,15
259,618
259,1103
259,1459
259,4598
260,3021
260,3277
261,581
261,646
261,2820
261,4210
262,3
262,2149
263,44
263,3940
264,377
264,380
264,451
264,541
264,574
264,575
264,912
264,2206
264,3870
265,3309
266,193
266,647
266,2257
266,2448
266,3417
266,3434
266,3755
266,4289
266,4466
266,4660
267,3678
270,2666
270,3264
270,3365
272,423
272,1445
272,1714
272,2642
273,650
273,4117
273,4578
275,4808
280,849
280,3054
281,679
281,700
281,951
281,1228
281,2161
281,2203
281,2667
281,3079
281,4042
284,992
285,3190
286,507
286,3306
287,1078
287,1127
287,4943
288,108
288,417
291,295
291,892
291,1140
291,1216
291,1284
291,4929
292,448
292,4749
292,4941
293,1624
293,2355
293,2625
295,4274
297,2544
297,4525
297,4711
300,517
300,1193
300,1404
300,1701
300,2258
300,4404
302,2182
303,251
303,3630
303,4463
303,4845
305,2148
305,3378
305,3581
306,797
306,1048
306,1197
306,1246
306,1655
306,1763
306,2115
306,2536
306,2662
306,3359
306,4198
306,4204
307,444
307,4632
310,147
310,2951
310,4906
311,152
311,537
311,574
311,878
311,1357
311,4253
312,159
312,163
312,625
312,1046
312,1742
315,224
315,3965
316,3248
318,894
318,1591
318,2532
318,2873
318,4783
319,63
321,2626
322,1962
323,8
323,183
323,1252
323,4343
325,1352
325,3352
326,279
326,937
326,944
326,1638
326,2054
326,3135
326,3389
327,96
327,1465
327,4426
329,244
329,1252
329,2929
329,3182
329,4621
329,4637
331,860
333,2006
335,1461
336,81
336,145
336,244
336,280
336,509
336,590
336,836
336,1237
336,1927
336,2274
336,2499
336,3586
336,3628
336,4190
336,4379
337,20
337,259
337,3287
337,3865
338,192
338,289
338,364
338,665
338,1165
339,2569
340,1405
341,653
350,3902
351,332
352,985
352,1137
352,2663
354,2855
357,4083
359,358
359,1425
359,2065
360,176
360,4114
361,2209
363,383
363,778
363,1066
363,1337
363,2222
363,4290
364,121
364,1259
365,356
365,452
365,1485
365,4406
366,2391
367,44
367,3853
368,33
368,1405
368,2131
368,3884
368,4663
368,4797
368,4959
369,985
369,3084
371,4270
373,913
373,3650
373,4810
373,4842
374,1252
375,1353
375,3417
376,4663
380,330
380,3200
382,1833
382,1988
382,3613
382,3758
382,4633
387,569
388,2060
388,3404
389,2156
389,2321
390,99
390,1128
390,1270
390,2755
390,4231
391,2092
392,1298
392,2996
392,3200
392,3737
393,98
394,187
394,426
394,670
394,906
394,1465
394,1778
394,3533
394,4881
395,1796
396,708
396,1415
396,1928
396,2312
396,3623
397,1575
397,4663
398,422
398,533
398,3200
400,945
403,345
403,1427
403,3183
404,208
404,1273
404,1377
404,1864
404,2549
404,3587
404,4711
405,1123
405,3021
405,3369
406,2532
406,3959
406,4253
407,63
407,3417
408,540
408,1236
408,1832
408,1838
408,2172
408,2678
408,3534
408,4194
411,227
411,752
411,992
411,1102
411,3378
411,3872
411,4331
413,1300
413,4715
416,381
416,1973
416,3088
416,3915
417,145
417,3124
417,3164
418,342
418,1297
418,4881
419,1740
419,4805
420,4406
421,296
421,324
421,4847
424,745
424,866
424,1000
424,1302
424,1707
424,3690
425,4878
427,1707
428,1542
430,191
430,3488
431,654
431,657
431,1044
431,1916
431,1956
431,3946
432,2550
435,35
435,63
435,230
435,568
435,879
435,1681
435,2079
435,3186
435,3716
435,3782
435,4309
436,279
436,1931
436,2002
437,2038
437,4834
438,1127
438,1154
440,945
440,4046
443,1931
448,4754
451,2480
451,2569
451,3378
451,3672
451,4667
451,4874
453,3604
454,274
454,1595
454,3527
457,94
457,1080
457,2461
457,2547
457,2681
457,2760
457,3264
457,3347
457,3706
457,4076
457,4560
459,550
459,1131
459,1838
459,2328
459,3993
460,492
460,660
460,2533
460,2558
460,2876
460,3120
460,3178
460,3222
460,3406
462,806
462,1532
462,2142
462,2520
462,4018
463,1796
464,307
464,861
464,2144
465,224
465,1089
465,2776
465,3433
466,546
467,2147
467,2978
469,3290
469,4237
473,3200
476,3378
477,1008
477,1817
477,3714
479,381
481,20
483,372
485,680
485,901
485,1025
485,1897
485,3021
485,3926
485,4440
486,1273
486,1506
486,1866
486,2795
486,3330
486,3714
486,4634
487,227
487,4659
490,8
490,974
490,1182
490,1879
490,4013
490,4948
491,3176
494,224
494,1464
494,4408
495,56
495,1314
495,2436
495,4569
496,3214
496,4163
497,383
497,4868
499,722
500,145
500,3200
501,691
501,1419
501,1426
501,1719
501,2122
501,3804
501,3934
501,4039
501,4716
502,98
502,189
504,1792
504,2029
504,2695
504,4316
507,2496
508,165
508,657
508,704
508,3361
508,4441
508,4624
510,3642
511,309
513,2924
513,3200
513,3302
519,391
519,2073
520,1187
520,2094
520,2293
520,3707
520,3754
523,208
523,1926
523,4881
524,1390
524,3084
525,217
525,297
525,526
525,573
525,677
525,864
525,887
525,977
525,1224
525,1455
525,1493
525,1707
525,2452
525,2701
525,2819
525,2826
525,3123
525,3496
525,3588
525,4213
525,4831
525,4883
531,3167
531,3625
531,4881
532,258
532,2123
534,3200
535,4245
536,232
536,279
536,4961
538,3118
542,99
543,356
543,528
543,2573
543,2726
543,4883
544,3228
551,188
553,3176
554,342
554,4417
555,560
555,1295
555,3526
555,4797
557,468
557,3296
559,1360
559,2919
563,4115
564,189
564,211
564,307
564,562
564,666
564,682
564,790
564,1546
564,1723
564,1860
564,2327
564,2931
564,4297
564,4448
564,4772
564,4923
566,581
566,1127
566,3541
566,4833
567,409
567,1490
570,704
570,879
570,1831
570,3309
571,3979
572,3501
573,98
573,1416
573,2379
573,2943
573,3730
575,599
575,2237
575,2319
575,3021
575,3613
575,4758
576,835
576,1573
579,345
579,1047
580,3462
582,2154
583,251
583,2899
586,517
586,1035
586,1753
587,503
587,1856
589,3250
589,4785
591,3683
592,1291
593,4100
594,2293
595,757
595,1670
596,3379
597,631
597,1328
597,2328
597,2586
597,2856
597,3956
597,4100
597,4515
601,581
601,3753
602,666
602,1834
602,3793
603,173
603,849
603,3384
603,4166
608,1573
608,3828
609,822
609,1091
609,3589
609,4864
609,4868
611,620
611,759
611,766
611,1125
611,1599
611,2546
611,2791
611,3247
613,493
613,2225
614,2002
615,2209
616,774
616,1493
616,3772
617,2282
619,2976
619,3017
623,648
623,3352
623,4659
629,991
629,2161
629,2960
630,731
630,749
630,1457
630,1802
630,2766
630,3335
630,3838
633,145
633,4584
634,530
634,1807
635,355
638,2764
638,4406
639,917
639,1277
639,3065
641,1670
642,974
643,2002
644,4881
651,324
651,1620
652,789
652,2536
653,46
653,182
653,699
653,745
653,1909
653,2480
656,1376
656,1885
656,2622
657,3378
660,974
662,2678
663,2840
667,1273
667,1575
667,3530
667,3753
668,679
669,14
669,3041
669,3938
672,334
672,4464
674,314
678,129
678,733
678,3295
681,1875
681,2282
681,4292
683,290
683,1341
683,1859
685,1596
685,1817
686,2015
687,2576
689,819
689,988
689,1127
689,1996
689,2185
690,1007
690,2908
690,4455
692,3683
693,4644
694,3615
694,3683
694,4446
696,372
696,909
698,1532
698,2076
705,3
705,2015
706,546
706,610
706,3360
707,381
707,755
707,1561
707,4733
707,4845
711,415
712,68
712,830
712,1522
712,1802
713,381
713,1734
715,517
715,3420
716,1802
716,2775
717,1127
717,3195
717,4587
718,541
719,3200
722,527
722,2186
722,2731
722,3508
722,3708
722,4868
724,809
725,103
725,2384
725,2690
725,2801
726,133
726,745
728,3322
731,4406
735,3277
735,3378
735,3634
735,3640
736,75
737,11
737,1158
737,1374
737,2646
737,2648
737,3614
741,515
741,858
741,2262
741,4772
743,3264
744,1343
745,664
745,3884
745,4630
747,3803
747,4020
749,470
750,409
751,68
751,2764
753,147
753,742
753,754
753,1802
753,1999
753,3975
753,4554
756,517
756,2444
756,3438
761,4163
761,4688
763,1962
764,1958
765,862
765,1080
765,1744
765,2505
766,147
770,192
770,1055
770,1252
770,2258
770,2484
770,4520
772,98
772,1120
772,3936
773,14
773,588
773,1984
773,2942
773,4578
774,277
779,184
779,738
781,1624
781,3850
781,3952
783,1552
783,3345
784,86
784,99
784,425
784,1028
784,2581
784,2625
784,4044
785,2170
786,4881
787,2161
787,3200
788,468
790,1368
790,4714
790,4955
792,1170
792,1383
793,1072
793,3755
794,4316
795,140
795,334
795,998
795,1741
797,624
799,987
799,2324
800,770
800,1411
800,2371
800,2856
800,3458
800,3470
800,3889
801,664
801,2378
802,1354
802,1533
802,1701
802,2797
802,2827
802,4784
802,4786
803,2698
804,503
806,1503
807,977
807,1220
807,1743
807,1822
807,3147
807,3366
809,974
809,2217
810,2266
810,2672
810,3097
811,2800
812,573
812,814
812,1601
812,3501
812,3625
815,98
815,676
815,3626
815,4256
820,2361
820,2389
823,309
823,1069
823,1532
826,3264
827,4185
828,224
832,671
838,216
838,708
840,1015
840,1812
840,3689
840,3803
843,356
843,2276
843,3753
844,98
844,456
844,537
844,2540
844,2634
844,3265
844,3884
844,4739
844,4888
845,2018
845,3085
845,3295
845,3298
845,3916
845,4907
846,1205
846,2936
847,4006
848,548
848,977
848,3492
850,208
850,1284
850,4368
851,33
851,758
851,1360
851,1403
851,1473
851,1532
851,3397
852,2973
852,3461
852,4772
853,722
855,517
855,535
855,2200
855,2300
856,1063
856,1704
856,3295
856,4007
859,6
859,731
860,4124
861,3227
862,2306
862,4589
863,355
864,1292
864,1398
864,2887
864,3370
864,3504
867,370
867,3780
869,20
869,1121
871,232
873,939
875,3496
876,618
877,2277
880,3168
880,3526
881,87
881,145
881,224
881,284
881,930
881,977
881,1104
881,1391
881,1485
881,3264
881,3555
881,3724
881,4207
882,1404
882,4868
883,632
883,2189
883,3003
883,3623
884,2735
884,3497
884,3727
884,4771
885,1
885,1364
885,3318
888,8
888,2732
888,3921
890,854
890,878
890,1393
890,1970
891,14
894,1111
894,3684
894,3755
895,309
895,4533
897,928
898,276
898,1233
898,1277
898,2503
898,3217
899,3496
900,870
900,3200
902,298
903,1009
905,775
907,709
909,4005
910,1215
910,2057
910,2168
911,129
914,552
915,1084
915,2012
915,2161
915,4640
916,44
916,121
916,1273
916,3236
919,355
920,103
920,1551
920,1656
920,2245
920,2346
920,4728
921,723
921,1750
922,851
922,1156
922,1230
922,4500
922,4906
923,526
923,1326
923,3330
924,527
924,4316
926,3248
930,274
931,279
932,134
932,950
932,4469
933,3378
935,1624
935,2780
936,2997
936,3235
939,739
939,2086
939,2391
939,3666
939,3822
939,3928
939,4245
940,94
940,477
940,1321
940,2613
940,2954
940,4190
940,4796
940,4843
943,4259
945,4328
946,145
946,3239
952,173
952,2002
952,3769
955,797
956,2379
956,4163
959,355
959,1477
960,16
960,499
960,1019
960,1082
960,1904
961,1962
961,3631
961,3683
963,145
963,3812
967,4101
968,274
968,1991
969,187
969,1258
970,240
970,3318
971,832
972,294
972,4659
975,356
975,1639
975,2874
978,4987
980,211
980,353
980,1570
980,1686
980,3952
980,4142
983,1600
983,1857
983,1995
983,2057
983,3427
986,301
989,886
989,2895
989,3052
989,3803
990,283
993,4053
993,4795
995,1
996,94
1001,1573
1001,4759
1003,259
1003,3547
1003,4879
1004,176
1004,220
1004,897
1004,1520
1004,2277
1004,3496
1004,3511
1004,3835
1004,4838
1007,20
1007,1571
1009,1120
1009,4316
1010,729
1013,259
1013,1741
1014,4253
1015,44
1015,193
1015,279
1016,1314
1017,754
1018,1804
1018,2228
1018,2971
1018,3295
1018,4301
1020,927
1021,2117
1021,2379
1021,4988
1022,698
1022,4675
1023,3844
1024,930
1027,1237
1027,1818
1027,3902
1029,1
1029,53
1029,1096
1029,1586
1029,2164
1029,4348
1031,191
1031,216
1032,314
1033,659
1036,1826
1036,4331
1037,3711
1038,1622
1038,2734
1039,4663
1040,158
1040,2163
1040,3781
1040,3852
1041,977
1041,3292
1042,1300
1042,2605
1042,3332
1042,3855
1042,4502
1043,1067
1047,277
1047,2904
1049,176
1050,953
1053,3121
1054,75
1057,20
1057,99
1057,1209
1057,1314
1057,1428
1057,2622
1057,2788
1060,75
1060,3835
1061,3427
1064,2002
1064,4036
1068,3059
1069,1901
1069,4909
1070,152
1073,515
1073,2759
1074,231
1074,3699
1075,1795
1076,1744
1076,4760
1077,2482
1077,3084
1079,1159
1079,1926
1080,3490
1080,4045
1081,145
1081,862
1081,941
1081,1759
1081,3835
1081,4187
1083,482
1087,307
1088,666
1088,720
1088,793
1088,796
1088,1028
1088,1045
1088,1493
1088,1557
1088,2150
1088,2698
1088,3327
1088,3623
1088,3691
1088,3798
1088,3878
1088,4618
1088,4835
1093,1
1094,1188
1094,1305
1094,1964
1094,2470
1094,3065
1095,455
1098,2371
1101,1092
1104,309
1104,1283
1104,1721
1104,2442
1104,2499
1104,3862
1104,3921
1104,4397
1104,4561
1104,4692
1104,4813
1104,4880
1105,4139
1105,4760
1106,738
1106,1736
1106,2748
1106,3623
1108,2936
1109,3326
1112,173
1112,1604
1112,2062
1112,3324
1113,195
1113,3665
1113,4449
1115,46
1115,3105
1115,4642
1116,33
1117,4257
1119,1086
1119,1794
1120,47
1120,1644
1120,4953
1121,1564
1122,2254
1122,4245
1124,44
1124,3998
1129,892
1129,3005
1129,3971
1129,4575
1130,701
1130,3114
1130,3713
1130,4676
1130,4881
1131,15
1131,468
1131,874
1131,2014
1131,2651
1131,3369
1131,4792
1133,3222
1133,4067
1135,1034
1135,1579
1135,2679
1135,3222
1136,2350
1136,3793
1138,683
1138,2721
1138,3595
1140,20
1140,1259
1140,1309
1140,2755
1142,621
1142,742
1142,3791
1142,4294
1142,4703
1143,892
1144,2800
1146,653
1146,1771
1146,4929
1150,1430
1150,3528
1151,1943
1155,1067
1157,879
1159,2670
1160,1570
1161,526
1163,1906
1163,2161
1163,2813
1163,4827
1164,3068
1166,2062
1171,1472
1171,1771
1171,2549
1171,2752
1171,3069
1171,3259
1171,3345
1172,974
1172,1071
1172,1351
1172,3021
1172,3172
1172,4051
1175,4881
1176,527
1178,1784
1178,1981
1179,63
1179,145
1179,705
1183,259
1183,3839
1184,861
1184,2646
1184,3768
1185,277
1185,415
1185,879
1188,1134
1190,2347
1190,3283
1191,977
1191,3572
1191,3924
1193,86
1193,290
1194,20
1194,661
1194,1000
1194,1207
1194,1245
1194,1267
1194,1647
1194,2833
1195,14
1195,1059
1195,1869
1195,4991
1200,574
1200,886
1200,1794
1200,4957
1201,283
1201,1937
1201,3199
1202,1796
1202,4834
1204,892
1204,3144
1206,676
1206,1331
1211,2161
1213,908
1213,1345
1218,2889
1218,3246
1221,4437
1222,280
1222,3744
1223,4943
1225,96
1225,1490
1225,4772
1231,984
1232,3100
1232,4316
1234,1627
1234,1755
1234,2634
1236,1433
1238,909
1239,631
1239,3073
1241,1092
1242,527
1243,654
1243,2678
1243,3930
1243,4772
1244,349
1247,1127
1248,1300
1248,4600
1249,20
1249,81
1249,251
1249,4338
1250,75
1253,939
1253,3040
1254,8
1254,917
1254,1696
1254,2414
1254,3129
1254,3191
1255,954
1255,2630
1256,259
1260,620
1262,99
1263,274
1263,1275
1263,1980
1264,4954
1266,3114
1266,3200
1269,621
1269,3374
1271,2468
1271,4406
1272,232
1272,3625
1274,851
1274,4990
1276,858
1280,578
1280,2322
1280,2723
1280,2846
1280,4405
1281,1156
1282,2475
1282,4772
1285,3591
1286,4361
1288,653
1288,1294
1288,3835
1289,545
1289,3334
1291,610
1293,189
1298,4399
1299,3665
1300,483
1301,648
1302,821
1303,647
1303,727
1303,1453
1304,31
1304,528
1304,548
1304,658
1304,1248
1304,1431
1304,1770
1304,1858
1304,2041
1304,2559
1304,3051
1304,4083
1306,1704
1306,1962
1306,2622
1306,3021
1306,3299
1307,464
1307,714
1307,3476
1307,3685
1307,4279
1307,4470
1308,2467
1311,2830
1311,3059
1311,4964
1312,574
1314,514
1315,666
1315,1408
1316,50
1316,522
1317,181
1317,518
1317,4461
1318,1240
1319,1071
1319,1111
1319,1772
1319,4872
1320,334
1322,1422
1322,2441
1322,2612
1323,1359
1323,2154
1324,133
1324,441
1324,1073
1324,1259
1325,3835
1327,992
1329,3
1329,516
1329,1287
1329,3440
1332,2597
1332,4542
1333,2530
1333,2923
1333,4578
1334,1052
1336,277
1336,3875
1338,677
1339,4929
1340,1111
1342,1267
1343,3060
1344,1322
1344,3784
1346,2090
1347,2379
1347,4884
1348,1803
1350,2544
1351,472
1351,482
1351,574
1351,1198
1351,1546
1351,1869
1351,2158
1351,3033
1353,688
1353,2388
1353,3226
1353,3344
1353,4024
1354,1279
1356,401
1357,121
1357,289
1357,3216
1357,3516
1360,1061
1361,791
1361,1188
1361,1668
1363,650
1364,1421
1365,1111
1366,516
1366,843
1366,862
1366,2067
1366,3370
1366,3974
1366,4286
1367,1528
1367,2337
1370,1356
1370,1447
1371,1208
1373,20
1373,2479
1373,4246
1374,3021
1379,1071
1381,1845
1381,4655
1382,259
1382,1120
1382,1240
1382,1833
1382,3418
1384,2187
1384,4477
1384,4736
1385,2117
1385,2149
1386,2997
1388,4202
1389,227
1389,309
1389,985
1394,535
1394,3652
1395,770
1395,2803
1395,3786
1395,3990
1397,244
1398,498
1398,1132
1398,2916
1399,908
1399,3756
1400,274
1401,563
1401,829
1401,3378
1401,3807
1401,4129
1404,546
1404,3378
1407,134
1409,3876
1410,114
1410,927
1410,1837
1410,1953
1410,4406
1411,748
1412,371
1412,1515
1412,3948
1412,4374
1413,4868
1417,347
1417,1571
1417,1962
1418,96
1418,819
1418,1885
1418,4135
1418,4759
1419,2015
1424,3831
1428,2391
1429,701
1429,974
1429,4269
1432,176
1432,320
1432,2296
1432,2643
1432,3888
1432,4100
1432,4484
1434,324
1434,1524
1434,1787
1434,2800
1435,2015
1436,149
1437,284
1437,631
1437,908
1437,4566
1438,646
1439,878
1440,838
1441,722
1443,415
1443,636
1443,1056
1443,1174
1443,1898
1443,2326
1446,41
1450,4259
1451,1314
1454,3496
1456,1300
1458,8
1459,837
1460,3711
1461,1793
1461,1819
1461,1893
1461,2275
1461,2554
1461,3492
1461,3496
1461,3520
1461,3591
1461,3912
1463,2768
1463,3102
1463,3264
1463,3461
1463,3902
1466,657
1470,345
1471,1815
1471,2354
1471,2649
1474,3217
1476,627
1476,908
1476,1676
1476,1893
1478,1210
1478,1716
1479,974
1481,2924
1482,1252
1482,2301
1483,344
1483,2437
1484,1445
1485,549
1486,1019
1487,930
1488,1098
1488,2822
1488,4160
1489,159
1493,1177
1493,2581
1493,3797
1494,355
1495,7
1495,985
1496,2288
1497,1252
1497,2142
1497,2591
1497,3132
1497,3539
1497,3720
1497,4316
1500,698
1501,370
1504,1559
1505,749
1507,675
1507,4585
1508,1099
1508,2169
1511,4888
1512,302
1513,1131
1513,2152
1516,2916
1516,4017
1517,41
1517,1314
1518,391
1518,3766
1518,4186
1518,4979
1519,499
1521,527
1522,206
1525,1314
1525,2619
1526,4838
1527,224
1527,1035
1527,2647
1528,3490
1529,3233
1529,3427
1531,2197
1532,1028
1532,2107
1532,3269
1532,4298
1534,1584
1534,3667
1534,3803
1535,1962
1536,704
1537,1962
1537,2278
1538,1309
1540,600
1540,3723
1541,2147
1543,1811
1544,1059
1545,3755
1547,4464
1548,489
1548,4361
1549,2159
1550,3666
1552,3192
1552,3868
1556,775
1558,364
1563,1251
1563,2086
1563,4115
1564,301
1567,548
1567,1633
1567,1674
1567,2633
1567,3308
1567,4571
1567,4858
1568,1680
1568,2526
1570,2003
1570,2512
1570,2676
1570,2930
1572,527
1572,1820
1572,2618
1572,3086
1572,3474
1572,4327
1574,4700
1575,3331
1575,4565
1575,4663
1576,168
1576,2469
1580,11
1580,251
1580,660
1580,1086
1580,1911
1580,1950
1580,2459
1580,3354
1580,4522
1580,4829
1582,227
1583,1
1583,20
1583,621
1583,624
1583,854
1585,851
1588,2696
1588,2931
1588,3264
1589,459
1590,2332
1591,227
1592,216
1592,1891
1592,4803
1593,3497
1593,3753
1594,569
1595,928
1598,98
1598,548
1598,1288
1598,1762
1598,1767
1598,3128
1598,3351
1598,3417
1600,176
1600,849
1600,1118
1600,4316
1604,2124
1605,165
1605,610
1605,1701
1605,2835
1605,4657
1606,770
1606,1840
1608,191
1608,1467
1610,1174
1610,2149
1611,1252
1612,1277
1613,1170
1613,1884
1614,215
1614,307
1614,1523
1614,1961
1614,4017
1614,4745
1615,2282
1616,3398
1616,3436
1616,4881
1617,2880
1618,381
1618,4016
1619,4245
1621,1493
1625,189
1625,1750
1625,2644
1626,3233
1626,4035
1629,1493
1630,17
1630,320
1630,347
1630,1863
1630,2527
1630,4065
1632,277
1634,738
1634,2226
1634,3151
1634,4939
1637,154
1637,3569
1642,894
1642,4194
1642,4743
1643,539
1643,1421
1643,4633
1645,4117
1646,2247
1646,4665
1649,2116
1649,2826
1649,3925
1649,4663
1651,392
1651,1437
1653,701
1653,4201
1654,342
1656,2826
1656,3274
1656,4871
1657,977
1657,1277
1657,2625
1658,259
1658,3082
1659,662
1659,3781
1660,649
1661,1719
1663,1058
1663,3902
1664,1586
1665,647
1665,653
1666,344
1666,446
1667,211
1667,1375
1667,1809
1668,47
1668,75
1668,4317
1670,3083
1670,3807
1672,429
1672,3691
1675,1514
1675,2535
1677,74
1677,1819
1677,3957
1679,702
1680,1103
1680,3170
1681,299
1681,722
1681,1148
1681,1404
1681,4611
1682,653
1682,3250
1685,515
1687,3582
1689,1067
1689,2697
1690,447
1694,1789
1694,4922
1695,503
1695,2243
1697,289
1697,3161
1697,3498
1699,2379
1699,3243
1700,3249
1700,3803
1703,1448
1703,1570
1705,284
1705,1556
1706,1393
1706,1708
1706,3021
1706,3570
1709,251
1710,4245
1711,1016
1715,1270
1715,2079
1715,3654
1715,3703
1717,51
1717,992
1718,4140
1719,1149
1721,24
1721,2725
1724,3871
1725,1084
1725,3045
1726,2112
1726,3710
1726,4321
1726,4461
1727,1570
1730,31
1731,111
1731,1405
1731,3009
1731,3253
1731,4031
1733,391
1733,3378
1733,4443
1735,4101
1737,4036
1738,1774
1738,1889
1738,2331
1738,4195
1739,843
1739,1892
1739,2156
1740,2952
1745,68
1745,2818
1747,1323
1748,4007
1750,1357
1751,46
1752,334
1752,1569
1752,3482
1754,3613
1756,16
1756,4181
1757,1480
1758,1356
1758,2729
1758,3440
1758,4344
1760,1141
1761,1065
1763,3496
1764,1152
1764,4507
1765,2290
1765,3602
1768,184
1769,4845
1771,227
1771,2072
1771,4424
1773,930
1779,68
1779,537
1779,854
1779,889
1779,1145
1779,1414
1779,1650
1779,1954
1779,3307
1779,3755
1779,4711
1779,4722
1782,192
1782,626
1783,68
1783,2597
1785,304
1786,793
1786,4138
1788,3154
1788,3200
1789,8
1790,356
1790,1227
1790,2573
1790,3496
1790,3930
1790,4406
1790,4870
1791,224
1791,974
1791,1252
1796,1742
1796,3074
1796,4432
1798,3200
1799,951
1800,767
1800,3753
1800,3792
1801,447
1805,851
1805,1635
1805,1866
1806,581
1808,46
1810,2267
1810,4202
1811,2277
1814,44
1818,12
1821,149
1821,468
1821,527
1821,581
1821,584
1821,908
1821,948
1821,1072
1821,1265
1821,2139
1821,2602
1821,2678
1821,2864
1821,3505
1821,3511
1821,3755
1823,632
1824,1416
1824,2154
1824,4776
1828,605
1828,942
1828,973
1828,1402
1828,2329
1828,2561
1828,2991
1828,3596
1828,4050
1828,4943
1829,441
1829,925
1829,957
1829,1564
1829,1922
1829,4430
1830,32
1830,1128
1830,2880
1830,4877
1832,381
1835,1159
1836,208
1838,709
1838,1472
1838,2801
1838,3387
1839,1842
1839,2855
1839,4022
1840,974
1840,2339
1841,447
1843,1210
1843,2507
1843,3378
1843,4200
1844,380
1846,289
1846,2059
1846,4100
1848,1090
1848,1348
1849,32
1849,686
1851,515
1851,4372
1851,4756
1852,515
1853,1570
1854,4036
1855,2487
1855,3373
1861,423
1862,4772
1863,3190
1864,20
1864,1065
1864,2239
1864,3501
1864,4247
1865,679
1865,831
1865,1075
1865,1602
1865,2248
1865,2707
1865,2831
1867,277
1868,982
1868,1467
1868,2659
1870,1688
1871,632
1871,2443
1871,3619
1872,2174
1873,355
1873,2249
1876,7
1878,314
1880,1952
1880,3486
1882,527
1882,1278
1882,2954
1886,451
1887,503
1887,1966
1888,503
1888,3340
1888,3341
1888,3349
1890,81
1894,762
1894,2610
1894,4145
1896,646
1896,727
1896,2141
1898,4189
1899,2395
1899,2729
1902,20
1902,990
1902,4005
1902,4253
1903,3753
1907,1514
1908,4578
1911,814
1911,4167
1913,1258
1913,1972
1914,2
1914,181
1914,637
1914,1237
1914,1792
1914,1838
1914,2450
1914,4084
1914,4523
1914,4826
1914,4949
1915,907
1915,1650
1917,96
1917,3352
1918,1615
1918,2368
1918,2652
1918,2911
1918,4853
1919,441
1920,258
1920,1159
1920,4191
1921,1477
1923,738
1924,399
1924,3228
1925,1134
1929,49
1932,334
1933,290
1933,3408
1933,3880
1934,632
1934,829
1935,1943
1936,605
1936,997
1936,1573
1938,1276
1939,2470
1939,4477
1941,1196
1942,917
1943,731
1943,4316
1945,4845
1946,3979
1947,1850
1948,1553
1955,32
1955,85
1957,4772
1958,280
1960,2125
1960,2211
1963,141
1963,385
1963,402
1963,468
1963,930
1963,2266
1963,4269
1967,1553
1967,2875
1967,2900
1967,3497
1967,4499
1969,3648
1971,796
1974,662
1975,879
1975,1268
1976,1361
1976,2472
1977,484
1978,401
1978,3457
1978,4592
1979,548
1979,573
1981,2395
1982,324
1986,503
1987,1198
1989,912
1990,3668
1992,3200
1994,1552
1997,53
1998,1741
2001,837
2001,1650
2001,2066
2001,2584
2001,2997
2003,7
2003,193
2003,1056
2003,2150
2003,2769
2003,3325
2005,176
2006,1686
2006,2316
2007,1647
2008,1860
2010,2800
2010,4842
2012,211
2013,1177
2013,4425
2013,4967
2015,522
2016,797
2019,768
2020,67
2020,684
2020,4641
2021,3378
2021,3477
2022,1265
2024,505
2025,617
2025,883
2027,314
2028,1127
2029,517
2030,2045
2031,505
2031,4225
2032,4269
2033,730
2033,1778
2034,1192
2035,917
2036,2487
2038,2086
2039,1420
2039,2794
2040,227
2042,67
2044,98
2045,8
2045,278
2045,2575
2045,2844
2045,2980
2045,3671
2045,4234
2045,4402
2046,1216
2048,385
2049,1947
2050,2817
2050,3831
2050,4440
2051,1051
2052,4881
2053,3030
2053,3835
2055,1310
2058,191
2058,1477
2058,2271
2058,3297
2058,3392
2058,3415
2061,657
2062,704
2063,791
2063,928
2063,1404
2063,2977
2064,371
2064,4932
2068,1746
2068,3128
2069,1348
2070,147
2074,650
2074,1824
2074,1837
2075,41
2077,3800
2083,1559
2084,3429
2084,4956
2085,1926
2093,119
2096,68
2097,307
2100,780
2100,3142
2100,3526
2101,2774
2102,698
2102,4406
2105,1464
2106,319
2106,3504
2106,4414
2110,1128
2111,33
2111,838
2111,1158
2111,3967
2113,3243
2114,345
2116,4062
2119,224
2120,3530
2121,16
2121,32
2121,309
2121,512
2121,561
2121,816
2121,2103
2121,2170
2121,2335
2121,2980
2121,3660
2121,3981
2121,4808
2126,1520
2127,1796
2128,1387
2129,2141
2129,2208
2129,2534
2129,3245
2129,4113
2130,2154
2132,3033
2133,2441
2134,173
2134,708
2135,2607
2135,2664
2135,2937
2135,4325
2136,1210
2137,3200
2137,3609
2138,1472
2138,2507
2138,3016
2138,3391
2138,4239
2138,4648
2138,4854
2140,1503
2142,205
2142,4342
2143,4888
2144,1683
2144,3367
2146,3683
2149,53
2151,224
2151,522
2151,3369
2151,4881
2152,1102
2152,1452
2153,1452
2155,451
2155,2881
2155,3826
2155,4098
2156,2574
2157,1802
2157,2945
2157,3170
2157,4858
2159,1817
2159,3553
2159,4483
2162,2380
2162,3182
2162,4507
2163,607
2166,1624
2166,2997
2167,581
2170,1741
2171,290
2171,370
2171,1095
2171,1636
2171,2392
2171,2597
2173,2470
2173,4461
2174,1524
2174,4965
2175,1686
2176,3291
2176,3895
2178,294
2179,3033
2180,4929
2183,806
2183,2762
2184,1683
2184,4119
2190,18
2190,20
2190,24
2190,1324
2190,2147
2190,2773
2190,3013
2190,3081
2190,3322
2191,857
2196,218
2196,1603
2196,4659
2198,4217
2200,2713
2200,4253
2201,1226
2202,1871
2204,998
2204,2272
2204,4588
2205,2161
2205,2812
2205,4561
2207,4289
2209,1058
2209,4935
2210,1995
2212,4376
2213,2268
2213,2482
2213,2817
2213,3447
2213,4117
2213,4805
2214,934
2214,3179
2214,4966
2219,958
2220,3084
2221,780
2221,4454
2224,3835
2224,4757
2226,3820
2227,738
2230,121
2230,533
2230,926
2230,2037
2230,3352
2230,4061
2232,636
2233,1964
2236,3113
2238,3021
2238,3336
2240,1230
2241,301
2242,1111
2244,3111
2246,2092
2250,1162
2250,3119
2251,1480
2252,99
2253,4316
2259,517
2260,3355
2260,3431
2261,1452
2261,4010
2264,3311
2265,391
2265,2067
2266,3152
2266,4514
2268,3561
2275,231
2275,3137
2275,3147
2277,327
2277,657
2277,3378
2277,4144
2279,1796
2283,306
2283,1602
2283,2409
2283,3790
2284,4163
2285,42
2285,412
2285,548
2285,1449
2285,1577
2287,3560
2291,2433
2292,4663
2293,627
2294,4501
2294,4858
2295,183
2295,604
2297,527
2298,1173
2298,1322
2298,2602
2302,44
2303,1750
2305,3600
2311,1208
2311,3627
2313,1209
2314,868
2315,4868
2317,1802
2318,1943
2318,4489
2320,4091
2323,3884
2323,4089
2324,1531
2324,3008
2324,3913
2325,227
2326,375
2326,551
2326,1573
2326,2954
2327,2431
2327,4219
2332,4712
2333,673
2333,1035
2336,1796
2338,938
2341,1392
2341,1554
2344,3378
2349,832
2351,4194
2352,1175
2353,349
2353,913
2353,1220
2353,3576
2354,1174
2355,1267
2355,3835
2355,4612
2356,3250
2356,4460
2356,4471
2357,4985
2359,1944
2359,2750
2362,574
2365,1126
2366,871
2366,881
2366,974
2366,2536
2366,2974
2366,3592
2366,3800
2366,4316
2366,4881
2367,4848
2369,2522
2370,4245
2371,63
2372,20
2373,224
2373,1196
2373,1813
2373,1872
2373,2470
2373,2522
2373,3078
2373,3500
2373,4138
2373,4702
2374,806
2375,1644
2377,950
2377,4005
2377,4092
2380,1776
2381,1912
2385,2932
2385,3430
2386,2391
2387,4943
2391,159
2391,834
2395,1398
2396,701
2397,1749
2398,1308
2398,3261
2398,4271
2398,4772
2399,626
2399,4121
2399,4508
2401,649
2402,3920
2403,1559
2403,1983
2403,2526
2404,1734
2406,1850
2406,2706
2407,738
2407,2079
2407,4881
2411,2272
2411,3535
2412,2584
2412,2822
2412,4805
2413,3295
2415,1537
2416,662
2416,3283
2417,1643
2418,1640
2419,498
2420,3558
2420,3848
2421,950
2421,4732
2422,224
2422,4868
2422,4883
2424,96
2424,269
2424,1216
2424,2494
2424,2902
2424,2956
2424,4072
2424,4846
2425,1576
2425,3248
2426,2181
2427,1148
2427,2320
2428,654
2429,2258
2432,4185
2433,1125
2434,662
2435,3270
2435,3526
2438,2355
2438,2947
2439,3389
2440,98
2445,498
2446,1065
2447,1173
2447,2376
2447,3220
2447,4059
2447,4461
2449,1
2453,2555
2453,3496
2455,998
2455,1993
2455,3909
2455,4968
2456,380
2457,578
2457,1067
2457,4588
2459,1868
2459,4316
2460,321
2462,1035
2463,912
2466,1118
2467,386
2467,606
2467,865
2467,909
2467,947
2467,1159
2467,1240
2467,3258
2467,3316
2467,3876
2467,4223
2467,4679
2471,1355
2473,1794
2474,3485
2474,4664
2476,552
2476,654
2478,1216
2478,2056
2481,927
2481,1613
2481,3605
2481,4986
2483,4245
2485,3214
2486,1973
2487,176
2487,4329
2487,4883
2488,4772
2491,4043
2498,1564
2500,4361
2501,20
2501,1691
2502,20
2504,2237
2506,6
2506,355
2507,399
2507,2489
2508,385
2509,1240
2509,2231
2509,2816
2509,2873
2509,3295
2509,3687
2510,2145
2512,3222
2513,755
2515,308
2516,949
2517,4413
2518,1673
2519,3835
2520,1434
2521,355
2522,337
2528,1012
2529,1794
2533,268
2533,345
2533,805
2533,1313
2533,1880
2533,2079
2533,2490
2533,2880
2533,4322
2533,4663
2537,32
2537,2842
2537,3091
2538,464
2538,487
2538,2651
2539,610
2541,1008
2542,94
2543,1643
2544,154
2545,348
2545,2451
2548,3205
2550,3406
2551,4163
2553,1152
2555,283
2555,1734
2556,1991
2556,2956
2556,4251
2557,4772
2559,2930
2559,3255
2559,3954
2559,4380
2560,1095
2560,3815
2562,649
2563,2161
2564,979
2565,702
2566,4316
2567,1300
2568,145
2568,4636
2569,1856
2570,901
2571,184
2571,1584
2571,3281
2572,1707
2574,1445
2577,279
2577,676
2578,98
2579,173
2579,3883
2580,337
2582,833
2583,1673
2585,191
2585,676
2585,1309
2585,1437
2585,2161
2585,4005
2585,4434
2586,108
2587,503
2587,3058
2588,912
2589,2499
2589,3268
2589,4129
2590,4117
2592,3842
2593,697
2594,1794
2596,3731
2597,2148
2598,224
2598,1210
2599,3458
2601,1034
2602,3427
2603,1498
2604,290
2604,3501
2605,2262
2606,1648
2606,3011
2608,1258
2609,3378
2609,3446
2609,3917
2610,1230
2611,2286
2612,6
2612,366
2612,754
2612,808
2612,976
2612,2535
2612,3814
2614,178
2614,2395
2614,4613
2615,3643
2615,4185
2616,1970
2616,3463
2617,280
2617,1180
2617,3522
2617,4300
2621,1098
2621,2088
2621,2988
2621,3636
2623,75
2626,487
2627,671
2627,2412
2627,2573
2628,4245
2629,2088
2629,3283
2631,1012
2632,832
2632,4901
2634,2324
2634,2688
2635,20
2636,1674
2636,4897
2637,1361
2637,3393
2638,732
2639,1570
2640,381
2640,4614
2641,1095
2649,4005
2650,1398
2650,4070
2650,4498
2653,4406
2655,1095
2655,2777
2655,3298
2655,4009
2655,4578
2657,2060
2660,4163
2661,372
2661,4465
2665,1062
2665,4697
2669,391
2671,3032
2672,471
2672,556
2672,1509
2672,1559
2672,1910
2672,4945
2674,2172
2675,2225
2677,581
2677,2905
2677,4314
2680,32
2682,1295
2683,1058
2683,3200
2684,107
2685,471
2685,3313
2686,515
2687,573
2689,8
2691,1135
2691,3113
2693,257
2694,1140
2696,93
2696,913
2696,3048
2696,4403
2699,2141
2700,2209
2702,680
2702,890
2702,1362
2702,1796
2702,2722
2702,3104
2702,4674
2703,2216
2703,3200
2703,4056
2705,3107
2708,950
2709,2933
2709,3803
2710,1079
2714,4729
2715,1397
2716,768
2717,3060
2717,3815
2718,4406
2719,2723
2719,3560
2720,654
2724,1103
2724,3087
2724,3117
2725,4490
2726,4563
2727,703
2727,835
2727,2600
2727,2850
2727,2958
2727,4219
2728,546
2730,1279
2734,478
2737,68
2738,738
2739,659
2740,1245
2741,276
2743,574
2744,557
2744,1521
2745,562
2746,145
2749,818
2751,1297
2753,3111
2754,893
2755,2595
2755,2767
2756,1080
2757,81
2757,4921
2758,945
2758,3366
2760,2268
2760,3086
2760,3808
2761,3071
2761,4617
2762,1555
2763,1707
2763,3434
2765,4899
2766,2361
2770,1350
2771,68
2771,1962
2771,2733
2771,3190
2771,3781
2772,1438
2773,195
2773,3264
2774,610
2775,8
2775,189
2775,487
2775,571
2775,775
2775,2017
2775,4817
2778,11
2778,2262
2779,2634
2781,41
2782,2361
2782,2976
2783,857
2784,1693
2784,2286
2784,2559
2784,3557
2786,471
2786,4537
2787,85
2788,471
2789,33
2790,4163
2792,93
2792,1684
2793,1643
2796,1893
2798,227
2798,251
2799,415
2801,1576
2801,2550
2802,232
2802,2692
2804,588
2805,4659
2806,4682
2807,2495
2808,738
2809,380
2810,1310
2811,1208
2814,468
2814,1245
2814,1261
2814,1766
2816,913
2816,1006
2816,2894
2817,2681
2817,3540
2817,3791
2821,646
2822,732
2822,1804
2823,1983
2823,4556
2824,4406
2825,47
2826,16
2826,159
2828,3264
2829,834
2829,1421
2829,1587
2829,1816
2832,2875
2832,4626
2834,147
2836,2976
2837,1815
2838,1643
2838,3443
2839,621
2839,4426
2841,824
2845,1217
2848,2348
2848,2597
2848,3425
2849,3495
2851,949
2852,1579
2853,2144
2854,2586
2858,2507
2861,1875
2862,111
2862,834
2862,1073
2862,2124
2862,3876
2863,748
2864,192
2864,949
2864,3355
2864,4163
2864,4387
2865,1434
2866,2877
2866,4245
2867,1125
2868,1469
2868,4254
2869,2481
2870,3021
2871,2328
2878,1796
2879,1758
2881,294
2881,302
2881,493
2881,1028
2881,1226
2881,1385
2881,1431
2881,2360
2881,3125
2881,3378
2881,4557
2881,4604
2881,4765
2882,114
2882,4359
2883,4868
2884,94
2884,1127
2884,1573
2884,1912
2884,2329
2884,3820
2885,1261
2886,862
2888,181
2891,2258
2892,1028
2893,20
2893,277
2893,640
2893,844
2896,4406
2896,4706
2897,908
2897,3065
2898,3430
2898,4253
2901,2597
2902,1357
2906,2656
2906,3803
2908,169
2908,4737
2909,1335
2909,4006
2910,1650
2910,3250
2911,1252
2912,1127
2913,1473
2915,129
2918,545
2918,654
2918,1358
2918,2596
2918,2634
2918,4165
2920,2470
2920,3472
2920,3773
2921,1295
2922,945
2924,314
2924,488
2925,381
2926,3596
2928,3200
2934,227
2935,664
2936,3800
2938,1885
2939,1641
2940,2002
2941,858
2941,3284
2941,4440
2944,450
2946,399
2946,617
2946,3352
2946,3369
2946,3539
2946,4304
2948,446
2948,522
2948,1472
2948,2057
2949,3490
2953,2559
2955,184
2957,945
2959,399
2959,3200
2960,4185
2961,1562
2961,4108
2963,624
2964,4117
2965,2304
2966,1796
2966,2573
2967,355
2969,3623
2970,5
2970,168
2970,2193
2970,4268
2971,2656
2972,3200
2975,1503
2979,604
2981,2108
2982,385
2983,3126
2984,1277
2984,3793
2985,1177
2986,259
2986,385
2986,439
2986,529
2986,573
2986,654
2986,1361
2986,1560
2986,1565
2986,3711
2986,4618
2987,4073
2989,780
2989,817
2989,2581
2990,2826
2991,721
2993,314
2994,626
2995,1128
2995,4083
2997,1067
2998,4772
2999,687
3000,1669
3001,512
3001,3732
3002,1890
3004,3496
3006,2835
3007,1468
3007,1889
3007,3798
3010,662
3011,758
3011,1462
3011,1570
3012,3725
3014,259
3015,1493
3020,657
3020,894
3020,2079
3020,2514
3020,3137
3020,3291
3020,3787
3021,3533
3022,165
3023,703
3026,3665
3027,33
3027,714
3027,835
3027,930
3027,4281
3028,1385
3029,833
3029,3399
3031,842
3032,2944
3032,4406
3033,1524
3034,2379
3035,402
3035,1465
3036,1851
3038,161
3039,3831
3042,311
3042,3095
3043,1186
3043,4296
3044,3172
3049,1162
3049,1252
3050,1375
3053,2141
3055,546
3056,2185
3057,2499
3059,484
3059,573
3061,489
3061,2525
3062,234
3063,2510
3064,994
3066,503
3066,3458
3066,4426
3067,857
3067,2797
3068,1050
3069,255
3069,2089
3070,1128
3071,837
3072,3378
3075,159
3075,3917
3076,768
3076,1210
3076,1582
3076,4491
3076,4712
3076,4868
3077,347
3079,439
3079,954
3079,3830
3080,1559
3081,841
3081,3177
3081,4100
3084,1557
3085,2768
3085,3943
3089,392
3089,1780
3089,1893
3089,3145
3092,129
3092,608
3092,1025
3092,2092
3092,2382
3092,4762
3093,1241
3093,3568
3093,4744
3094,574
3096,4163
3098,75
3098,227
3098,230
3098,782
3098,1132
3098,1628
3098,2149
3098,2189
3098,2192
3098,2493
3098,3529
3098,4124
3098,4316
3098,4858
3098,4871
3101,4101
3103,1298
3107,2908
3107,4653
3108,2899
3110,276
3111,388
3111,3284
3112,1926
3113,1110
3116,1701
3116,3407
3116,3519
3118,1591
3119,3835
3124,2600
3126,1837
3128,698
3130,2535
3131,701
3131,2508
3131,3755
3131,4277
3133,632
3134,309
3135,3837
3135,4868
3135,4958
3136,1423
3138,1099
3139,654
3139,965
3140,178
3141,1314
3143,425
3143,1555
3143,2465
3143,3319
3144,1252
3144,4910
3144,4954
3146,110
3148,624
3149,2974
3153,3506
3153,4475
3155,2026
3156,547
3156,2218
3159,111
3159,4375
3160,627
3160,3382
3162,892
3165,565
3165,655
3165,664
3166,1496
3166,1674
3169,93
3169,503
3169,902
3169,1411
3173,2558
3175,3835
3175,4357
3176,81
3176,4019
3179,112
3180,31
3180,385
3180,2292
3180,3554
3180,3871
3180,4251
3181,1838
3181,4700
3182,1310
3182,3897
3184,2262
3185,41
3186,458
3186,1599
3187,227
3187,446
3187,2222
3188,2115
3189,63
3190,20
3190,190
3190,2907
3190,3339
3193,2547
3194,4440
3196,1892
3197,1278
3198,581
3200,3369
3203,776
3203,2262
3206,551
3207,892
3208,3683
3209,2973
3209,3725
3210,1241
3211,1644
3213,1103
3215,3889
3215,4452
3217,546
3218,2721
3219,2161
3220,620
3221,1638
3223,165
3224,2308
3225,446
3225,1002
3228,33
3228,551
3228,906
3228,1043
3228,2511
3228,4005
3228,4164
3230,2573
3232,1889
3235,85
3238,6
3240,792
3240,4005
3241,4557
3244,277
3248,121
3250,2552
3251,3835
3252,1028
3254,70
3254,1591
3257,1555
3262,1071
3262,1203
3262,4352
3262,4504
3263,2729
3263,4260
3264,574
3265,626
3265,1100
3265,1139
3265,3803
3265,4577
3266,1554
3266,2379
3267,632
3271,647
3275,3161
3276,994
3278,4163
3279,332
3279,2164
3279,3234
3279,4331
3280,928
3280,990
3282,3338
3285,2006
3288,2533
3293,4253
3294,4846
3299,1361
3300,3163
3300,3651
3301,658
3303,460
3303,4852
3304,1398
3304,2081
3305,917
3309,1681
3312,2475
3314,2015
3315,573
3315,2634
3317,20
3320,193
3321,1047
3321,2304
3321,3377
3321,4644
3323,107
3326,450
3326,3064
3328,626
3329,487
3332,1930
3332,2742
3332,4163
3333,2187
3337,143
3337,224
3337,618
3337,1462
3337,2165
3337,2645
3337,2729
3337,3171
3337,3256
3337,3311
3337,3378
3337,3479
3337,4586
3337,4881
3338,176
3341,4439
3342,20
3343,4472
3345,4881
3346,814
3347,1120
3348,2043
3348,2826
3348,3532
3350,832
3350,2872
3353,332
3355,1150
3356,4440
3357,1314
3362,1849
3362,3760
3363,3106
3363,3250
3363,4646
3365,20
3368,137
3368,1008
3368,1950
3368,2079
3368,3525
3371,2003
3372,1688
3372,1868
3374,258
3375,1498
3376,3921
3377,2480
3379,98
3379,277
3379,527
3381,32
3381,3647
3381,4936
3385,910
3385,4125
3385,4437
3386,573
3388,20
3388,546
3388,896
3388,3428
3388,4726
3389,819
3391,1693
3394,3212
3395,2056
3396,3107
3401,289
3402,145
3402,4548
3405,145
3406,1150
3410,1881
3411,3084
3413,4035
3414,227
3416,937
3418,1586
3419,342
3419,4316
3421,1127
3422,2057
3423,429
3424,229
3424,1610
3424,4698
3426,1643
3439,662
3440,4869
3441,3084
3441,4302
3441,4421
3442,2149
3444,1177
3445,2406
3446,81
3446,912
3446,4663
3448,1110
3449,114
3449,3811
3450,3233
3451,4146
3451,4846
3452,277
3452,1252
3453,3345
3455,512
3455,1643
3456,1097
3456,3810
3456,3960
3456,4677
3458,1678
3459,835
3459,2668
3460,3623
3462,1962
3462,3409
3464,2980
3465,730
3466,610
3466,1794
3467,4432
3469,2249
3471,1719
3475,274
3476,1838
3478,2373
3478,4814
3480,2125
3483,1349
3483,4099
3483,4868
3484,280
3487,20
3491,503
3494,1499
3494,1503
3495,292
3495,2733
3495,4253
3496,2152
3499,731
3502,488
3503,189
3507,2205
3509,347
3512,1524
3512,2890
3515,8
3515,144
3515,979
3515,1325
3515,2497
3515,3496
3515,3913
3515,4233
3515,4506
3515,4868
3517,3239
3518,574
3521,809
3523,24
3524,1573
3526,4440
3527,98
3527,892
3531,2164
3536,50
3537,1652
3538,184
3538,2729
3538,3277
3539,31
3540,3800
3542,1028
3544,909
3544,1180
3544,1230
3544,2840
3544,3788
3544,4563
3546,4993
3548,2089
3549,517
3550,1742
3551,379
3552,1
3552,7
3552,218
3552,2482
3552,3966
3556,930
3557,2086
3558,33
3561,4245
3562,1794
3562,4562
3564,791
3567,527
3567,1678
3567,3352
3567,3709
3573,1335
3574,2895
3574,4623
3575,980
3577,227
3577,4943
3578,1643
3578,2066
3579,917
3583,780
3584,3489
3584,4361
3585,506
3585,734
3585,892
3585,1569
3585,1983
3585,2495
3585,2755
3585,4093
3585,4164
3585,4316
3586,2470
3590,399
3593,2262
3594,3539
3597,1072
3598,2015
3599,913
3600,334
3601,1959
3601,3084
3602,42
3603,3081
3604,1
3604,4404
3606,279
3608,3229
3610,107
3612,456
3613,1279
3616,832
3617,2242
3617,2760
3617,4816
3618,1173
3618,4851
3619,4881
3621,1067
3621,3060
3621,3325
3624,1503
3627,147
3627,3719
3629,1035
3632,740
3632,1804
3632,2595
3632,3665
3633,456
3635,1110
3638,107
3639,3496
3641,535
3641,1742
3642,1566
3642,3801
3643,624
3645,159
3645,489
3646,573
3646,1140
3648,632
3648,4150
3649,4846
3650,3945
3653,1067
3653,4488
3654,362
3654,1532
3654,1676
3654,2847
3654,4002
3655,4406
3656,17
3656,595
3656,1085
3656,1934
3656,2125
3656,3913
3657,20
3657,1300
3658,1948
3659,1638
3661,574
3662,3561
3663,2237
3664,1755
3665,1175
3668,816
3668,4681
3669,1985
3670,154
3670,1259
3673,1562
3673,4627
3675,2002
3679,2394
3679,3163
3679,4410
3680,4023
3681,94
3682,4529
3682,4655
3683,2358
3686,930
3688,1493
3688,1847
3692,3835
3692,4468
3693,1333
3693,4288
3693,4960
3694,3366
3696,1
3696,1375
3696,3545
3697,492
3698,2269
3698,4595
3700,3620
3701,227
3701,950
3702,2678
3704,1103
3705,2185
3711,985
3712,669
3714,107
3714,1413
3715,874
3715,4583
3717,3040
3718,2546
3720,3605
3721,1742
3722,1493
3726,2883
3727,2343
3728,3380
3729,1393
3730,2289
3730,3286
3733,1603
3733,1640
3733,2405
3733,2550
3733,3122
3734,2532
3735,87
3736,232
3736,334
3736,624
3736,1581
3736,1797
3736,2268
3738,2026
3739,4847
3740,709
3741,3481
3742,158
3742,165
3742,308
3742,913
3742,4497
3743,386
3745,2376
3745,3568
3746,533
3748,1514
3749,1035
3750,3231
3751,1259
3752,2658
3755,3565
3755,3768
3759,516
3760,371
3761,1915
3761,4547
3762,539
3762,731
3762,902
3763,1174
3763,4780
3765,2029
3766,227
3766,573
3766,1762
3766,1949
3766,2634
3766,3007
3766,3125
3766,4845
3766,4846
3767,3273
3770,2596
3771,1314
3774,3930
3776,1766
3777,962
3778,2409
3779,1331
3779,4401
3781,1522
3783,3666
3784,234
3784,317
3784,624
3784,2492
3784,2785
3784,3264
3784,3400
3784,4328
3785,1278
3787,573
3787,2009
3787,3248
3789,1850
3791,2142
3794,173
3795,980
3795,4582
3796,1889
3799,255
3800,2540
3802,3111
3803,301
3805,1191
3806,2481
3807,2092
3808,4000
3809,1633
3814,4004
3816,184
3816,370
3817,1103
3817,3488
3817,4025
3819,399
3821,825
3821,1586
3821,2229
3823,4440
3825,3432
3827,63
3829,425
3829,4844
3830,2736
3831,1421
3831,3902
3835,985
3836,1
3839,3250
3840,992
3841,3151
3842,768
3843,4899
3844,3775
3845,762
3845,4566
3847,1033
3847,1770
3850,2815
3850,3834
3850,4863
3851,1904
3853,118
3853,561
3853,1647
3853,3074
3853,4552
3853,4695
3856,1361
3858,489
3859,1584
3860,854
3860,1379
3860,2309
3860,4102
3860,4659
3861,2003
3863,1277
3864,543
3867,227
3869,1385
3871,4269
3871,4659
3872,4234
3873,4005
3873,4143
3873,4934
3874,4005
3875,4830
3879,1744
3881,217
3881,851
3881,1597
3881,1655
3881,3554
3881,3637
3881,4227
3881,4622
3882,4083
3885,4464
3886,2041
3887,4437
3890,3807
3890,4160
3891,1503
3892,1387
3892,4163
3893,2573
3894,984
3894,3151
3894,3164
3897,776
3897,1375
3897,1602
3898,32
3900,3249
3901,193
3901,236
3901,1212
3901,1230
3901,1330
3901,1781
3902,3389
3903,2924
3904,379
3904,1566
3904,2522
3904,2954
3907,1683
3908,3740
3911,1111
3911,4490
3914,113
3914,4422
3917,16
3918,4190
3919,918
3919,4080
3920,3640
3921,2111
3921,2262
3921,3292
3921,3821
3922,1216
3923,1125
3926,434
3927,173
3929,1277
3931,2410
3933,1776
3933,3150
3935,456
3937,3565
3937,4218
3938,313
3938,1532
3938,1720
3938,1965
3941,489
3944,232
3944,1601
3945,1807
3947,2041
3949,2371
3950,114
3950,1687
3951,2552
3953,512
3955,156
3955,1465
3959,314
3960,1011
3960,3939
3961,2154
3962,1084
3964,2484
3967,1002
3969,687
3969,1650
3969,3211
3969,4083
3970,1701
3972,3477
3976,290
3976,1177
3977,1811
3978,2072
3979,2182
3980,1309
3982,1678
3982,2583
3982,3740
3982,4392
3982,4933
3983,3876
3984,1008
3985,780
3985,4026
3986,2503
3987,1305
3988,1566
3988,3492
3989,309
3989,2711
3991,1931
3992,3037
3994,224
3995,152
3996,618
3997,943
3997,2376
3997,4778
3999,225
3999,3533
3999,3899
4004,20
4004,1127
4004,3374
4004,3409
4004,3506
4004,3622
4004,3921
4004,3958
4007,4359
4008,4237
4011,271
4012,2503
4014,2818
4015,3830
4023,1859
4027,770
4028,1342
4028,3378
4028,3497
4029,1962
4030,861
4032,2644
4034,4618
4035,3174
4036,1721
4037,2154
4038,1383
4039,1078
4040,1015
4040,4581
4040,4899
4041,3235
4041,3852
4043,535
4047,401
4048,442
4048,937
4048,2480
4048,2559
4048,2688
4056,1530
4056,2840
4057,384
4057,482
4057,1153
4057,1309
4057,1811
4057,2082
4057,2099
4057,2391
4057,2507
4057,2882
4057,3019
4057,3622
4057,4229
4057,4253
4057,4481
4057,4576
4058,749
4060,3021
4063,661
4063,3572
4064,1092
4066,517
4068,1002
4069,211
4069,610
4069,1566
4069,2270
4069,3176
4070,3273
4071,2797
4075,4406
4075,4563
4077,1416
4078,3768
4079,2255
4080,893
4080,999
4081,1080
4081,3054
4082,573
4085,1643
4086,1934
4087,1573
4088,832
4088,4363
4090,283
4091,671
4093,3768
4094,1398
4095,720
4095,994
4100,415
4100,2092
4101,4148
4101,4185
4101,4881
4103,535
4104,2666
4105,244
4105,4666
4106,1857
4106,3247
4107,94
4107,896
4107,962
4107,1181
4107,2268
4107,3833
4107,4873
4108,951
4109,1092
4110,176
4110,2846
4111,1075
4112,3956
4113,3382
4115,229
4115,345
4115,2071
4115,3134
4116,618
4116,1776
4117,304
4118,657
4120,872
4120,2264
4122,1837
4122,2296
4123,3871
4124,1915
4126,843
4127,2304
4127,4755
4128,574
4128,4614
4131,2843
4132,2218
4133,3506
4135,2045
4136,3486
4137,184
4137,738
4137,981
4137,1145
4137,1850
4140,673
4141,2239
4142,1956
4146,487
4148,208
4148,695
4148,1671
4148,2806
4148,2945
4148,4269
4148,4639
4151,751
4152,1742
4153,113
4153,145
4153,346
4153,708
4153,1335
4154,2106
4155,173
4156,74
4157,3737
4158,913
4159,370
4160,2470
4161,3222
4162,610
4163,1100
4163,1475
4163,1755
4166,17
4168,547
4168,805
4168,819
4168,851
4168,965
4168,1383
4168,3021
4168,3090
4168,3683
4168,4790
4169,3264
4170,2098
4170,3683
4172,257
4173,133
4174,182
4176,215
4176,4451
4177,299
4177,1396
4177,4054
4178,3233
4179,3283
4180,1387
4183,1097
4183,4509
4184,950
4185,259
4185,441
4185,1224
4185,1577
4185,1669
4185,1719
4185,2047
4185,2087
4185,2181
4185,2223
4185,2423
4185,3884
4185,4663
4186,2363
4188,2943
4192,974
4193,3605
4195,1702
4196,1376
4197,2924
4199,2533
4200,129
4200,2345
4202,1180
4203,1035
4205,2002
4206,319
4208,1931
4209,445
4209,646
4209,1722
4210,1103
4211,825
4211,4669
4212,738
4214,621
4215,1640
4216,224
4216,3021
4217,271
4221,98
4221,2015
4222,3021
4224,2002
4226,1107
4228,3504
4230,1794
4231,3134
4231,4893
4232,4440
4235,3815
4236,121
4237,506
4238,2536
4239,1658
4240,628
4240,2470
4240,3432
4240,3821
4240,4461
4242,4406
4243,1532
4243,1877
4243,1890
4243,2026
4243,2524
4243,4411
4244,2306
4245,498
4247,3798
4248,4245
4249,176
4250,1035
4252,1003
4255,3425
4257,184
4258,3973
4259,3021
4261,3842
4263,364
4264,1314
4264,3179
4266,392
4267,8
4267,2200
4268,181
4268,1816
4268,3139
4270,4868
4272,2489
4273,2734
4273,3364
4273,3620
4276,1944
4276,4558
4278,3048
4280,854
4283,1696
4284,517
4285,94
4287,3021
4288,96
4289,4096
4289,4712
4291,155
4291,2656
4293,345
4295,3912
4298,364
4299,1205
4303,2361
4306,2057
4307,2494
4310,173
4310,414
4310,1609
4310,2665
4310,3157
4310,3871
4311,1885
4312,4437
4313,1995
4315,584
4316,2391
4318,790
4318,2002
4318,2161
4319,1631
4320,234
4320,1804
4320,2670
4320,3905
4320,4022
4323,385
4325,2147
4326,699
4328,1120
4332,4043
4333,624
4333,3389
4334,1404
4336,343
4336,355
4336,2081
4336,3390
4336,3435
4336,3607
4337,450
4339,3052
4340,3292
4341,1802
4342,240
4342,401
4342,425
4342,894
4342,1169
4342,1380
4342,1423
4342,1692
4342,2086
4342,2147
4342,3824
4343,1442
4345,8
4346,2929
4347,184
4349,1770
4350,1368
4350,2696
4351,714
4352,1097
4352,2974
4353,3818
4354,1252
4355,703
4355,1252
4355,2121
4356,974
4357,829
4358,1881
4359,14
4359,271
4359,870
4359,3176
4359,3580
4359,4445
4360,347
4360,767
4360,1792
4361,3973
4362,1398
4364,4
4365,3921
4366,824
4366,1802
4366,3389
4367,4352
4368,498
4371,3212
4373,3060
4373,3417
4376,3880
4377,649
4377,2840
4378,546
4378,2172
4381,1493
4382,1
4383,399
4385,573
4385,598
4385,1012
4385,1188
4385,1445
4385,2308
4385,2410
4385,2510
4386,309
4388,3683
4389,3611
4390,173
4391,3902
4393,1266
4395,2816
4396,3464
4398,81
4400,2012
4406,1056
4406,1993
4407,1485
4407,4651
4409,3605
4410,738
4410,4171
4412,1586
4412,2584
4413,1742
4415,1067
4417,191
4417,600
4417,657
4417,842
4417,904
4417,1452
4417,1469
4417,1848
4417,2606
4417,3468
4417,3979
4418,3620
4419,1732
4420,3820
4423,588
4423,4532
4426,8
4427,3496
4428,2079
4431,4233
4433,3021
4434,3810
4435,1624
4435,4803
4436,701
4437,843
4437,937
4439,2795
4441,2760
4442,20
4443,94
4443,3272
4443,3813
4444,3174
4444,4487
4445,4440
4447,3876
4450,908
4452,4097
4453,838
4456,31
4456,3289
4457,3934
4458,1613
4461,1047
4461,2581
4462,1537
4467,1597
4472,4663
4474,1080
4476,35
4476,515
4476,709
4476,4134
4476,4394
4479,4035
4480,4788
4482,2847
4483,833
4483,966
4484,2917
4485,1926
4486,574
4489,879
4491,1729
4492,1216
4493,2147
4493,3793
4493,4748
4496,296
4496,585
4496,780
4496,938
4496,1252
4496,1480
4496,1644
4496,1777
4496,1893
4496,2160
4496,2524
4496,2987
4496,3046
4496,3504
4496,4241
4496,4524
4499,4049
4503,731
4505,4561
4508,130
4508,2857
4509,886
4509,1578
4509,3099
4509,4021
4509,4921
4510,1491
4511,624
4512,14
4513,1309
4515,93
4516,1723
4517,4461
4518,1562
4519,1422
4519,1968
4519,2895
4519,3510
4519,4253
4521,738
4523,189
4523,2327
4523,3514
4523,3683
4523,3896
4526,96
4527,2544
4528,191
4530,3591
4531,729
4531,1217
4534,277
4535,2773
4536,345
4538,2086
4538,3320
4539,4868
4540,145
4541,108
4541,2015
4543,392
4544,624
4545,633
4546,800
4546,4464
4547,3025
4549,1125
4550,361
4551,3803
4553,2209
4553,2789
4557,1314
4557,4781
4564,1792
4566,227
4566,1141
4566,2081
4566,2441
4567,145
4568,2248
4568,3264
4569,1534
4570,2482
4572,755
4573,657
4574,945
4578,20
4579,2774
4580,3516
4588,3253
4589,2205
4589,4478
4591,3533
4593,1095
4593,1979
4594,447
4596,790
4599,4257
4600,1687
4600,2086
4600,3084
4600,3768
4601,3212
4602,3540
4603,615
4605,4881
4606,3231
4607,3114
4609,2645
4610,1926
4611,1103
4614,1881
4614,2561
4615,1067
4616,4198
4619,1015
4620,1554
4620,4045
4621,664
4625,858
4628,3247
4629,4330
4631,3150
4632,2574
4633,1758
4633,3849
4635,3389
4637,244
4637,1099
4637,3100
4638,4229
4639,546
4643,2322
4643,4740
4644,1406
4644,3412
4644,3747
4644,4316
4645,738
4647,401
4649,349
4650,2387
4652,3250
4654,3318
4656,392
4658,714
4659,2011
4660,2499
4660,3674
4660,4330
4661,4439
4662,1216
4666,1369
4668,1322
4670,507
4671,4846
4672,63
4673,624
4678,1177
4680,1678
4682,4331
4683,654
4684,2733
4685,2081
4686,2149
4687,16
4689,334
4689,902
4689,1053
4689,3369
4689,4265
4689,4713
4690,3565
4691,1405
4696,2258
4700,1122
4700,1493
4700,2310
4700,4473
4701,2364
4704,1028
4705,930
4706,661
4708,2218
4709,1571
4717,1931
4718,53
4718,216
4718,571
4718,1173
4718,1322
4718,1553
4718,1807
4718,1912
4718,2760
4718,4971
4719,244
4719,4866
4720,304
4721,1035
4723,1369
4724,528
4725,1900
4725,4490
4725,4789
4727,2002
4728,1030
4728,2391
4729,251
4729,918
4729,3458
4730,166
4731,2089
4732,4699
4734,503
4735,53
4737,2651
4738,992
4741,32
4741,3391
4742,3901
4743,518
4743,1698
4743,1944
4743,1962
4746,4404
4747,3876
4750,4896
4751,646
4751,3974
4752,2108
4752,4437
4753,4561
4755,2596
4755,4494
4760,2968
4761,345
4762,3720
4762,3768
4764,962
4766,145
4767,647
4768,992
4770,1284
4770,4779
4772,3264
4773,2618
4773,4964
4774,868
4774,1405
4775,32
4776,671
4776,1503
4776,3131
4776,4039
4776,4182
4777,515
4778,1189
4782,1058
4783,3369
4784,217
4784,857
4784,1067
4784,1229
4784,1860
4784,2296
4784,2393
4784,3347
4787,301
4788,227
4789,1099
4793,3087
4794,3060
4795,653
4797,4376
4799,627
4800,3378
4801,50
4801,904
4802,1435
4804,1915
4805,8
4805,4120
4806,1252
4807,98
4809,401
4811,2612
4812,977
4815,2182
4816,851
4818,3086
4818,4865
4819,552
4821,1120
4823,4445
4824,3147
4825,657
4828,314
4832,4322
4834,1259
4836,951
4837,4005
4838,208
4838,4033
4838,4622
4840,2662
4841,405
4841,941
4841,2600
4845,1252
4846,4245
4847,4659
4848,4506
4849,974
4850,1956
4856,1792
4857,2145
4858,96
4859,4316
4861,1080
4862,483
4862,4003
4863,2734
4873,372
4874,4664
4875,1656
4876,1859
4877,2023
4877,2781
4877,3757
4882,4663
4884,4429
4886,165
4887,3082
4889,1816
4890,4175
4891,1502
4891,4618
4892,191
4894,1111
4895,3541
4896,2056
4898,3490
4900,2237
4902,1713
4902,4403
4903,4328
4904,2009
4905,673
4906,1051
4907,103
4907,1437
4908,133
4910,2205
4910,4855
4911,852
4912,211
4912,1126
4912,2095
4912,2773
4912,3088
4912,3229
4912,3231
4913,3086
4914,2060
4915,4245
4918,1643
4920,2574
4921,2222
4921,2430
4925,1763
4926,4777
4927,851
4928,3490
4930,3875
4931,385
4931,474
4931,1514
4931,2956
4937,4261
4938,686
4940,999
4941,2454
4941,2620
4941,2654
4942,1557
4944,1692
4946,3047
4950,415
4951,392
4951,2737
4952,684
4952,3740
4956,1469
4962,4111
4968,4
4968,145
4969,1628
4970,3939
4972,4052
4973,1422
4974,2005
4975,1080
4976,3921
4977,3190
4978,2391
4978,3228
4978,3884
4978,4590
4979,32
4979,958
4979,1522
4980,4256
4981,1794
4982,2931
4983,169
4984,2894
4985,1480
4986,3993
4987,4060
4993,1314
4993,1959
4994,939
4995,14
4996,1804
4998,908
4998,1025
4998,1672
4998,1827
4998,3186
4998,3222
4998,3399
4998,4495
4999,766
