src,dst
0,1
3,225
3,552
3,2599
3,4382
3,4701
4,2654
4,2761
4,3944
6,221
6,272
6,279
6,614
6,975
6,1182
6,1428
6,1744
6,3652
7,522
7,1061
7,1484
7,2103
7,2819
7,3539
7,3855
8,796
8,1299
8,1628
8,1664
8,2323
8,2402
8,3123
8,3441
11,1305
11,2387
12,18
12,191
12,912
12,975
12,1320
12,1939
12,2103
12,2657
12,3852
13,301
13,1414
13,2220
13,3181
13,4666
16,2428
17,3607
18,856
21,3815
22,150
22,276
22,1850
23,124
23,923
23,3781
24,92
24,327
24,350
24,494
24,702
24,1216
24,1303
24,1348
24,1898
24,2444
24,2464
24,3289
24,3570
24,4140
24,4944
25,838
25,2572
25,3165
25,3359
25,4025
25,4532
29,392
29,760
29,1851
29,2246
29,3225
29,4236
29,4918
32,236
32,712
32,998
32,1152
32,1300
32,1335
32,1520
32,1733
32,1884
32,1928
32,2108
32,2117
32,2126
32,3539
35,344
35,481
35,1313
35,2223
35,3337
35,3345
35,3659
36,462
36,614
36,693
36,3541
37,99
37,317
37,1804
37,1889
37,2402
37,3050
37,3659
37,4051
39,476
39,2636
43,1548
46,706
46,913
46,1407
46,1566
46,2069
46,2323
46,3868
46,4384
48,2244
48,3402
48,3887
49,95
49,516
49,710
49,1802
49,2020
49,2670
49,4051
49,4227
49,4231
49,4518
51,3441
52,178
52,654
52,986
52,1234
52,1573
53,4110
54,243
54,297
54,639
54,1504
54,1997
54,2223
54,4856
55,1916
55,3681
55,3695
55,4099
55,4645
56,5
56,108
56,614
56,894
56,1093
56,1520
56,2393
56,2412
56,2829
56,4667
59,137
59,524
59,577
59,762
59,990
59,1704
59,1712
59,1953
61,4818
62,504
62,975
62,1160
62,2553
62,2897
62,3460
62,4022
63,34
63,68
63,496
63,711
63,2296
63,2460
63,3601
63,4536
65,14
65,20
65,197
65,609
65,724
65,1023
65,1615
65,1708
65,2381
65,3942
65,4786
67,57
67,1578
67,1707
67,2128
68,1145
69,3678
71,235
71,2016
71,3689
74,3373
76,214
76,494
76,1052
76,1109
76,1204
76,1468
76,1550
76,1557
76,1672
76,2018
76,2146
76,2568
76,2675
76,2687
76,2938
76,3110
76,3392
76,3625
76,4181
76,4392
76,4450
77,4518
78,1691
78,3412
79,1256
79,1928
79,4868
80,4443
82,1279
82,3123
86,1492
86,3065
87,243
87,687
87,1280
87,1282
87,1852
87,2330
87,2933
87,3004
87,3474
87,4158
89,417
89,1698
89,3384
89,4735
91,373
93,611
93,912
93,1435
93,2428
93,2658
96,121
96,941
96,2819
96,2865
98,555
98,625
98,898
98,1160
98,1597
99,1942
100,31
100,512
100,1579
101,84
101,146
101,1169
101,1295
101,1744
101,2116
101,2675
101,2703
101,3234
101,4971
103,39
103,139
103,819
103,1875
103,2061
103,3901
103,4091
104,2695
104,3127
108,1438
108,1718
108,2432
108,2697
109,3134
112,506
113,38
113,53
113,67
113,462
113,476
113,2387
113,2419
113,2791
113,2806
114,1858
114,2236
114,2521
115,1044
115,1259
115,3173
115,3320
118,65
118,3460
118,3637
119,66
119,934
119,2673
119,2796
119,3765
119,3947
120,420
120,576
120,829
120,1601
120,2779
120,3052
120,3784
120,4059
120,4189
120,4641
121,4304
122,473
123,1942
124,367
124,2929
124,4563
125,5
125,94
125,120
125,184
125,266
125,306
125,831
125,1376
125,1443
125,1957
125,1963
125,2317
125,2659
125,2688
125,2695
125,2834
125,3636
125,4140
126,1849
127,3196
128,84
128,831
128,1288
128,2674
128,3478
128,3786
132,3753
132,3907
132,4575
132,4766
134,163
134,1001
134,2421
134,2613
134,2664
134,2874
134,2967
134,3034
134,3283
134,3516
134,4156
134,4220
134,4329
138,2668
140,2544
140,3302
140,3832
140,4491
140,4984
142,84
142,1520
143,2
143,883
143,1488
143,2416
144,30
144,1504
144,4658
145,975
145,3683
145,3763
147,111
147,343
147,402
147,555
147,780
147,918
147,1793
147,2275
147,4028
147,4237
147,4443
148,1793
148,4278
148,4766
149,196
149,1303
149,4446
152,314
152,325
152,428
152,922
152,1608
152,2060
152,2396
152,3106
152,3880
152,4648
153,97
155,4072
155,4161
157,110
157,462
157,847
157,1316
157,1459
157,1708
159,411
159,1114
159,1913
159,2207
159,2947
160,83
160,486
160,784
160,1091
160,1203
160,1459
160,3183
160,3415
160,4618
160,4626
160,4905
161,273
161,320
161,1388
161,1728
161,2180
161,2572
162,85
163,178
163,358
163,1023
163,1874
163,2506
165,1262
165,2695
165,4987
167,26
167,564
167,1664
167,2278
169,64
169,832
169,4970
171,3
171,27
171,370
171,3204
171,4784
172,1177
172,2981
173,1872
174,1527
174,1584
174,2708
174,4204
175,161
175,397
175,1764
175,1921
175,2296
175,2874
175,4094
176,3084
177,28
177,121
177,245
177,1540
177,1860
177,2205
177,2868
177,3047
177,3105
179,397
180,881
180,1823
180,2624
180,3487
185,1283
186,4360
187,20
187,563
187,686
189,397
189,2572
190,1578
191,150
191,1578
191,4772
194,152
194,2655
194,2980
194,3215
198,237
198,572
198,1083
198,1736
198,1956
198,2116
198,3104
198,4010
198,4309
199,1069
199,1791
199,3729
201,2236
201,2509
202,1300
202,2139
206,323
206,1129
206,3134
206,3460
206,4032
208,2501
208,4037
209,1520
209,3378
210,3522
211,3084
213,10
213,545
213,905
213,997
213,1583
213,2406
215,1254
215,2182
215,3760
216,60
216,1230
216,1298
216,1409
216,1603
216,1793
216,3842
216,4092
217,496
217,2412
217,3275
217,4591
217,4609
219,34
219,2779
219,2966
220,257
220,1205
220,1529
220,1949
220,2060
220,3775
220,4266
222,1377
222,1886
222,2089
222,3401
222,4188
223,1759
227,2533
228,548
228,2236
228,2707
231,237
231,742
231,975
231,1571
231,1664
231,2232
231,4244
232,381
232,582
232,780
232,2821
232,4458
232,4828
235,225
235,402
235,732
235,1511
235,1710
235,2827
235,3334
236,626
239,251
239,657
239,1825
239,2010
239,2043
239,2483
239,3758
239,4987
240,535
240,2431
240,3482
240,3528
241,192
241,312
241,438
241,1647
241,1996
241,2496
241,3007
241,3735
241,3981
241,4058
241,4080
241,4197
241,4533
241,4765
242,31
242,191
242,319
242,537
242,634
242,777
242,874
242,1215
242,1349
242,1545
242,1689
242,1775
242,1784
242,1793
242,1843
242,1942
242,1969
242,2517
242,2746
242,2888
242,3865
242,4384
242,4402
242,4498
242,4738
242,4905
246,2381
246,3077
247,3334
248,244
248,1112
248,1143
249,188
249,632
249,1276
249,1987
249,4802
250,1051
251,70
251,4624
253,3254
255,4446
256,585
256,1031
256,3441
259,230
259,424
259,795
259,1526
260,2608
261,1336
261,1467
261,2305
261,3040
262,772
262,1364
264,1377
265,527
265,768
265,829
265,1132
265,1900
265,2282
265,4308
267,84
267,1286
267,1481
267,3668
268,202
268,1067
270,5
270,2889
271,58
271,602
271,1396
271,2580
271,3861
272,831
272,1898
272,3599
272,4585
275,2195
275,2572
275,2930
275,4545
275,4910
277,214
277,2874
280,492
280,578
280,749
280,909
280,1420
280,1812
280,2089
280,2242
280,2337
281,20
281,749
281,1538
281,2011
281,2029
281,3217
281,3380
281,3505
281,3885
281,4607
282,1152
283,3768
283,3907
285,150
285,334
285,491
285,2593
285,3310
286,131
286,320
286,324
286,362
286,527
286,800
286,1002
286,1029
286,1340
286,2015
286,2020
286,2290
286,3217
286,3643
286,3757
286,3764
286,3939
286,4232
290,411
291,308
291,394
291,571
291,762
291,2579
291,3014
292,598
292,872
292,2089
292,3677
293,633
293,707
294,4452
296,1280
296,2239
296,4865
298,246
298,1793
299,34
299,987
299,990
299,1799
299,1937
303,191
303,244
303,341
303,537
303,739
303,869
303,1051
303,3204
303,4402
307,4495
308,192
308,225
308,433
308,962
308,1379
308,1957
308,2256
308,2430
308,2515
308,3540
308,3976
308,4721
310,295
310,4220
310,4448
312,2722
312,3854
313,45
313,150
313,593
313,1353
313,1570
313,2818
313,3481
313,3639
313,4560
313,4610
314,1898
314,3029
315,254
315,1353
315,1578
315,1808
315,2874
318,653
318,665
318,1786
318,2429
318,3325
318,3995
318,4326
321,26
321,238
321,610
321,1326
321,2353
321,3571
321,4190
321,4312
321,4592
321,4809
327,60
327,2978
327,3233
328,908
328,1860
328,2289
328,4728
329,1587
330,1850
330,3688
331,196
331,372
331,673
331,2544
332,1599
332,4746
336,2254
336,2411
336,4080
340,57
340,500
340,653
340,1879
340,3482
340,3788
340,4058
340,4284
341,2898
342,1671
344,2897
347,276
347,657
348,97
348,676
348,1921
348,4684
349,154
349,2973
354,20
354,3879
357,632
357,3523
358,1759
358,3323
359,1309
359,4782
360,1713
360,1721
360,1937
360,2254
360,3812
360,4627
361,191
361,1322
365,3067
365,4453
365,4664
366,70
366,615
366,1504
366,1612
366,2033
366,2445
366,2464
366,3321
368,121
374,411
374,576
374,1000
374,1090
374,1342
374,1627
374,2381
374,4350
374,4731
375,1021
375,2243
375,2794
377,1526
378,316
379,3111
380,863
380,1926
380,2907
380,3180
380,3769
381,108
381,1489
381,2295
381,3756
382,67
382,958
382,1018
382,1361
382,1446
382,1788
382,2223
383,94
383,156
384,3213
385,338
387,768
387,2945
387,3125
387,4072
388,868
388,1561
388,2816
389,139
389,835
389,1942
389,4754
390,85
390,4227
394,431
394,713
394,810
394,1495
394,2521
394,3301
394,4987
395,1688
396,226
396,4903
397,568
397,1355
397,1758
397,2616
397,4287
397,4426
398,3460
399,2108
400,718
400,736
400,997
400,1787
400,1920
400,2004
400,2060
400,2223
400,2347
400,3032
400,3487
400,4168
400,4362
403,2635
403,4641
405,1504
406,351
406,612
406,636
406,904
406,1574
406,2543
406,3213
406,4086
406,4174
406,4575
407,233
408,297
408,627
408,1300
408,2029
408,2609
408,3971
408,4107
410,4838
412,1653
412,2787
412,3297
412,4089
414,126
414,1404
414,1466
414,1681
414,2918
414,4141
415,4283
418,2787
419,322
419,689
419,827
421,945
421,1579
421,2119
421,2689
422,646
422,2039
422,2429
422,2965
422,4105
424,251
424,834
424,1171
424,1250
424,1621
424,2158
424,2668
424,2886
424,3326
425,224
427,276
431,554
431,1379
431,2802
431,3375
431,4226
433,33
433,555
433,1570
433,2438
433,2490
433,2622
433,3940
433,3945
433,4460
434,243
434,1145
434,2800
434,3618
435,68
435,99
435,1076
435,3152
435,3956
435,3994
436,691
436,3254
436,3792
436,4590
439,238
440,15
440,1220
440,4729
443,70
443,1198
443,2695
444,237
444,2295
445,225
445,2352
448,3217
449,420
449,559
449,1661
449,2279
449,3810
449,4919
450,1578
451,154
453,255
454,563
454,2398
454,2572
454,4861
456,1364
456,3407
459,19
461,323
461,560
462,2223
464,326
464,582
464,1702
464,2013
464,2100
464,2436
464,2569
464,2660
464,2690
464,2946
464,3599
464,4362
464,4583
464,4607
465,667
465,1008
465,1484
465,2466
466,845
466,1493
468,578
468,1052
468,4080
469,14
469,977
469,1122
469,1175
469,1230
469,1649
469,1717
469,1948
469,3229
469,3375
469,4234
469,4324
470,1521
472,192
473,3957
474,309
476,4289
477,70
477,2057
478,30
478,226
479,1970
479,2908
482,1379
482,1591
482,3035
482,4612
483,772
483,841
483,860
483,1168
483,1738
483,2553
483,3550
483,4188
484,306
484,946
484,2905
484,3352
484,3859
485,582
485,2929
486,588
486,3407
489,3859
495,1503
495,4032
497,1251
497,1481
497,1704
497,2580
497,2950
497,3122
497,4533
498,413
498,1660
498,3588
498,4576
501,462
501,631
501,808
501,1547
503,244
503,2220
503,2906
503,4464
504,2385
506,245
506,2023
506,2212
506,2691
506,4633
507,488
507,671
507,2121
507,3254
508,779
508,2254
509,84
509,3734
509,4996
510,345
510,352
510,471
510,2701
510,3259
510,3737
514,241
514,1062
515,839
517,3752
519,720
519,1345
519,1587
519,2770
519,3084
519,4746
520,1255
520,1884
520,3158
525,2743
525,3861
526,197
526,322
526,768
526,2675
526,3984
528,203
528,426
529,411
530,257
531,1093
531,2778
532,224
532,1664
532,3665
533,85
533,1363
533,1642
533,3386
533,4137
535,413
535,537
535,829
535,880
535,1121
535,1173
535,1318
535,1627
535,1738
535,2758
535,3670
535,3810
535,4126
535,4182
535,4528
539,774
539,1509
539,3044
540,3907
541,5
541,1944
541,2064
542,2722
543,739
543,1317
543,4706
544,3963
544,4546
545,146
546,635
546,1850
548,4869
549,3
549,496
549,613
549,777
549,944
549,1583
549,1698
549,4157
550,64
550,657
550,1189
550,1259
550,1512
552,1089
552,1395
552,1668
552,1688
552,2351
552,2948
552,3205
552,3338
552,4396
552,4791
553,238
553,836
556,1937
556,2730
556,3095
557,84
557,666
557,3781
557,4075
558,4236
561,276
562,1166
562,2602
563,392
563,2258
563,2289
563,4298
564,3681
564,4622
565,57
565,88
565,362
565,650
565,756
565,1214
565,1681
565,2008
565,2954
565,3585
567,95
567,438
567,1321
567,1656
567,2514
567,2565
567,2723
567,3319
567,3859
568,202
568,341
568,629
568,682
568,1437
569,603
573,128
573,1223
573,2153
574,637
574,1115
574,1282
574,1793
574,2603
574,3078
574,3460
574,4236
574,4331
574,4466
574,4582
575,245
575,1509
575,1879
575,2706
575,4002
577,891
577,1069
577,1150
577,2779
577,3401
577,3988
577,4016
577,4575
583,20
583,1636
583,2737
586,97
587,227
587,417
587,962
587,1157
587,1287
587,2150
587,2272
587,2315
587,3196
587,4420
587,4490
589,491
592,150
592,320
592,760
592,2632
594,459
594,760
594,1100
594,2704
595,225
595,3282
596,2818
597,956
597,4939
598,4633
599,224
599,1011
599,1062
599,1266
599,1759
599,1890
599,2032
599,3332
599,3997
599,4245
599,4583
601,1172
601,1381
601,2198
601,2825
601,3172
601,4643
603,2227
604,827
604,1911
604,4937
605,535
605,1008
605,4024
607,447
607,995
607,1114
607,1271
607,1345
607,1367
607,3364
607,3622
607,4160
607,4590
607,4759
607,4961
608,749
608,1598
608,2065
608,2533
608,3375
617,588
617,761
619,41
620,2306
620,3196
622,130
622,1562
622,1739
622,2308
622,2994
622,4084
622,4454
623,502
624,2886
626,2020
628,417
628,559
628,2119
628,2349
628,2465
628,2977
628,3252
628,3364
628,3772
628,4250
628,4332
628,4474
628,4653
628,4955
630,363
630,1594
630,1638
630,2815
630,3982
630,4250
630,4979
633,1136
633,3004
633,3334
635,2488
635,2838
635,3973
638,970
639,527
639,3968
640,600
640,839
640,2547
642,588
642,3012
643,154
643,1230
643,2249
643,3997
643,4224
645,857
647,263
651,1105
656,1022
656,1521
656,3819
660,156
660,229
660,2865
660,2875
660,4947
660,4950
661,41
661,3173
661,3555
662,306
663,1152
663,2485
663,2526
663,3380
664,97
664,821
664,3197
664,3516
667,4655
669,3205
669,4225
670,491
670,523
672,634
673,2676
673,3178
674,2795
679,649
680,141
680,502
680,1521
680,1829
680,2760
680,4503
683,139
683,1493
683,2004
687,2544
687,3927
694,511
697,1681
697,3015
698,326
698,965
698,1743
698,3217
698,3447
698,4141
702,4176
702,4258
703,84
703,473
703,1233
703,1639
703,2012
703,2888
704,977
705,611
708,505
708,1325
708,1504
708,2689
709,302
713,2862
714,34
714,397
714,881
714,1748
714,1894
715,34
715,154
715,737
715,1122
715,1519
715,1923
715,2603
715,2878
715,3388
715,4452
715,4663
715,4900
718,671
721,647
721,1169
721,1583
721,2736
721,4032
722,1321
722,2283
722,2387
722,2945
722,4330
722,4549
722,4782
722,4825
723,10
723,579
723,2415
723,2854
725,204
725,459
725,2254
726,2572
726,4766
730,1587
734,3516
735,881
735,2427
735,2563
735,2859
735,2933
738,4727
741,320
741,869
743,3601
744,341
744,505
744,690
744,701
744,1181
744,1453
744,1740
744,4470
745,2738
745,3482
746,154
746,447
746,800
746,1267
746,1429
746,3005
749,345
749,1437
749,4569
750,446
750,1708
750,1827
750,2695
750,3211
750,3799
751,1617
753,511
753,646
753,724
753,812
753,814
753,928
753,990
753,1177
753,1229
753,1346
753,1634
753,1635
753,1814
753,2198
753,3084
753,3195
753,3207
753,3407
753,3796
753,4804
754,192
754,1578
755,588
755,1220
755,1839
755,2942
759,4080
762,676
766,506
766,2059
766,2676
766,3134
767,999
767,2536
767,2787
768,1707
768,2850
768,4475
768,4734
769,4308
770,88
770,905
770,2572
770,4220
771,762
771,1289
771,1321
771,2798
771,3560
772,1033
772,4022
776,2924
778,3695
781,2494
783,4320
785,70
785,709
785,924
785,1803
785,1875
785,2580
785,2936
785,2956
785,3285
785,3971
785,4312
785,4506
785,4560
786,934
786,1457
786,1468
786,2837
787,1342
787,2778
787,4575
789,1578
789,3474
789,4323
790,3586
791,2020
791,3375
793,871
793,2606
796,3651
796,4338
797,654
797,934
797,3269
799,99
799,2403
802,438
802,2179
802,2202
802,4416
803,887
803,1293
803,4609
804,756
804,4452
809,513
809,1452
809,1865
809,1942
809,3484
809,3644
810,241
810,658
810,2493
810,2747
810,3192
810,4530
811,18
811,181
811,428
811,776
811,1112
811,4202
811,4615
811,4946
813,237
813,970
813,1045
813,1361
813,3460
813,3907
813,4651
815,150
817,2093
818,352
819,572
819,728
819,2229
819,2844
820,488
822,4245
823,572
823,1910
823,2198
824,67
824,3168
824,4164
825,1085
825,1286
825,2402
825,4518
826,10
826,658
826,963
826,3142
828,1075
828,1153
828,1657
828,1719
828,1834
828,1962
828,2084
828,2207
828,2969
828,3377
828,3423
828,3695
828,3737
828,3767
828,3802
828,3857
828,3877
828,4404
828,4803
828,4859
830,136
830,563
831,3156
832,1743
832,4890
837,426
837,1621
837,2422
837,3163
839,342
839,430
839,840
839,2402
839,3173
839,3456
843,4575
845,1035
845,3919
846,430
848,1691
848,3203
851,4607
853,38
853,430
853,1069
854,3375
855,516
855,2171
855,2215
857,9
857,1809
857,2387
857,2392
859,3727
861,4232
862,922
862,1354
864,1793
864,4402
866,3187
866,3862
867,615
867,2892
867,4898
868,225
868,332
871,152
871,234
871,1165
871,2487
873,2570
875,2695
875,2990
876,2119
877,212
877,1510
877,4925
882,1297
882,1748
882,3942
886,1437
886,1925
887,350
887,2466
888,15
888,582
888,854
888,902
888,972
888,1759
888,2186
888,2746
888,3978
890,193
892,244
893,995
893,3042
893,3494
893,4657
893,4942
894,658
895,707
896,3313
897,4609
899,728
899,3271
900,3375
903,1029
903,2777
903,3090
903,3179
906,1208
906,1759
906,4338
907,900
908,598
908,2339
908,3978
910,257
911,732
911,1506
914,110
914,1256
914,3689
915,784
915,1751
915,1995
916,2802
917,476
917,2071
917,3204
917,4841
920,527
924,1520
925,1773
926,370
927,1715
927,1928
927,2093
927,2671
927,3693
928,50
928,258
928,560
928,566
928,646
928,842
928,865
928,1485
928,1520
928,1551
928,2292
928,2580
928,2841
929,2203
931,214
931,1850
931,2029
931,2254
931,2298
931,3069
931,4046
932,4105
933,150
933,3921
934,494
935,202
935,1312
936,997
937,326
938,124
939,441
939,1469
939,2020
939,2995
939,3111
940,1926
942,224
947,1322
948,4987
949,306
949,3724
949,3826
950,287
950,3878
951,670
951,1942
952,2778
955,381
955,796
955,4301
956,67
957,14
957,343
957,1926
957,2323
957,2900
957,4156
959,2259
960,2331
961,337
961,929
961,986
961,1219
961,1269
961,2022
961,3551
961,4065
961,4496
961,4936
963,840
964,31
966,20
967,3236
968,31
969,108
969,582
969,729
969,901
969,1161
969,1335
969,2456
969,3134
969,3816
969,4885
971,631
971,1137
971,2323
971,2581
971,3024
973,3098
973,4156
974,1481
974,4082
976,437
976,1464
977,913
977,4085
980,73
980,496
980,1629
980,2358
980,3904
980,4895
980,4970
981,3375
981,4769
982,320
982,1404
984,402
984,631
984,4478
985,4130
985,4250
989,133
989,4105
991,881
991,2522
992,9
992,58
992,251
992,1253
992,1458
992,1591
992,1592
992,1628
992,2387
992,3747
993,638
994,666
994,1851
994,3963
998,3525
1003,402
1003,1441
1003,1768
1003,2354
1003,2397
1003,3103
1003,3899
1003,4308
1003,4801
1003,4915
1004,306
1006,176
1006,546
1006,987
1006,1313
1006,1695
1006,1919
1006,2294
1006,2657
1006,3391
1006,3432
1006,3448
1006,4057
1006,4125
1006,4665
1007,566
1009,43
1009,334
1009,570
1009,1316
1009,2704
1009,4997
1010,401
1011,3460
1013,273
1013,3323
1013,4386
1013,4875
1014,1000
1014,3426
1014,4439
1017,341
1022,2234
1022,2698
1022,2943
1025,215
1025,4003
1026,571
1026,614
1026,1815
1026,2165
1026,3615
1026,4070
1028,748
1030,584
1032,3693
1033,392
1033,4970
1036,60
1036,684
1036,693
1036,888
1036,2170
1036,3261
1036,3463
1036,4958
1037,10
1037,1148
1037,3375
1038,563
1038,2518
1038,2592
1040,3736
1042,1664
1043,297
1043,2926
1044,416
1044,2362
1044,3460
1046,1034
1046,1926
1047,1114
1048,1164
1050,351
1050,1709
1051,2409
1051,3971
1054,150
1054,3444
1055,760
1055,1189
1055,1508
1055,2395
1055,3898
1056,2029
1056,3361
1058,1465
1059,416
1063,50
1063,1019
1065,756
1065,2593
1067,2165
1068,1793
1068,1809
1069,156
1069,254
1069,591
1069,600
1069,975
1069,1179
1069,1319
1069,1827
1069,1914
1069,1926
1069,1947
1069,2099
1069,2167
1069,2528
1069,3499
1069,4518
1069,4979
1070,320
1070,457
1070,2722
1071,1132
1074,75
1074,121
1074,687
1074,798
1074,2427
1074,2748
1074,3242
1074,3843
1077,863
1077,1219
1077,2566
1077,3013
1078,4894
1079,588
1080,4469
1080,4656
1081,713
1081,1365
1081,1516
1081,2647
1081,4772
1082,2889
1083,2031
1083,2095
1083,4037
1086,150
1086,392
1086,3296
1087,150
1088,762
1088,2729
1090,141
1090,226
1090,255
1090,1106
1090,1324
1091,1011
1092,126
1092,246
1092,912
1092,1107
1092,2695
1092,2729
1092,3001
1092,3102
1092,3629
1092,4074
1092,4364
1094,2668
1094,2965
1094,3079
1096,370
1096,1184
1096,1345
1096,2048
1096,3673
1096,4471
1097,978
1102,807
1103,41
1103,1670
1103,2915
1104,38
1105,728
1105,2675
1105,4968
1110,4958
1111,2549
1111,3177
1111,4386
1113,257
1113,521
1113,1604
1113,1743
1113,3260
1113,3585
1113,4078
1113,4247
1113,4745
1113,4776
1114,2029
1114,2695
1116,707
1117,690
1118,276
1119,352
1120,3118
1124,1034
1124,1325
1124,2410
1127,314
1127,3042
1128,202
1130,70
1131,3509
1132,99
1132,576
1132,736
1132,3114
1132,4876
1136,2323
1137,124
1137,130
1137,233
1137,335
1137,666
1137,1470
1137,2284
1137,3514
1137,3607
1137,3829
1137,4257
1138,18
1138,181
1138,560
1138,2043
1138,2189
1138,2924
1139,111
1139,747
1139,1302
1139,1419
1139,2462
1139,3955
1139,4011
1139,4852
1140,943
1141,4103
1142,51
1142,618
1142,1132
1142,1509
1142,2238
1142,4257
1146,657
1146,1773
1146,3360
1146,3666
1147,2
1147,687
1149,1567
1149,3106
1149,4236
1154,276
1154,1564
1154,1942
1154,2273
1154,3857
1154,4105
1154,4726
1154,4908
1154,4989
1155,788
1159,40
1159,1562
1159,2123
1159,3078
1163,193
1163,537
1163,944
1163,1064
1165,3948
1167,4759
1173,1407
1173,2870
1173,3077
1173,3334
1174,1169
1174,2691
1176,166
1178,807
1180,545
1180,1601
1181,297
1182,646
1182,749
1182,1221
1182,2644
1182,3375
1182,4064
1182,4119
1185,106
1185,191
1185,356
1185,1430
1185,1493
1185,2231
1185,2316
1185,2695
1185,4032
1186,559
1187,1942
1187,4014
1191,1294
1191,1422
1191,2242
1191,3993
1192,1122
1193,2777
1193,3900
1194,475
1194,1955
1194,3179
1194,3440
1194,4585
1195,1136
1196,617
1196,1220
1197,462
1199,2254
1199,3265
1201,2227
1201,3375
1202,423
1202,2604
1210,372
1210,644
1210,2223
1210,3122
1211,670
1211,678
1211,727
1211,1286
1211,1719
1211,1983
1211,2017
1211,2572
1211,3351
1211,4438
1212,207
1212,1046
1212,2198
1213,471
1213,4855
1216,1820
1216,2518
1217,4960
1218,129
1218,1578
1218,1814
1218,2708
1218,4175
1218,4817
1219,215
1222,2186
1222,2687
1224,641
1224,727
1224,1663
1224,4634
1225,39
1226,913
1226,2345
1227,314
1231,1160
1231,3108
1231,3217
1232,702
1232,2344
1232,2535
1232,3555
1234,3872
1234,4001
1236,768
1236,1509
1238,457
1239,1407
1239,1413
1240,1867
1241,1504
1241,3936
1242,2060
1244,1221
1244,4053
1244,4245
1244,4359
1244,4391
1244,4652
1245,3789
1247,1897
1248,99
1248,170
1248,4338
1249,504
1252,50
1252,717
1252,995
1252,1108
1252,1223
1252,2550
1252,4802
1252,4985
1258,1398
1258,2464
1260,204
1260,2553
1260,3681
1260,3971
1261,1294
1261,1689
1261,3123
1261,4018
1263,666
1264,272
1264,3693
1265,537
1265,1882
1268,1743
1268,2790
1270,1621
1270,3645
1272,666
1273,1339
1273,2144
1273,4236
1273,4700
1274,637
1274,823
1275,154
1276,245
1277,1381
1278,727
1278,1376
1280,66
1280,1743
1280,2647
1280,3072
1280,3124
1280,3460
1283,996
1290,560
1290,1316
1290,2184
1290,2929
1292,636
1292,670
1292,765
1292,889
1292,1556
1292,2107
1292,2255
1294,3337
1294,3693
1295,2780
1296,1563
1296,2443
1296,3337
1297,3330
1300,292
1300,341
1300,1664
1300,3196
1300,4088
1300,4116
1301,1223
1303,4220
1306,196
1307,370
1307,600
1308,1294
1310,4085
1311,788
1312,690
1312,1460
1312,4697
1315,2029
1315,3693
1315,4085
1317,2853
1322,1520
1323,560
1323,990
1323,2566
1323,3436
1323,4031
1323,4635
1325,570
1325,3473
1325,4130
1327,647
1327,1285
1327,1466
1327,1892
1327,2503
1328,748
1329,560
1329,1340
1329,3582
1330,2819
1331,1992
1331,3071
1331,3727
1332,1015
1332,3054
1333,4577
1335,106
1335,2087
1336,3196
1336,3590
1338,1286
1338,1730
1341,1170
1341,4787
1342,1135
1342,2390
1343,3250
1348,3693
1349,1294
1349,2964
1349,3755
1349,4492
1351,276
1352,1690
1352,1811
1352,3273
1354,45
1354,460
1357,57
1357,1684
1357,2198
1358,1591
1359,205
1360,151
1365,68
1365,2820
1366,1601
1366,2693
1366,2926
1368,666
1368,3720
1369,28
1369,551
1369,1381
1369,3458
1370,1643
1371,2614
1371,3727
1372,199
1372,2572
1372,2795
1372,4225
1372,4452
1372,4788
1373,1502
1373,3205
1373,4076
1374,1152
1374,2640
1374,4310
1375,469
1375,487
1375,524
1375,752
1375,1438
1375,1903
1375,2116
1375,2486
1375,3306
1375,4048
1378,1928
1378,3145
1378,4103
1379,3728
1380,1333
1380,1924
1380,4277
1382,26
1382,805
1382,1091
1382,1314
1382,1439
1382,1503
1382,1656
1382,1872
1382,3048
1382,3475
1382,3494
1382,4590
1383,81
1383,686
1383,2381
1383,2400
1383,2650
1383,3096
1383,4055
1383,4443
1383,4804
1384,944
1386,372
1386,1083
1386,2737
1386,2919
1386,4245
1387,2149
1387,3474
1389,50
1389,305
1389,1294
1389,2807
1390,70
1390,314
1390,1109
1391,637
1392,764
1392,2089
1392,2280
1392,3030
1393,1302
1395,1126
1395,1209
1395,1662
1395,3297
1395,3615
1397,772
1397,1533
1397,1726
1397,1952
1397,3727
1398,343
1398,1034
1398,1781
1398,3853
1399,430
1399,3089
1400,2331
1400,3234
1401,4972
1402,671
1402,4476
1405,1349
1406,1147
1406,4195
1406,4981
1407,504
1408,3810
1410,563
1410,1911
1411,1297
1411,2108
1411,3556
1412,1069
1412,2402
1412,3023
1412,3483
1415,1793
1415,4273
1416,934
1416,1578
1416,1926
1417,295
1417,2316
1421,1364
1424,404
1424,1716
1424,1849
1424,1921
1424,3118
1424,3963
1424,4406
1425,442
1426,649
1426,1133
1426,1686
1427,4308
1429,4128
1431,142
1431,518
1431,800
1431,1052
1431,1862
1431,2382
1431,2387
1431,4907
1432,99
1432,2476
1433,1597
1433,3066
1434,823
1434,4916
1435,3664
1435,3668
1436,523
1436,1230
1436,2852
1437,889
1438,324
1440,3939
1441,1344
1442,392
1442,1788
1442,1820
1442,2521
1442,4319
1442,4673
1442,4958
1444,18
1444,1348
1444,4442
1445,4560
1447,739
1447,2694
1447,3389
1447,4579
1447,4918
1449,2572
1450,1344
1450,3036
1451,1793
1451,3997
1451,4853
1453,1400
1453,3504
1454,591
1454,2158
1454,4480
1455,401
1455,2268
1455,3217
1455,4824
1456,273
1456,3375
1457,3320
1462,1342
1463,70
1463,289
1465,945
1465,2233
1466,105
1469,4028
1471,1524
1472,276
1472,442
1472,713
1472,1076
1472,3654
1473,995
1473,2927
1474,614
1475,772
1475,821
1476,26
1476,494
1476,1286
1477,416
1477,511
1477,579
1477,618
1477,794
1477,844
1477,922
1477,2511
1477,4043
1478,73
1478,234
1478,338
1478,1338
1478,1591
1478,1867
1478,1926
1478,2543
1478,3224
1478,3924
1478,4019
1478,4402
1478,4920
1479,233
1479,496
1479,930
1480,156
1480,2825
1483,3140
1483,3693
1483,3936
1483,4505
1486,2816
1486,4028
1486,4477
1487,2677
1487,3835
1489,2206
1490,2061
1491,1041
1491,1601
1491,2656
1491,3357
1491,3921
1494,1621
1494,2029
1494,3825
1496,657
1497,740
1497,1576
1497,2184
1497,2272
1497,2451
1497,2795
1497,3503
1497,3957
1498,3186
1499,702
1499,2524
1499,4656
1500,392
1500,1062
1500,2566
1500,3521
1501,447
1504,1307
1505,563
1507,2032
1507,2570
1508,60
1511,2376
1511,3235
1511,4575
1511,4601
1513,297
1513,879
1513,1250
1514,1073
1518,1160
1520,273
1521,183
1521,823
1523,2818
1524,397
1528,4656
1530,14
1530,497
1530,852
1530,1871
1530,2655
1530,3342
1531,1362
1533,181
1534,1898
1535,1286
1536,2886
1537,3488
1537,4453
1539,66
1539,4013
1539,4631
1539,4687
1541,5
1541,316
1542,764
1543,701
1543,1286
1543,1587
1543,2209
1543,3256
1544,120
1544,4032
1546,4188
1547,1811
1547,3183
1549,4423
1552,2561
1552,3040
1552,3380
1553,2274
1553,2506
1553,2942
1554,2992
1554,3681
1555,111
1558,4085
1559,3138
1559,4300
1559,4362
1561,2795
1563,1867
1565,1806
1565,2518
1567,2060
1567,2836
1567,3217
1569,1579
1569,1885
1572,1921
1572,2494
1573,887
1575,2434
1575,4700
1577,866
1577,1336
1577,1796
1577,2256
1578,658
1578,675
1578,2903
1579,780
1579,844
1580,3210
1580,4583
1581,139
1581,1420
1584,1206
1585,99
1585,764
1585,1545
1585,1883
1585,1931
1585,3280
1585,4043
1585,4177
1588,3323
1590,977
1590,2830
1590,4035
1590,4322
1593,106
1595,934
1596,1230
1597,1326
1597,2354
1600,18
1602,229
1602,2594
1602,4518
1602,4816
1604,3936
1605,178
1606,1150
1607,75
1609,3433
1611,990
1613,2766
1613,3253
1614,235
1614,3668
1615,727
1616,106
1616,1788
1616,2082
1616,2855
1618,66
1618,4151
1619,131
1619,749
1622,1008
1623,1549
1624,1649
1624,1881
1624,2947
1624,3709
1624,4632
1626,150
1626,1160
1626,4157
1626,4308
1630,4404
1632,1173
1633,644
1637,352
1637,1335
1637,4974
1640,2677
1641,2016
1644,2201
1644,3513
1645,72
1645,4871
1646,505
1648,257
1648,3699
1649,854
1650,229
1650,632
1650,2236
1650,2709
1650,2720
1651,2943
1651,4656
1652,2454
1652,2729
1654,1506
1654,3859
1658,921
1659,712
1659,996
1660,504
1662,3228
1662,3675
1665,4297
1668,1867
1669,701
1669,1132
1669,2008
1669,2647
1669,3917
1669,4689
1673,1448
1675,1423
1675,3228
1676,568
1677,4220
1678,1520
1679,3581
1679,3759
1679,4868
1680,2574
1680,3652
1682,1578
1683,3239
1683,3865
1683,3963
1685,392
1687,2844
1688,158
1690,975
1690,1461
1691,2939
1693,1083
1694,1452
1695,1029
1696,1627
1697,225
1697,1586
1698,3168
1698,3309
1699,276
1700,2341
1701,31
1701,244
1701,863
1701,1207
1701,1484
1701,2931
1702,47
1702,316
1702,2268
1702,2942
1703,344
1704,863
1704,4038
1705,255
1705,2236
1707,772
1707,1048
1707,1900
1709,842
1709,2090
1709,2251
1709,4220
1709,4960
1711,2223
1711,2715
1711,2764
1711,2860
1712,1340
1715,257
1715,3334
1716,801
1717,9
1717,229
1720,195
1720,3165
1724,60
1724,258
1724,3793
1725,136
1725,254
1725,442
1725,581
1725,668
1725,685
1725,713
1725,2035
1725,2336
1725,2881
1725,3549
1725,3943
1725,4227
1725,4443
1725,4590
1725,4804
1725,4940
1727,139
1727,4142
1727,4941
1729,1016
1731,1178
1731,4120
1732,812
1733,31
1733,289
1734,1340
1734,4032
1735,266
1735,2792
1735,4453
1735,4656
1737,3971
1741,1657
1742,3963
1746,304
1748,28
1748,1083
1748,1223
1748,4105
1749,338
1749,1284
1749,3164
1749,3610
1753,1069
1754,578
1754,3858
1755,66
1757,282
1758,200
1758,3609
1760,4752
1762,480
1762,3428
1765,1691
1766,1706
1769,4752
1770,1376
1770,3630
1770,3837
1771,749
1772,362
1773,4103
1774,58
1774,1616
1779,393
1779,1285
1779,1404
1779,1629
1779,1824
1779,2497
1779,3902
1779,3906
1780,1793
1780,4526
1782,3516
1784,143
1784,1931
1784,2011
1784,2305
1784,2984
1784,4335
1784,4798
1785,1793
1785,2021
1788,777
1789,2135
1794,133
1795,278
1795,3942
1795,4443
1795,4786
1798,4836
1804,719
1804,919
1804,948
1804,1435
1804,1793
1807,504
1810,288
1814,740
1815,1504
1816,1583
1818,1083
1818,1579
1818,3003
1818,4006
1818,4410
1818,4987
1819,107
1819,791
1819,1090
1819,1752
1819,3784
1821,197
1822,154
1826,205
1826,4141
1828,990
1828,3075
1830,1205
1830,1942
1830,3092
1831,3971
1833,1806
1835,214
1836,4960
1837,58
1838,343
1838,3063
1840,996
1841,2636
1844,2818
1845,1867
1845,3882
1846,2223
1846,2255
1846,4290
1847,2033
1847,4522
1849,1951
1850,40
1850,1814
1851,99
1853,997
1854,657
1854,945
1854,2522
1855,817
1856,972
1857,632
1863,1617
1866,14
1866,2211
1867,245
1867,719
1868,473
1869,1297
1869,1914
1869,1975
1869,2181
1870,1898
1873,191
1873,3440
1874,718
1874,3997
1875,224
1875,3640
1875,4574
1876,3460
1877,50
1878,2779
1880,2952
1880,4766
1885,798
1885,2682
1887,1546
1888,73
1888,381
1888,2494
1889,2116
1891,1601
1893,1775
1895,1376
1896,50
1896,2935
1896,3238
1896,4838
1897,2695
1897,2742
1898,2236
1898,2626
1901,3586
1902,887
1904,1335
1904,1977
1904,4583
1905,1659
1905,2686
1907,2029
1908,2067
1908,2674
1909,252
1909,752
1909,2791
1909,3222
1909,3404
1909,4586
1911,1012
1911,4641
1911,4862
1915,3599
1917,202
1918,130
1919,137
1919,319
1921,9
1921,241
1921,320
1921,1004
1921,1057
1921,1148
1921,1228
1921,2528
1921,4184
1921,4588
1927,676
1927,807
1927,1131
1927,1488
1927,1656
1927,2721
1927,2734
1927,4987
1928,1942
1928,4149
1929,1759
1929,3368
1930,411
1930,854
1930,2692
1930,2778
1930,3299
1932,4105
1934,9
1935,106
1937,255
1938,4831
1940,178
1941,1921
1941,2186
1941,2778
1941,2940
1941,4552
1942,181
1942,273
1945,4140
1946,460
1950,1286
1950,3197
1957,996
1957,1024
1957,1108
1957,1394
1957,1395
1957,1655
1957,1743
1957,1800
1957,2394
1957,2718
1957,3131
1957,3336
1957,4294
1958,164
1959,1170
1959,3468
1961,197
1964,1520
1965,559
1965,1560
1965,1947
1965,2235
1965,2269
1966,50
1966,4999
1967,945
1967,4156
1968,402
1968,1053
1968,2645
1971,2597
1972,649
1972,2324
1973,1634
1973,1759
1973,2214
1973,2799
1973,3527
1973,4964
1974,1928
1976,4308
1978,4782
1979,1526
1979,1806
1979,3375
1981,962
1982,245
1982,3375
1982,3704
1982,4655
1983,527
1984,3441
1985,3375
1986,967
1986,2777
1986,3433
1988,66
1988,1728
1989,4392
1990,1259
1991,3527
1993,626
1993,1540
1993,1803
1994,2336
1994,2428
1994,4720
1998,1219
1999,1634
1999,3704
2000,273
2000,1768
2001,2119
2002,30
2002,352
2002,768
2002,1300
2002,1304
2002,1937
2002,2636
2002,3978
2002,4044
2002,4462
2003,686
2003,908
2003,954
2005,901
2006,1339
2006,3740
2006,4067
2007,1859
2007,3217
2009,99
2014,108
2019,534
2019,538
2019,649
2019,889
2019,924
2019,977
2019,1692
2019,2049
2019,2074
2019,2128
2019,3313
2019,3474
2019,3624
2019,3826
2019,4704
2019,4857
2020,244
2024,254
2024,688
2024,699
2024,1255
2024,1347
2024,1498
2024,1768
2024,2323
2024,2507
2024,3330
2024,4625
2025,1579
2026,2381
2027,411
2027,2164
2027,4349
2028,393
2030,234
2031,92
2031,2289
2033,1256
2034,537
2036,2244
2037,161
2037,2464
2037,2970
2037,4141
2038,3892
2038,4802
2040,135
2040,4188
2041,1170
2042,67
2044,1136
2045,1778
2045,2067
2045,2695
2046,326
2047,1322
2050,2518
2050,3941
2051,972
2052,88
2052,1152
2052,1286
2052,1620
2052,4169
2052,4925
2053,1083
2054,1656
2055,2626
2058,792
2058,3174
2058,3590
2062,1506
2065,1344
2066,4108
2066,4130
2068,462
2070,2056
2070,2788
2070,3915
2070,3937
2070,4485
2072,70
2072,1525
2073,1090
2073,1861
2073,2131
2073,2134
2073,2485
2073,2798
2073,4894
2076,2700
2078,1280
2079,413
2079,2601
2079,2992
2081,3111
2081,4051
2083,128
2083,203
2083,257
2083,467
2083,1350
2083,1379
2085,133
2086,4302
2086,4557
2087,901
2088,756
2088,2891
2091,1671
2091,3131
2092,4925
2094,579
2095,88
2096,560
2098,1183
2098,1756
2099,1954
2099,2995
2101,808
2101,1084
2101,1173
2101,3974
2102,1587
2105,751
2106,4138
2110,1342
2112,1838
2113,749
2114,2429
2114,3386
2115,1220
2115,2556
2115,3219
2115,3859
2115,4148
2117,681
2117,1237
2117,2778
2117,3668
2118,1708
2119,2677
2119,3758
2120,1617
2121,57
2121,854
2121,996
2121,1426
2121,1631
2121,3252
2121,4380
2122,311
2122,3876
2122,4269
2124,2089
2125,3037
2125,3997
2129,126
2132,357
2132,1745
2132,3397
2133,178
2133,924
2133,2309
2133,4949
2135,1937
2135,3636
2136,2116
2136,2871
2136,4282
2137,224
2137,1297
2138,108
2138,4217
2140,150
2140,2749
2140,3350
2140,3597
2141,76
2141,129
2141,1183
2141,1900
2141,2244
2141,2612
2141,4138
2141,4804
2143,58
2143,2365
2143,3611
2145,631
2145,3822
2147,491
2147,3692
2148,1426
2150,44
2150,702
2151,2787
2152,609
2153,2162
2155,1919
2157,4071
2157,4078
2160,732
2160,1356
2160,1377
2160,2860
2161,772
2161,1338
2161,1674
2161,1706
2161,2075
2161,2389
2161,4141
2161,4491
2161,4573
2163,1459
2166,835
2166,910
2166,4511
2168,60
2168,4453
2169,2972
2169,4402
2172,1216
2173,2186
2174,50
2175,229
2175,1367
2175,2020
2177,1506
2178,2837
2179,1795
2179,1980
2179,4405
2181,3426
2183,2428
2184,84
2184,611
2184,2590
2184,4263
2185,1134
2187,471
2187,2729
2188,912
2191,1551
2192,4344
2193,322
2193,975
2194,570
2194,732
2194,2260
2194,3145
2197,1335
2197,1591
2198,350
2198,2184
2199,40
2199,2630
2200,202
2200,659
2200,2015
2204,3320
2204,3742
2208,821
2208,3925
2213,40
2213,42
2213,107
2213,1827
2213,2117
2213,2606
2213,3173
2213,3516
2213,4428
2216,352
2217,667
2217,4280
2218,791
2221,287
2222,798
2222,1788
2222,2589
2222,2893
2222,2911
2225,1027
2225,3635
2226,47
2226,3871
2227,2523
2227,3138
2227,4669
2227,4719
2228,578
2228,697
2228,4443
2228,4970
2229,718
2230,524
2237,1325
2238,4800
2239,4826
2240,4121
2241,3769
2244,1027
2247,150
2247,4675
2248,2116
2250,1366
2250,1708
2250,3066
2252,1123
2253,314
2253,4093
2255,2109
2257,1223
2257,4566
2259,170
2259,1401
2259,1817
2259,3578
2259,4073
2261,1587
2261,2518
2261,3687
2261,4674
2263,1313
2263,4589
2264,1375
2265,1046
2265,1354
2266,402
2267,1903
2267,3232
2267,3783
2267,4078
2267,4107
2270,192
2270,346
2270,353
2270,3952
2271,5
2271,1942
2271,2796
2276,2150
2276,3251
2277,699
2279,506
2279,934
2279,2433
2279,3592
2284,257
2284,1012
2284,1418
2284,2154
2284,2557
2284,3113
2286,345
2286,1136
2286,3101
2286,4028
2286,4811
2288,66
2291,1898
2291,4130
2293,417
2296,3111
2297,156
2299,1169
2300,1353
2301,120
2301,856
2301,3986
2302,72
2302,1568
2302,2016
2304,369
2305,243
2305,3304
2305,3601
2307,677
2307,1243
2307,1763
2307,2936
2307,3099
2307,4127
2307,4639
2307,4794
2307,4806
2307,4921
2310,491
2310,839
2311,2572
2311,4896
2312,1404
2313,58
2314,300
2314,2937
2314,4917
2318,3013
2319,2392
2321,1942
2323,2100
2324,58
2324,324
2324,371
2324,504
2324,631
2324,1344
2324,1875
2324,3074
2324,3734
2325,31
2326,757
2327,1289
2327,2198
2328,309
2329,842
2330,18
2330,39
2330,2609
2331,504
2332,649
2333,18
2335,847
2335,2901
2338,1175
2341,411
2341,719
2342,1383
2342,4132
2343,1759
2346,2289
2348,1267
2350,27
2350,156
2351,4766
2352,493
2352,545
2352,1073
2352,3451
2352,4356
2352,4857
2355,4710
2356,367
2357,946
2357,4245
2361,563
2363,560
2363,1286
2364,196
2367,1518
2367,1923
2368,1788
2368,2482
2369,1728
2370,3693
2371,1759
2372,2512
2372,4225
2375,2161
2375,2912
2375,4194
2376,254
2376,3943
2377,1627
2378,3036
2379,3134
2380,386
2380,591
2380,600
2380,1125
2380,1773
2380,2521
2383,3654
2384,3100
2384,3397
2388,2897
2390,4773
2391,636
2399,1413
2401,729
2403,699
2403,4096
2404,3693
2405,1873
2406,1589
2406,1743
2407,372
2407,2029
2407,2554
2408,2427
2413,229
2413,4297
2414,499
2414,2521
2416,341
2416,1286
2417,1587
2418,2658
2418,3433
2418,4141
2420,3223
2423,904
2424,1002
2425,784
2426,57
2426,990
2426,1015
2426,1319
2426,1320
2426,2303
2426,2381
2426,2511
2426,2548
2426,4225
2430,3859
2431,241
2434,4585
2434,4613
2435,4085
2437,212
2437,2571
2437,3601
2437,4238
2438,85
2439,4588
2441,1928
2442,1628
2443,763
2446,496
2447,2818
2448,634
2448,657
2449,3695
2450,934
2451,798
2451,1062
2451,1751
2451,2255
2451,3735
2452,4141
2453,646
2453,3085
2453,4314
2455,104
2457,306
2457,3031
2458,571
2458,2597
2460,1752
2461,4495
2463,1221
2466,1937
2467,341
2468,41
2468,4558
2469,269
2469,432
2469,716
2469,986
2469,1443
2469,1749
2469,1942
2469,2812
2469,2886
2469,3275
2469,4285
2470,1545
2471,2171
2472,158
2473,471
2473,3111
2474,133
2475,1230
2475,3124
2477,99
2478,2695
2479,1294
2481,934
2481,1335
2482,749
2483,2368
2484,178
2484,2891
2488,1250
2488,1413
2489,1200
2489,1349
2489,1919
2491,1046
2494,3963
2494,4767
2495,1459
2496,1628
2498,424
2499,31
2499,934
2500,1262
2504,212
2505,352
2505,756
2505,817
2505,1899
2505,2161
2508,202
2510,817
2512,2613
2515,90
2515,1884
2516,1339
2516,4889
2518,4999
2519,413
2520,2190
2522,3287
2522,3520
2522,3657
2525,4575
2527,2779
2527,4599
2529,2795
2530,229
2530,2214
2531,1791
2532,1134
2532,2704
2534,2513
2534,3943
2534,4773
2535,4930
2537,1262
2537,2902
2537,4733
2538,891
2539,609
2541,446
2542,14
2542,506
2542,1147
2542,4802
2545,1336
2546,934
2546,4661
2549,65
2549,85
2549,88
2549,196
2549,230
2549,504
2549,894
2549,901
2549,962
2549,1206
2549,1767
2549,1912
2549,2190
2549,2302
2549,2403
2549,2593
2549,3710
2549,3952
2549,3964
2549,4236
2549,4724
2549,4845
2551,234
2551,2544
2551,4275
2552,146
2552,292
2553,808
2554,60
2554,442
2555,560
2555,649
2556,181
2558,615
2561,2048
2562,18
2562,429
2562,1257
2562,1713
2562,3156
2562,3374
2562,3695
2562,3916
2562,4270
2562,4365
2562,4696
2563,4294
2563,4590
2567,633
2570,1116
2570,2456
2573,692
2573,2043
2573,3360
2573,4158
2573,4838
2573,4975
2575,58
2575,1404
2576,792
2577,442
2577,3841
2578,2111
2580,1937
2582,1398
2582,4999
2583,94
2583,207
2584,1299
2584,1800
2585,2428
2587,229
2587,772
2587,1188
2587,1659
2587,2278
2587,2613
2587,4662
2588,351
2600,229
2602,582
2605,1339
2605,2997
2607,2562
2608,4729
2611,1589
2615,85
2616,373
2617,64
2618,3652
2619,4001
2620,263
2620,1346
2620,3591
2621,1286
2621,1773
2623,1152
2623,1591
2623,3439
2625,345
2626,4975
2628,1033
2629,341
2629,1383
2629,4618
2630,1297
2630,2505
2630,2878
2633,494
2633,4250
2633,4308
2633,4958
2634,838
2637,2282
2639,3255
2641,626
2642,1012
2643,496
2645,196
2645,1333
2645,4607
2646,828
2646,4267
2647,631
2647,4103
2647,4760
2648,4225
2648,4416
2649,772
2649,1271
2649,1404
2649,3631
2652,309
2656,3971
2656,4431
2661,424
2661,1974
2661,2485
2662,306
2663,4225
2664,4227
2666,1178
2667,913
2668,426
2668,1840
2668,2011
2668,4654
2668,4695
2669,1597
2672,505
2674,447
2674,611
2674,717
2674,4078
2677,644
2677,979
2678,3134
2678,4780
2679,3030
2680,197
2681,1407
2681,2753
2681,3288
2683,154
2684,1761
2684,4879
2685,2099
2687,195
2687,306
2687,716
2687,1522
2687,3997
2687,4411
2696,3460
2697,14
2700,38
2704,840
2705,934
2705,1144
2705,1773
2706,476
2708,492
2710,908
2711,502
2711,4678
2712,4518
2712,4654
2713,2785
2713,4925
2714,2165
2716,70
2717,1340
2717,3311
2719,547
2719,2627
2719,3077
2721,1698
2722,14
2722,1484
2724,2631
2724,3695
2725,2089
2726,1223
2727,488
2727,1355
2727,2657
2728,137
2728,3424
2732,131
2732,2586
2733,31
2735,204
2736,2281
2736,2881
2739,124
2739,282
2739,934
2739,1338
2739,4990
2740,2233
2741,4656
2744,2202
2745,728
2745,1773
2745,3805
2751,713
2752,912
2754,6
2755,99
2757,1179
2759,4641
2760,154
2761,3585
2762,1933
2763,1286
2765,84
2765,588
2765,634
2765,1020
2765,1313
2765,1813
2765,1828
2765,1859
2765,2296
2765,2318
2765,2777
2765,3148
2765,3513
2765,3977
2765,4849
2765,4902
2765,4937
2767,4443
2768,1801
2769,633
2769,701
2769,1649
2769,1911
2769,4987
2771,1105
2773,1812
2774,666
2775,719
2775,1824
2775,2879
2775,3870
2776,2895
2776,4375
2777,2695
2779,2358
2779,4241
2781,1316
2782,183
2783,111
2783,131
2783,858
2783,1643
2783,1721
2783,2544
2783,3217
2783,3333
2783,4226
2783,4384
2783,4646
2784,559
2786,617
2786,3100
2786,3218
2786,4790
2789,2561
2789,3214
2793,1223
2794,229
2795,10
2797,161
2801,2117
2801,4881
2802,2315
2803,64
2804,2874
2804,3146
2805,1656
2805,2971
2807,33
2809,1029
2810,1604
2810,4773
2811,31
2811,1520
2813,2818
2814,1838
2819,341
2822,579
2822,3250
2822,4211
2823,4129
2824,3782
2824,4881
2825,2731
2828,1294
2831,2158
2831,2207
2832,3036
2832,4492
2833,3375
2834,2987
2835,1093
2835,2497
2835,2566
2839,996
2840,295
2842,2065
2842,3741
2843,65
2844,161
2844,3636
2844,4608
2845,459
2847,3897
2847,4225
2848,569
2848,3606
2848,4288
2848,4633
2849,2644
2851,560
2853,688
2853,3831
2856,467
2857,516
2857,2874
2858,713
2858,930
2858,1623
2861,1627
2863,227
2864,1333
2865,394
2866,40
2866,246
2866,1041
2866,1627
2866,1922
2866,3518
2867,1034
2867,1659
2869,1294
2873,1671
2876,316
2876,3152
2877,632
2877,1582
2878,2543
2878,4753
2880,2207
2880,3933
2880,4712
2882,121
2883,1768
2884,3177
2885,2604
2887,156
2887,712
2889,135
2889,4212
2890,1657
2890,3390
2894,1919
2894,2924
2897,251
2899,108
2906,371
2906,2747
2908,1321
2909,27
2909,1337
2909,2868
2909,4891
2910,4018
2911,1842
2912,425
2912,2207
2912,4341
2913,1147
2916,1122
2920,1460
2921,2387
2922,416
2922,4880
2923,1898
2925,1884
2928,4308
2929,1353
2932,2742
2934,1884
2941,471
2941,986
2941,1340
2941,1599
2941,1801
2943,2285
2943,2778
2943,3939
2943,4983
2944,2084
2944,4188
2950,83
2950,178
2950,1062
2951,625
2953,2231
2955,1898
2956,15
2956,94
2956,2674
2957,1321
2958,1788
2958,3818
2958,3865
2958,4333
2958,4404
2959,11
2959,272
2959,850
2959,1868
2959,2443
2959,2665
2959,3056
2959,3330
2959,3716
2959,4518
2960,800
2961,146
2961,173
2961,1156
2961,3517
2961,4086
2962,215
2962,411
2962,839
2962,4305
2963,1919
2965,4641
2967,2366
2967,4404
2968,516
2973,85
2973,923
2973,1493
2973,3928
2973,3934
2974,641
2974,782
2974,1189
2974,2975
2974,4205
2974,4565
2976,2116
2978,849
2978,1220
2979,869
2980,2224
2982,789
2985,2315
2985,4356
2986,129
2988,707
2989,516
2989,621
2989,1363
2989,1627
2989,2108
2991,306
2991,1708
2992,3435
2993,4852
2996,4386
2997,789
2998,287
2998,2820
2998,3189
2998,3330
2998,4029
2999,475
3000,2550
3002,1060
3002,2517
3002,3586
3006,105
3006,934
3006,1522
3008,150
3009,457
3010,203
3010,317
3010,653
3010,941
3010,2159
3010,2540
3010,2772
3010,3674
3010,4446
3011,1438
3012,1205
3013,133
3013,322
3013,324
3013,670
3013,1942
3013,3194
3015,792
3016,351
3017,817
3018,70
3019,309
3019,462
3019,658
3019,2287
3019,3476
3020,3460
3021,72
3022,1160
3022,2560
3022,3322
3022,4220
3025,646
3026,2655
3027,2818
3028,513
3028,708
3028,1911
3028,2360
3028,4656
3030,2692
3033,636
3034,1750
3034,2149
3035,2897
3036,1300
3038,3320
3039,1161
3043,3314
3043,3810
3045,1321
3045,4260
3046,1269
3049,31
3049,4392
3050,701
3051,1354
3052,3998
3053,4592
3055,3466
3055,3680
3056,3611
3057,3865
3058,244
3058,2485
3059,341
3059,780
3059,2156
3059,4898
3060,1259
3061,2661
3062,1788
3063,102
3064,3433
3068,2074
3069,4777
3070,20
3070,141
3072,4043
3073,110
3073,269
3073,749
3073,833
3073,1095
3073,2142
3073,2359
3073,2386
3073,2402
3073,2655
3073,3329
3073,3695
3073,4732
3076,4188
3077,798
3078,1808
3079,1071
3080,780
3082,748
3082,1123
3082,4905
3083,792
3086,471
3087,840
3088,1860
3088,3085
3088,4394
3089,986
3091,2429
3093,237
3094,2866
3095,1459
3097,3636
3098,1319
3098,1928
3098,3777
3098,3910
3100,4078
3102,696
3102,3244
3102,3565
3102,4905
3105,491
3105,1363
3105,1659
3105,1796
3105,2030
3105,2459
3105,4571
3105,4853
3107,618
3112,333
3112,2043
3115,2149
3116,2390
3116,2836
3117,2650
3119,1132
3120,476
3120,1475
3121,496
3121,4537
3122,1894
3126,2153
3128,131
3129,4852
3130,2176
3132,738
3132,874
3133,2198
3133,3418
3134,1407
3135,3978
3136,2695
3136,3929
3137,4896
3139,2935
3141,695
3141,3173
3141,3932
3143,1145
3144,34
3145,85
3145,97
3145,641
3145,1015
3145,1152
3145,1943
3147,1099
3147,3609
3150,4773
3151,99
3153,521
3153,3353
3154,207
3155,646
3156,695
3156,3375
3156,4179
3157,202
3158,138
3158,215
3158,3360
3159,2316
3160,2331
3161,351
3162,881
3166,350
3167,647
3169,3099
3170,205
3170,241
3170,309
3170,590
3170,884
3170,2144
3170,2943
3170,3685
3170,3686
3170,3843
3171,1597
3176,1429
3177,608
3177,1627
3180,20
3180,788
3180,1385
3180,3147
3180,4340
3182,2334
3183,2289
3184,1294
3185,306
3188,1339
3189,772
3190,706
3191,1381
3193,2969
3198,2336
3199,1931
3200,1884
3201,4038
3202,3009
3205,14
3205,3296
3205,3671
3207,1044
3208,2570
3208,2862
3209,2574
3211,1911
3211,2557
3212,979
3216,2403
3217,2119
3219,376
3219,817
3219,1527
3219,1810
3219,1848
3219,3717
3220,2171
3223,3908
3225,3789
3227,1028
3227,3005
3228,4757
3228,4945
3230,4383
3231,4987
3233,306
3237,945
3238,85
3238,584
3238,1832
3238,4561
3240,799
3245,150
3245,831
3245,1697
3245,1928
3245,1933
3245,2480
3245,2657
3245,3490
3245,4218
3246,2778
3246,3002
3247,3380
3247,4268
3247,4362
3248,316
3248,1216
3248,1942
3249,1630
3249,4810
3250,225
3250,245
3250,667
3250,1321
3250,1757
3250,2254
3250,2654
3250,4154
3250,4386
3253,1698
3254,1049
3254,1515
3254,2198
3254,2262
3254,2586
3254,4725
3256,463
3256,1053
3256,2937
3256,3271
3257,934
3257,1773
3257,3109
3258,2999
3262,1892
3262,2660
3263,4894
3264,426
3266,428
3270,2878
3273,126
3274,922
3276,99
3276,2440
3277,839
3277,3790
3277,4430
3278,577
3278,2041
3278,3275
3279,273
3281,1942
3282,3635
3284,31
3285,675
3285,901
3285,2908
3285,3118
3285,3130
3285,4453
3290,14
3290,84
3290,131
3290,3423
3291,1570
3292,481
3294,252
3295,1016
3295,1148
3295,1903
3295,2302
3295,3125
3295,3365
3295,3460
3298,2618
3300,26
3302,238
3302,729
3302,808
3302,1148
3302,2283
3302,3381
3302,4440
3303,4896
3304,1362
3304,1403
3304,1409
3304,1936
3304,3286
3305,131
3305,202
3305,4127
3307,2149
3308,521
3313,760
3313,1874
3314,105
3314,2586
3314,2896
3315,215
3315,316
3315,783
3315,1305
3315,2610
3315,4788
3316,2652
3317,1631
3318,480
3320,1342
3323,181
3324,1550
3327,563
3328,2777
3338,588
3338,4593
3340,31
3341,126
3341,4465
3343,18
3343,70
3343,121
3343,302
3343,475
3343,523
3343,748
3343,1046
3343,2283
3343,3149
3343,3175
3343,3334
3343,4170
3344,3963
3346,229
3346,817
3347,1207
3349,1814
3352,67
3354,3939
3355,1429
3356,397
3358,84
3358,1726
3359,492
3359,535
3359,3295
3362,372
3363,1426
3363,3806
3366,156
3366,210
3366,1005
3366,1150
3366,2060
3367,636
3369,2553
3370,351
3372,27
3375,2693
3376,1148
3377,430
3377,615
3377,700
3377,816
3377,1850
3377,2104
3377,3708
3377,4304
3379,795
3381,471
3381,1828
3381,2063
3381,2521
3381,2651
3381,2668
3381,3293
3381,3713
3381,3954
3381,4398
3381,4558
3382,1206
3383,2043
3385,2236
3387,126
3393,4188
3394,281
3395,244
3396,577
3397,731
3398,1592
3398,3909
3399,4129
3400,168
3403,4607
3404,287
3404,1968
3405,1583
3407,570
3407,3482
3408,2437
3409,4873
3410,4156
3411,233
3411,1346
3411,2224
3412,207
3413,2572
3414,713
3416,411
3419,141
3419,4456
3420,997
3420,2244
3421,2042
3422,3030
3423,4778
3425,907
3427,633
3427,2123
3427,4071
3428,311
3428,905
3428,1589
3429,972
3430,1301
3431,2239
3433,1657
3434,524
3434,3205
3437,420
3438,2429
3440,4564
3441,70
3442,233
3442,1101
3443,1008
3443,3674
3445,10
3445,2518
3446,3901
3449,584
3452,2687
3453,609
3453,1123
3454,129
3457,3
3458,38
3459,224
3459,3738
3461,560
3461,3156
3462,559
3463,1664
3463,2210
3463,3460
3464,1728
3465,502
3465,1255
3465,2060
3465,2373
3465,3257
3465,4458
3466,4838
3467,1334
3470,588
3471,4344
3477,2207
3477,2540
3480,168
3480,3883
3485,1578
3486,370
3486,1788
3487,3795
3489,108
3493,183
3495,1681
3496,475
3496,1745
3497,2695
3498,1616
3499,2779
3500,426
3501,168
3501,227
3501,1027
3501,3963
3501,3994
3505,212
3505,3460
3507,3203
3508,768
3509,452
3509,990
3509,1793
3509,1805
3509,2120
3509,2653
3509,2760
3509,3905
3510,1223
3512,1847
3514,1788
3515,4420
3516,1578
3517,218
3517,1482
3517,2334
3517,2451
3517,2872
3517,3674
3517,3962
3517,4188
3517,4414
3517,4600
3517,4857
3519,229
3523,3435
3524,5
3524,4513
3524,4548
3525,491
3525,1783
3525,3997
3525,4607
3526,3482
3528,43
3528,409
3528,516
3528,652
3528,757
3528,1066
3528,1448
3528,2702
3528,2756
3528,2818
3528,3075
3528,3388
3528,3614
3528,3693
3529,3172
3530,106
3530,411
3530,458
3530,1220
3530,2223
3530,4774
3531,1545
3532,2952
3533,1752
3533,4257
3533,4518
3533,4904
3534,2428
3536,3952
3537,66
3537,304
3537,772
3537,4614
3537,4951
3538,1228
3540,41
3542,327
3542,1379
3543,1220
3544,3444
3545,3217
3546,2522
3547,2260
3547,2888
3548,2290
3548,4038
3550,901
3551,320
3552,426
3553,1286
3554,3971
3557,4700
3558,4630
3559,4676
3560,671
3561,316
3562,191
3563,487
3564,3684
3566,341
3566,582
3566,4092
3566,4926
3567,695
3568,58
3569,1447
3569,3234
3570,182
3572,1363
3573,621
3574,4775
3575,229
3575,3289
3575,4315
3576,621
3576,740
3577,563
3577,655
3577,1942
3577,2195
3577,3036
3577,3311
3577,3472
3577,4394
3579,462
3579,1001
3579,3804
3579,4102
3579,4291
3579,4388
3579,4932
3580,768
3583,1589
3584,2795
3586,1269
3587,14
3587,1354
3587,2042
3587,3040
3589,204
3593,2480
3595,3869
3595,4246
3596,1684
3598,3681
3599,1322
3600,273
3602,4551
3602,4583
3603,2570
3604,31
3604,4357
3605,3727
3606,297
3607,983
3607,3181
3608,648
3611,934
3612,2315
3613,521
3613,1923
3613,1931
3613,2185
3613,4933
3616,66
3617,563
3617,2492
3619,2123
3619,4227
3620,260
3620,878
3620,1752
3620,4143
3620,4957
3621,133
3621,641
3621,760
3621,1504
3621,3502
3623,775
3623,2387
3623,2700
3625,975
3626,812
3627,1069
3627,1083
3627,1144
3628,237
3631,1517
3631,1947
3631,2837
3632,582
3633,1527
3634,1446
3637,237
3638,4227
3641,455
3641,2557
3642,515
3646,5
3646,70
3646,154
3646,363
3646,459
3646,499
3646,696
3646,728
3646,1039
3646,1610
3646,1730
3646,1871
3646,2010
3646,2331
3646,3371
3646,3527
3646,4264
3647,3280
3648,3978
3649,351
3650,1046
3650,4188
3653,459
3653,3727
3655,1707
3656,2630
3656,3130
3656,4244
3657,1280
3658,104
3659,1714
3660,4970
3661,1414
3662,1773
3663,156
3667,3152
3669,1936
3672,1073
3672,2903
3672,4719
3676,3098
3678,151
3678,257
3678,1549
3678,1960
3678,2320
3678,2440
3679,1996
3679,4001
3682,229
3682,345
3682,972
3682,2374
3682,3241
3682,4792
3684,3680
3690,2272
3690,2650
3691,424
3693,788
3693,888
3694,205
3694,511
3694,975
3694,1134
3694,1176
3694,1864
3694,1911
3694,2046
3694,2072
3694,2077
3694,2205
3694,2618
3694,2790
3694,2983
3694,4043
3694,4906
3695,2276
3697,2945
3697,4992
3698,301
3700,1492
3700,3090
3702,3938
3702,4362
3703,154
3704,58
3704,3573
3704,3879
3704,4302
3705,748
3706,351
3710,3331
3711,2108
3712,701
3714,4824
3715,1160
3718,437
3718,1317
3719,2207
3721,1429
3722,1150
3723,1335
3725,2897
3726,3907
3726,4864
3729,1281
3730,225
3731,1718
3732,3417
3733,322
3733,353
3733,468
3736,1110
3736,4924
3739,2033
3741,225
3743,4760
3744,4585
3745,684
3745,934
3745,1790
3745,2011
3745,2961
3745,3217
3745,4860
3746,545
3748,883
3749,4618
3750,246
3750,490
3750,2639
3750,3123
3750,3335
3750,3417
3750,3636
3750,4242
3751,3693
3752,252
3752,517
3752,1532
3752,2236
3752,2886
3752,3492
3752,3630
3759,4188
3761,791
3762,1034
3762,3693
3766,309
3767,650
3769,1468
3769,2599
3770,4386
3771,3597
3773,2983
3774,582
3775,1980
3776,3435
3778,504
3780,391
3780,4032
3785,611
3787,3077
3788,2609
3789,292
3793,3511
3795,1363
3797,789
3798,2720
3799,4130
3800,1259
3801,666
3803,181
3803,4292
3807,2983
3808,306
3808,3173
3809,1220
3809,3267
3811,2203
3813,1937
3814,2903
3820,292
3820,1751
3821,20
3821,314
3821,959
3821,2427
3821,2897
3821,4520
3823,928
3824,224
3827,3540
3828,2387
3830,611
3833,124
3834,2687
3834,3312
3835,491
3836,2995
3838,633
3839,1385
3840,2144
3844,0
3844,34
3844,83
3844,386
3845,2116
3846,1752
3847,2015
3848,1176
3849,3637
3850,1894
3851,255
3856,4981
3858,828
3858,1101
3859,3601
3860,1356
3861,2412
3862,941
3863,1443
3863,4214
3864,2816
3864,4112
3865,1429
3865,2315
3865,3506
3866,3601
3867,323
3869,131
3871,142
3871,979
3873,1158
3873,1666
3873,1788
3873,2533
3873,3373
3873,4952
3874,687
3875,1354
3875,2704
3876,70
3876,154
3876,191
3876,260
3876,364
3876,616
3876,649
3876,1288
3876,4156
3876,4607
3876,4923
3877,716
3881,1208
3883,53
3883,2563
3883,4604
3884,1073
3886,3869
3888,1221
3888,1983
3888,2825
3888,3205
3888,4115
3889,1538
3890,2866
3890,4023
3891,2665
3892,306
3893,684
3893,4436
3894,559
3894,1525
3895,618
3896,2077
3896,3754
3901,1923
3903,142
3903,1314
3903,1510
3903,2502
3903,2538
3903,4602
3905,600
3905,1747
3907,20
3908,229
3910,2846
3911,1335
3911,2318
3912,1358
3913,1846
3913,4788
3914,2650
3916,4227
3918,3900
3920,3899
3922,28
3923,2593
3926,2011
3929,108
3930,521
3930,1133
3930,2281
3931,1814
3935,4766
3937,3334
3937,4905
3940,2981
3940,4587
3940,4588
3942,3428
3942,4355
3942,4503
3942,4585
3944,617
3946,233
3947,3002
3949,3522
3950,4032
3951,57
3953,4156
3953,4245
3957,705
3958,3677
3959,3090
3960,521
3960,1367
3961,2485
3962,3243
3965,3341
3965,3724
3966,732
3967,854
3969,996
3970,442
3970,2015
3970,3255
3970,3997
3971,2734
3972,237
3975,1849
3979,2244
3980,4404
3983,930
3985,10
3985,4884
3986,3041
3987,426
3987,1663
3989,1348
3990,524
3991,3256
3992,116
3992,548
3996,1661
3998,31
3998,4124
3999,1297
4001,2231
4004,3687
4005,372
4005,438
4005,2559
4005,2949
4007,798
4008,921
4009,1106
4009,3541
4012,4491
4015,1344
4017,763
4020,1850
4021,1677
4026,1152
4027,69
4027,306
4027,1072
4027,2606
4027,3098
4027,3859
4030,2123
4030,4425
4032,252
4033,1377
4034,780
4036,196
4036,758
4036,2268
4036,3375
4036,4578
4036,4818
4039,3320
4039,4873
4040,334
4041,609
4042,131
4042,2892
4043,1034
4043,1122
4043,1492
4043,2564
4043,2795
4043,3348
4045,3293
4047,568
4047,728
4047,740
4047,1000
4047,2513
4047,2561
4047,2595
4047,3226
4049,1342
4049,3601
4050,106
4050,1597
4050,1636
4052,1898
4054,60
4056,988
4056,4085
4056,4766
4060,2892
4061,504
4062,85
4062,369
4062,1708
4062,2591
4062,2692
4063,397
4064,870
4064,885
4064,2687
4066,1228
4066,4199
4068,3865
4069,2344
4070,236
4070,648
4070,4857
4072,2464
4073,579
4073,4261
4075,320
4075,4994
4077,471
4077,3668
4079,3693
4080,934
4080,1649
4081,224
4082,615
4082,1325
4082,1649
4082,1777
4082,4259
4083,738
4084,2840
4084,3311
4087,631
4087,840
4087,2089
4090,14
4095,2983
4097,800
4098,2464
4100,3636
4101,2984
4103,3287
4104,1286
4105,4059
4106,3915
4109,1020
4111,4043
4113,351
4114,4007
4115,2097
4117,2978
4118,1621
4121,2657
4122,1745
4123,343
4129,3321
4129,4073
4130,1166
4131,1286
4133,41
4134,1589
4135,139
4135,3482
4135,3978
4136,15
4138,239
4144,72
4144,4443
4145,60
4146,924
4146,4307
4147,1684
4150,2734
4150,4549
4152,53
4152,1897
4152,3779
4152,4703
4153,2428
4153,4911
4155,1305
4155,4529
4159,1414
4162,632
4163,762
4165,1401
4166,2556
4167,571
4167,1661
4171,4105
4172,108
4173,3345
4178,1851
4180,327
4180,699
4180,835
4180,1123
4180,1246
4180,2080
4180,3078
4180,3541
4180,3978
4180,4713
4183,1589
4184,393
4185,38
4185,506
4185,733
4185,2531
4186,3952
4187,4141
4188,606
4188,1722
4188,2340
4188,2904
4189,1184
4189,1667
4191,1627
4191,4080
4192,3455
4193,154
4196,471
4198,207
4198,295
4198,1671
4198,2195
4200,579
4201,806
4201,1489
4201,4245
4202,51
4203,3491
4206,2961
4207,4308
4208,1280
4209,295
4210,2682
4213,4590
4215,2795
4216,3503
4216,4818
4219,2196
4221,129
4222,2687
4223,457
4223,747
4225,150
4226,301
4226,618
4226,3791
4226,4492
4227,1336
4228,3148
4229,58
4230,462
4233,18
4235,183
4235,3693
4235,3707
4236,355
4238,1627
4238,1739
4239,798
4239,4110
4239,4126
4240,631
4242,2658
4243,3585
4243,4461
4244,1778
4245,245
4246,4685
4248,729
4248,1151
4248,3272
4249,224
4250,38
4251,4232
4252,1223
4253,2231
4254,226
4254,2127
4255,4051
4256,2256
4260,2540
4262,2540
4265,181
4265,457
4265,537
4265,1339
4265,1797
4265,3799
4265,4897
4272,3186
4274,35
4276,2048
4279,3695
4281,84
4281,289
4281,555
4281,1064
4281,1741
4283,606
4286,4969
4290,3186
4293,66
4293,4976
4295,4085
4296,3792
4299,996
4303,4392
4305,168
4305,430
4305,610
4305,788
4305,789
4305,953
4305,1625
4305,1911
4305,2042
4305,2586
4305,2638
4305,3096
4305,3888
4306,1340
4307,4271
4310,2111
4311,701
4313,1136
4314,423
4314,941
4314,4834
4316,1827
4318,2734
4321,2609
4321,3727
4321,4502
4325,1621
4327,2692
4328,1362
4331,644
4331,1319
4331,1429
4331,2236
4331,3701
4334,3978
4334,4319
4336,2119
4337,254
4338,4278
4339,3928
4339,4642
4342,756
4343,732
4343,1649
4343,4051
4344,3938
4345,4032
4346,1366
4347,3956
4348,504
4351,2486
4354,2964
4356,1377
4358,1227
4359,244
4360,252
4361,1516
4363,2398
4363,2581
4366,4838
4367,904
4367,1002
4368,3078
4369,3758
4369,4847
4370,536
4371,1300
4371,3516
4372,1758
4373,289
4373,4141
4374,578
4375,3404
4375,4572
4376,732
4376,869
4377,3036
4378,600
4379,417
4379,430
4380,345
4380,1026
4380,1190
4380,2917
4380,3794
4381,2158
4381,3622
4383,1181
4385,990
4386,1129
4387,4220
4388,1882
4388,2596
4389,4053
4390,402
4393,727
4394,4708
4395,4057
4396,4547
4397,4282
4399,3585
4400,1376
4401,2935
4402,3084
4403,4700
4404,2572
4407,795
4408,1634
4409,1520
4410,580
4410,2196
4410,2219
4410,4812
4412,3106
4413,1656
4413,4912
4414,2819
4415,560
4417,411
4417,869
4417,1761
4417,3129
4417,4232
4418,3286
4418,4819
4419,1112
4421,3813
4422,284
4422,1083
4424,1942
4427,2232
4428,1776
4429,2854
4433,4297
4434,2687
4434,4592
4435,2737
4437,420
4437,4838
4438,591
4438,3696
4438,4896
4441,1489
4443,373
4443,2295
4444,1081
4445,1661
4446,4064
4447,70
4449,3029
4450,1062
4450,1723
4451,4119
4455,817
4457,3693
4459,1628
4463,1348
4463,1364
4463,3312
4467,10
4467,1849
4468,1286
4468,2687
4468,3048
4472,1521
4473,1015
4475,38
4475,202
4475,428
4475,446
4475,515
4475,924
4475,1287
4475,1698
4475,4139
4475,4727
4476,2323
4479,202
4481,168
4482,1743
4483,130
4484,225
4484,1914
4485,2553
4486,4624
4487,570
4488,352
4489,487
4489,1756
4493,782
4494,2729
4494,2817
4494,4297
4495,341
4497,3081
4497,3727
4499,58
4499,1091
4499,4575
4500,326
4504,3156
4506,4748
4507,362
4508,3330
4509,1601
4510,204
4512,356
4514,4035
4515,2837
4516,854
4517,2807
4519,3767
4521,2123
4523,3183
4524,2341
4524,2935
4524,3460
4525,4225
4526,2897
4527,18
4531,2866
4533,827
4534,1033
4535,581
4538,696
4539,2580
4540,442
4541,1643
4542,701
4543,904
4544,4035
4545,1726
4545,2826
4549,274
4549,337
4550,1745
4552,182
4552,239
4552,792
4552,1294
4552,1366
4552,2007
4552,2322
4552,3693
4552,4432
4552,4766
4554,110
4555,2256
4556,58
4558,1051
4559,257
4559,3459
4567,225
4568,4458
4570,733
4574,325
4574,3971
4579,3221
4580,2812
4580,3243
4580,4501
4580,4637
4581,560
4583,1522
4584,817
4587,2427
4588,3375
4589,1098
4591,207
4591,341
4591,609
4591,1314
4591,1570
4591,2089
4591,2631
4591,2731
4591,2848
4591,3469
4591,3479
4592,314
4594,4035
4595,686
4596,1115
4597,50
4598,2593
4599,3465
4603,475
4605,1300
4605,2203
4606,588
4609,1348
4610,962
4610,2104
4610,3206
4610,3313
4611,1251
4613,117
4614,666
4614,773
4614,921
4614,1148
4614,1792
4614,1942
4614,1995
4614,3817
4614,4083
4614,4628
4616,355
4616,833
4616,1784
4616,1793
4616,3375
4617,996
4618,164
4618,516
4619,1015
4620,1947
4621,4032
4623,934
4624,351
4629,1809
4630,5
4632,3978
4636,1520
4638,27
4638,631
4638,1300
4638,2720
4638,3963
4640,207
4644,3899
4647,3875
4649,3309
4650,2818
4650,3280
4653,131
4654,536
4654,701
4654,1862
4654,4056
4656,4984
4658,1701
4659,2127
4660,563
4668,28
4670,2269
4671,1150
4672,372
4676,749
4677,1510
4679,764
4680,244
4681,2284
4682,1578
4683,21
4683,3503
4686,591
4690,773
4692,203
4693,4590
4694,3967
4698,476
4699,245
4700,617
4700,3738
4700,4848
4701,1334
4701,2926
4702,3597
4705,4762
4707,3217
4707,3964
4709,351
4710,3936
4711,1947
4714,1840
4715,962
4716,460
4716,2825
4717,986
4718,494
4719,10
4720,1291
4722,2936
4723,3814
4725,945
4726,282
4726,324
4726,469
4726,502
4726,1314
4726,2207
4726,4688
4726,4954
4729,324
4730,688
4735,977
4736,505
4736,1214
4736,2981
4736,3636
4736,4356
4737,1161
4739,2931
4740,1511
4740,2644
4741,4003
4742,563
4743,1073
4744,4533
4746,1485
4747,1469
4749,224
4750,1122
4750,4966
4751,4696
4752,2874
4754,1028
4754,2245
4754,2408
4754,3594
4754,4761
4754,4833
4755,4925
4756,3674
4758,977
4759,1336
4760,2911
4762,394
4762,1793
4764,392
4764,2914
4765,5
4766,4359
4767,72
4767,480
4767,4439
4768,60
4770,641
4770,999
4770,1107
4770,1162
4771,863
4775,773
4776,26
4776,423
4776,996
4776,1160
4776,1906
4776,2236
4776,2886
4776,3196
4776,3450
4776,3491
4779,2428
4781,402
4781,2878
4782,740
4783,740
4784,4308
4785,3440
4788,731
4789,2779
4793,1169
4794,4553
4795,314
4796,2608
4797,563
4798,207
4798,458
4799,1867
4802,1443
4805,1636
4807,58
4807,2130
4808,731
4808,1793
4808,3455
4809,44
4809,3406
4813,3361
4814,4443
4814,4763
4815,2022
4819,1714
4819,2262
4820,142
4820,3789
4820,4840
4821,3601
4822,702
4823,2117
4824,3767
4826,1208
4826,1286
4827,4691
4829,447
4830,2123
4830,2307
4830,2598
4831,2581
4832,2359
4835,491
4836,81
4836,666
4837,4362
4839,3145
4842,126
4843,156
4843,287
4843,1321
4843,2042
4844,1160
4846,1076
4850,2614
4851,1838
4853,1788
4854,3952
4858,1091
4858,3586
4860,50
4860,107
4860,943
4860,1083
4860,2583
4860,3268
4860,4506
4862,598
4863,31
4863,314
4863,577
4863,972
4863,1041
4863,1235
4863,1381
4863,1444
4863,2339
4863,2907
4863,3205
4863,3810
4863,4121
4866,1847
4867,1684
4868,289
4868,667
4868,2289
4868,2808
4869,2127
4869,3234
4870,1046
4871,4562
4872,2699
4872,4857
4874,2270
4877,2865
4878,555
4882,3586
4883,1253
4886,2722
4887,768
4888,3255
4891,524
4892,508
4892,1425
4892,2458
4893,3636
4899,251
4899,978
4899,2144
4901,914
4905,64
4905,314
4905,350
4905,972
4905,2750
4905,4315
4906,3560
4909,3742
4910,300
4911,580
4913,2059
4914,3339
4914,3460
4920,3535
4920,4352
4922,18
4926,126
4927,1122
4928,1850
4929,1942
4931,1943
4934,3978
4935,73
4935,85
4935,740
4935,773
4935,2787
4938,2698
4943,3921
4945,353
4945,975
4946,99
4946,306
4946,1570
4946,3738
4948,1355
4953,4631
4954,350
4956,14
4959,4353
4959,4691
4961,245
4961,502
4961,695
4961,1305
4961,2480
4961,4000
4961,4317
4961,4959
4962,934
4963,1339
4965,1597
4967,852
4969,1459
4973,1287
4975,4656
4977,1112
4978,4105
4980,339
4980,3267
4981,314
4982,3994
4984,1256
4986,1160
4988,70
4991,244
4993,2013
4995,3102
4998,3693
4999,1335
