src,dst
0,1
0,1015
0,1121
0,1351
0,1523
0,3442
0,3491
0,3532
0,3625
0,4088
0,4464
0,4706
2,46
2,83
2,96
2,291
2,1036
2,1039
2,1807
2,1882
2,2060
2,2566
2,2633
2,3559
2,4039
2,4610
5,576
5,1161
5,2403
5,2596
9,1506
10,1473
10,2610
11,2874
16,261
16,276
16,344
16,378
16,534
16,586
16,757
16,975
16,1055
16,1351
16,1499
16,1602
16,1821
16,1833
16,1866
16,1985
16,2463
16,2720
16,3011
16,3178
16,3699
16,3755
16,4559
17,158
17,973
17,1178
17,2495
18,357
18,700
20,1014
20,1635
20,1876
21,165
21,1463
21,2414
21,4621
22,62
22,958
22,1274
22,1691
22,1722
22,3113
22,3801
22,4502
24,319
24,326
24,438
24,627
24,781
24,1547
24,1557
24,2200
24,2335
25,547
25,735
25,987
25,1346
25,1451
25,1882
25,2769
25,2939
25,3163
25,3265
25,3468
25,4574
25,4787
28,12
28,461
28,1347
28,1971
28,4158
29,163
29,2331
29,3226
30,82
30,251
30,627
30,1291
30,4216
30,4454
31,657
31,772
31,1525
31,1554
31,1640
31,1789
31,2425
31,2448
31,2991
31,3443
31,3658
31,4216
32,89
32,2057
32,2699
32,3451
32,4132
32,4278
32,4834
36,165
36,689
36,731
36,1882
36,2356
36,3134
36,3896
37,589
37,1523
37,2676
38,100
38,139
38,587
38,808
38,846
38,2214
38,3679
38,4227
38,4577
39,701
39,1674
39,4763
43,34
43,67
43,156
43,201
43,227
43,557
43,590
43,632
43,658
43,810
43,931
43,1092
43,1109
43,1474
43,1581
43,1757
43,1953
43,3358
43,3417
43,3897
43,4085
43,4254
43,4274
43,4676
43,4959
44,234
44,435
44,830
44,932
44,1015
44,1268
44,1653
44,3267
44,3825
44,3998
45,118
45,994
45,1027
45,1201
45,2644
45,2841
45,4243
45,4266
48,62
48,100
48,154
48,283
48,346
48,458
48,1224
48,1653
48,1893
48,2539
48,2769
48,2860
48,2923
48,4155
48,4739
49,524
49,3678
51,1766
51,2869
52,6
52,3824
52,4830
53,924
53,1337
53,3376
53,3953
57,681
57,898
57,2539
57,2958
57,4210
58,152
58,329
58,381
58,424
58,457
58,760
58,1176
58,3419
58,3731
58,3796
60,982
60,1591
64,546
64,673
64,678
64,1107
64,1602
64,2690
64,3130
66,8
66,571
66,751
66,760
66,965
66,1143
66,1446
66,1610
66,1688
66,2168
66,3508
66,4216
69,2545
69,3945
70,903
71,53
71,96
71,296
71,341
71,1586
71,1602
71,1635
71,1807
71,2357
71,2433
71,2923
71,3149
71,3334
71,3534
71,3691
71,4164
71,4576
71,4700
72,34
72,79
72,95
72,323
72,508
72,660
72,666
72,1537
72,2813
72,3888
73,267
73,370
73,1245
73,2757
73,4432
74,3970
75,584
75,1160
78,304
78,344
78,412
78,639
78,2648
78,2824
78,3691
78,4149
80,622
83,149
83,3865
83,4508
84,63
84,403
84,744
84,760
84,1510
84,3561
84,4657
86,607
86,1334
86,1502
86,2841
86,3346
86,4946
88,227
88,296
88,648
88,819
88,861
88,1375
88,1390
88,1728
88,2202
88,2421
88,2452
88,3731
88,4121
91,341
91,1246
93,942
93,3805
94,35
94,724
94,1102
94,2023
94,4965
97,835
97,1722
97,3187
97,3926
97,4502
101,28
101,379
101,405
101,1895
101,3146
104,2342
104,4846
105,3016
107,325
107,813
107,1358
107,2342
109,1625
110,163
112,766
112,881
112,1165
112,1224
112,1271
112,1646
112,1761
112,1835
112,2361
112,3453
112,3842
112,4853
114,2539
114,3918
115,2849
115,3922
115,4654
117,1633
119,1725
119,2064
119,3434
119,4217
123,139
123,144
123,333
123,459
123,542
123,1280
123,2085
123,2342
123,2384
123,2440
123,2509
123,3170
123,3876
123,4055
123,4181
123,4287
124,2443
125,1989
126,543
126,1007
126,1854
126,2150
126,3782
126,4871
128,142
128,163
128,781
128,2272
128,2676
130,100
134,118
134,278
134,757
134,1523
134,1718
134,2120
134,2232
134,4036
135,59
137,389
137,407
137,604
137,607
137,1224
137,1784
137,2087
137,2120
137,2880
137,3597
137,3976
137,4589
143,1610
143,1672
143,1763
143,2962
143,4125
145,2923
145,4549
146,1563
146,2477
146,2648
147,88
147,1689
147,1860
148,26
148,213
148,727
148,1073
148,1771
148,4285
148,4510
149,322
150,898
150,1008
150,1076
150,1979
150,2005
150,2335
151,296
153,3918
153,4846
155,539
155,1055
155,2058
155,4213
155,4386
157,62
157,296
157,2499
157,4543
159,717
159,795
159,852
159,1091
159,1156
159,1182
159,1193
159,1633
159,1705
159,1741
159,2376
159,2926
159,3395
159,3532
159,4803
161,1635
164,764
164,4065
164,4883
165,1867
167,760
167,3814
168,684
168,850
168,993
168,1240
168,1731
168,2124
168,2640
168,2827
168,3935
168,4772
169,4803
171,179
171,294
171,679
171,985
171,1365
171,2014
171,2304
171,3229
171,3611
171,4682
172,1130
172,1396
172,2207
172,3876
172,3970
173,111
173,942
175,100
175,340
175,1197
175,1401
175,2839
175,4978
178,796
178,937
178,1802
181,1669
182,496
182,1934
183,1439
184,201
184,261
184,464
184,714
184,1059
184,1612
184,1653
184,1728
184,2400
184,2993
184,3182
185,4792
188,296
188,776
188,1156
188,1602
188,2588
188,4982
189,12
189,384
189,636
189,791
189,853
189,964
189,1125
189,1165
189,2446
189,2625
189,2903
189,4551
190,2900
190,3178
190,4817
193,1499
193,2690
193,4271
193,4849
193,4946
194,676
194,872
194,1268
194,2943
194,3166
194,3835
194,4216
195,144
195,3868
195,4285
200,543
200,907
200,3632
200,3929
202,3952
203,1640
206,68
206,248
206,1240
206,1684
206,3437
206,3822
208,512
208,565
208,1375
208,2648
208,2676
208,2994
209,2653
210,1279
211,379
211,1258
211,1933
211,3723
214,833
214,2690
214,3080
214,3102
214,3349
217,850
217,1708
217,2524
217,3631
218,183
218,1180
218,2089
218,2580
218,2779
218,3119
218,3618
218,4363
220,53
220,679
220,781
220,1186
220,1594
220,2045
220,2425
220,3105
221,63
221,127
221,314
221,685
221,747
221,1280
221,2503
221,2785
221,2977
221,3350
221,3446
221,3942
221,4155
222,846
222,2342
222,2512
222,2648
222,2846
222,3577
222,4331
223,312
223,535
223,586
223,751
223,1010
223,1933
223,2022
223,2107
223,2709
223,3532
223,3712
223,3918
223,4170
224,1933
225,34
225,496
225,497
225,1280
225,2229
225,2302
225,2830
225,2977
225,3102
225,3807
225,4763
231,226
235,33
235,249
235,839
235,2381
235,2659
237,1602
237,2936
237,4272
238,50
238,3672
240,358
240,850
240,1261
240,2311
240,2813
240,3278
240,3680
240,4890
241,281
241,493
241,2581
241,3644
244,522
244,1421
244,1565
244,2139
244,3851
244,4149
245,3226
245,4706
252,522
252,1989
252,2710
252,4706
253,784
253,873
253,964
253,1388
253,1453
253,1711
253,1983
253,2254
253,3618
253,4009
253,4852
255,344
255,4147
259,15
261,3996
261,4763
262,3075
263,142
266,296
266,2735
271,216
271,2335
271,3326
271,4732
273,1704
273,4480
274,35
274,63
274,90
274,257
274,566
274,1167
274,1666
274,2614
274,3140
277,535
277,568
277,666
277,1182
277,4204
277,4267
279,1274
279,1603
279,4123
280,4000
282,296
282,2534
282,3413
284,3929
285,709
285,3847
287,4216
288,7
288,560
288,2874
288,4611
292,410
292,997
292,1673
292,2742
292,3360
292,4596
295,129
295,394
295,509
295,522
295,530
295,588
295,813
295,975
295,1212
295,1419
295,1459
295,1633
295,1678
295,2172
295,2414
295,2425
295,2549
295,3524
295,4131
295,4165
295,4295
295,4333
295,4558
296,2648
297,102
298,133
298,412
298,1394
298,1893
298,3678
298,4787
299,296
299,445
299,666
299,1435
299,2965
301,649
301,1133
301,1295
301,2887
301,3431
301,4450
302,2800
302,2874
302,4143
303,484
305,96
307,975
307,3455
308,1505
308,3076
308,4122
309,165
309,216
309,358
309,854
309,925
309,1415
309,2331
309,2662
309,2849
309,3275
309,4622
309,4720
309,4978
310,3336
310,3929
313,575
313,929
313,1933
313,2165
313,2272
313,3806
314,59
314,608
314,620
314,1989
314,2189
314,2406
314,2676
314,2891
314,3102
314,3107
315,756
316,4230
317,964
317,1102
318,275
318,1673
319,1679
319,1906
320,2653
320,3491
321,2360
326,781
327,55
327,215
327,646
327,1261
327,2327
327,2735
327,3718
329,482
329,687
329,814
329,1188
329,1508
329,1550
329,1612
329,1733
329,1755
329,1875
329,2095
329,2245
329,2342
329,2735
329,3264
329,3763
329,4004
329,4216
331,153
331,354
331,517
331,573
331,610
331,620
331,1418
335,813
336,861
336,2322
336,3952
338,586
338,921
338,1490
338,2685
338,3952
339,1279
342,1012
342,1407
342,1894
342,2146
342,3567
343,1428
343,1566
343,2647
343,4171
343,4216
343,4490
345,735
354,447
354,753
354,1383
354,4192
354,4360
356,247
356,3350
357,88
359,96
359,426
359,604
359,684
359,936
359,956
359,1345
359,1742
359,2060
359,2197
359,4039
359,4817
361,362
361,441
361,2626
361,4498
365,3384
366,4240
366,4944
367,919
367,1212
367,1816
367,2545
367,2550
367,4502
368,103
368,105
369,138
369,1415
369,3507
370,1187
370,1574
370,4125
370,4464
371,4121
373,591
373,4706
374,988
374,1013
374,1036
374,1971
375,96
375,133
375,1882
375,3950
375,3970
375,4749
375,4957
376,3598
377,803
377,912
377,1845
377,2090
377,2397
377,2800
379,324
379,790
379,1009
379,1928
379,1948
379,2324
379,3284
379,4510
380,1184
380,4204
380,4852
385,319
385,738
385,1722
385,2482
385,2653
385,2877
386,2534
387,45
387,1226
387,2720
388,325
388,3154
389,88
389,325
389,482
389,1389
389,3341
389,3740
389,4206
389,4617
389,4728
389,4980
390,63
390,105
390,996
390,1885
390,2344
390,3663
390,4949
395,76
395,88
395,163
395,197
395,290
395,402
395,410
395,427
395,547
395,623
395,735
395,807
395,1893
395,1989
395,2448
395,3608
395,3620
395,3889
395,4924
396,775
398,4893
399,30
399,133
399,781
399,1036
399,1334
400,4110
401,4958
402,100
402,113
402,179
402,880
402,1033
402,3574
403,2040
404,446
404,1180
404,2154
405,964
405,1669
405,4315
408,412
408,3849
408,4493
413,355
413,379
413,610
413,1280
413,1483
413,2011
413,2028
413,2857
414,244
414,3699
415,12
415,162
415,231
415,534
415,4198
416,166
416,1542
416,1550
416,1605
416,3441
418,4932
420,2537
421,142
421,382
421,435
421,441
421,2253
421,2335
421,4202
421,4850
422,2055
422,2342
422,2372
422,2525
422,3056
422,3779
422,4033
424,604
424,2552
424,4350
425,760
428,674
428,1422
428,1560
428,1681
428,1933
428,2592
428,3683
428,4000
429,191
429,379
429,748
429,1553
431,113
431,882
432,348
432,604
432,841
432,1779
433,802
433,4179
434,1933
435,4686
436,646
436,2979
436,3015
436,3107
436,4472
437,88
437,159
437,210
437,262
437,985
437,1136
437,1205
437,1601
437,2272
437,2531
437,3426
437,3714
437,4168
437,4595
439,139
439,156
439,163
439,629
439,655
439,846
439,1078
439,1109
439,1407
439,2250
439,2332
439,3476
439,3919
439,4071
439,4621
439,4700
440,233
442,46
442,56
442,163
442,522
442,564
442,751
442,813
442,1239
442,1343
442,1592
442,1597
442,1988
442,2120
442,2164
442,2511
442,2564
442,2836
442,2864
442,3159
442,3720
442,4649
447,766
447,3742
449,1061
449,1364
450,2136
450,4520
451,2715
451,3598
452,751
452,3847
452,4891
453,405
453,608
453,2512
453,4472
454,120
454,187
454,344
454,409
454,475
454,890
454,1608
454,1942
454,2467
454,3102
454,3968
454,4276
454,4306
455,296
455,298
455,510
455,603
455,1355
455,1717
455,2729
455,3144
455,4034
455,4053
455,4925
460,1859
460,2275
460,2841
460,3817
460,3952
462,165
462,296
463,172
463,2690
463,4149
463,4351
464,696
464,781
464,2402
464,4223
466,1446
467,456
467,1139
467,1845
467,1852
467,3524
469,2202
470,216
470,751
470,1036
470,1738
470,4018
472,589
472,1224
472,1742
472,2960
473,144
476,88
476,1275
477,34
477,1261
477,1502
477,2906
477,4502
477,4883
478,3258
479,3323
481,487
481,1454
481,2076
481,3379
481,3576
481,3700
481,4153
483,216
483,1545
484,639
484,986
484,1040
484,1302
484,2676
484,2813
484,2849
484,3580
485,557
485,2113
485,3349
485,4192
486,1329
488,547
488,1543
488,1649
488,2534
488,2551
488,2690
489,138
489,1574
489,1691
489,2525
489,3444
489,3808
492,232
492,1367
492,3869
494,622
494,1933
494,2130
494,3526
495,281
495,1230
495,2849
495,2874
495,3879
498,61
498,142
498,802
498,1967
498,2977
499,484
499,1236
499,2036
499,4272
499,4914
501,378
501,608
501,2094
502,1502
503,673
503,1607
504,507
504,1231
504,1631
504,2150
504,2420
504,2683
504,3182
504,4584
506,50
506,3079
508,3921
510,4051
511,270
511,890
511,1906
511,3111
511,4268
511,4358
512,300
513,543
516,964
518,2293
518,2335
519,116
519,445
519,608
519,656
519,3136
519,3578
519,4833
520,204
520,2883
520,2921
520,3754
520,4557
521,1395
521,1669
521,3411
522,914
523,459
523,584
523,803
523,1097
523,1500
523,2277
523,3740
523,4467
525,8
525,931
525,2424
525,2635
525,3659
526,2213
527,105
527,435
527,4929
528,600
528,760
528,1280
529,163
529,177
529,348
529,589
529,1873
529,1882
529,3454
531,592
531,896
531,4055
531,4877
535,13
535,65
535,99
535,234
535,866
535,1190
535,1269
535,1569
535,2362
535,2969
535,3950
535,4346
535,4480
535,4584
535,4977
536,804
536,2793
537,553
537,611
537,1596
537,1632
537,2936
537,3117
537,3253
537,4620
537,4688
537,4769
538,2746
538,4155
541,263
541,1065
541,1095
541,2238
542,2065
543,389
543,444
543,1592
543,1894
543,2827
543,3395
543,4706
543,4776
544,89
544,229
544,1056
544,2474
544,3042
544,4682
545,15
545,3122
545,3669
545,4030
549,605
549,1271
549,2159
551,553
551,2537
551,2851
551,3107
551,3178
552,179
552,685
552,2569
556,3671
556,4039
558,1597
558,1893
558,4568
559,2145
562,304
562,609
562,1467
562,3434
564,585
564,1156
564,1679
564,2389
564,2968
564,2994
564,4326
566,4959
567,310
567,535
567,694
567,982
567,1280
567,1365
567,1462
567,1691
567,2621
567,2658
567,3183
567,4010
567,4092
567,4130
569,2807
574,435
574,1981
579,784
579,808
583,3554
584,55
584,554
584,1709
584,1825
584,1906
584,2247
584,2645
584,2813
584,3178
584,3893
584,4437
584,4604
584,4810
585,4578
592,3257
592,3650
594,2653
594,2862
594,3161
594,4392
594,4619
595,642
595,964
595,3806
595,3901
595,4194
596,1329
596,4433
599,103
599,187
599,622
599,1486
599,3897
599,3952
599,4309
601,951
601,1948
601,2599
601,3127
601,4071
601,4918
602,2323
602,2342
602,3254
602,3321
602,3334
606,2495
612,178
614,2260
614,4227
614,4239
614,4584
615,2443
615,3871
616,502
619,1860
620,3968
620,4051
620,4259
621,522
625,756
626,73
626,180
626,854
626,891
626,995
626,1375
626,1584
626,1695
626,2227
626,2903
633,370
633,1679
633,2480
637,2213
637,3142
638,1742
638,3799
640,120
640,300
640,1781
640,2719
640,2762
640,3609
641,1388
641,1541
643,230
643,921
643,2641
643,3559
643,3598
643,4176
643,4216
643,4505
645,1625
646,684
646,1064
646,1388
646,1748
646,1841
646,2085
646,2632
646,3407
647,353
647,636
647,661
647,1304
647,1639
647,2408
647,2757
647,2865
647,3063
647,3074
647,3579
647,3649
647,3701
647,4535
648,15
648,310
648,1275
648,1933
648,2676
648,4052
651,2050
652,379
652,678
652,957
652,1455
652,2200
657,1777
659,1254
659,1592
659,2545
659,2754
660,480
660,540
660,687
660,1161
662,35
662,1597
662,3679
663,560
663,2281
663,3237
664,1045
664,1930
665,1419
665,2353
667,92
667,553
667,2110
668,4851
669,876
669,1271
669,2490
669,4636
670,508
670,1494
670,1587
670,4641
673,62
673,475
673,1604
673,3805
673,4296
677,496
679,15
679,319
679,473
679,757
679,903
679,1401
679,1572
679,1828
679,2272
679,3712
679,4441
680,251
680,4820
683,1597
683,4494
685,198
686,352
686,1030
686,2457
686,3368
686,3643
687,304
687,496
687,508
687,713
687,1531
687,1796
687,3349
688,276
690,2396
690,3410
691,546
691,1395
691,1928
691,2467
691,3664
692,2832
692,3668
693,1435
693,1708
693,2017
693,2663
693,3668
695,275
695,4219
698,1158
698,1841
699,96
699,213
699,813
699,1502
699,3002
699,4481
699,4654
701,310
701,1611
702,811
702,1728
702,2587
702,4149
704,294
705,262
706,1876
706,2229
706,2874
706,2949
706,3288
706,3532
708,2155
711,163
711,535
711,2182
711,2307
711,4108
712,777
712,2591
712,2694
712,4958
716,649
716,1606
716,2030
719,262
720,4081
721,8
721,98
721,482
721,805
721,2831
721,3617
721,3739
721,4649
723,516
723,715
723,860
723,2128
723,2334
723,2874
725,34
725,2360
726,487
726,2537
728,247
728,304
729,1800
729,2013
729,3166
730,557
730,1317
730,4067
732,249
735,4027
736,684
736,1708
736,4703
737,819
737,1036
737,1280
737,2134
739,1292
739,3250
739,3349
739,4216
740,329
740,852
741,208
742,268
742,881
742,1135
743,628
743,3814
745,355
745,673
745,886
746,985
748,2554
748,3805
748,4216
749,2301
749,3384
749,3582
749,4051
749,4151
752,357
752,3797
754,89
754,3440
755,735
755,4328
758,687
758,2857
759,946
759,3416
760,2191
760,3524
762,350
764,497
764,2768
765,32
765,676
766,4792
767,219
767,332
767,648
767,849
767,2083
767,2800
767,4212
770,120
770,607
771,256
771,489
771,1442
772,757
772,1921
773,3274
773,3922
774,1891
774,4748
775,163
775,347
775,919
775,3055
775,3771
778,4820
787,41
787,435
787,1566
787,1925
787,2335
787,3297
788,636
789,814
789,1463
789,1684
789,2500
789,2824
789,2906
789,4066
789,4161
792,34
793,1878
793,1882
793,2744
794,4285
794,4432
795,229
795,459
795,956
795,1640
797,213
797,634
797,3103
797,3517
798,500
806,3226
809,12
809,2256
809,2902
809,2978
809,4741
812,516
812,862
812,1346
812,1688
812,2058
812,2874
812,3051
812,3984
812,4354
815,118
815,1375
815,1738
815,3273
816,482
816,1293
817,144
817,293
817,407
817,696
817,822
817,1220
817,1230
817,2170
817,4121
818,4946
820,1622
820,2744
820,3929
821,63
821,1361
821,1585
821,4696
823,1332
823,1635
824,96
824,120
824,187
824,565
824,703
824,841
824,2778
824,3052
824,3414
824,4746
824,4862
825,426
826,77
826,116
826,325
826,505
826,554
826,646
826,654
826,1216
826,1470
826,2024
826,2244
826,2334
826,2574
826,2603
826,2861
826,2948
826,4538
826,4872
828,496
828,655
828,3350
829,510
829,589
829,628
829,4114
832,543
834,435
834,2764
836,2165
836,2443
836,3885
838,77
838,4002
838,4488
840,62
842,4130
844,850
844,1246
844,1933
844,2393
844,4539
844,4852
845,4326
847,535
848,364
848,817
848,1433
848,1634
856,782
857,560
857,1949
857,2491
857,3244
857,3760
857,4295
863,262
863,3344
864,208
864,270
864,508
864,1341
864,1550
864,1673
864,1938
864,3039
864,3076
864,3230
864,3633
864,4944
866,234
866,869
866,4733
866,4882
867,4216
868,668
870,3491
871,4206
872,4273
874,1678
874,1933
874,2874
875,888
875,3554
876,536
876,1965
878,55
879,1893
883,604
883,729
883,1021
883,1242
883,1560
883,2191
883,2813
883,3891
883,3969
885,852
885,981
885,1725
885,4948
887,207
887,906
887,2509
889,204
889,1395
889,1640
891,1759
891,2193
893,1
893,83
893,249
893,378
893,1423
893,2449
893,3456
893,3705
893,4798
894,2994
899,475
899,3973
899,4337
900,751
901,312
902,55
902,1972
902,3805
902,4338
904,341
904,603
904,854
904,2704
904,3025
904,3214
905,760
905,3076
905,4712
906,966
907,46
907,207
907,760
907,1026
907,2155
907,2437
907,3848
907,3876
908,475
908,671
908,888
908,994
908,1197
908,2365
909,379
909,524
909,661
909,968
909,1138
909,1314
909,1548
909,2304
909,2856
909,2922
909,3056
909,3077
909,3216
909,3757
909,3805
909,3848
910,608
910,1635
910,3707
910,4883
910,4944
913,1109
915,3668
917,170
917,760
917,1873
917,1927
917,2013
917,2924
917,4081
918,919
918,1091
918,1256
918,1369
918,1708
918,1835
920,568
920,929
920,2581
920,4812
920,4852
924,120
924,294
924,4965
926,610
926,4982
927,12
927,1008
928,445
928,3717
929,435
929,1722
929,2100
929,3591
930,4110
932,177
932,372
933,329
933,996
933,2039
933,2525
933,2633
934,997
934,4287
937,3
937,177
937,1115
938,2874
942,7
943,1112
943,1500
943,2647
944,4852
947,1512
947,3925
947,4690
947,4846
947,4978
948,4477
950,106
950,1526
950,1738
951,448
951,3258
952,2342
952,3259
952,4575
954,402
955,487
955,1234
955,1448
955,1571
955,1862
955,1928
955,2267
955,2781
957,2874
959,837
959,1289
960,300
961,357
962,475
967,853
969,648
969,4488
971,2537
972,946
972,2074
977,306
977,1374
977,1375
977,1385
977,2920
978,841
978,2039
980,4796
983,1073
983,2227
983,2485
983,3686
983,3853
984,1768
984,1928
984,2537
984,3055
984,3582
985,88
985,120
985,177
985,496
985,1332
985,1955
985,2918
985,3217
986,1261
986,2095
986,3082
986,4573
989,125
989,1654
989,1897
989,3896
991,3130
992,136
992,1738
992,4803
999,785
1001,560
1001,802
1001,882
1001,1130
1001,1451
1001,3323
1001,4484
1002,1550
1005,573
1005,1390
1006,522
1007,377
1007,545
1007,701
1007,753
1007,3819
1007,3975
1009,4959
1011,1148
1011,2917
1011,3805
1013,675
1013,3582
1013,4431
1014,129
1014,286
1014,1178
1014,1456
1014,1550
1014,2539
1014,3176
1014,3323
1014,3735
1014,4780
1016,379
1017,3847
1017,4473
1018,165
1018,232
1018,560
1018,1753
1018,2220
1018,2331
1018,2874
1018,3199
1018,3759
1018,4285
1019,81
1019,744
1019,1246
1019,2127
1019,2302
1019,3007
1019,4094
1019,4192
1019,4488
1019,4896
1020,591
1020,1137
1022,144
1023,4473
1024,703
1025,62
1025,604
1025,1261
1025,1385
1025,1733
1025,2453
1025,3955
1025,4584
1025,4799
1028,228
1028,293
1028,543
1028,1941
1028,3847
1029,3620
1029,4584
1032,3
1032,2678
1034,409
1034,760
1034,781
1034,921
1034,1027
1034,1802
1034,2342
1034,3951
1034,4617
1034,4804
1034,4886
1035,163
1036,958
1037,760
1037,1203
1037,3074
1038,4883
1041,4393
1041,4557
1042,310
1042,1501
1042,2769
1046,1893
1047,3144
1047,4965
1048,1535
1048,2238
1048,4637
1049,133
1049,459
1049,2690
1050,88
1051,191
1052,1483
1052,3521
1053,2074
1054,163
1054,244
1054,715
1054,830
1054,1073
1054,3173
1054,4309
1054,4898
1055,548
1055,3345
1055,4719
1056,4682
1057,162
1057,3020
1058,133
1058,296
1058,565
1058,914
1058,1190
1058,2094
1058,2923
1058,3560
1058,3837
1058,4406
1058,4545
1058,4748
1060,33
1060,819
1060,1612
1060,2629
1060,2987
1060,4879
1061,35
1061,88
1061,125
1061,142
1061,530
1061,536
1061,638
1061,769
1061,932
1061,1007
1061,1149
1061,2466
1061,2885
1061,3184
1061,3259
1061,3319
1061,3329
1061,3477
1061,3623
1061,3804
1061,4635
1061,4852
1061,4901
1062,46
1062,213
1062,3092
1064,799
1064,1270
1064,3589
1064,4081
1067,19
1067,166
1067,1084
1067,1634
1067,2906
1069,260
1070,1731
1070,4157
1071,350
1071,2534
1071,2936
1071,3703
1071,4253
1074,8
1074,2117
1077,487
1079,853
1079,2458
1079,3144
1079,4846
1080,543
1080,735
1080,3124
1080,3150
1080,3694
1080,4608
1081,165
1081,1286
1081,1418
1081,1962
1081,2825
1081,3324
1081,3452
1081,4584
1082,1261
1082,2936
1082,3667
1082,4941
1085,2690
1086,1421
1087,59
1087,1261
1087,1841
1087,1868
1087,2069
1087,2176
1087,2339
1087,4664
1087,4742
1088,142
1088,4662
1089,120
1089,1122
1089,1634
1089,2373
1093,197
1094,312
1096,526
1096,684
1096,1066
1096,4031
1097,297
1097,2006
1100,1266
1100,4480
1101,4748
1104,2632
1104,2874
1105,4181
1106,76
1106,311
1106,328
1106,508
1106,768
1106,2985
1106,3697
1106,3884
1106,4426
1109,3662
1110,965
1110,1015
1110,1700
1110,3725
1110,3729
1110,4009
1110,4081
1111,270
1111,547
1112,735
1112,1482
1113,586
1113,814
1113,2653
1113,4077
1116,2849
1117,391
1118,568
1119,260
1120,33
1120,293
1120,543
1120,1126
1120,1346
1120,1454
1120,4259
1121,1706
1121,2565
1121,3090
1121,3556
1121,4445
1121,4836
1124,1
1127,34
1127,435
1127,2060
1127,3559
1128,929
1128,3582
1129,32
1129,735
1129,1220
1129,1452
1129,2024
1129,2660
1129,4055
1129,4803
1129,4957
1131,264
1131,748
1132,1816
1132,2439
1132,2813
1132,3203
1132,4876
1134,289
1134,513
1134,945
1134,1597
1136,2462
1136,2606
1136,3107
1136,4763
1139,701
1140,12
1141,608
1141,813
1141,4977
1142,1669
1142,4905
1144,13
1144,133
1144,1446
1144,2285
1145,653
1146,314
1146,394
1146,1820
1146,3194
1147,140
1147,180
1147,2207
1147,2945
1147,4952
1151,2695
1151,4168
1152,142
1152,348
1152,1524
1152,1719
1152,2116
1152,4121
1152,4957
1153,364
1154,886
1154,1224
1154,1552
1154,1566
1154,3353
1155,7
1155,2744
1155,3621
1155,4852
1156,13
1156,77
1156,491
1156,817
1156,1912
1156,1938
1156,2041
1156,2044
1156,2052
1156,2985
1156,3110
1156,3910
1157,254
1157,271
1157,729
1157,1851
1157,3559
1159,1653
1159,3102
1160,1389
1160,2210
1160,3949
1162,98
1162,325
1162,975
1162,1206
1162,2594
1163,1160
1163,3434
1163,4492
1165,283
1165,1280
1165,4181
1168,464
1170,208
1171,763
1171,1800
1173,1246
1174,163
1174,873
1174,1157
1175,3774
1175,4313
1177,551
1179,671
1179,1221
1179,2173
1179,2536
1179,2780
1179,2784
1179,2877
1179,3187
1179,4774
1180,653
1180,843
1180,888
1180,1770
1180,2018
1180,2143
1180,2342
1180,2767
1180,4096
1180,4174
1180,4291
1181,1045
1183,608
1183,1167
1183,2648
1183,2872
1183,3047
1183,3826
1183,4228
1187,580
1187,1839
1187,1871
1187,3330
1187,3897
1187,4080
1189,4488
1191,2478
1191,2545
1191,3676
1191,3953
1192,1109
1194,2229
1195,687
1195,3622
1195,4216
1196,1560
1196,4194
1198,751
1198,2396
1198,2964
1198,3144
1199,3598
1202,384
1202,1927
1202,4904
1204,354
1204,475
1204,853
1204,970
1204,2580
1206,2075
1206,2700
1206,3170
1207,854
1208,850
1208,996
1208,1364
1208,2831
1209,23
1209,855
1209,941
1209,1180
1209,1674
1209,2451
1209,2534
1209,3825
1209,4674
1210,1113
1211,589
1211,1485
1213,1197
1214,1355
1215,655
1215,687
1215,1860
1215,1910
1215,2484
1215,3734
1217,304
1217,644
1217,1156
1217,2746
1217,2761
1217,4297
1217,4325
1218,1116
1218,2545
1218,2624
1219,751
1219,756
1222,3683
1223,257
1223,1933
1225,2414
1228,872
1228,1509
1228,2873
1228,3290
1228,4767
1229,198
1229,435
1229,1613
1229,1873
1229,2222
1229,3085
1229,3280
1229,3325
1229,4500
1229,4712
1233,270
1233,2406
1234,87
1234,756
1234,964
1234,2291
1234,2342
1234,2605
1234,3986
1234,4044
1234,4534
1234,4846
1237,898
1237,1063
1237,1828
1240,425
1240,547
1240,757
1240,763
1240,1164
1240,1893
1240,2430
1240,2764
1240,2932
1240,3184
1240,3385
1240,3825
1240,4565
1240,4615
1241,1329
1242,132
1242,3077
1242,3177
1244,1084
1244,2690
1248,628
1249,757
1251,410
1251,496
1251,1483
1252,760
1252,2002
1252,3571
1253,4158
1257,805
1257,4574
1259,888
1259,1262
1259,2537
1260,120
1260,2534
1260,3918
1261,760
1261,922
1261,1116
1261,1255
1261,2552
1263,12
1263,2304
1263,2466
1263,2807
1264,1635
1267,850
1267,2396
1268,348
1268,873
1271,72
1271,763
1271,865
1271,2053
1271,4960
1272,3286
1273,1059
1273,4070
1276,1379
1277,532
1277,603
1277,2265
1277,3482
1278,679
1278,1990
1278,4627
1279,505
1279,1958
1279,2344
1279,4451
1281,177
1281,888
1281,2512
1282,3918
1282,4180
1283,665
1283,3077
1283,3702
1283,3992
1283,4309
1284,1502
1284,2465
1284,3149
1284,3190
1284,3524
1287,3757
1288,8
1288,63
1288,96
1288,163
1288,1849
1288,2830
1290,888
1290,1044
1290,1610
1294,63
1294,1064
1296,44
1296,100
1296,4546
1297,425
1297,1136
1297,1518
1297,1528
1297,2983
1299,389
1299,2933
1299,3456
1300,1582
1301,763
1301,2223
1301,3527
1301,3916
1301,4055
1302,120
1302,1948
1302,2859
1302,3567
1303,208
1305,230
1305,1036
1305,1224
1305,1351
1305,1623
1305,1941
1305,2160
1305,2429
1305,3226
1305,4234
1306,589
1308,715
1308,1972
1309,1092
1309,1635
1312,591
1312,1929
1312,4036
1313,735
1313,1030
1313,2874
1313,2927
1314,96
1315,3182
1316,389
1316,1097
1316,3240
1316,3242
1316,3282
1317,1545
1318,3896
1319,177
1320,133
1320,3168
1320,4000
1322,600
1323,882
1324,3334
1325,507
1325,943
1327,2351
1328,2011
1330,3107
1331,3916
1332,1974
1333,1045
1335,3721
1335,3952
1336,163
1336,3187
1338,249
1338,316
1338,391
1338,487
1338,578
1338,1053
1338,1172
1338,1326
1338,1846
1338,2377
1338,2480
1338,2583
1338,2749
1338,2765
1338,4977
1340,105
1340,3098
1340,4015
1342,865
1344,751
1345,3
1345,578
1345,2804
1345,3312
1345,4255
1348,1067
1349,3667
1350,591
1350,972
1352,142
1352,3329
1352,4121
1353,4706
1356,34
1356,3976
1357,62
1359,323
1359,585
1360,535
1362,4172
1362,4534
1363,791
1363,4076
1368,1326
1368,1559
1370,442
1370,1091
1370,1666
1371,3284
1372,357
1373,165
1373,756
1373,3537
1373,4573
1376,95
1376,100
1376,593
1376,2048
1377,125
1377,543
1377,814
1377,986
1377,1421
1377,1733
1377,2138
1377,4098
1377,4125
1378,4900
1379,554
1379,929
1379,3334
1379,3749
1380,1673
1381,701
1381,865
1381,1969
1381,3906
1382,4944
1384,996
1384,4584
1385,394
1385,1463
1386,1317
1387,4285
1391,4272
1392,310
1392,1962
1392,3809
1393,83
1393,684
1396,3183
1396,4742
1397,796
1398,4149
1399,564
1399,781
1400,384
1400,4644
1402,350
1402,2351
1404,2763
1404,3851
1405,946
1406,1854
1406,4919
1408,1851
1408,1882
1408,3247
1409,120
1409,1995
1409,3085
1409,4675
1410,2512
1411,88
1412,2648
1416,2637
1416,3107
1417,33
1417,589
1417,689
1417,3685
1419,2309
1419,3668
1419,4915
1420,2467
1420,2527
1421,921
1424,715
1424,1893
1424,2448
1424,4125
1425,2167
1426,744
1427,61
1427,83
1427,1564
1427,1841
1427,2458
1429,579
1429,1963
1429,2011
1429,2471
1429,4519
1430,751
1430,760
1430,2270
1431,735
1434,1116
1434,1460
1435,269
1435,744
1435,1507
1435,4259
1435,4404
1435,4569
1435,4788
1436,590
1437,3916
1438,87
1440,580
1440,1962
1440,4876
1441,1456
1441,4301
1443,4172
1444,59
1444,579
1444,2625
1444,4766
1446,2534
1446,3348
1446,4182
1447,1432
1447,2705
1449,213
1450,1157
1450,1708
1450,1864
1450,3814
1456,3761
1459,990
1459,4121
1461,914
1464,1738
1464,2640
1464,4342
1465,1717
1465,2095
1465,3314
1465,4024
1465,4212
1466,217
1466,1112
1466,1817
1466,2324
1466,2380
1466,2510
1468,430
1468,2081
1468,2732
1468,4713
1468,4734
1469,1394
1471,103
1473,1756
1473,2248
1473,3347
1473,3910
1475,799
1475,2401
1475,4320
1475,4882
1476,141
1478,1164
1478,1616
1478,1631
1478,1970
1478,2147
1478,2578
1478,3332
1480,1190
1481,2120
1482,3220
1482,4118
1483,306
1483,2769
1484,2743
1484,3761
1484,4763
1487,136
1487,1726
1487,1989
1487,2146
1487,2223
1487,2335
1488,608
1488,2174
1489,2642
1493,3410
1496,1841
1497,163
1497,1859
1497,3259
1498,330
1502,2690
1503,557
1503,2769
1503,3770
1504,1422
1506,1893
1506,3211
1506,3847
1511,1200
1514,553
1515,1689
1515,2146
1515,3116
1515,3909
1515,4988
1516,4039
1519,3549
1520,83
1520,92
1520,325
1520,442
1520,560
1520,644
1520,1126
1520,1214
1520,1524
1520,1697
1520,1722
1520,1742
1520,3047
1520,3074
1520,3261
1520,3270
1520,3816
1520,4621
1522,2399
1522,2648
1522,3680
1526,381
1526,407
1527,482
1528,45
1528,106
1528,213
1528,249
1528,919
1528,939
1528,1329
1528,1351
1528,1472
1528,1558
1528,1584
1528,4121
1528,4361
1528,4660
1528,4722
1528,4763
1528,4797
1529,766
1529,893
1529,3461
1529,4593
1530,445
1532,7
1532,1781
1534,2335
1535,689
1535,2961
1536,729
1537,687
1537,1669
1538,3897
1539,105
1539,3274
1540,88
1540,3900
1541,760
1541,4000
1544,50
1545,12
1545,1184
1545,2269
1546,785
1547,2769
1547,2774
1547,3795
1549,636
1549,1990
1549,4166
1551,378
1551,496
1551,807
1551,1517
1551,2887
1551,3178
1551,4168
1555,508
1556,475
1556,1375
1556,1814
1560,23
1560,4692
1561,4748
1562,2813
1563,7
1563,1002
1563,3041
1563,4992
1564,142
1569,1072
1569,2129
1569,2628
1569,3848
1569,4874
1570,116
1570,2898
1573,1899
1573,2058
1573,2743
1575,60
1575,2019
1576,105
1576,1407
1576,2190
1577,1602
1579,4107
1579,4534
1580,566
1580,932
1581,120
1581,144
1581,198
1581,487
1581,539
1581,603
1581,851
1581,958
1581,963
1581,1285
1581,2357
1581,2525
1581,2776
1581,3209
1581,3454
1581,3621
1581,3805
1581,4216
1581,4803
1581,4838
1583,370
1585,876
1588,311
1590,55
1590,100
1590,300
1590,1068
1590,1213
1590,1599
1590,1909
1590,3364
1590,4803
1593,1355
1596,1531
1598,344
1598,1225
1598,1636
1598,1868
1598,1950
1598,2145
1598,3142
1598,4285
1600,919
1600,3953
1609,4796
1612,1161
1612,2923
1612,3831
1614,8
1614,32
1614,1671
1614,1715
1614,2144
1614,2765
1614,4395
1614,4529
1614,4901
1615,213
1617,4227
1618,213
1618,1834
1618,1882
1619,7
1619,882
1619,1968
1619,2208
1619,2930
1619,3103
1619,4158
1619,4329
1620,891
1621,12
1621,100
1621,564
1621,2461
1621,4641
1621,4739
1622,654
1622,1648
1622,3936
1624,684
1624,2473
1625,2416
1625,2885
1626,250
1626,579
1626,2031
1626,2197
1626,3751
1626,3757
1628,3759
1630,649
1630,4195
1633,750
1633,803
1633,903
1633,1275
1633,2229
1633,2359
1633,2556
1633,2786
1633,3112
1633,3235
1633,3905
1633,4846
1634,939
1634,2530
1637,3103
1638,4125
1638,4155
1641,3676
1642,406
1644,2936
1645,2621
1646,73
1646,995
1646,2217
1646,3524
1646,4749
1650,77
1651,2813
1652,2009
1652,2200
1655,4731
1656,1220
1657,2936
1658,3444
1659,4901
1661,163
1661,2219
1662,354
1662,636
1665,781
1666,2073
1666,3238
1668,28
1668,330
1668,2163
1669,88
1669,791
1670,45
1670,1095
1670,1949
1670,1950
1670,2233
1670,2360
1670,2428
1670,2956
1670,3000
1672,419
1674,1291
1674,1467
1674,2247
1675,3851
1676,654
1676,1679
1676,2690
1676,4971
1677,796
1677,946
1677,1329
1677,1375
1677,1433
1677,1710
1677,1975
1677,2178
1677,2534
1677,3410
1677,3417
1677,3656
1677,4000
1677,4129
1682,298
1682,4060
1683,2855
1683,2874
1683,3861
1686,1136
1687,4326
1688,653
1690,1581
1691,3970
1692,30
1692,843
1692,3247
1692,3323
1693,244
1693,1625
1694,591
1696,568
1696,1797
1696,3355
1696,4973
1697,2322
1697,4402
1697,4961
1698,4259
1699,262
1701,1878
1701,4350
1702,296
1706,236
1706,884
1707,2374
1707,2606
1708,4309
1713,42
1714,622
1714,4495
1716,2849
1716,3839
1716,4334
1717,142
1717,250
1717,312
1717,943
1717,1017
1717,3174
1719,579
1719,614
1719,2537
1719,3760
1721,2934
1721,4692
1722,1279
1722,2256
1722,3848
1723,685
1723,2149
1723,3657
1724,34
1724,230
1727,333
1727,1845
1727,2125
1729,30
1730,88
1733,180
1733,370
1733,603
1733,657
1733,810
1733,1246
1733,1462
1733,1774
1733,2058
1733,2803
1733,3298
1733,3660
1733,4852
1734,830
1734,1839
1734,2480
1734,2525
1734,2552
1734,2804
1735,44
1735,296
1735,487
1735,597
1735,796
1735,970
1735,3755
1735,4311
1736,4820
1737,1634
1739,487
1739,2290
1739,3166
1739,3415
1739,3810
1740,580
1740,584
1740,808
1740,1395
1740,1951
1740,2488
1740,2510
1740,2653
1743,742
1744,751
1745,584
1746,3422
1746,4168
1747,1795
1747,4846
1748,1684
1750,1574
1750,4117
1750,4506
1750,4763
1751,179
1751,418
1751,3187
1751,4441
1752,4820
1754,2179
1754,2668
1754,2673
1757,122
1757,281
1757,703
1757,1933
1757,2100
1757,2551
1757,3949
1757,4653
1757,4965
1758,61
1762,649
1764,2375
1765,7
1766,254
1766,604
1766,3350
1767,2342
1767,4966
1769,113
1773,496
1773,1140
1773,2910
1773,3152
1774,1859
1774,2523
1774,2591
1775,781
1775,2091
1775,2226
1775,2723
1775,3132
1776,3259
1777,1653
1777,1893
1777,3034
1777,3582
1778,262
1780,2648
1780,4403
1782,3324
1783,100
1783,293
1783,959
1783,2335
1783,2545
1783,3563
1783,4989
1785,1899
1786,144
1787,1036
1788,141
1788,177
1789,619
1789,3113
1790,14
1790,133
1790,251
1790,304
1790,384
1790,1567
1790,2928
1790,3034
1790,3187
1790,3276
1790,4784
1790,4846
1791,132
1793,83
1794,4480
1795,298
1796,1807
1798,4639
1799,1015
1799,3559
1803,4472
1804,487
1804,1002
1804,1768
1805,1596
1805,1806
1806,1756
1806,2433
1806,2642
1806,3034
1806,4002
1808,201
1808,293
1808,4645
1808,4739
1808,4920
1809,535
1810,138
1812,3112
1812,4274
1813,701
1815,573
1815,4671
1817,1074
1818,163
1818,254
1818,357
1818,1781
1818,2296
1821,459
1821,580
1821,781
1821,2018
1822,591
1823,1212
1824,785
1827,3324
1828,246
1828,1582
1828,3241
1829,445
1829,1893
1830,114
1830,1160
1830,1838
1830,3248
1831,975
1832,179
1834,354
1834,764
1834,1673
1834,1934
1834,2255
1834,2327
1834,2342
1834,2346
1834,2537
1834,3183
1834,3613
1834,4323
1834,4684
1836,3259
1837,3166
1840,852
1842,604
1842,2069
1844,166
1844,1486
1844,2562
1844,2760
1845,69
1846,3626
1846,4706
1847,4125
1848,33
1850,100
1853,3453
1855,4508
1857,697
1857,1679
1858,272
1858,2076
1858,2534
1858,4360
1863,1346
1863,4977
1865,517
1865,799
1865,1998
1865,2553
1866,1
1866,296
1866,402
1866,572
1866,1051
1866,1227
1866,1727
1866,3186
1866,3492
1866,3619
1869,231
1869,3825
1869,4654
1870,350
1870,2121
1871,349
1871,1190
1871,1432
1871,1500
1871,1763
1871,1893
1871,2410
1871,4166
1872,1569
1873,657
1873,951
1873,1673
1873,2795
1873,3757
1873,3876
1874,679
1877,1760
1878,1122
1880,2545
1881,522
1881,685
1881,2883
1881,3058
1881,4216
1882,1671
1882,2074
1882,2874
1882,4929
1883,24
1886,3621
1887,1314
1887,1568
1888,1615
1888,2229
1888,3908
1888,3970
1890,142
1890,648
1890,964
1890,1180
1890,2374
1890,2398
1890,2548
1890,3513
1891,890
1891,2235
1892,685
1892,1396
1892,3361
1893,1849
1898,1602
1898,2035
1900,685
1900,1002
1900,3258
1900,3918
1901,196
1902,3256
1903,2946
1903,2994
1904,1136
1905,988
1907,1084
1908,1271
1908,2771
1911,379
1916,603
1917,3094
1918,1246
1920,2813
1920,2907
1923,350
1924,474
1924,661
1924,1102
1924,2244
1924,3728
1926,1186
1929,200
1929,350
1929,965
1929,1043
1929,1044
1929,1792
1931,1220
1931,2510
1932,622
1933,2653
1935,1728
1935,3699
1936,13
1936,1243
1937,649
1939,743
1939,1161
1940,657
1940,3668
1940,4154
1943,45
1943,496
1943,678
1943,1602
1943,3499
1944,178
1944,598
1944,763
1944,2121
1944,4052
1944,4792
1945,1517
1946,579
1946,830
1946,3322
1946,3686
1947,1334
1947,2184
1947,2619
1948,3183
1949,617
1952,464
1952,3289
1953,846
1953,1351
1953,3971
1954,2383
1954,2471
1956,127
1956,956
1956,2901
1957,773
1959,3825
1961,33
1961,270
1962,987
1962,4212
1964,7
1964,176
1964,281
1964,568
1964,638
1964,1990
1964,2655
1964,3061
1964,3072
1964,3430
1964,4571
1966,807
1969,2510
1969,4259
1971,106
1971,234
1971,2048
1971,3678
1971,4082
1971,4229
1971,4435
1972,304
1972,914
1973,1759
1973,4130
1973,4552
1976,4
1976,1002
1976,3486
1976,3783
1976,4055
1976,4326
1976,4763
1977,83
1977,607
1977,2013
1977,3637
1979,2977
1980,4953
1982,1796
1983,3692
1984,1873
1986,2229
1987,3621
1988,12
1988,837
1989,330
1989,604
1991,1099
1992,487
1994,487
1997,4240
1998,760
1998,1456
2000,13
2000,911
2000,2048
2000,2238
2000,2850
2000,3038
2001,142
2001,435
2001,1271
2001,1843
2001,2878
2001,2917
2001,3444
2001,4476
2001,4975
2002,946
2002,1395
2003,768
2003,2813
2004,814
2004,1102
2004,1859
2004,2714
2007,1217
2008,90
2008,489
2008,490
2008,561
2008,655
2008,751
2008,1043
2008,1595
2008,2246
2008,2730
2008,3407
2008,3560
2008,3825
2008,3936
2008,4239
2008,4301
2008,4807
2009,958
2009,3378
2010,129
2010,763
2010,1759
2010,3182
2010,3313
2010,3375
2011,1477
2012,138
2012,560
2012,1933
2012,2697
2012,4240
2013,312
2013,2299
2013,4615
2015,243
2017,33
2017,2443
2017,2931
2020,1321
2020,1612
2020,3638
2021,2134
2026,2018
2027,1807
2027,2595
2027,3142
2029,4212
2030,785
2030,3539
2032,2120
2032,2552
2033,963
2034,233
2034,2014
2034,4852
2037,8
2038,3006
2038,3968
2040,580
2040,2999
2040,3347
2041,865
2046,55
2047,325
2049,3896
2050,33
2051,68
2051,244
2051,995
2051,4382
2054,2357
2055,1165
2058,3209
2058,3620
2059,1559
2059,4265
2061,1332
2061,2702
2062,1925
2062,2175
2067,1167
2067,1631
2068,589
2070,8
2070,568
2070,4793
2071,1261
2071,2764
2071,3750
2072,1428
2072,2474
2072,4078
2073,96
2073,843
2073,1708
2073,3023
2073,3207
2073,3591
2073,3805
2073,4575
2077,2813
2078,1286
2079,557
2079,2494
2084,2948
2084,3209
2084,4166
2086,757
2091,1507
2091,4054
2092,270
2092,275
2092,636
2092,756
2092,898
2092,1428
2092,2859
2092,3177
2092,4178
2093,7
2096,316
2096,1271
2097,1232
2097,2298
2097,2546
2097,4601
2098,2642
2101,585
2101,2306
2101,2537
2101,4508
2102,1948
2104,1321
2105,165
2105,2877
2105,3892
2106,1768
2106,2155
2106,2749
2106,2971
2108,7
2108,560
2108,3786
2108,4125
2108,4702
2111,181
2111,514
2111,3263
2111,3691
2114,3346
2115,3869
2118,2202
2118,2749
2118,3297
2118,4964
2119,1036
2119,3532
2121,262
2121,3491
2122,919
2122,3785
2123,231
2125,3464
2126,8
2131,142
2131,4739
2132,685
2135,1684
2136,1341
2137,3036
2137,4820
2140,1849
2140,4923
2141,2934
2142,2690
2142,3208
2142,3814
2142,4155
2142,4480
2145,286
2145,393
2146,1092
2147,300
2147,1075
2147,3398
2148,587
2148,2568
2148,4427
2148,4563
2149,3417
2151,108
2151,1102
2152,45
2153,514
2153,2775
2154,2688
2154,4190
2154,4216
2156,1643
2156,4155
2166,1625
2167,516
2167,1199
2167,4852
2168,4052
2169,2183
2171,59
2175,1843
2177,275
2179,50
2179,666
2179,2359
2179,4837
2180,487
2181,165
2181,4034
2183,216
2185,2016
2185,3102
2186,1246
2186,2776
2187,473
2187,2519
2188,576
2188,3982
2195,186
2195,668
2195,814
2195,1034
2195,1156
2195,1307
2195,1999
2195,2258
2195,2264
2195,3182
2195,3665
2196,3532
2199,942
2199,2411
2200,312
2201,2606
2201,2742
2204,456
2204,600
2205,2236
2205,2728
2206,2690
2207,671
2207,946
2207,3434
2209,1767
2209,2912
2211,709
2211,1193
2211,1767
2212,236
2212,350
2212,743
2212,1258
2212,1521
2212,1553
2212,1566
2212,1589
2212,2798
2212,3003
2212,3333
2212,3598
2213,796
2213,1972
2213,3383
2213,4846
2214,1726
2215,2272
2215,3566
2218,142
2218,604
2221,1464
2221,1742
2224,760
2225,1720
2228,1608
2231,604
2234,464
2236,213
2236,1078
2237,2173
2237,4318
2238,2002
2238,2945
2239,1893
2240,4285
2241,34
2242,304
2243,760
2243,4450
2245,734
2245,2929
2247,1282
2248,1906
2251,7
2252,1825
2252,2109
2252,4227
2255,468
2257,622
2257,976
2257,985
2257,1083
2257,1647
2257,2468
2257,2874
2257,3317
2257,4959
2259,1755
2259,3495
2259,4996
2261,3678
2261,4240
2263,935
2263,1261
2263,2203
2263,2632
2263,3082
2266,1327
2267,2162
2267,4045
2268,350
2270,263
2271,591
2271,1009
2271,4648
2273,1673
2274,919
2274,2531
2274,3519
2274,3744
2276,1422
2278,997
2278,4013
2279,1269
2280,133
2280,684
2280,4191
2282,995
2283,657
2283,4430
2284,1507
2284,1950
2286,229
2286,1224
2286,2704
2286,3893
2286,4639
2287,627
2288,1972
2289,82
2292,2874
2293,1369
2294,1480
2294,1828
2295,1156
2296,1275
2297,2155
2299,3027
2300,830
2300,3189
2300,3562
2301,679
2302,216
2302,654
2303,3559
2305,1726
2306,73
2306,1953
2306,3628
2308,560
2310,4285
2311,661
2311,3620
2312,1673
2312,2107
2313,3663
2314,564
2314,3272
2315,914
2316,4121
2316,4332
2317,4002
2319,766
2320,2443
2321,2073
2325,329
2326,2977
2328,1034
2329,198
2329,243
2329,1673
2330,182
2331,1240
2333,2342
2335,4473
2336,191
2336,4731
2337,560
2337,611
2338,2525
2340,4510
2345,294
2347,1274
2349,35
2349,945
2350,546
2350,1156
2350,1627
2350,2901
2350,2938
2350,4773
2351,423
2351,1785
2352,92
2353,4118
2355,3559
2357,2546
2357,2725
2357,3248
2358,100
2358,3893
2360,1972
2360,4017
2363,319
2363,560
2363,1876
2363,2024
2363,3055
2363,4054
2364,116
2366,370
2366,516
2366,644
2368,911
2369,325
2370,4796
2371,8
2371,298
2371,1167
2371,2082
2371,2348
2371,3111
2373,1990
2374,4168
2378,1314
2378,3707
2378,4470
2382,3847
2383,89
2383,3189
2383,4638
2383,4646
2385,678
2386,1875
2388,3893
2388,4158
2390,2874
2391,3055
2392,1145
2392,3621
2392,3847
2392,4366
2392,4899
2394,53
2394,325
2394,2665
2394,2734
2395,763
2398,608
2400,61
2400,882
2400,1422
2400,2557
2403,1673
2405,298
2405,3293
2405,4687
2406,2216
2407,249
2409,1237
2411,1237
2412,1247
2413,293
2415,35
2415,867
2417,2489
2417,4081
2418,2936
2419,2983
2421,73
2421,121
2421,352
2421,676
2421,941
2421,987
2421,2124
2421,3316
2421,4081
2421,4412
2422,1950
2422,1953
2422,4957
2427,1167
2431,165
2431,324
2431,393
2431,579
2431,2425
2431,2901
2431,3178
2431,4168
2432,370
2432,4524
2433,213
2433,286
2433,2440
2433,2553
2433,2723
2433,4216
2434,3831
2435,751
2435,2002
2436,613
2436,1600
2436,3479
2436,3958
2436,4865
2438,348
2438,3497
2438,3535
2441,262
2441,1346
2441,2623
2442,3805
2442,3970
2442,3989
2442,4323
2443,735
2443,1979
2443,4206
2445,687
2445,1531
2447,547
2447,3372
2450,657
2452,715
2454,1235
2455,360
2456,534
2459,2453
2459,3589
2460,496
2464,60
2464,96
2464,584
2464,628
2464,781
2464,1875
2464,2607
2464,2632
2464,2642
2464,2783
2464,3259
2464,4239
2464,4515
2464,4731
2469,105
2469,578
2469,1346
2469,2742
2470,3814
2472,630
2474,212
2474,975
2474,1346
2474,1446
2474,3257
2474,3875
2474,4549
2475,1428
2475,2616
2475,2807
2475,3836
2475,4648
2476,2011
2476,3139
2476,3353
2476,4240
2479,350
2479,814
2479,1708
2479,2690
2481,684
2483,50
2483,487
2483,1814
2483,2351
2483,2868
2487,103
2490,1653
2491,208
2491,642
2491,4293
2492,964
2493,322
2493,2200
2493,3529
2493,4219
2495,781
2495,2972
2495,4173
2496,508
2496,1933
2497,3897
2498,589
2501,352
2501,522
2501,1246
2501,1458
2501,1861
2504,96
2504,1136
2504,1772
2504,3664
2504,3712
2505,1816
2506,1969
2507,1458
2507,1495
2507,2788
2508,921
2509,1713
2509,2991
2510,2821
2510,4820
2511,892
2513,814
2513,4737
2513,4804
2514,729
2515,685
2515,760
2515,4398
2516,89
2516,324
2516,561
2516,1053
2516,2334
2516,2874
2516,3847
2517,972
2517,3500
2518,3183
2520,876
2521,803
2522,751
2522,882
2522,2150
2522,3323
2526,2597
2527,532
2527,4068
2528,410
2528,748
2528,1169
2528,1311
2528,1557
2528,1653
2528,1722
2528,1862
2528,2387
2528,2920
2528,3087
2528,3107
2528,3831
2528,4034
2528,4216
2528,4326
2528,4583
2529,441
2529,1107
2529,3222
2529,3698
2529,3699
2529,4820
2532,687
2532,2770
2535,3218
2535,3490
2535,3741
2535,4597
2538,89
2540,403
2541,535
2542,3
2542,1124
2543,103
2543,181
2543,337
2543,2420
2543,4008
2544,1948
2544,2680
2545,3144
2546,2648
2546,4285
2547,2503
2548,760
2548,1485
2548,2510
2549,319
2549,1972
2550,1787
2552,160
2552,341
2552,923
2552,2157
2552,3190
2552,3520
2552,3860
2552,4765
2553,1369
2558,1814
2560,1895
2560,4536
2561,187
2561,4508
2561,4724
2563,1015
2563,1950
2563,3149
2567,949
2567,2155
2568,1708
2569,254
2570,679
2570,3562
2570,3712
2571,1235
2571,4216
2572,464
2572,786
2572,2443
2575,4641
2576,461
2577,133
2579,496
2581,1708
2582,442
2584,122
2584,310
2584,330
2584,1240
2584,1269
2584,1642
2584,2630
2584,4586
2584,4666
2584,4813
2585,2074
2586,582
2586,1167
2586,4346
2587,1190
2589,4464
2590,657
2597,96
2597,3209
2598,3349
2600,805
2600,2829
2601,3033
2601,4240
2602,213
2604,30
2604,129
2604,144
2604,154
2604,163
2604,296
2604,393
2604,584
2604,649
2604,938
2604,940
2604,964
2604,1027
2604,1102
2604,1268
2604,1445
2604,1545
2604,1653
2604,2217
2604,2262
2604,2264
2604,2525
2604,2545
2604,2816
2604,2898
2604,3166
2604,3349
2604,3405
2604,3699
2604,3825
2604,4157
2604,4445
2604,4725
2604,4976
2607,1351
2608,824
2609,1972
2611,4473
2612,96
2612,249
2612,1651
2613,1024
2614,1238
2617,2936
2618,2453
2620,2510
2621,1161
2621,3107
2621,4248
2622,2210
2622,4499
2626,1545
2626,3057
2626,4128
2627,2829
2627,2936
2627,4647
2627,4808
2634,4197
2636,4639
2641,6
2641,650
2641,2359
2641,4039
2642,742
2643,1480
2644,3034
2644,3056
2647,2690
2648,1727
2649,590
2649,2768
2650,358
2651,270
2651,824
2654,2817
2654,3405
2654,4727
2656,1722
2656,3759
2657,2929
2658,3037
2659,45
2659,2376
2661,15
2664,3874
2664,4971
2666,619
2666,3848
2667,2758
2669,45
2669,352
2669,993
2669,1084
2669,1860
2669,1925
2669,2261
2669,4172
2669,4527
2670,1933
2671,234
2671,690
2671,1989
2672,328
2673,586
2675,3349
2675,4257
2677,1708
2677,4634
2678,703
2679,1418
2679,4282
2681,584
2682,3524
2683,1067
2684,2808
2686,1761
2686,4652
2687,1015
2687,4473
2689,1906
2689,3953
2691,782
2692,3323
2693,2641
2693,4303
2696,166
2696,4828
2700,3718
2701,921
2701,3790
2703,638
2707,4230
2708,943
2712,1116
2712,4762
2713,2207
2713,4843
2716,3102
2717,1068
2718,850
2718,2175
2719,781
2721,2197
2724,45
2724,757
2726,2435
2727,2723
2728,8
2728,685
2728,803
2728,975
2728,1083
2728,1574
2728,2989
2728,3536
2728,4508
2728,4654
2731,1156
2733,1640
2736,96
2737,1796
2737,1856
2737,2436
2739,210
2739,1807
2739,2116
2740,442
2741,648
2742,1241
2742,4216
2744,96
2744,2185
2746,3559
2747,2002
2748,2491
2750,298
2750,358
2750,490
2750,565
2750,1014
2750,2088
2750,3195
2750,3598
2750,3848
2750,4000
2750,4376
2750,4868
2751,649
2751,958
2751,2545
2751,4286
2752,448
2753,92
2753,262
2753,873
2753,2871
2753,4818
2755,4571
2756,986
2758,4908
2758,4949
2759,1453
2760,364
2760,997
2761,227
2761,799
2761,1206
2761,2437
2761,3106
2761,4258
2766,2217
2767,215
2767,1705
2772,4488
2773,341
2773,2524
2775,545
2777,1002
2777,2797
2784,106
2784,363
2784,560
2784,1602
2784,3245
2787,2383
2789,2374
2790,852
2791,3107
2792,1753
2794,41
2794,882
2796,943
2801,62
2801,1341
2801,2335
2802,1868
2802,3424
2802,3582
2802,4199
2804,212
2805,1036
2805,3475
2806,3968
2808,2466
2809,2264
2810,988
2811,600
2812,32
2813,113
2813,260
2813,1293
2813,2772
2813,3008
2814,306
2814,3615
2815,2342
2817,3712
2818,921
2818,1040
2819,1560
2820,227
2823,3076
2823,3595
2825,350
2826,127
2826,314
2826,4916
2828,1941
2828,2028
2831,3823
2833,627
2833,1055
2834,286
2834,355
2834,3134
2835,4432
2837,96
2837,4607
2838,1933
2840,42
2841,423
2842,2871
2844,50
2845,4055
2846,216
2846,348
2848,2769
2849,895
2849,1521
2849,2648
2849,3168
2849,4246
2849,4521
2849,4954
2850,1275
2852,325
2853,142
2853,571
2853,1531
2853,3726
2853,4654
2854,154
2854,3558
2854,3559
2857,4475
2858,304
2858,2967
2858,4950
2862,496
2864,830
2864,1261
2867,2021
2869,2539
2870,4586
2871,2648
2871,4285
2874,1123
2874,3663
2874,3679
2875,1610
2876,1948
2877,729
2879,178
2879,4109
2881,4929
2882,350
2884,496
2885,4820
2886,830
2886,2011
2886,2566
2886,4209
2887,747
2887,1245
2888,4039
2888,4892
2888,4900
2889,441
2889,2229
2889,3732
2890,325
2890,1426
2890,2443
2890,2690
2892,813
2893,2481
2893,3618
2893,4582
2894,1613
2896,120
2897,1329
2897,4304
2901,154
2901,1261
2901,1528
2902,3
2902,45
2902,444
2902,656
2902,1167
2902,2334
2902,2509
2902,4452
2902,4654
2904,3831
2905,154
2906,378
2906,482
2907,800
2907,2342
2908,1821
2910,837
2910,1325
2910,2516
2910,4654
2912,684
2914,2525
2914,3107
2914,4154
2914,4216
2915,103
2915,4450
2915,4678
2916,1200
2917,1667
2917,2807
2917,4449
2920,62
2920,444
2920,471
2920,784
2920,1122
2920,1291
2920,2056
2920,2738
2920,3825
2920,3952
2920,4706
2920,4821
2923,1550
2923,2354
2923,2676
2923,4001
2923,4505
2925,897
2929,3392
2930,1566
2930,1581
2931,780
2931,1003
2932,553
2932,636
2932,1156
2932,1250
2932,1507
2932,1594
2932,2559
2932,3952
2933,2342
2935,4240
2936,1200
2936,2525
2937,1246
2938,888
2938,891
2940,996
2940,4135
2941,547
2944,756
2944,3621
2944,3976
2945,88
2945,4353
2947,306
2949,133
2949,394
2949,760
2949,1347
2949,1403
2949,1524
2949,1760
2949,1879
2949,1917
2949,1996
2949,2100
2949,2474
2949,2807
2949,2945
2949,4189
2949,4389
2949,4542
2949,4721
2949,4889
2950,8
2951,1176
2952,3825
2952,4323
2953,3663
2954,4739
2957,935
2958,406
2958,2198
2958,4997
2959,1036
2963,4901
2966,120
2966,4208
2970,2735
2970,3182
2971,3504
2973,760
2973,3774
2974,445
2974,524
2974,4863
2976,1413
2980,1722
2981,1426
2982,522
2982,3797
2982,4330
2983,1459
2984,3757
2984,4538
2984,4615
2986,1200
2986,1237
2988,1673
2989,1720
2989,1826
2990,2631
2991,1732
2993,879
2994,198
2994,3365
2994,3952
2995,482
2995,4697
2997,4749
2998,684
2999,412
3001,1986
3004,73
3004,243
3004,293
3004,1073
3004,1200
3004,3286
3004,4309
3005,1
3008,3843
3009,1664
3010,603
3012,1893
3012,4626
3013,192
3013,4504
3014,55
3014,2334
3014,4667
3017,1084
3018,590
3018,600
3018,2749
3018,4158
3019,751
3020,2920
3021,3465
3022,72
3023,636
3023,1275
3023,1988
3023,2373
3023,2658
3023,2836
3024,2539
3026,689
3026,3134
3026,4300
3028,304
3029,228
3029,3107
3030,95
3032,40
3032,1237
3035,629
3038,196
3038,1329
3038,2192
3040,2874
3041,3088
3041,3797
3043,1766
3045,1845
3046,819
3048,4575
3050,88
3050,2762
3053,1355
3053,2150
3054,3524
3059,876
3060,921
3060,4716
3061,199
3061,1860
3063,1247
3063,1676
3063,3952
3063,4121
3064,425
3064,921
3064,2095
3064,2357
3064,2435
3065,1415
3066,50
3066,4592
3067,216
3068,703
3068,4099
3069,2403
3070,196
3070,626
3070,766
3070,1733
3070,4518
3070,4718
3071,177
3072,218
3072,2735
3072,3144
3072,4748
3073,3187
3073,4571
3075,3711
3078,297
3082,2332
3083,3107
3084,3072
3084,4095
3086,4000
3088,1354
3089,681
3091,198
3093,2922
3095,8
3096,2640
3099,2217
3099,3520
3100,111
3100,1889
3100,4432
3101,213
3101,1187
3101,3756
3102,841
3103,1365
3103,4464
3104,318
3104,2502
3106,81
3106,783
3106,1483
3106,2629
3107,687
3108,1003
3109,176
3109,585
3109,630
3109,3600
3109,4285
3112,329
3114,1495
3114,1972
3114,3505
3114,4344
3118,2629
3120,2342
3120,4327
3121,937
3122,215
3122,216
3122,568
3122,682
3122,867
3122,2525
3122,2593
3123,41
3123,3428
3124,3103
3124,3206
3125,2474
3126,2247
3128,298
3128,482
3128,536
3128,685
3128,785
3128,943
3128,1217
3128,2698
3128,2807
3128,3876
3130,859
3130,946
3130,1749
3130,1767
3130,1960
3130,2799
3130,3627
3130,3857
3131,132
3131,1464
3131,2120
3131,2404
3131,3296
3131,4309
3133,96
3133,142
3133,504
3133,591
3133,671
3133,690
3133,707
3133,869
3133,1136
3133,1511
3133,1633
3133,2060
3133,2341
3133,2552
3133,2633
3133,3242
3133,4113
3133,4394
3133,4515
3135,230
3136,204
3137,1635
3138,965
3141,560
3143,855
3143,3166
3144,2334
3145,949
3145,1585
3147,1679
3148,12
3150,55
3151,496
3151,4512
3153,781
3155,3423
3155,3757
3156,353
3157,1962
3158,163
3158,1346
3161,2147
3162,1407
3163,4344
3164,622
3164,4846
3165,1723
3167,406
3169,1237
3171,81
3172,1862
3175,963
3175,1756
3176,59
3177,1483
3178,709
3179,1055
3180,1136
3181,350
3182,1640
3184,2342
3184,4235
3185,1849
3188,766
3192,638
3193,181
3196,4309
3197,125
3197,676
3197,1501
3198,350
3201,703
3202,2711
3204,2207
3204,4125
3210,751
3210,1161
3211,228
3212,4656
3213,26
3215,218
3215,4811
3218,1098
3218,1919
3218,3180
3219,1367
3222,1680
3222,4301
3223,3337
3223,4453
3223,4668
3224,1722
3225,3199
3225,4103
3225,4591
3228,142
3228,165
3228,655
3228,802
3228,1109
3228,2175
3228,2989
3228,4954
3231,3097
3232,802
3232,4239
3233,3134
3234,1414
3236,2107
3239,1873
3243,1558
3246,993
3247,1067
3247,1091
3247,1983
3249,4051
3252,1841
3254,631
3254,1413
3255,3152
3256,1545
3257,2381
3257,3757
3258,267
3258,289
3258,1092
3258,2631
3259,1933
3259,2362
3260,394
3262,678
3262,687
3262,718
3262,767
3262,1150
3262,1535
3262,1634
3262,3313
3262,3851
3263,144
3263,298
3263,382
3263,884
3263,1107
3266,3761
3267,191
3267,484
3267,2807
3267,3721
3268,254
3268,3924
3269,1036
3271,405
3277,579
3277,1295
3277,2895
3277,3102
3277,3738
3277,4319
3279,4846
3281,2606
3281,2633
3283,676
3285,89
3285,649
3285,3041
3285,3076
3285,3227
3285,4106
3285,4350
3287,1059
3287,4533
3291,943
3292,1125
3294,1112
3294,2626
3295,958
3295,998
3295,1479
3295,2994
3295,4216
3295,4835
3297,1978
3299,565
3299,3534
3299,3916
3300,2245
3301,1140
3302,227
3303,1351
3305,103
3306,3113
3307,4477
3308,846
3308,945
3308,2327
3309,45
3309,543
3310,4820
3311,3431
3314,2367
3315,23
3318,733
3320,1483
3322,624
3322,3559
3322,4457
3323,423
3326,4871
3327,60
3328,3084
3331,298
3331,846
3331,1998
3331,2596
3334,2510
3335,1180
3335,4486
3338,106
3339,1351
3340,360
3340,1013
3340,1533
3340,1799
3340,3160
3340,4846
3343,243
3346,1595
3349,1212
3349,4940
3351,129
3351,1933
3351,2702
3351,3233
3351,3408
3351,4242
3351,4958
3352,1293
3352,3257
3352,4500
3354,751
3356,1477
3356,3257
3357,1483
3358,34
3358,1090
3358,2711
3358,3226
3359,1369
3361,397
3361,2894
3362,1256
3363,1689
3363,4461
3366,4868
3369,1561
3369,1685
3369,3105
3370,2480
3371,3847
3373,4309
3374,3103
3375,33
3375,689
3375,1619
3375,1993
3375,1999
3375,2107
3375,2112
3375,3439
3375,3473
3375,3787
3375,4301
3377,35
3377,1423
3377,2537
3377,3589
3377,4137
3379,53
3379,1024
3379,2063
3380,304
3381,179
3382,1418
3383,491
3383,697
3383,2020
3383,2655
3383,2874
3383,4654
3386,2443
3387,579
3388,4785
3388,4912
3389,120
3390,2085
3391,1759
3392,139
3392,831
3392,994
3393,2705
3393,4478
3394,508
3395,304
3395,919
3395,2318
3396,99
3396,234
3396,270
3396,330
3396,623
3396,751
3396,1764
3396,1873
3396,3367
3396,3454
3396,3965
3396,4480
3396,4641
3397,1679
3399,142
3399,1491
3399,3937
3399,3953
3400,1059
3401,1212
3403,2094
3404,3497
3404,4639
3406,435
3407,849
3407,1492
3407,1725
3407,4082
3409,975
3410,12
3418,3591
3420,3182
3421,800
3425,15
3425,228
3425,459
3425,490
3425,1027
3425,2060
3425,2066
3425,2161
3425,2272
3425,2462
3425,2548
3425,2593
3425,2871
3425,3622
3425,4796
3426,808
3426,2822
3426,3434
3427,535
3429,487
3430,3927
3431,761
3431,2396
3431,4384
3432,3221
3433,870
3433,3493
3434,4895
3435,496
3436,163
3436,590
3436,2436
3436,2591
3436,4946
3437,1053
3437,1103
3438,729
3443,3761
3444,324
3445,355
3445,931
3445,2695
3445,3444
3448,2545
3448,3699
3449,943
3449,1136
3450,508
3452,163
3452,456
3452,1261
3452,1629
3452,1771
3452,1893
3452,2230
3452,3165
3452,4128
3452,4342
3452,4472
3457,2120
3458,3668
3459,199
3459,921
3460,456
3460,2646
3460,2899
3462,568
3463,684
3465,1307
3465,2813
3466,4882
3467,760
3470,3897
3470,4883
3471,2331
3472,213
3472,3722
3474,653
3478,108
3478,2095
3480,350
3481,213
3481,581
3481,751
3481,1712
3481,1819
3481,2519
3483,250
3483,1270
3483,1664
3483,3957
3484,177
3487,3911
3487,4458
3488,4130
3489,296
3489,2272
3489,3291
3489,3402
3491,3076
3494,4835
3498,1524
3501,947
3502,191
3502,3856
3503,461
3503,869
3503,1688
3503,2994
3503,3668
3503,3794
3503,4134
3503,4640
3504,33
3506,257
3508,4051
3509,344
3510,671
3510,4179
3511,144
3511,328
3511,555
3511,1915
3511,2396
3511,2910
3511,4673
3512,2967
3512,4366
3514,8
3514,294
3514,908
3514,3170
3514,3961
3514,4177
3515,3034
3516,389
3517,28
3517,2789
3517,3532
3522,162
3522,257
3522,341
3522,2239
3522,2648
3522,4155
3522,4846
3523,2433
3525,63
3525,1051
3528,406
3528,2200
3529,100
3532,2229
3533,1212
3533,1332
3533,2342
3533,3603
3533,4486
3536,735
3536,2012
3536,3598
3536,4021
3536,4509
3538,2525
3540,2525
3541,3082
3541,4101
3542,2616
3542,4741
3543,2566
3543,3075
3544,1894
3545,1708
3546,2742
3548,554
3548,4534
3550,991
3550,1280
3550,4510
3551,760
3552,304
3553,1542
3554,45
3555,44
3555,946
3555,1329
3556,3336
3557,181
3558,120
3559,310
3559,4873
3560,111
3560,177
3563,649
3563,1066
3563,4212
3564,2662
3565,4309
3567,1035
3567,1513
3568,1597
3570,628
3570,4475
3570,4658
3571,649
3571,769
3572,3667
3573,3088
3575,1800
3576,136
3576,230
3576,296
3576,522
3576,1280
3576,1759
3576,2444
3576,2665
3576,2676
3576,3349
3576,3353
3576,3384
3576,3952
3576,4405
3576,4544
3576,4842
3576,4959
3578,187
3578,1669
3578,1915
3578,2021
3578,3759
3579,63
3579,127
3579,196
3579,231
3579,358
3579,370
3579,738
3579,1261
3579,1767
3579,1991
3579,2776
3579,2807
3579,2831
3579,3876
3579,3916
3579,3968
3579,4763
3581,296
3583,4472
3584,34
3585,430
3585,649
3585,714
3585,2634
3585,4617
3585,4883
3586,1992
3587,2525
3587,4723
3588,2439
3590,328
3591,3098
3591,4407
3592,4271
3593,1261
3594,579
3594,676
3594,3191
3594,4556
3596,1843
3597,2874
3598,1224
3598,4283
3599,1684
3601,990
3602,2857
3605,2342
3606,464
3606,1456
3607,1602
3609,733
3610,263
3610,761
3610,1893
3610,2534
3612,1117
3614,822
3616,814
3620,2462
3622,2690
3622,3678
3622,4216
3622,4510
3624,1428
3625,103
3627,1884
3628,1166
3629,445
3630,127
3631,96
3631,213
3631,496
3633,1673
3634,1602
3635,351
3635,1499
3635,4436
3636,3182
3636,3793
3638,1933
3638,3031
3639,2510
3639,4670
3640,1418
3641,785
3642,270
3645,539
3646,715
3648,2162
3650,2923
3651,1184
3652,2411
3652,3620
3653,1852
3653,2064
3654,1691
3654,1733
3654,2121
3654,4157
3655,4803
3661,4259
3662,607
3663,88
3663,4846
3665,312
3665,461
3666,2103
3667,230
3667,1031
3670,1717
3671,3668
3673,293
3673,2760
3673,2913
3674,4002
3675,330
3675,4302
3677,3052
3681,2474
3682,1585
3683,763
3684,1470
3688,3218
3689,2197
3690,1950
3691,212
3693,163
3693,751
3693,959
3693,4092
3693,4417
3695,1364
3695,3128
3698,788
3698,4153
3700,535
3700,672
3700,747
3700,1280
3700,2674
3700,3717
3700,3953
3700,4596
3704,55
3704,1893
3704,3871
3705,3248
3705,4972
3706,3144
3709,3355
3710,1206
3712,3876
3713,2515
3716,260
3719,294
3720,156
3720,645
3720,979
3720,1500
3720,1708
3720,1889
3720,2200
3720,2595
3720,2955
3720,3342
3720,3485
3720,3795
3721,2591
3723,2545
3724,410
3727,3532
3729,502
3729,1339
3729,3876
3729,4575
3729,4789
3730,813
3733,985
3736,3699
3737,328
3737,2057
3743,1164
3745,819
3746,560
3748,853
3750,205
3750,2150
3750,4227
3752,4285
3752,4522
3753,44
3753,1841
3758,2219
3759,535
3759,1953
3759,3313
3759,3740
3761,55
3761,163
3761,330
3761,475
3761,1114
3761,3562
3761,4240
3762,1597
3763,3993
3764,444
3765,2749
3765,4046
3766,1722
3766,2425
3767,2874
3769,103
3769,1375
3770,2669
3772,781
3772,4168
3772,4292
3772,4560
3773,3805
3774,2919
3775,2545
3776,357
3777,522
3778,443
3778,496
3778,1205
3778,2836
3780,1364
3781,445
3782,4216
3783,1766
3784,170
3784,174
3784,304
3784,348
3784,4562
3785,687
3785,4326
3789,1596
3789,4840
3791,703
3791,1200
3791,2936
3791,3532
3792,1334
3792,1395
3794,391
3794,464
3794,743
3794,766
3794,949
3794,964
3794,990
3794,1531
3794,2158
3794,3469
3794,4516
3794,4965
3794,4977
3798,801
3798,2379
3798,2817
3798,3761
3798,4035
3798,4216
3798,4736
3800,4054
3803,40
3803,649
3803,1045
3803,1625
3805,88
3805,257
3805,796
3805,947
3805,1073
3805,1185
3805,1205
3805,1314
3805,1715
3805,1871
3805,2423
3805,3376
3805,3444
3805,4055
3805,4073
3805,4379
3805,4940
3806,1922
3806,2975
3808,419
3808,2194
3808,3200
3808,3559
3811,3075
3812,28
3813,589
3815,2669
3815,3747
3816,3524
3818,2553
3820,579
3821,350
3823,508
3825,4803
3826,822
3827,432
3828,4090
3829,442
3829,1286
3830,1708
3832,508
3833,2362
3834,4472
3838,1246
3839,2403
3840,100
3841,370
3844,1912
3845,198
3845,1224
3845,2200
3845,4169
3846,4301
3846,4665
3850,1258
3852,344
3854,1728
3854,3259
3855,622
3858,2620
3859,522
3859,2549
3859,3668
3862,2113
3862,4680
3863,3966
3864,3289
3865,1145
3865,1893
3865,2652
3866,3968
3867,1067
3869,689
3872,159
3873,2769
3873,4816
3877,41
3878,3257
3880,1334
3882,714
3883,824
3885,4854
3886,932
3886,1334
3886,3251
3887,316
3890,96
3894,563
3894,2400
3895,2461
3898,344
3898,353
3898,535
3898,1164
3898,3248
3898,3347
3898,4561
3899,406
3899,1145
3899,3107
3899,3129
3899,3408
3902,3446
3903,3349
3904,1004
3904,4100
3905,814
3909,12
3909,14
3909,141
3909,166
3909,484
3909,522
3909,745
3909,824
3909,995
3909,1224
3909,2025
3909,2097
3909,2227
3909,2342
3909,3115
3909,3182
3909,3368
3909,3851
3909,4349
3909,4476
3909,4488
3909,4817
3912,1531
3912,3604
3912,3876
3913,2474
3913,3845
3914,4611
3915,4426
3916,198
3916,482
3916,4695
3917,3620
3920,72
3920,491
3920,535
3920,1374
3920,1515
3920,1784
3920,2229
3920,2533
3920,3715
3920,4369
3920,4706
3920,4743
3923,41
3923,589
3923,4581
3928,1422
3930,14
3930,426
3930,768
3930,1003
3930,1432
3930,1801
3930,2428
3930,3256
3930,4967
3931,1581
3932,1547
3933,603
3933,1986
3934,244
3938,1972
3939,3771
3939,4226
3940,1933
3940,2080
3940,2085
3940,2722
3941,597
3941,3332
3943,3098
3944,45
3946,3214
3947,3532
3948,2416
3954,2534
3956,2813
3957,87
3957,257
3957,358
3957,474
3957,660
3957,1310
3957,1669
3957,2016
3957,3530
3957,3621
3957,3788
3959,165
3960,756
3962,656
3963,142
3964,657
3965,142
3966,329
3967,262
3967,1457
3967,4982
3968,45
3970,781
3972,3139
3977,144
3978,1055
3980,1165
3984,1703
3984,2342
3985,2197
3985,4275
3985,4374
3987,1545
3988,3199
3990,83
3991,244
3993,1125
3993,1214
3993,2836
3993,3134
3993,3559
3994,34
3994,1710
3994,3805
3995,2606
3997,1893
3999,2804
4002,247
4002,722
4002,1064
4002,1073
4002,1841
4002,1894
4002,2477
4003,59
4003,560
4004,132
4004,587
4004,1811
4005,1689
4006,635
4007,2813
4010,2377
4010,3870
4011,841
4012,1256
4013,76
4013,283
4013,635
4013,707
4013,877
4013,3547
4013,3721
4013,3791
4013,4590
4013,4803
4014,4547
4016,1642
4018,198
4018,250
4018,3323
4019,1566
4019,1757
4019,1882
4019,2500
4020,3166
4022,796
4022,1102
4022,3906
4022,4482
4023,1241
4023,2058
4025,228
4025,551
4025,1265
4025,2919
4026,304
4027,1640
4028,4654
4029,1246
4029,1708
4030,2817
4032,3524
4032,4938
4033,1156
4033,2099
4036,304
4037,484
4037,4335
4038,103
4038,2342
4038,4055
4039,216
4040,3107
4041,4957
4042,3085
4043,607
4044,33
4044,566
4044,1550
4044,1933
4044,1970
4044,3062
4044,4259
4044,4570
4044,4979
4046,1483
4047,1
4048,8
4049,516
4050,2569
4051,3082
4052,1990
4054,230
4056,3237
4057,2762
4058,207
4058,4439
4059,264
4059,2911
4061,2940
4062,1810
4063,142
4064,3721
4064,4370
4065,685
4069,1346
4069,2936
4071,743
4072,1374
4074,1828
4075,3702
4077,265
4077,2885
4079,2004
4081,2864
4082,1882
4083,59
4084,4121
4084,4820
4086,1948
4087,1597
4088,140
4088,3277
4089,103
4089,646
4089,944
4089,1235
4089,2028
4089,2200
4089,2510
4089,3323
4089,3439
4089,4729
4089,4795
4090,1064
4090,2637
4091,734
4091,958
4091,2335
4093,1612
4097,1366
4097,3986
4100,990
4102,620
4102,2606
4103,163
4103,632
4103,1854
4103,2639
4103,2919
4103,3098
4103,3664
4103,3955
4104,3949
4105,50
4110,1083
4111,2073
4112,4365
4115,2404
4116,1459
4116,4472
4116,4611
4117,1560
4120,3750
4121,964
4121,974
4121,1039
4122,142
4122,213
4122,710
4122,891
4122,1197
4123,3492
4124,1854
4126,403
4127,1602
4128,2425
4133,310
4135,7
4135,142
4135,848
4135,882
4135,1745
4135,2549
4135,3084
4135,4324
4136,3166
4138,2342
4139,865
4139,2669
4140,3717
4141,932
4142,3042
4142,4814
4142,4948
4143,2864
4144,589
4145,2874
4146,425
4148,418
4148,579
4148,3412
4148,4186
4150,3848
4152,2545
4153,3221
4156,27
4156,4429
4159,3757
4160,208
4162,4654
4163,1157
4167,103
4167,4791
4172,2272
4175,1572
4181,2552
4183,1156
4183,2109
4184,4073
4185,262
4185,858
4187,4055
4188,4654
4189,2351
4193,75
4193,76
4193,207
4193,350
4193,474
4193,500
4193,1755
4193,2439
4193,2653
4193,3231
4193,3849
4193,3983
4193,4014
4193,4682
4196,204
4196,607
4196,916
4196,1117
4196,3976
4196,4301
4198,2481
4200,714
4201,1760
4203,3184
4204,3532
4205,3953
4207,88
4207,186
4207,351
4207,760
4207,4584
4209,946
4209,1582
4209,2537
4211,547
4211,1679
4212,936
4212,1004
4212,1240
4212,2615
4212,4119
4212,4677
4212,4820
4214,1015
4214,3270
4215,2426
4217,3536
4218,1933
4220,678
4221,3647
4222,4149
4224,1720
4225,1422
4226,2043
4226,2744
4231,55
4232,3478
4233,142
4233,3953
4236,1293
4237,1055
4240,4464
4241,3103
4244,4213
4245,1925
4247,1550
4247,3608
4247,4566
4248,96
4248,306
4248,1519
4248,2200
4248,2375
4248,2765
4248,3102
4248,3569
4249,1246
4250,344
4251,3072
4252,3791
4253,1568
4254,782
4256,1862
4258,2342
4260,4944
4261,947
4262,822
4262,2936
4262,3134
4264,1224
4269,958
4269,4021
4270,4263
4272,300
4272,2537
4272,3617
4272,3668
4272,4641
4272,4875
4273,1040
4277,1860
4277,2977
4277,3579
4279,585
4279,4280
4281,1136
4281,3983
4284,34
4284,2133
4285,1884
4287,59
4288,3240
4289,3178
4290,1231
4291,2553
4294,8
4294,851
4294,3081
4295,1523
4295,1643
4296,2053
4296,2249
4298,824
4299,1633
4301,557
4301,571
4301,851
4301,946
4301,1914
4301,2109
4301,2343
4301,3508
4301,3518
4301,3761
4301,3953
4301,4172
4303,218
4303,1428
4303,2866
4305,1415
4307,2258
4308,325
4309,587
4309,2462
4310,922
4310,1986
4310,3708
4310,3913
4310,4971
4311,854
4311,2994
4312,424
4313,12
4313,85
4313,250
4313,444
4313,1626
4313,1913
4313,2302
4313,2803
4313,4959
4314,3970
4316,1519
4317,54
4317,1669
4317,2121
4317,2376
4317,2782
4317,4287
4317,4480
4318,2481
4318,4473
4319,753
4319,4297
4321,1708
4321,4832
4321,4944
4322,474
4326,2632
4326,4889
4327,1
4327,333
4330,3496
4335,496
4335,618
4336,1654
4339,2324
4340,1388
4341,3970
4343,34
4343,324
4343,593
4343,1041
4343,1275
4343,2146
4343,3177
4343,3205
4343,3790
4343,3974
4343,4030
4343,4046
4343,4062
4343,4514
4344,129
4344,2612
4344,3023
4345,2900
4347,3220
4348,1292
4348,1633
4348,4000
4351,3011
4351,3259
4351,4039
4352,822
4352,1893
4352,2311
4352,2375
4352,4480
4352,4661
4355,1722
4355,1727
4355,2210
4355,2638
4356,1205
4357,751
4358,3876
4359,14
4360,363
4360,383
4360,1334
4360,4965
4362,402
4363,105
4363,411
4363,3687
4364,3349
4365,4846
4367,763
4367,2874
4367,3916
4368,419
4369,8
4369,177
4369,392
4369,824
4371,2564
4371,3304
4372,4331
4373,921
4375,4263
4376,2342
4378,2545
4380,42
4380,597
4380,791
4380,1533
4380,4002
4381,807
4383,316
4383,2180
4385,2864
4386,324
4386,582
4386,654
4386,1999
4387,3348
4388,1090
4389,131
4389,187
4389,593
4389,970
4389,1663
4389,2706
4389,3177
4389,4005
4390,2545
4391,607
4393,1366
4393,4553
4393,4641
4393,4698
4395,264
4395,703
4395,1722
4396,4846
4397,2757
4398,1981
4399,581
4399,916
4399,1379
4399,1612
4399,2885
4399,3851
4399,3881
4400,3558
4401,1634
4407,283
4408,3221
4409,799
4410,4852
4411,106
4413,1200
4416,350
4416,1578
4418,89
4419,1258
4420,81
4420,1033
4421,4949
4422,2251
4423,324
4424,1192
4424,2085
4425,2903
4427,3085
4428,3567
4432,1882
4432,2155
4432,2936
4433,4216
4434,330
4434,4681
4438,3562
4440,3524
4442,3810
4443,96
4443,258
4444,233
4444,3992
4446,4749
4447,1845
4448,82
4449,1329
4451,34
4451,239
4451,897
4451,1910
4451,3107
4451,4705
4453,2028
4453,2081
4453,2735
4453,4469
4455,304
4456,1616
4458,3547
4459,3
4459,82
4459,655
4459,1108
4459,3968
4459,4641
4459,4820
4460,861
4461,2942
4462,2883
4463,1933
4465,846
4466,213
4468,4177
4471,459
4474,227
4477,96
4479,2665
4480,1545
4480,3952
4483,2813
4483,4981
4485,2783
4486,2847
4487,2372
4488,2397
4489,2357
4491,1065
4494,4679
4496,781
4497,3700
4501,1199
4502,242
4502,2906
4504,2765
4505,1728
4505,3827
4507,208
4507,684
4507,1121
4507,4285
4507,4715
4507,4763
4510,547
4510,2179
4511,100
4513,2525
4516,430
4517,1467
4523,490
4523,3034
4523,4414
4525,1418
4525,1738
4525,2843
4525,4682
4526,1878
4528,59
4528,819
4530,751
4531,3907
4532,2477
4537,3839
4540,12
4540,328
4540,570
4540,761
4540,1160
4540,1759
4540,2110
4540,2258
4540,3537
4540,4051
4541,3082
4548,262
4549,3208
4550,2043
4553,1235
4554,15
4555,382
4555,3182
4557,4002
4559,56
4559,129
4559,281
4564,120
4565,4945
4567,182
4570,2555
4571,474
4572,649
4575,243
4578,26
4578,827
4578,846
4578,4125
4578,4221
4579,96
4579,3008
4579,4946
4579,4987
4580,296
4582,3274
4584,344
4585,715
4587,487
4587,2334
4587,2468
4587,3098
4587,4885
4588,2335
4589,1635
4594,4354
4597,198
4598,603
4599,2699
4600,2173
4602,4883
4603,1602
4604,260
4604,579
4604,1224
4605,4039
4606,1165
4609,358
4609,679
4609,1896
4609,2042
4609,2374
4609,4263
4611,3802
4612,1036
4613,2534
4614,796
4616,1334
4618,1102
4618,4473
4623,1389
4623,3979
4624,1512
4624,3768
4624,3952
4625,1507
4628,4706
4629,3801
4630,344
4630,629
4630,943
4630,3712
4631,314
4632,3152
4632,4846
4633,3537
4635,571
4635,1205
4635,1220
4635,3049
4635,3366
4639,3
4640,3621
4641,1136
4642,347
4643,655
4648,63
4648,985
4650,1321
4650,4735
4651,228
4654,433
4655,781
4656,1483
4659,781
4663,3117
4669,324
4672,142
4672,496
4672,4285
4674,264
4674,497
4674,1507
4674,2426
4674,2863
4674,3531
4674,3532
4674,4831
4676,4311
4682,4852
4683,165
4685,3134
4686,12
4686,304
4686,384
4686,500
4686,1068
4686,1230
4686,1298
4686,2909
4686,3076
4687,1361
4687,4820
4689,176
4689,232
4689,2545
4691,3446
4691,4367
4693,1893
4694,45
4696,4239
4699,34
4701,216
4704,4703
4706,1669
4707,907
4708,1640
4709,577
4709,763
4709,993
4709,2580
4709,2936
4709,4700
4709,4994
4710,3118
4711,1
4713,1193
4713,4212
4714,244
4717,4361
4718,988
4718,4847
4719,34
4720,334
4723,492
4723,593
4723,2676
4723,4015
4726,3264
4729,4354
4730,560
4730,2207
4730,3537
4731,2404
4732,3819
4733,4147
4737,4377
4738,1962
4740,1727
4742,2066
4744,163
4745,1601
4747,3851
4748,1207
4749,2633
4750,734
4751,1708
4752,2480
4753,2874
4754,154
4755,50
4756,796
4757,177
4758,163
4759,515
4759,1164
4759,3922
4759,4360
4760,2874
4761,3577
4763,154
4763,751
4763,850
4763,2335
4763,4843
4764,2466
4768,6
4768,409
4768,496
4768,2203
4770,2491
4771,7
4775,1017
4775,3326
4777,4593
4778,565
4779,1843
4781,89
4782,744
4783,3559
4784,96
4786,163
4786,1169
4786,1451
4786,3326
4789,122
4789,254
4789,2229
4789,2874
4789,3905
4790,4820
4792,3344
4793,565
4793,589
4793,1280
4793,1608
4793,2847
4793,3177
4793,3666
4794,1915
4796,1414
4796,2792
4796,2992
4796,4712
4800,3827
4801,1275
4801,2719
4802,465
4802,761
4803,325
4804,103
4804,791
4804,1241
4804,2331
4804,2996
4805,3323
4806,766
4806,4503
4808,1015
4808,1550
4808,3372
4808,3447
4808,3696
4809,1873
4811,118
4811,1367
4811,1625
4811,3907
4815,1346
4819,1803
4819,3207
4819,4857
4822,715
4823,304
4824,1168
4824,3649
4824,3981
4825,435
4825,779
4825,2439
4825,4238
4826,325
4827,3729
4829,333
4830,660
4835,516
4836,1220
4837,2482
4839,12
4839,4556
4840,2144
4841,634
4841,1167
4841,1275
4841,1660
4841,2486
4841,2745
4841,3696
4841,4464
4842,290
4842,337
4842,432
4842,951
4842,2480
4842,2539
4842,3044
4842,3805
4842,4134
4843,837
4844,2606
4845,2146
4846,4724
4848,166
4852,634
4852,742
4852,1500
4852,3107
4852,4218
4855,244
4856,2043
4858,4326
4859,1927
4860,1483
4860,2573
4861,522
4864,2354
4866,435
4866,516
4866,1040
4866,2760
4867,47
4867,4712
4869,3170
4870,1550
4878,2486
4879,27
4879,257
4879,514
4879,953
4879,1584
4879,2332
4879,2929
4880,715
4881,1413
4883,2511
4884,533
4884,1237
4887,1341
4888,4082
4888,4776
4893,4114
4894,1950
4895,841
4897,2860
4897,3712
4900,4604
4901,2530
4902,95
4903,2874
4904,328
4904,550
4904,694
4904,1000
4904,1164
4904,1212
4904,1289
4904,2095
4904,4285
4906,4425
4907,1346
4907,2233
4909,3747
4910,587
4911,1108
4912,1849
4913,4030
4917,3839
4919,1495
4921,1418
4922,4212
4923,1167
4926,457
4927,233
4927,4055
4928,3084
4930,1933
4931,890
4933,227
4934,144
4935,1480
4936,3055
4937,4002
4939,4473
4941,256
4941,685
4941,2335
4942,1757
4943,931
4944,4796
4947,363
4947,1495
4948,958
4948,1653
4949,2138
4951,417
4951,757
4951,1701
4951,3488
4953,2874
4955,1778
4956,3303
4958,337
4959,4449
4962,2632
4962,2928
4963,1205
4964,129
4965,1557
4966,783
4968,2238
4968,3949
4969,1862
4970,560
4972,751
4974,1635
4976,2874
4981,2934
4982,198
4983,3754
4984,1728
4985,1519
4986,141
4986,534
4986,1102
4986,1243
4986,1972
4986,4415
4986,4944
4990,340
4991,2195
4993,4330
4995,3075
4997,182
4997,3952
4997,4055
4997,4510
4998,1365
4999,1483
