src,dst
0,1
0,87
0,315
0,419
0,481
0,633
0,689
0,815
0,905
0,1163
0,2944
0,3301
0,3712
0,4185
0,4291
0,4501
0,4809
4,746
6,2050
8,830
8,1053
8,3128
8,4163
9,653
9,3060
11,845
11,1899
11,2386
12,4416
13,4065
14,173
14,557
14,741
14,2227
14,2234
14,2534
15,906
15,1401
15,4274
16,43
16,609
16,2066
16,2249
16,2822
16,3219
16,3459
20,1799
21,3231
22,467
22,684
22,1218
22,2836
22,3027
22,3442
22,3510
22,4155
22,4491
22,4581
22,4842
25,1426
25,1516
25,2084
27,475
27,1936
27,3100
32,55
32,737
32,783
32,1181
32,2479
32,3615
32,3689
32,3941
35,3584
36,173
36,768
36,964
38,2987
38,3441
39,994
39,1984
41,2448
42,1946
42,3015
45,398
45,2920
46,3156
46,3466
48,434
48,566
48,3165
48,3984
56,83
56,219
56,362
56,957
56,1264
56,1473
56,2797
56,2844
56,4409
57,371
57,3090
57,4787
58,1259
58,4371
60,88
60,140
60,924
60,1900
60,3030
60,3900
61,626
61,2117
61,4213
61,4371
62,2292
63,601
63,1594
63,3599
64,3952
65,1525
67,402
67,632
67,1006
67,1891
67,2061
67,4884
73,4096
75,2997
75,3323
75,4940
77,785
77,812
77,1135
77,1399
77,3929
77,4142
77,4897
80,556
80,2333
80,2842
81,3077
82,346
82,959
82,1771
82,2818
82,3968
84,3
84,196
84,896
84,1407
84,1611
84,1773
84,2368
84,2563
84,3115
84,3231
84,3551
84,4001
84,4493
85,19
85,1205
85,2981
89,19
89,4567
90,272
90,646
90,2048
90,4232
92,658
92,1001
92,2676
92,4710
93,3668
94,200
94,396
94,451
94,651
94,1414
94,2121
94,2458
94,2812
94,3808
94,4232
94,4377
94,4960
95,740
97,2456
97,2757
98,276
98,817
99,3007
99,4405
100,49
100,1641
100,3300
100,4186
100,4748
101,4347
102,1708
103,704
103,1322
103,4371
104,4823
105,959
105,1212
106,260
106,277
106,333
106,548
106,2500
106,3825
107,2254
107,2911
107,3384
107,4284
108,17
112,170
112,1410
112,4903
114,316
114,888
114,2371
114,4047
115,1249
115,1552
115,2515
118,1030
120,223
120,479
120,551
120,994
120,1515
120,2449
120,3774
120,4650
120,4855
121,752
121,3476
121,3912
121,4349
125,387
125,1972
125,2186
125,3804
126,86
126,213
126,441
126,712
126,907
126,926
126,1058
126,1262
126,1993
126,2534
126,2598
126,3289
127,949
127,1159
127,1382
127,2176
130,4163
131,109
132,3060
132,3163
136,1864
137,513
139,399
139,726
139,4184
141,2066
145,286
145,2867
147,426
147,528
147,3368
147,4279
149,1607
149,1809
149,2485
149,4004
152,50
152,1298
152,1793
152,2140
153,78
153,185
153,190
153,797
153,988
153,1214
153,2743
153,3784
153,4823
153,4904
155,504
156,4288
157,994
157,3362
158,2437
158,4799
160,1513
160,3202
164,1894
164,4833
166,2367
166,2540
166,3082
166,3749
167,3864
168,2375
168,3124
168,4642
169,23
169,1011
169,2005
169,2149
169,2365
169,3794
170,1037
171,109
171,1624
172,1693
172,2017
174,445
175,745
175,1572
175,4371
175,4907
176,469
176,501
176,580
176,909
176,3321
177,438
177,958
177,1493
178,828
178,2947
178,4307
180,1677
181,2851
182,2517
182,3231
184,477
184,1427
184,2028
184,2534
184,2738
184,3361
184,3669
184,3759
184,4479
187,2909
187,3300
188,1189
188,3165
189,568
189,1818
189,3262
192,3320
192,4487
195,1842
195,3537
196,3170
198,1180
199,124
201,2500
205,1334
205,1592
206,3697
207,367
209,330
209,617
209,1354
209,1431
209,1664
209,1806
209,1931
209,3206
211,1500
211,2293
214,17
216,1784
216,1791
218,471
218,1250
218,1843
218,2741
220,849
221,783
221,2414
222,526
224,314
224,2486
225,4609
226,923
226,1032
226,1853
227,1417
227,2364
227,3142
227,4288
229,173
229,1421
229,1516
229,2296
229,2784
229,3617
229,4466
229,4545
229,4656
229,4657
230,3730
231,2751
232,220
232,3108
232,3605
234,610
234,1790
234,2066
234,2766
234,4844
237,1540
238,4288
238,4487
240,652
240,1813
241,235
241,1642
241,3716
246,3418
246,4156
246,4186
248,78
249,794
249,2793
249,4566
250,3005
252,1593
252,2600
252,3188
253,748
253,764
253,1545
253,3843
254,580
254,611
254,2058
254,4471
254,4858
255,1060
256,442
256,466
256,960
256,2007
256,2919
256,4111
258,388
258,465
258,533
258,720
258,1505
258,3708
258,4806
259,29
259,908
259,1272
259,1370
259,2281
261,1037
261,1664
261,1688
261,1870
261,3651
261,4693
261,4856
261,4939
262,1771
263,76
263,2679
263,4499
264,464
264,494
264,4155
266,1260
267,4230
269,3128
271,26
276,3542
278,4018
280,2066
283,272
283,793
283,1412
283,2098
285,2059
285,2410
285,2790
285,3876
285,3987
285,4612
288,26
288,1206
288,1839
288,1947
289,1526
289,3800
289,4201
289,4584
291,953
291,1030
291,2251
291,3904
292,1170
292,2819
293,373
293,535
293,978
293,998
293,1153
293,1719
293,1777
293,2179
293,2326
293,3143
293,4474
295,1279
296,132
296,1283
296,4517
297,97
297,1005
297,2429
297,4765
299,279
300,2265
300,4251
301,689
301,1903
301,2047
301,2988
301,3623
303,223
306,76
307,109
307,1837
309,630
309,1468
309,1736
309,1808
312,265
312,1932
312,2708
313,1030
313,1943
316,404
316,1055
318,948
318,1202
318,3029
319,125
319,2112
319,4626
320,132
320,516
320,1319
320,1771
320,1950
320,2376
321,216
321,898
323,19
325,2500
327,937
328,454
328,480
328,835
329,1273
329,1383
329,2319
329,2908
329,4308
332,311
332,721
332,1057
334,1296
334,4749
335,151
335,1032
335,1240
335,1266
335,1374
335,3002
335,3159
335,3242
335,3243
335,3312
335,3853
335,4977
336,49
336,4266
339,600
339,766
339,1552
339,1650
339,2819
339,3355
339,4896
339,4934
340,905
340,1268
341,2345
341,2878
341,4147
341,4821
342,52
342,4773
344,739
344,763
344,1356
344,1760
344,2293
344,2310
344,3474
344,3619
344,4163
348,286
348,2222
348,2622
349,81
350,151
350,555
354,450
354,1000
354,1356
354,2133
354,2419
354,4341
355,2
355,244
356,568
357,310
357,375
357,926
357,1235
357,2943
357,3005
357,4310
357,4633
358,1341
358,2855
360,911
361,764
361,3630
362,606
362,1182
362,2768
363,124
363,710
363,1516
364,190
364,3255
365,327
366,290
366,470
366,565
366,1408
366,1909
366,3026
366,3107
366,4085
367,2302
367,2577
367,2851
367,2881
368,294
369,290
372,66
372,1136
374,2815
375,591
376,1062
376,1301
378,226
378,981
378,1304
378,1402
378,2156
378,2380
378,3762
378,3843
379,675
379,1916
379,2066
379,2371
379,2793
379,4609
379,4646
379,4895
380,220
380,454
380,625
380,1024
380,1218
380,3719
380,3917
381,245
382,2349
384,524
384,1880
384,2386
384,3776
385,134
385,3913
389,2159
389,4271
390,316
390,1775
391,610
391,1486
391,1506
391,1894
391,1944
391,1968
391,2241
391,2382
391,2538
391,3372
391,3400
391,3855
392,2437
393,78
393,2787
394,2066
394,3252
394,3416
394,4706
396,276
397,1596
397,1657
397,2096
399,716
399,3120
399,4112
400,1844
400,3321
400,3580
400,4515
401,1837
402,970
403,547
403,3711
403,4025
403,4709
404,64
404,3233
405,1038
406,197
410,274
410,582
410,750
410,2415
410,2540
410,4186
411,1408
413,356
413,1035
413,1914
417,408
420,682
421,3523
421,4705
422,877
422,1171
422,1679
423,159
423,3083
424,1045
424,2235
424,3165
425,3570
429,4160
430,124
430,1008
430,1740
431,173
431,996
431,1170
432,3509
434,10
434,23
434,143
434,266
434,368
434,2642
434,3188
434,3673
436,780
436,1030
436,2157
439,216
439,243
439,337
439,1406
439,1587
439,1634
439,2258
439,3625
440,1830
440,4944
447,305
447,2340
447,3716
447,4089
447,4302
447,4609
447,4799
448,1895
449,279
449,1064
455,173
457,3227
457,3336
457,3424
458,370
459,415
459,1884
459,3165
462,375
462,3213
463,1025
463,2716
463,3237
463,3315
463,3724
463,4246
472,581
472,623
472,2873
472,2993
475,4347
476,213
476,589
476,778
476,1366
476,2536
477,23
477,697
477,929
477,1011
477,1142
477,1793
477,2743
477,3129
477,3375
477,4318
478,740
478,1030
478,1567
478,4014
478,4863
479,886
479,1110
484,2748
484,4841
485,409
485,3484
485,3509
485,4255
486,468
486,1432
486,1628
486,4805
490,4163
491,4872
492,192
492,378
492,1105
492,1409
492,1771
492,1828
492,1981
492,2370
492,2372
492,4626
492,4811
493,1809
495,983
497,1900
497,3993
499,964
499,994
499,1196
499,1939
499,4018
500,110
500,2133
500,2177
503,724
503,1684
503,2225
503,2807
505,265
508,4002
509,17
509,471
509,771
509,1174
509,1490
509,3555
509,4009
510,1942
511,26
511,2184
511,2836
511,4165
512,1406
512,2480
512,2664
512,3653
512,4288
513,4018
515,2825
516,1017
516,4117
517,4742
518,3017
518,3488
518,3804
521,51
521,1651
522,682
522,1746
524,203
524,614
524,1173
527,265
527,1385
528,215
528,839
528,929
528,1440
528,1750
528,1992
528,2513
528,3133
528,4337
528,4906
529,1093
529,3094
531,561
531,3916
531,4608
534,1499
534,2416
534,4163
536,4091
537,125
537,1677
538,2909
539,702
539,1047
539,2793
540,1688
540,1837
540,2979
540,3587
541,868
541,995
541,1356
541,2112
541,4823
544,516
544,4209
545,1037
545,1183
545,1381
546,1837
549,748
549,3007
549,3352
549,4326
551,2523
551,4261
551,4519
553,1369
553,2205
553,3472
554,2086
554,2956
557,1488
557,2863
558,19
558,4393
560,514
560,905
560,4178
562,1423
562,3253
562,3436
562,4842
562,4994
567,2172
567,2914
567,3734
567,4616
570,812
570,1091
570,2317
570,2775
570,4029
572,3340
575,831
575,2778
575,4298
576,772
576,1112
576,1613
576,2834
576,3417
576,4298
576,4510
577,228
578,3132
578,3300
579,1251
579,2021
579,3228
581,3424
581,4285
583,3272
585,294
585,2535
585,3059
585,4712
585,4742
585,4926
586,1106
586,1491
587,409
587,815
587,1341
588,2381
588,3467
590,377
590,1219
590,2395
593,47
593,1568
594,2115
595,2748
596,837
598,433
598,565
598,4077
599,427
599,975
599,2175
599,2509
599,3114
601,1160
601,3845
604,3283
605,1625
605,3421
605,3665
605,4525
607,242
608,743
608,1029
608,1549
608,1592
608,2207
608,2719
608,3663
608,3848
612,1765
612,1995
612,2656
612,2891
613,235
613,1228
615,179
616,2201
618,3811
618,3900
620,1691
620,1846
620,3064
620,3509
620,3656
621,438
624,557
624,927
624,1762
628,1995
631,3022
632,1681
634,1377
634,2158
634,3170
634,4328
636,4018
636,4288
640,3426
641,3485
642,302
643,3085
643,3916
643,3925
644,440
644,601
644,1300
645,1809
645,2431
645,3107
648,44
648,92
648,1662
650,135
650,208
650,636
650,829
650,833
650,1540
650,1748
650,1836
650,3939
650,4917
652,134
652,3445
652,3540
652,3918
654,386
654,1143
654,1863
655,1995
655,2832
659,3124
659,3572
660,415
661,1667
661,4298
662,117
663,783
663,921
663,1311
663,1857
665,134
665,907
666,516
667,134
668,123
668,2426
670,923
670,3103
670,4408
671,2071
671,4416
672,133
674,1356
676,336
676,1861
676,2720
678,1029
678,2902
680,815
681,1056
681,2238
681,3095
681,3354
681,4416
683,1347
683,1775
683,4970
686,173
686,1121
686,2814
686,3032
686,3980
687,220
687,2875
690,682
690,751
690,3584
690,4233
690,4443
690,4578
691,3509
693,228
693,268
695,194
695,498
695,1020
695,1213
695,1703
695,2625
695,3101
695,4227
695,4768
698,4016
700,96
700,470
700,1013
700,1090
700,2104
700,2752
700,2829
703,142
703,994
703,3562
705,255
706,1048
706,4332
708,1227
708,1565
708,2460
708,3631
708,4451
708,4981
711,2164
711,2640
713,17
713,3828
713,4696
714,430
714,1167
714,2936
714,3103
715,1315
715,2990
715,3217
715,4332
715,4376
716,3594
717,3734
718,890
718,2126
720,2432
722,520
722,893
722,1157
722,1428
722,3536
722,3639
722,3718
725,4693
727,2476
727,3124
727,4187
728,1761
728,4917
729,125
729,1945
730,865
730,2743
731,315
731,2441
731,3726
731,4365
732,3716
734,494
734,1333
734,4752
734,4840
735,383
735,4267
736,438
736,2418
736,4161
737,818
741,2803
742,1745
742,4764
744,994
744,1261
745,1038
745,1854
745,1930
746,294
747,689
750,105
750,1640
750,3664
754,1279
754,1351
754,2717
755,316
755,1071
758,830
759,23
759,155
759,1715
760,646
760,1332
760,1971
760,3670
760,4825
761,294
765,489
765,4284
766,91
767,32
768,3421
769,388
773,3272
773,4005
774,445
774,1606
774,4651
775,1973
775,3520
776,310
776,1539
776,2547
776,4342
777,84
781,999
781,3479
782,69
784,574
785,1998
785,3297
786,682
786,932
788,282
789,351
789,526
789,600
789,1614
789,1812
789,3641
789,4796
790,1010
790,1773
790,2027
790,2138
790,2412
790,2432
790,2529
792,214
792,381
792,1148
792,1155
792,3280
792,4054
792,4062
795,3044
796,419
796,639
796,2634
796,4502
799,1612
799,4288
800,3426
801,682
801,950
801,1107
801,2958
801,3824
802,592
804,941
804,2164
804,4581
804,4993
805,171
805,1352
805,2339
805,3663
805,4691
806,4741
807,3472
807,3815
808,3179
809,1806
809,2665
809,2673
809,2764
811,3300
812,260
814,617
814,1408
815,4693
818,223
818,456
818,2190
818,3867
818,3955
821,1285
821,4288
821,4899
822,597
822,2821
822,3632
822,4202
823,1404
823,1718
823,1744
823,3109
823,3167
823,3399
823,3680
823,3681
824,996
824,2146
824,2468
824,3767
825,2112
825,4670
826,842
826,1570
826,3321
827,2623
832,273
832,1607
832,1798
832,1951
832,3366
832,4037
834,136
834,692
834,2253
836,837
836,1080
836,1225
840,1709
840,2293
840,2802
840,4614
841,646
841,1009
841,1355
841,1754
841,3541
841,4229
844,31
844,1325
844,1553
844,2281
846,2897
846,3472
847,974
847,1646
847,4889
850,1771
853,3115
853,3818
853,4300
854,2416
854,2887
856,4336
857,331
857,489
857,1282
857,3832
858,636
859,709
859,2445
860,287
860,1776
862,3047
862,4030
864,1563
864,1753
864,1960
864,3005
864,3042
864,3953
864,4298
864,4459
864,4632
864,4701
866,757
867,294
867,2875
869,3472
870,59
870,2530
871,547
871,851
871,1348
871,1485
871,1896
871,1990
871,2124
871,2341
872,173
872,1199
872,1241
872,1937
872,2890
873,110
873,1870
874,611
874,4346
875,21
875,1484
875,3073
876,3421
878,152
878,4403
879,3627
881,971
881,2686
882,1615
882,2706
882,2715
882,3218
882,3321
883,2931
883,4374
884,682
884,772
884,3041
884,3042
884,3839
885,2793
887,445
887,3732
889,1516
891,368
891,1994
891,2483
892,2965
894,903
894,3843
897,3060
897,3140
897,3351
897,4174
899,817
900,1636
900,1900
900,2355
900,3870
902,630
902,2415
902,4055
906,142
906,1919
907,3699
913,3704
914,1076
914,2232
914,3413
915,408
916,571
917,3584
918,185
918,2347
918,4225
920,308
925,105
928,1942
930,40
930,525
930,1030
930,1491
930,3692
930,3974
931,627
933,1138
933,1282
933,3033
933,3684
934,133
934,1271
934,2006
935,2037
936,19
936,1230
936,1529
936,1566
936,1571
936,2489
936,2650
936,4186
936,4251
936,4668
938,430
939,647
940,18
942,812
942,1143
945,619
947,412
947,1061
951,506
951,609
951,656
951,1538
951,2720
951,3119
951,3716
951,3893
951,4181
952,812
952,2665
952,2853
954,228
954,1833
956,3316
956,3880
956,4844
961,2835
961,3724
963,627
963,1520
963,3741
967,487
968,70
968,408
968,3940
970,1832
970,4725
972,3475
972,3781
973,36
973,1197
976,1222
976,1795
976,3709
980,1058
982,619
982,2023
982,2648
984,2932
986,970
986,1573
986,1647
986,2073
986,3050
987,23
987,1269
989,766
989,1317
989,1336
989,3161
990,2267
991,2910
992,445
993,545
993,685
993,988
993,1137
993,2061
993,2948
993,3196
997,265
1001,1449
1002,1132
1002,1194
1002,4456
1002,4485
1002,4933
1004,2101
1004,2585
1007,217
1007,656
1012,4259
1012,4284
1014,286
1015,1400
1015,3859
1015,4710
1016,346
1016,1604
1018,273
1018,1941
1019,1073
1019,3321
1019,4299
1020,473
1021,1191
1021,2172
1021,4669
1021,4998
1022,125
1022,580
1022,1023
1022,2801
1022,3103
1024,74
1024,2436
1026,473
1031,192
1031,707
1031,1341
1031,2909
1034,834
1034,1622
1036,479
1038,1141
1038,3378
1040,1723
1040,3876
1041,159
1041,1052
1041,1443
1041,3012
1042,419
1042,3788
1043,445
1046,236
1046,2396
1051,4496
1053,523
1053,3509
1054,489
1059,204
1059,1030
1065,239
1065,315
1065,584
1065,798
1065,1552
1065,2397
1065,4317
1066,273
1066,1788
1066,3000
1067,3900
1069,391
1070,2939
1070,4147
1074,1391
1074,1990
1074,2963
1075,124
1075,903
1075,2107
1078,4340
1081,204
1081,657
1081,4520
1082,132
1083,72
1083,1315
1083,3173
1083,3274
1083,4025
1083,4752
1084,123
1084,1847
1084,3150
1085,856
1085,1320
1086,1697
1086,4467
1088,4284
1093,53
1093,155
1093,1380
1093,4215
1094,430
1095,322
1095,1186
1095,1325
1095,2181
1095,3075
1095,4271
1095,4581
1096,287
1096,1097
1096,1310
1096,1441
1096,2080
1096,2705
1096,3806
1097,689
1097,1550
1097,1905
1097,2413
1098,4663
1099,3302
1099,4288
1101,542
1101,1051
1101,1733
1101,3880
1102,752
1106,627
1109,495
1111,659
1115,1564
1115,2293
1115,2592
1115,3516
1115,3883
1115,4150
1116,4440
1117,4752
1118,1447
1118,1638
1118,2892
1118,2950
1118,3799
1119,430
1119,489
1119,495
1119,1049
1119,1674
1119,1862
1119,1946
1119,2074
1119,2139
1119,3256
1123,1896
1123,1973
1123,2077
1123,4147
1123,4416
1125,205
1125,959
1125,1521
1125,1687
1125,3810
1125,4687
1128,445
1128,787
1128,1047
1129,2897
1129,4887
1130,2531
1130,4374
1131,467
1131,2529
1133,2226
1133,3596
1134,217
1134,2964
1135,1122
1136,753
1136,1484
1136,2270
1137,487
1137,3990
1140,514
1140,1498
1140,1635
1140,4626
1141,4418
1144,4096
1145,255
1147,438
1147,1136
1147,1194
1147,1275
1147,3414
1147,3837
1147,4124
1149,911
1149,3575
1149,3952
1151,740
1154,3472
1156,236
1156,625
1156,959
1156,2430
1156,2570
1156,2732
1156,2889
1156,3246
1156,3833
1156,4564
1158,64
1158,3096
1161,1107
1162,26
1162,2618
1164,134
1164,2212
1165,155
1166,979
1167,1429
1167,1477
1167,1478
1167,1715
1167,1835
1167,2069
1167,2775
1167,2970
1167,3241
1167,4465
1168,1950
1168,3939
1169,4822
1170,602
1170,3407
1170,3491
1170,4311
1172,1047
1176,964
1177,692
1177,966
1177,2373
1178,216
1178,3124
1179,4706
1181,3895
1181,4670
1184,504
1185,2752
1185,3283
1187,3672
1188,1183
1188,3441
1190,441
1190,815
1190,2605
1190,3099
1192,2002
1192,3278
1192,3994
1192,4350
1192,4371
1192,4519
1193,244
1194,810
1194,2093
1194,3158
1194,4550
1196,33
1196,57
1196,1665
1196,1980
1198,223
1200,1556
1200,2469
1201,331
1201,651
1201,1068
1201,1204
1201,1242
1201,3131
1201,3271
1201,3761
1203,2315
1207,827
1207,2918
1207,3024
1207,4612
1208,4323
1208,4578
1209,994
1210,694
1211,3632
1211,4243
1215,445
1215,975
1216,140
1216,630
1217,3864
1219,530
1219,1107
1219,1666
1219,4607
1220,155
1221,204
1221,228
1223,1089
1224,3441
1226,4112
1228,29
1228,54
1228,719
1228,861
1228,1195
1228,1584
1228,3070
1228,3360
1228,3672
1228,3899
1228,4005
1228,4164
1228,4353
1229,13
1229,2181
1230,756
1230,2828
1230,3479
1232,4318
1233,1064
1233,1780
1234,3749
1237,125
1239,2066
1239,3321
1242,4449
1246,1071
1247,2877
1248,1250
1248,1473
1248,3107
1250,133
1250,1424
1252,1219
1252,2237
1253,2932
1254,190
1254,2903
1254,2997
1256,611
1257,977
1258,559
1258,2328
1261,1845
1265,1197
1265,2991
1265,3293
1267,381
1268,906
1268,3122
1270,1037
1270,2530
1274,3321
1276,905
1277,174
1277,1794
1278,1808
1279,66
1279,298
1279,1348
1279,1397
1279,1706
1279,2016
1279,2522
1279,3308
1279,3508
1280,1806
1280,2327
1286,356
1286,1410
1287,174
1288,265
1288,1649
1289,896
1290,1401
1292,3127
1293,427
1294,627
1295,315
1296,983
1296,2440
1298,4565
1302,155
1302,682
1302,2133
1302,2658
1302,3733
1306,948
1307,1348
1308,659
1309,4332
1309,4396
1312,2285
1312,4977
1313,1127
1321,4891
1323,2143
1326,3005
1327,2548
1327,3472
1328,1127
1328,1575
1328,4874
1328,4894
1329,3472
1329,3878
1331,569
1335,266
1336,1508
1336,4410
1337,119
1338,265
1338,2013
1339,1212
1341,317
1341,1111
1342,4028
1343,1033
1343,1662
1343,3390
1343,3475
1344,79
1344,426
1344,1316
1344,1357
1344,1467
1344,1921
1344,2028
1344,2590
1344,2769
1344,3985
1344,4854
1345,2879
1345,3537
1349,30
1350,1536
1350,2182
1352,1621
1352,3682
1353,1025
1354,1236
1359,1881
1361,551
1361,1910
1361,4402
1363,272
1363,628
1363,3740
1364,3367
1364,3925
1365,1528
1365,2045
1365,2748
1365,3177
1365,4095
1365,4330
1366,3358
1368,430
1371,1333
1372,1107
1373,4487
1374,1346
1375,59
1376,1180
1378,4402
1382,2271
1384,520
1384,4032
1384,4408
1385,456
1385,770
1385,2996
1385,3408
1386,24
1386,3137
1386,4021
1387,126
1387,216
1387,536
1387,1648
1387,2026
1387,2678
1387,3499
1387,4321
1388,1005
1389,669
1392,1029
1393,1191
1396,471
1396,664
1396,1686
1396,2472
1398,79
1398,183
1398,345
1398,352
1398,513
1398,523
1398,681
1398,827
1398,920
1398,994
1398,2225
1398,2501
1398,4157
1398,4492
1401,3637
1401,3862
1403,783
1403,3337
1411,1275
1411,2511
1411,2655
1411,4122
1412,438
1413,502
1413,2106
1413,2407
1415,3044
1416,3636
1418,1585
1418,3479
1419,2624
1419,3033
1420,609
1420,1283
1422,3056
1425,4626
1430,1027
1430,2491
1433,3899
1433,4111
1433,4194
1434,1333
1434,1652
1434,4634
1435,119
1435,376
1435,457
1436,964
1436,3914
1437,609
1437,697
1437,2101
1440,290
1440,1708
1444,4581
1445,2867
1446,3899
1450,3572
1452,135
1453,3820
1454,41
1454,2152
1454,3182
1455,575
1456,601
1456,3840
1458,173
1459,1104
1459,4361
1460,523
1460,645
1460,647
1460,1595
1460,2128
1460,2816
1460,4075
1460,4096
1460,4817
1460,4992
1461,1225
1462,4096
1463,315
1464,374
1464,611
1464,718
1464,3876
1465,3426
1465,4129
1466,2132
1466,4251
1466,4847
1470,1383
1471,2136
1472,3472
1477,3238
1479,1266
1479,1489
1479,2808
1479,3535
1480,2829
1481,1282
1482,1039
1482,1348
1483,949
1487,180
1487,2557
1492,4720
1494,216
1495,1963
1495,3219
1497,98
1497,314
1497,1662
1497,1882
1497,4949
1502,217
1502,1071
1502,1120
1502,1627
1502,2770
1504,1816
1504,4109
1507,2091
1507,2718
1507,3127
1507,3148
1507,3596
1507,3896
1507,4514
1509,1199
1510,1135
1511,965
1511,2329
1511,4203
1512,692
1512,1561
1512,3218
1512,3710
1512,4544
1513,155
1513,3480
1514,1348
1515,819
1515,1712
1515,2054
1515,2907
1515,4717
1517,748
1517,2085
1517,2564
1517,2920
1517,4522
1518,2829
1518,3572
1519,1895
1521,1120
1521,2048
1521,3549
1522,1350
1523,2520
1527,4709
1529,3284
1530,911
1530,2302
1531,1946
1531,4529
1532,473
1533,2675
1533,2742
1533,2933
1533,3044
1533,4290
1534,3331
1535,294
1535,2516
1540,516
1541,911
1542,2534
1548,52
1551,3344
1551,4765
1552,1601
1555,381
1555,1301
1555,3023
1555,4288
1555,4769
1556,768
1556,803
1556,1048
1556,1058
1556,1557
1556,1847
1556,2827
1556,3225
1556,4138
1558,1547
1560,669
1560,2023
1562,3947
1569,226
1569,314
1569,1113
1569,2267
1569,2791
1569,2880
1569,3156
1569,3495
1569,3827
1569,4943
1577,2244
1577,4474
1578,1520
1579,1992
1579,4636
1580,1344
1581,502
1583,1073
1585,843
1586,52
1586,482
1586,2004
1586,2006
1586,2386
1586,2433
1586,2644
1586,2833
1586,3615
1586,3654
1588,934
1588,3844
1588,3945
1590,3131
1592,1004
1592,3964
1593,3030
1594,646
1594,2274
1597,1107
1598,152
1598,1820
1598,3744
1598,4206
1599,4284
1600,154
1601,1314
1602,49
1602,2294
1602,2882
1602,4026
1603,4251
1605,4941
1608,2020
1608,3156
1612,44
1612,90
1612,1100
1612,1806
1612,1920
1612,3245
1612,3722
1612,4083
1617,1895
1617,3465
1618,2134
1619,949
1620,2112
1623,110
1625,428
1626,701
1626,1303
1626,1454
1626,1596
1626,3667
1626,4163
1626,4527
1629,3789
1630,233
1630,1797
1631,995
1631,4891
1632,2353
1633,233
1633,430
1633,4863
1634,1255
1634,3304
1634,4207
1639,681
1643,1221
1643,2209
1644,369
1654,996
1654,3660
1655,2542
1655,4438
1656,1348
1657,3636
1658,142
1658,4057
1659,310
1661,4858
1663,272
1663,2586
1666,943
1668,3032
1669,23
1670,381
1670,461
1671,13
1671,2066
1671,3421
1671,3742
1671,3959
1672,1841
1672,2400
1672,2893
1672,3289
1678,4233
1679,133
1680,4163
1682,310
1682,444
1682,1103
1683,49
1685,1591
1686,19
1686,2998
1687,49
1692,1649
1692,2041
1692,2776
1692,3615
1692,3758
1693,1876
1693,2574
1693,3623
1693,3811
1693,3899
1693,4315
1694,1516
1694,2672
1694,2954
1696,3781
1698,2356
1698,3495
1699,343
1699,574
1699,2211
1699,4214
1701,3290
1701,3341
1701,3851
1701,4874
1702,4163
1704,489
1704,1660
1705,666
1705,1474
1705,1513
1705,2297
1705,3477
1705,3864
1705,4283
1705,4665
1708,96
1710,128
1710,4286
1710,4858
1711,1204
1713,685
1714,996
1716,2521
1716,4197
1718,501
1720,1898
1721,3119
1721,4928
1723,287
1724,548
1726,287
1726,959
1726,985
1726,2513
1727,1091
1728,1942
1729,1105
1729,1191
1729,2136
1730,1045
1731,2825
1731,3364
1731,3528
1732,1942
1732,3838
1734,190
1734,3226
1734,3823
1735,1029
1739,4693
1741,1049
1742,4287
1743,4540
1744,6
1744,496
1744,559
1745,119
1745,4894
1746,281
1746,2728
1749,2324
1749,2466
1749,4533
1751,647
1751,4574
1752,817
1752,2495
1752,2813
1752,3490
1752,4168
1752,4568
1752,4718
1755,239
1756,3670
1756,4374
1758,97
1759,1038
1759,3554
1763,2036
1763,2426
1764,1148
1765,1150
1766,1926
1766,2333
1766,2932
1766,4333
1766,4359
1767,1847
1769,773
1770,173
1770,2961
1770,4666
1774,612
1774,3386
1778,1653
1778,4702
1779,216
1779,2377
1779,3287
1782,4033
1782,4201
1783,1918
1783,4922
1785,3716
1786,416
1786,2108
1787,279
1789,1092
1792,1690
1792,3052
1799,3776
1800,2154
1800,3193
1802,226
1803,4163
1804,1592
1805,419
1805,488
1805,709
1805,2350
1805,2774
1805,3220
1805,4740
1806,601
1806,3643
1810,4077
1813,3916
1813,4587
1814,580
1815,4057
1817,784
1821,4233
1823,563
1824,359
1825,327
1825,601
1825,796
1825,927
1825,1037
1825,1537
1825,1637
1826,17
1829,689
1829,896
1829,1003
1829,3542
1829,4287
1831,3033
1833,813
1833,2669
1834,3165
1838,1291
1840,428
1843,55
1843,1808
1843,3251
1847,3036
1847,4488
1847,4743
1848,470
1849,2071
1850,966
1850,1107
1850,1445
1850,1900
1850,4761
1850,4937
1851,3840
1852,213
1852,3586
1852,4534
1855,1061
1856,220
1856,4667
1858,1497
1859,815
1860,1762
1865,3925
1866,119
1867,113
1867,122
1867,574
1867,638
1867,1559
1867,2362
1867,3817
1868,4583
1869,1382
1869,2977
1870,852
1872,996
1872,1916
1872,2214
1873,287
1874,65
1874,331
1874,435
1874,1212
1874,1292
1874,1737
1874,4164
1877,787
1877,4836
1879,3421
1879,4020
1881,2314
1881,4287
1881,4780
1883,119
1886,1291
1889,1094
1889,3115
1890,1205
1890,3131
1892,487
1893,4186
1894,910
1895,675
1895,3943
1898,400
1898,2552
1901,4523
1902,1143
1902,2030
1904,2191
1904,2274
1904,2386
1904,4441
1907,416
1907,773
1907,1146
1907,1297
1907,1367
1907,3195
1907,3348
1907,4784
1907,4953
1908,2251
1911,817
1912,619
1913,4629
1914,465
1915,1169
1915,3937
1917,480
1921,154
1921,213
1921,3359
1921,4794
1922,783
1923,4076
1924,1791
1925,260
1925,2869
1927,1355
1927,2438
1927,3992
1933,213
1933,3566
1933,4189
1934,255
1934,1660
1934,2333
1935,3460
1936,1807
1938,465
1938,616
1938,994
1938,4410
1938,4434
1940,3217
1940,3698
1947,664
1947,1909
1947,2579
1948,337
1948,381
1948,409
1948,2166
1948,2453
1948,2807
1948,3724
1949,2933
1949,3549
1952,629
1952,3792
1953,2920
1954,228
1955,905
1958,1535
1964,78
1967,688
1967,2197
1969,4752
1970,3479
1974,2345
1974,4006
1975,3804
1977,1300
1977,1360
1977,1374
1977,2033
1977,2040
1977,4077
1978,1112
1978,2450
1978,2641
1978,3386
1978,4900
1979,694
1982,3165
1983,3900
1985,502
1986,1573
1986,4685
1987,569
1987,4540
1988,1037
1989,4288
1990,388
1990,701
1990,2090
1991,571
1991,818
1991,2292
1991,2840
1991,2953
1995,208
1995,2395
1996,1895
1997,682
1999,815
2000,949
2001,475
2003,1076
2005,569
2009,24
2009,1491
2011,1833
2012,628
2014,2315
2018,1010
2018,3049
2019,1325
2019,2331
2021,794
2021,911
2021,1269
2021,1795
2021,1957
2021,2749
2021,3166
2021,3552
2021,4074
2021,4139
2021,4881
2022,451
2022,4578
2024,285
2024,298
2024,619
2024,635
2024,994
2024,1362
2024,1427
2024,1438
2024,1936
2024,2077
2024,2240
2024,2280
2024,3289
2024,3609
2024,3663
2024,4259
2024,4972
2024,4987
2025,1878
2025,2824
2025,4273
2027,1626
2029,1369
2031,59
2032,1544
2032,3133
2033,1197
2033,3076
2034,4288
2034,4814
2035,1917
2035,3880
2036,144
2037,451
2038,651
2038,1604
2038,4002
2039,584
2043,2991
2044,2584
2044,2979
2046,828
2047,2744
2049,146
2049,1238
2049,1299
2049,3294
2051,160
2052,47
2052,76
2052,407
2052,1181
2052,1255
2052,1939
2052,4798
2053,440
2055,571
2055,2281
2055,3338
2056,1641
2056,2427
2056,2505
2056,2681
2056,4375
2056,4679
2060,1108
2062,398
2063,3078
2063,3209
2063,4107
2064,507
2065,601
2066,845
2066,3846
2067,1143
2068,4037
2068,4977
2070,609
2070,3644
2071,1561
2071,4556
2072,1439
2072,2237
2072,3309
2072,3595
2072,4857
2075,2997
2076,4329
2079,746
2079,4318
2081,2155
2081,2752
2081,3180
2081,3692
2081,4380
2082,2112
2083,199
2083,979
2083,2872
2083,2913
2087,174
2089,368
2089,719
2092,213
2093,4724
2094,2023
2095,2066
2095,3305
2096,1114
2097,1715
2098,726
2099,316
2100,1799
2101,410
2101,3377
2102,1676
2102,1975
2103,165
2103,2218
2103,3383
2105,481
2109,1706
2109,4369
2110,1751
2111,210
2111,2318
2111,2830
2113,17
2115,154
2115,3944
2115,4183
2116,1438
2119,353
2119,464
2120,1589
2122,265
2127,76
2129,1030
2129,2753
2131,753
2135,651
2136,1004
2137,383
2141,1047
2142,434
2142,798
2143,637
2143,2428
2143,4571
2144,1610
2144,1946
2144,3095
2145,3107
2147,1604
2150,1348
2150,4223
2153,1473
2157,564
2157,3633
2160,1811
2160,2366
2160,4435
2160,4956
2161,1827
2162,105
2162,386
2162,3060
2163,4719
2165,1465
2165,1839
2165,4482
2165,4505
2167,1417
2169,2041
2170,3440
2174,142
2174,4836
2178,226
2178,1906
2178,2123
2178,2716
2178,2985
2179,611
2180,143
2181,446
2182,1432
2183,3215
2184,1833
2185,762
2185,1757
2185,1846
2186,217
2187,362
2188,151
2189,798
2189,4674
2192,1003
2193,1580
2193,2925
2193,3695
2193,4888
2194,174
2194,395
2194,4163
2195,427
2195,2316
2195,3457
2196,1032
2196,2965
2197,19
2198,3672
2199,266
2199,4368
2200,340
2200,2561
2201,707
2202,1897
2202,2509
2203,1056
2206,4375
2207,165
2207,1718
2207,2527
2207,3154
2210,101
2213,1484
2213,1875
2213,2323
2213,3346
2213,3634
2215,242
2217,1543
2219,1243
2220,580
2221,543
2221,1218
2221,3802
2223,2614
2223,3329
2223,4096
2223,4132
2223,4951
2228,276
2228,679
2229,1559
2229,1929
2229,2078
2229,2868
2229,3138
2229,4820
2230,1607
2231,2028
2231,4369
2231,4797
2232,3107
2233,1591
2236,979
2236,1616
2236,1799
2239,119
2239,707
2239,2849
2239,4876
2243,4958
2245,2136
2245,4336
2246,601
2248,471
2250,78
2250,2347
2250,2520
2252,571
2254,111
2254,1934
2255,491
2255,1320
2257,1241
2259,2944
2259,4954
2260,2303
2260,2933
2261,812
2262,611
2262,1313
2263,766
2264,752
2266,381
2268,66
2268,3655
2268,3782
2269,543
2270,4646
2271,1773
2272,1028
2273,148
2274,31
2274,3770
2274,4919
2275,1864
2276,1784
2276,3593
2277,2059
2278,932
2279,435
2279,2883
2279,4882
2282,3408
2282,3731
2283,3001
2284,3584
2286,2001
2287,1830
2288,1807
2288,3739
2289,257
2289,1591
2289,2721
2289,2758
2289,3136
2290,651
2291,2201
2291,4400
2295,2134
2298,76
2298,2329
2299,1454
2300,845
2301,288
2304,1473
2304,1707
2304,3506
2305,356
2306,1400
2306,3765
2308,444
2308,1341
2309,2944
2309,3583
2309,4132
2309,4390
2311,1195
2311,4532
2313,4155
2315,3193
2317,879
2317,3870
2317,4148
2320,1348
2321,3
2330,387
2332,316
2335,2126
2336,437
2337,1148
2338,550
2340,30
2340,798
2340,1049
2340,1395
2340,1524
2340,2582
2340,3504
2340,3871
2340,4626
2342,217
2344,65
2346,627
2348,1136
2349,4371
2351,2040
2352,1244
2353,173
2353,966
2353,2512
2353,3736
2353,4594
2354,1646
2357,1106
2358,142
2358,3409
2358,4638
2360,163
2360,1646
2360,2484
2360,2506
2360,3387
2360,4288
2361,4279
2363,1441
2363,4036
2363,4747
2365,1475
2369,3820
2374,514
2376,2493
2376,4955
2378,4318
2379,2237
2379,4591
2383,3141
2384,471
2385,242
2385,910
2385,1689
2385,2401
2385,3429
2385,4028
2385,4383
2387,4719
2388,4285
2389,1352
2389,4509
2390,1163
2391,904
2391,2503
2391,3121
2391,4743
2392,948
2392,1230
2392,2468
2393,1400
2398,1573
2398,3793
2398,4682
2398,4795
2399,3421
2400,519
2400,3285
2400,3446
2400,4445
2402,498
2402,4739
2403,1569
2404,1170
2405,1651
2405,2972
2408,1072
2408,1231
2409,962
2411,2909
2411,3224
2416,3270
2417,2267
2417,4401
2418,2326
2418,2877
2420,1750
2421,404
2422,36
2423,411
2423,453
2423,3326
2425,438
2431,1424
2432,2226
2432,3805
2443,212
2443,1566
2443,1885
2444,19
2446,483
2446,3207
2446,3916
2447,1105
2447,2710
2447,4049
2451,4349
2452,675
2452,3584
2454,4846
2455,659
2456,2107
2457,287
2457,2668
2460,460
2460,1382
2460,1795
2461,2440
2462,1374
2463,2521
2463,3485
2464,256
2465,1603
2467,461
2470,433
2471,220
2471,2733
2471,2800
2472,2359
2473,4656
2474,1315
2474,1340
2474,3260
2475,4693
2476,2218
2476,4476
2478,4698
2481,3001
2481,4149
2481,4844
2482,752
2482,1009
2482,4741
2487,377
2487,1722
2487,1909
2487,1934
2487,3195
2487,4091
2488,1061
2490,1745
2492,1773
2494,1820
2495,146
2495,516
2496,3472
2498,2329
2498,4236
2499,3033
2499,3667
2500,3880
2502,1297
2504,119
2504,2750
2504,3111
2505,2771
2508,1377
2509,514
2510,174
2512,783
2512,3485
2516,2247
2516,2645
2518,1463
2519,287
2520,1634
2524,2497
2525,2406
2528,2436
2530,1816
2530,1928
2532,465
2532,2774
2532,2990
2532,3403
2532,4898
2534,843
2539,356
2540,205
2540,2957
2541,221
2543,2058
2544,4163
2544,4288
2546,1520
2547,370
2547,4254
2548,532
2549,627
2549,1044
2549,1367
2549,2134
2549,2619
2550,612
2551,1148
2554,243
2554,4118
2555,1032
2555,2607
2556,2173
2556,3307
2559,1628
2560,627
2562,571
2562,2747
2562,4425
2564,1006
2564,1448
2565,664
2567,1765
2569,314
2571,1718
2572,3231
2573,2281
2575,4836
2576,1870
2578,4108
2581,1625
2581,3199
2581,4088
2583,594
2583,2028
2583,4619
2587,4917
2588,488
2589,1355
2590,1906
2590,2951
2592,2672
2593,1132
2594,1557
2596,4823
2597,612
2599,2932
2599,3776
2599,4623
2601,1545
2601,3577
2602,612
2603,1360
2604,724
2604,4837
2608,294
2609,1528
2609,4452
2609,4873
2610,294
2610,4626
2611,2615
2611,4927
2613,1526
2613,4378
2615,3046
2615,4946
2616,964
2616,3160
2616,4106
2616,4675
2616,4734
2617,316
2620,135
2620,1827
2621,630
2626,4298
2627,639
2628,336
2628,1292
2628,2130
2629,1132
2629,3995
2630,1191
2631,2371
2632,2172
2632,3105
2632,4625
2635,721
2636,1839
2638,1105
2639,806
2640,128
2643,1114
2645,2125
2647,378
2649,1038
2651,396
2651,1753
2652,1391
2652,3337
2652,4610
2653,2861
2653,2933
2654,771
2657,173
2659,3683
2660,2093
2661,3696
2661,4552
2662,657
2662,4252
2663,286
2666,2274
2667,1941
2667,3548
2667,3922
2669,1296
2669,2609
2669,2817
2669,3093
2671,3730
2674,36
2676,78
2676,4188
2677,426
2680,3596
2680,3981
2681,247
2681,4166
2682,2618
2683,1695
2685,416
2685,1030
2685,2400
2686,19
2686,3611
2686,4301
2686,4480
2687,1753
2688,3730
2689,2909
2690,4035
2692,3286
2692,4427
2693,2208
2695,1725
2696,409
2696,3567
2697,4298
2698,489
2699,3295
2701,3376
2702,1412
2703,504
2703,4783
2704,998
2704,3561
2706,2091
2706,2302
2707,2148
2709,948
2710,681
2710,1169
2710,1263
2710,2595
2711,1720
2711,2793
2711,2796
2712,584
2712,3424
2713,244
2713,1348
2714,635
2715,26
2717,1324
2718,13
2718,148
2718,550
2718,1379
2718,2822
2721,437
2721,4506
2722,2005
2723,134
2724,2254
2725,275
2725,1473
2725,4752
2726,1761
2726,3263
2726,4575
2729,305
2729,3094
2730,3260
2731,1245
2734,1773
2735,4332
2736,471
2737,150
2739,612
2739,2353
2740,4284
2745,1214
2746,813
2751,1580
2754,1230
2755,1980
2756,2004
2756,2166
2756,3244
2756,4136
2759,272
2761,2267
2762,117
2763,452
2763,685
2764,338
2764,452
2764,611
2764,699
2764,919
2764,1962
2764,2568
2764,3764
2764,4275
2765,119
2765,416
2766,1244
2767,1827
2768,494
2772,50
2772,304
2772,326
2772,584
2772,1180
2772,2383
2772,3311
2773,709
2774,2015
2774,3616
2777,2672
2779,1039
2780,4844
2782,548
2783,30
2783,470
2783,1092
2783,3454
2783,3470
2785,1605
2785,2347
2786,912
2786,4844
2788,964
2788,3420
2789,1064
2792,692
2793,1950
2793,2720
2794,896
2795,272
2798,1811
2799,1647
2804,697
2804,3661
2805,1552
2806,4858
2808,2432
2809,2618
2811,190
2811,3058
2820,816
2820,3185
2821,273
2821,466
2821,969
2821,3424
2821,3779
2821,4219
2823,2333
2823,4978
2824,1105
2826,279
2826,600
2826,3272
2826,4016
2826,4827
2829,2892
2830,479
2830,480
2830,1243
2830,2941
2830,3773
2830,4248
2835,71
2835,1124
2837,1338
2839,279
2839,2456
2841,2341
2842,1520
2842,3456
2843,491
2845,117
2845,202
2845,329
2845,637
2845,2606
2845,4230
2845,4750
2845,4931
2846,49
2847,1183
2847,2899
2848,756
2848,812
2850,1035
2851,2134
2852,37
2852,1175
2852,1992
2852,2341
2853,2591
2853,3398
2854,516
2856,2558
2857,135
2858,4288
2858,4298
2859,751
2859,4487
2860,3289
2862,1875
2865,2720
2866,43
2866,356
2866,3487
2868,287
2870,571
2871,3637
2873,1589
2873,1913
2874,1360
2876,1801
2876,2394
2876,4287
2876,4655
2884,2416
2885,849
2886,468
2888,2327
2894,2919
2895,78
2895,3543
2896,3384
2900,637
2900,1024
2901,2112
2901,3345
2901,3607
2902,1900
2902,3635
2903,2898
2904,2553
2905,3533
2906,694
2906,4190
2908,861
2912,2436
2914,3020
2915,23
2915,2966
2915,4000
2916,2050
2916,3212
2917,1269
2919,1592
2921,1673
2922,409
2924,1104
2924,2296
2924,4791
2926,186
2926,801
2928,1148
2928,2042
2928,2058
2928,2558
2930,4693
2932,199
2932,591
2935,4917
2937,3421
2937,4548
2938,819
2940,569
2942,1642
2944,270
2945,3075
2946,994
2946,2322
2946,2867
2946,4247
2947,491
2948,383
2948,896
2948,2486
2948,4842
2951,96
2951,468
2951,694
2951,1439
2951,1576
2951,1822
2951,2077
2951,2927
2951,3155
2951,3468
2951,3662
2951,3772
2952,282
2955,1049
2955,1574
2956,1136
2956,1965
2959,2255
2960,4823
2962,2825
2965,1367
2967,134
2969,49
2969,748
2969,3247
2969,4245
2971,1820
2971,2867
2971,4458
2973,434
2973,2401
2973,3452
2974,657
2974,4774
2976,848
2976,1900
2978,616
2978,4579
2979,2450
2979,2833
2980,1634
2982,4656
2984,270
2985,68
2985,343
2986,19
2986,2533
2989,128
2990,669
2992,3571
2997,800
3000,65
3002,1900
3004,1454
3004,2591
3008,1693
3008,3437
3008,3735
3009,2281
3009,3763
3009,4714
3011,1399
3013,496
3013,3804
3013,3938
3014,2091
3016,2259
3018,2436
3019,2765
3019,3071
3022,2520
3024,696
3024,779
3024,816
3024,2459
3024,2670
3024,2990
3025,471
3025,4078
3025,4368
3028,550
3028,4546
3030,1212
3031,370
3032,2758
3032,3579
3033,678
3034,2406
3035,2069
3037,908
3037,4177
3038,2752
3038,4716
3039,4024
3040,3249
3040,4323
3040,4671
3043,2201
3043,3951
3044,1521
3044,3360
3045,13
3045,4874
3046,1423
3048,1390
3048,1895
3048,3797
3051,2237
3052,4583
3053,4880
3054,2069
3055,333
3056,1836
3057,1628
3057,4198
3061,19
3062,1702
3063,2280
3065,453
3066,452
3067,155
3067,1798
3067,1976
3067,3205
3067,4316
3067,4345
3068,2322
3068,4351
3068,4658
3069,133
3072,345
3074,19
3074,1610
3078,2672
3079,574
3079,2932
3080,214
3081,2227
3082,3021
3083,1503
3084,1596
3086,409
3087,4534
3089,911
3090,1092
3090,4276
3090,4363
3091,999
3092,636
3092,4023
3094,1811
3094,2226
3094,4305
3094,4643
3097,3864
3097,4116
3097,4648
3098,787
3098,3721
3098,3807
3098,3971
3098,4684
3103,2845
3103,2995
3104,2066
3106,265
3107,2440
3107,4205
3110,983
3110,3863
3112,471
3113,1628
3116,324
3116,1122
3116,3172
3116,3854
3117,1067
3118,2500
3118,4120
3119,912
3120,18
3120,1672
3120,4979
3123,1064
3124,647
3124,1032
3125,352
3126,787
3130,2353
3134,888
3135,533
3139,2891
3145,3880
3146,4371
3147,111
3147,3423
3149,362
3151,235
3151,416
3151,2426
3152,1155
3153,1738
3155,603
3155,1245
3155,1451
3157,23
3159,3581
3162,381
3168,3219
3168,3757
3169,1771
3170,2706
3171,287
3171,4473
3174,1673
3175,1027
3176,1410
3176,4800
3177,265
3179,3839
3181,3364
3183,4218
3184,416
3184,3447
3186,845
3186,1887
3186,2248
3186,2435
3186,3088
3186,3789
3187,190
3188,753
3188,1497
3189,1297
3190,1709
3191,2812
3192,4155
3193,2013
3194,1917
3195,2727
3197,435
3198,1044
3200,123
3201,861
3203,2333
3203,4260
3204,451
3206,1238
3208,237
3208,438
3208,1106
3208,2088
3208,3734
3210,2568
3211,76
3211,1836
3211,3909
3211,4050
3214,1748
3215,2678
3216,2274
3221,768
3223,2134
3229,4288
3230,489
3231,1451
3232,2586
3233,427
3233,677
3233,984
3233,2910
3233,3826
3236,1942
3239,26
3240,2934
3248,1283
3250,2074
3253,1273
3253,2438
3253,3315
3254,3472
3257,2108
3259,491
3261,236
3264,2705
3265,770
3266,2585
3267,564
3268,4194
3269,1346
3269,3825
3270,86
3270,251
3270,1570
3270,3911
3273,2932
3273,4268
3275,3076
3276,1707
3276,4379
3276,4887
3277,272
3279,3331
3281,2760
3282,1753
3283,1546
3283,2151
3286,3291
3286,4284
3286,4455
3288,966
3289,1010
3289,1291
3289,1871
3289,2889
3289,3342
3289,3494
3289,3667
3289,3925
3289,4284
3290,215
3291,3310
3292,3941
3295,520
3296,2484
3298,202
3299,1525
3300,3158
3303,3165
3306,430
3310,10
3310,3357
3313,1346
3314,1235
3314,3889
3316,1690
3316,2999
3317,24
3318,1914
3318,4284
3318,4945
3319,3165
3321,236
3322,2472
3324,2489
3324,2801
3325,664
3326,3286
3327,4410
3328,445
3330,2172
3331,1601
3332,3039
3332,3931
3333,1001
3333,4680
3334,161
3334,4150
3334,4772
3335,673
3335,930
3335,1574
3335,2212
3335,2957
3336,1101
3336,2057
3336,3364
3338,520
3338,2684
3338,4032
3339,467
3340,3776
3343,619
3343,4577
3346,1554
3347,1622
3347,1660
3347,1819
3347,4736
3350,498
3356,439
3356,622
3356,946
3356,2173
3356,2224
3356,2256
3356,2443
3356,3550
3356,4284
3359,629
3359,962
3359,1071
3359,2256
3359,2949
3359,3479
3361,3378
3363,2406
3364,733
3365,1208
3365,4838
3369,3820
3369,4462
3370,2241
3371,438
3373,979
3374,837
3374,1799
3374,2434
3374,3178
3374,4422
3374,4511
3376,336
3376,3448
3379,581
3380,994
3381,1029
3381,4091
3381,4221
3382,573
3382,1547
3382,1645
3382,2148
3382,3641
3383,2580
3384,1474
3385,2526
3385,4858
3388,2954
3389,1649
3391,893
3392,2863
3392,4140
3393,415
3393,2665
3393,4125
3393,4186
3394,2990
3395,638
3396,2040
3401,571
3402,2636
3404,1747
3404,1798
3405,286
3406,696
3410,2238
3411,155
3412,270
3415,494
3415,2372
3416,1897
3419,294
3421,4414
3426,265
3426,4270
3427,694
3428,279
3428,1961
3428,4905
3430,3278
3431,1051
3432,704
3433,1660
3434,1170
3435,272
3438,3158
3439,740
3440,1753
3441,239
3443,868
3444,2439
3444,3129
3449,3137
3450,2407
3450,4414
3451,465
3453,1920
3455,3082
3458,616
3460,2672
3460,3132
3461,3700
3461,4037
3462,1180
3463,978
3464,2252
3464,4985
3467,548
3469,3156
3471,4504
3472,1191
3473,471
3476,193
3476,265
3476,3547
3478,3302
3482,1515
3482,3637
3483,1315
3486,919
3489,217
3490,438
3490,697
3490,2507
3490,2864
3492,2234
3493,1273
3496,2074
3497,255
3498,2642
3500,3730
3501,912
3502,1334
3502,2929
3503,391
3505,3207
3507,19
3511,265
3512,1092
3513,1395
3513,3688
3514,3115
3515,1159
3517,1662
3517,3921
3518,193
3519,205
3521,1545
3522,2751
3524,3001
3525,523
3526,994
3527,2432
3527,2469
3527,2691
3527,3095
3529,329
3530,3280
3532,1491
3533,3825
3534,4885
3535,1188
3537,4114
3538,820
3539,445
3544,504
3545,1417
3546,3137
3548,1132
3553,1781
3554,800
3554,1550
3554,1857
3557,124
3558,4880
3559,1124
3560,1169
3563,2501
3565,2041
3567,44
3569,2531
3570,3083
3571,2887
3572,2326
3573,2769
3574,2760
3576,1574
3578,3716
3582,1750
3585,819
3585,1093
3585,4386
3588,353
3589,4844
3591,26
3592,1449
3596,1138
3596,1695
3597,979
3598,51
3600,1717
3600,4284
3601,2112
3602,1795
3603,430
3604,4408
3606,837
3608,2133
3610,979
3611,408
3611,1080
3611,1221
3611,1442
3611,3234
3611,4966
3612,1710
3613,1582
3614,1079
3614,1341
3614,1700
3614,2052
3614,2114
3614,2293
3618,2058
3620,133
3622,3107
3622,4763
3624,568
3626,3042
3628,310
3629,657
3636,34
3636,800
3638,2889
3638,4220
3642,927
3642,4043
3645,4329
3646,948
3647,272
3649,794
3650,1781
3652,101
3656,491
3656,1027
3656,2537
3656,4048
3657,592
3658,329
3659,465
3661,2334
3661,2406
3661,2486
3663,2271
3663,3258
3666,359
3666,1176
3671,444
3672,2965
3674,3876
3675,1837
3676,111
3676,179
3676,552
3676,679
3676,4373
3677,2609
3678,2614
3679,1835
3679,2235
3683,4858
3685,752
3686,374
3686,3881
3687,1882
3690,2426
3691,909
3693,483
3694,2672
3695,1781
3697,419
3697,3734
3701,3651
3702,1496
3703,1394
3703,3316
3704,1315
3704,4438
3705,1433
3705,4098
3706,3349
3707,4693
3713,316
3713,513
3714,30
3714,161
3715,19
3715,2040
3715,2700
3715,3102
3715,4486
3715,4698
3717,426
3720,2881
3723,2500
3725,955
3725,2316
3727,1221
3728,265
3729,81
3730,1071
3737,504
3737,4554
3738,1559
3743,3636
3745,3107
3746,2307
3747,205
3748,3575
3749,1525
3750,1285
3750,3227
3751,2553
3751,4494
3752,1748
3753,1870
3754,3177
3755,1030
3755,3916
3756,159
3760,428
3760,3568
3760,4836
3766,2158
3768,1980
3769,2540
3771,441
3771,630
3771,651
3771,1010
3771,2533
3771,3531
3775,2760
3776,692
3777,1311
3778,3447
3779,418
3780,2672
3781,81
3783,290
3786,979
3787,2108
3789,1897
3790,216
3790,568
3790,4982
3791,719
3794,895
3795,3
3795,110
3795,2961
3795,3621
3796,1032
3798,756
3801,3787
3803,3302
3804,2536
3809,1030
3809,4216
3812,100
3813,810
3814,23
3816,1078
3816,2633
3816,2994
3819,1625
3820,959
3820,2112
3820,2637
3820,2831
3821,508
3821,4709
3822,4112
3823,724
3825,3567
3828,386
3829,2112
3830,286
3830,2208
3831,3810
3831,4543
3834,1776
3835,1513
3836,2007
3841,3297
3841,4597
3842,504
3843,752
3844,4233
3847,4951
3849,798
3850,1673
3850,3550
3851,2612
3852,2515
3852,4188
3857,979
3857,1360
3857,2312
3857,4497
3858,766
3860,1926
3861,571
3865,817
3866,4374
3868,1820
3869,1412
3871,1205
3872,2
3872,543
3872,3920
3873,2334
3874,2008
3875,2760
3875,4137
3875,4606
3877,2442
3879,1348
3882,3076
3884,19
3885,1380
3885,2136
3885,3936
3887,1273
3888,1700
3890,1038
3891,559
3892,1009
3894,122
3894,123
3894,437
3894,1108
3894,2084
3894,2307
3894,3000
3897,2655
3898,3845
3899,2048
3901,3378
3902,1772
3902,2093
3902,3928
3903,2041
3905,3734
3906,646
3907,3583
3907,4012
3908,3087
3910,979
3910,1051
3910,1314
3913,1454
3915,3633
3919,810
3919,2526
3922,236
3922,412
3922,1653
3922,2934
3922,3648
3924,2329
3924,4537
3925,78
3926,1063
3926,1427
3927,4402
3929,13
3929,1673
3929,2118
3929,2553
3929,3564
3930,2532
3932,3769
3933,1051
3934,217
3935,374
3935,4428
3941,215
3942,502
3946,3297
3947,1246
3948,217
3949,3289
3950,381
3954,381
3956,381
3957,1370
3958,4381
3960,630
3961,3627
3962,1000
3963,1960
3965,3928
3966,216
3966,787
3966,2760
3966,3676
3966,4362
3967,803
3969,3632
3970,3900
3972,2179
3973,2159
3975,23
3976,3047
3977,3656
3978,1799
3982,1029
3983,3916
3986,3297
3988,1808
3989,1262
3989,4031
3989,4096
3991,4618
3996,3483
3997,353
3998,1148
3999,3103
3999,4224
4000,749
4000,1050
4000,2168
4000,4210
4003,3528
4007,4605
4008,2416
4010,1018
4011,473
4011,2453
4013,3590
4015,4765
4017,109
4019,765
4019,4371
4022,794
4022,1333
4022,2242
4022,4251
4022,4432
4023,1284
4027,3667
4030,4288
4030,4760
4035,125
4038,2939
4039,969
4040,1439
4040,1725
4040,3531
4040,4306
4041,1672
4045,17
4046,2672
4051,964
4052,1474
4053,4761
4056,1843
4058,1695
4059,3124
4060,3472
4061,3619
4063,1401
4066,630
4067,4033
4068,4352
4069,3360
4070,2005
4070,4407
4071,1136
4072,191
4072,329
4072,4127
4073,4891
4076,2932
4079,4554
4080,2432
4081,696
4081,786
4081,3808
4081,4576
4082,1138
4083,930
4084,1367
4086,793
4087,1150
4088,3033
4088,3556
4090,308
4092,597
4093,2242
4094,2335
4097,3202
4099,4241
4100,3641
4100,4135
4101,1073
4101,2497
4101,3258
4102,612
4103,817
4103,4192
4104,4042
4105,3916
4108,474
4108,2903
4109,2997
4110,3272
4113,1564
4114,3271
4115,1221
4119,119
4119,501
4119,692
4119,901
4119,1738
4119,1926
4119,1942
4119,2566
4119,3010
4121,962
4123,911
4123,1340
4123,3272
4123,4886
4126,1796
4128,2909
4130,2437
4131,470
4131,944
4131,4193
4133,1946
4134,806
4141,2719
4143,1108
4143,2235
4143,4581
4144,1352
4145,226
4146,1738
4147,2624
4150,817
4150,1956
4151,4026
4152,265
4153,718
4154,155
4155,324
4158,124
4159,480
4160,1627
4160,2350
4160,2591
4161,3397
4162,4915
4163,1835
4167,17
4167,4786
4168,816
4169,2760
4170,502
4170,770
4170,855
4170,1412
4170,1827
4170,4389
4170,4765
4171,3371
4172,1045
4173,435
4176,1545
4176,4585
4179,456
4179,757
4179,2066
4179,2591
4180,467
4182,523
4183,3087
4183,3640
4186,3808
4191,922
4195,3137
4196,1340
4197,159
4197,2968
4199,219
4200,1475
4201,508
4204,2873
4205,948
4205,1496
4208,504
4208,4868
4211,1297
4212,4207
4217,1151
4218,1225
4226,4790
4228,783
4232,81
4232,116
4232,910
4232,1544
4232,4155
4232,4991
4233,597
4233,1087
4233,1700
4233,3003
4233,3916
4234,3128
4235,794
4237,215
4237,3784
4238,692
4239,173
4239,336
4239,4429
4239,4892
4240,1341
4241,502
4242,2281
4242,4649
4243,304
4244,190
4244,2172
4249,2302
4250,2285
4251,3619
4252,3188
4253,163
4253,637
4253,4417
4253,4828
4256,965
4257,3124
4258,456
4262,19
4263,3360
4264,3580
4265,1063
4269,70
4269,1317
4272,1928
4272,4394
4278,559
4280,1348
4280,2442
4280,2454
4280,2526
4280,3540
4280,3886
4280,4044
4280,4175
4281,3468
4282,4879
4282,4917
4284,3921
4284,4447
4285,290
4285,2437
4285,3785
4287,4578
4289,2892
4292,816
4293,4996
4294,4018
4295,2218
4296,290
4297,2681
4298,273
4298,483
4298,738
4298,4329
4298,4431
4303,1889
4304,1909
4309,3664
4312,1246
4313,3007
4313,3316
4314,337
4319,19
4320,2990
4322,1369
4324,1219
4325,375
4327,3479
4327,4329
4329,970
4331,2614
4332,51
4332,414
4332,723
4332,1055
4332,2204
4332,2424
4332,3810
4334,1799
4335,350
4338,59
4339,286
4343,223
4344,441
4344,612
4344,3122
4344,3590
4348,3104
4349,236
4352,3316
4354,3789
4355,1660
4356,69
4357,416
4358,3667
4359,2933
4360,356
4364,4254
4366,2655
4367,2553
4370,2892
4371,3876
4372,724
4374,1318
4381,3625
4382,1959
4384,96
4384,4744
4387,1427
4388,507
4391,1628
4392,1768
4392,4581
4395,125
4395,1625
4397,1045
4398,977
4398,2956
4399,154
4399,4418
4404,803
4408,507
4411,772
4412,4050
4413,159
4415,76
4416,2164
4418,580
4419,911
4420,1122
4421,574
4421,1646
4423,813
4424,1771
4426,2965
4430,4005
4433,580
4436,1870
4436,2838
4437,1995
4439,3938
4440,580
4442,2293
4443,180
4443,255
4443,2395
4443,3039
4445,612
4445,1004
4446,2440
4448,1775
4450,1062
4450,1906
4453,3604
4454,4383
4457,2983
4458,1269
4460,927
4461,4416
4463,1030
4464,4709
4467,2909
4468,92
4468,4782
4469,636
4470,817
4472,1695
4475,4375
4477,2812
4478,1762
4481,84
4481,4553
4483,1214
4486,138
4486,347
4486,1796
4486,2258
4486,3349
4486,4064
4487,1501
4487,2646
4489,699
4490,4332
4495,751
4497,1664
4498,4891
4499,440
4503,123
4504,3771
4507,533
4507,1382
4507,4924
4508,694
4510,1469
4512,2078
4513,533
4516,1303
4518,2686
4519,213
4520,3006
4521,4727
4523,3651
4524,2890
4526,294
4528,1807
4530,4221
4531,3321
4533,1604
4535,388
4536,2873
4538,1543
4539,26
4540,76
4541,948
4542,236
4542,2400
4544,93
4544,1089
4544,2923
4544,4231
4547,1297
4549,4487
4551,2618
4552,2437
4552,4901
4555,568
4557,861
4557,2618
4558,3925
4559,958
4560,592
4560,1305
4561,4150
4562,4271
4563,1325
4564,129
4564,669
4564,965
4564,2381
4564,3479
4565,3561
4569,4307
4570,330
4570,1959
4570,3481
4570,3816
4570,4358
4572,3378
4573,4548
4573,4973
4574,960
4575,1107
4579,438
4580,3243
4583,460
4585,2514
4586,43
4586,2208
4588,3599
4589,496
4590,2030
4592,2302
4593,636
4595,350
4595,1575
4596,4301
4599,4452
4600,722
4601,896
4602,733
4603,3808
4604,52
4605,1170
4611,772
4612,210
4612,265
4612,381
4612,1609
4612,2436
4613,4607
4615,1348
4617,787
4618,445
4620,3180
4621,1250
4622,2184
4624,441
4625,3353
4627,445
4628,2824
4630,1219
4630,4271
4631,669
4635,199
4637,2058
4639,2371
4640,2148
4641,1942
4644,3492
4645,359
4647,49
4651,1589
4652,2433
4653,757
4654,4944
4656,2534
4659,381
4660,798
4661,1733
4662,504
4663,2932
4664,1113
4665,290
4665,502
4665,1231
4665,2325
4673,336
4676,812
4676,1055
4677,270
4677,600
4677,904
4677,1152
4677,4500
4678,69
4678,78
4678,279
4678,359
4678,564
4678,838
4678,899
4678,911
4678,1457
4678,1476
4678,2149
4678,4735
4681,2678
4683,3774
4685,461
4685,1330
4686,216
4687,284
4687,294
4687,3586
4688,498
4689,1771
4690,1186
4692,4036
4693,1152
4694,3231
4695,3320
4697,4546
4699,4693
4700,3504
4703,17
4704,1753
4705,4465
4706,791
4706,820
4706,1281
4706,2545
4707,1114
4708,3537
4709,2010
4709,3422
4711,619
4713,444
4715,4581
4718,1675
4719,2561
4720,3360
4721,3
4722,124
4723,302
4723,908
4723,2889
4724,1799
4726,2360
4727,3351
4728,4523
4729,1405
4729,4709
4730,4175
4731,4318
4732,611
4733,3724
4737,3129
4738,949
4739,2477
4740,592
4743,350
4743,922
4743,1028
4745,4422
4746,3667
4749,444
4749,563
4749,3032
4751,978
4752,4190
4753,979
4754,265
4754,723
4754,788
4754,981
4755,1909
4756,1292
4757,843
4758,2577
4759,2540
4762,491
4766,2171
4766,2832
4767,1356
4770,879
4771,4231
4773,311
4773,1565
4775,770
4776,1020
4777,3165
4778,4149
4779,419
4780,699
4780,3425
4780,4287
4781,2807
4784,1595
4785,2958
4788,4138
4789,3231
4790,692
4792,445
4793,332
4799,7
4799,150
4799,4233
4801,592
4802,437
4803,4743
4804,4284
4806,4277
4807,1596
4808,3445
4810,2175
4812,1017
4813,4206
4815,412
4816,1762
4817,1033
4818,3285
4819,4427
4820,4643
4823,779
4824,87
4824,441
4824,687
4824,863
4824,3222
4824,4034
4824,4340
4826,1079
4829,1077
4829,1543
4829,1888
4829,3696
4829,3874
4829,4484
4830,3938
4831,109
4832,1740
4834,569
4835,1191
4836,3923
4836,4222
4839,1427
4843,709
4844,4520
4845,3007
4848,4760
4849,3921
4850,649
4850,2975
4850,4709
4851,173
4852,537
4853,2522
4854,443
4854,482
4854,1582
4854,1906
4854,2542
4854,2810
4854,2994
4854,3663
4854,4024
4854,4582
4857,2159
4858,36
4859,601
4860,356
4861,356
4862,3716
4864,2514
4865,1146
4866,4317
4867,1105
4869,55
4870,2435
4871,1225
4875,559
4877,2684
4878,1706
4880,1910
4883,4607
4884,555
4884,1139
4884,2983
4884,4406
4885,3447
4890,1809
4893,3878
4895,57
4896,1073
4898,318
4898,2781
4898,4672
4900,3542
4902,3049
4908,2124
4909,1230
4910,3006
4911,441
4912,4172
4913,681
4914,28
4914,162
4914,1126
4914,1634
4914,2694
4914,3144
4914,3979
4915,4418
4916,762
4917,2701
4918,409
4920,2998
4921,5
4921,59
4921,317
4921,1781
4921,3164
4921,4231
4922,17
4922,1914
4922,3856
4922,4444
4923,4165
4925,1091
4929,694
4930,4841
4932,977
4932,1474
4935,331
4936,19
4936,197
4936,682
4936,694
4936,2587
4936,3226
4938,4096
4942,398
4942,1484
4942,1966
4942,3235
4942,4042
4947,573
4947,2139
4948,652
4949,4598
4950,3584
4951,1771
4952,2753
4954,837
4955,2216
4957,66
4958,880
4958,1358
4958,2634
4959,4958
4961,375
4962,310
4962,1005
4963,1351
4964,13
4965,3781
4967,1230
4968,2825
4969,926
4971,308
4971,995
4972,4385
4974,3360
4975,2672
4976,3429
4977,2932
4980,2961
4983,2427
4984,984
4985,1816
4986,435
4987,26
4987,1269
4987,2343
4987,2961
4988,2655
4989,1030
4990,1214
4993,2439
4995,2720
4996,689
4997,4546
4999,2513
