src,dst
0,1
0,69
0,402
0,420
0,478
0,631
0,718
0,783
0,844
0,881
0,1727
0,1791
0,1985
0,2532
0,3576
0,3792
0,4787
4,93
4,296
4,301
4,384
4,429
4,1059
4,1220
4,1379
4,1390
4,1639
4,2180
4,2282
4,2445
4,2492
4,2790
4,2926
4,2964
4,3032
4,3236
4,3277
4,3566
5,233
5,247
5,1797
7,536
7,731
7,752
7,930
7,1100
7,1111
7,1192
7,1437
7,2071
7,3711
7,4159
7,4362
7,4519
8,479
8,1236
8,2586
8,4159
9,742
9,2277
9,2426
9,4461
11,697
11,2294
11,2568
13,269
13,1327
13,1643
13,2218
13,4039
15,606
15,1086
15,2294
17,994
17,2695
17,4216
18,1094
18,1944
18,3110
18,3208
18,3814
18,4976
19,364
19,1178
19,2267
20,52
20,371
20,812
20,1513
20,2082
20,2177
20,2210
20,2558
20,3267
20,3549
21,73
21,114
21,647
21,690
21,956
21,1671
21,2031
21,2517
21,2872
21,3292
21,3835
21,4080
21,4206
22,1132
25,52
25,142
25,148
25,185
25,250
25,578
25,674
25,923
25,971
25,1245
25,1692
25,1875
25,1972
25,3128
25,3212
25,3601
25,3669
25,4349
25,4350
25,4567
25,4621
25,4693
26,52
26,279
26,373
26,507
26,864
26,963
26,970
26,1333
26,2129
26,2227
26,2426
26,2489
26,2530
26,2761
26,3219
26,3546
26,3650
26,4508
26,4709
27,2
27,82
27,409
27,579
27,937
27,1301
27,1339
27,1392
27,1539
27,1780
27,2571
27,2862
27,3267
27,3350
27,4578
27,4952
29,113
29,287
29,1066
29,1206
29,1245
29,1465
29,1875
29,2696
29,3649
29,4434
29,4709
29,4817
30,44
30,250
30,1004
30,1139
30,1189
30,1444
30,1997
30,2257
30,2920
30,3151
30,3630
30,4043
31,4604
32,287
32,625
32,1065
32,1970
32,2601
32,3580
32,4976
33,2324
33,4472
34,4765
34,4984
36,1527
36,1592
36,3270
37,1356
37,2597
38,155
38,1904
39,734
39,4633
40,2
40,355
40,364
40,402
40,505
40,754
40,992
40,1007
40,1100
40,1139
40,1405
40,1431
40,1589
40,1608
40,1808
40,2165
40,3277
40,3402
40,4114
40,4499
41,129
41,520
41,618
41,667
41,717
41,1065
41,1379
41,1452
41,1615
41,2294
41,2637
41,3656
41,3783
41,4620
41,4741
41,4780
41,4823
45,332
45,940
45,1454
45,1995
45,3581
45,4206
45,4560
46,2287
48,3852
48,4075
49,203
49,2379
50,203
50,1598
50,2561
50,2738
50,3232
50,4776
51,169
51,387
51,558
51,637
51,1199
51,1437
51,1571
51,2094
52,141
52,1766
53,655
53,801
53,3267
53,3746
54,44
54,338
54,646
54,761
54,979
54,1582
54,2122
54,2699
54,2837
54,3016
54,3422
55,432
55,1101
55,1309
55,1486
55,2086
55,2597
55,2831
56,477
56,799
57,348
57,498
57,501
57,986
57,1823
57,1875
57,2838
57,3172
61,1191
62,899
62,1003
62,2128
62,2892
62,4445
63,884
63,1139
63,2694
63,3543
63,3800
63,3903
63,4931
64,915
64,2163
64,3012
64,4664
65,801
67,781
67,3270
68,4407
70,2885
70,3424
70,3754
71,324
71,892
71,1916
71,3880
71,4185
71,4559
72,127
72,3120
72,3737
72,3849
72,4186
72,4348
72,4776
74,560
74,868
74,2517
74,2845
74,3192
74,4120
74,4520
76,137
76,231
76,510
76,914
76,1400
76,2328
76,2457
76,2597
76,2696
76,3022
76,3687
76,4393
78,538
78,781
78,1096
78,1180
78,1679
78,1760
78,3405
78,4285
78,4286
78,4893
81,90
81,4325
83,634
83,1799
83,2702
83,3749
84,244
84,503
84,597
84,3447
85,4799
86,287
86,342
86,394
86,545
86,560
86,700
86,1109
86,1141
86,1514
86,2384
86,3302
86,3547
86,3674
86,4634
86,4776
86,4923
87,1571
88,2340
88,2700
88,3790
89,267
89,402
89,557
89,1245
89,3081
89,3139
89,3772
89,3907
89,4293
89,4497
89,4604
95,402
95,1013
95,1255
95,1679
95,1905
95,2397
95,2961
95,3200
95,3674
96,132
96,166
96,1531
96,2319
96,3110
96,3434
97,229
97,895
97,3032
97,4417
99,319
99,1850
99,2922
99,3816
99,4159
100,2
100,69
100,118
100,147
100,185
100,267
100,682
100,936
100,1199
100,1290
100,1619
100,2178
100,2353
100,3120
100,4443
101,1328
101,2289
102,2597
102,4330
103,149
103,634
103,1037
103,1740
103,1764
103,1978
103,3215
103,3418
103,3800
105,85
105,1116
105,1323
105,1451
105,2885
105,3798
105,4782
109,2003
109,4010
110,472
110,515
110,927
110,952
110,2384
110,4585
111,73
111,472
111,770
111,1192
111,1500
111,2426
111,2772
111,3006
111,3180
111,4208
111,4370
117,2385
117,4322
117,4531
120,69
120,141
120,1797
120,1808
120,2367
120,3484
121,790
121,827
121,2797
122,44
122,207
122,252
122,2742
122,3122
122,4776
125,510
125,2346
126,1571
126,1906
128,3754
131,1710
131,1730
133,4518
134,90
134,235
134,789
134,1296
134,3376
134,3689
134,4512
134,4861
135,162
135,261
135,4593
135,4881
136,1036
136,2900
136,3277
136,3326
136,3680
139,1173
139,3310
140,185
140,279
140,864
140,2266
140,2525
140,2526
140,4062
140,4875
141,1178
143,241
143,462
143,2539
143,2729
143,3761
144,2713
144,3463
145,952
145,1192
146,1813
146,4200
150,224
150,1042
150,2294
150,2537
150,4524
150,4976
150,4996
151,4533
152,121
152,1794
153,35
153,1513
153,1797
153,2870
153,3766
153,4141
153,4567
154,2
154,1189
154,1731
154,3032
155,44
155,912
155,1019
155,1211
155,1551
155,2738
155,3622
155,4567
157,1817
157,3591
158,284
158,372
158,438
158,1189
158,1307
158,1812
158,1954
158,2200
158,2628
158,2668
158,4224
158,4267
158,4814
158,4919
159,563
159,1319
162,731
162,786
162,1063
162,1401
162,2050
162,2947
162,3193
162,3896
162,4059
165,273
165,792
165,2892
166,1017
167,1519
167,2790
167,3845
168,34
168,4496
170,235
170,877
170,901
170,1362
170,1607
170,1852
170,2806
171,283
171,623
171,1374
171,1431
171,1857
171,3067
171,3175
171,4491
172,2
172,924
172,1235
172,2379
172,3016
172,3750
172,4367
176,374
176,1465
176,2201
176,4693
178,875
178,951
178,994
178,1000
178,1730
178,1849
178,2073
178,2138
178,2180
178,2211
178,3048
178,3069
178,3108
178,3755
178,3952
178,4832
179,386
179,481
179,786
179,2149
179,4212
180,506
180,1164
180,2511
180,3087
180,3139
181,1656
181,2266
181,2734
182,802
182,1139
183,2905
183,4346
187,42
187,446
187,1430
187,2780
187,3368
187,4915
188,1036
188,1794
188,2866
188,3607
189,727
190,634
190,1534
190,1970
190,2262
190,3145
190,3277
190,3414
190,3498
190,4140
190,4257
190,4980
191,811
191,1731
191,2038
191,3400
195,438
195,1185
196,914
196,1590
198,247
198,289
198,349
198,374
198,408
198,589
198,762
198,825
198,1017
198,1065
198,1666
198,1862
198,3197
198,3629
198,3772
198,4764
201,490
201,563
201,1779
204,194
204,3663
204,4330
205,1454
206,4073
208,199
208,1577
208,3904
210,364
210,377
210,1663
210,1912
210,3385
210,3439
210,3479
211,79
211,82
211,349
215,1742
217,3147
220,169
220,227
220,1185
220,2167
220,2485
220,3095
220,3277
221,8
223,44
223,786
223,1601
223,2307
223,2954
223,3012
223,3364
223,3895
223,4753
223,4958
224,1347
225,927
226,2
226,1797
226,3463
226,4079
229,994
229,1736
229,1988
229,2943
229,3492
229,3670
229,3711
229,4767
229,4909
230,2862
233,10
233,98
233,914
233,1255
233,3651
233,4367
234,1731
235,238
235,1859
236,1
236,166
236,1272
238,3280
239,2250
240,501
240,666
240,1519
240,1716
240,1797
240,2990
240,4059
240,4259
240,4335
242,3920
243,193
243,1347
243,3664
243,4010
243,4962
245,3373
248,2603
248,3463
251,85
251,1559
251,2267
251,3387
251,4206
252,4816
255,2219
256,1409
256,2287
257,819
257,4171
258,35
258,975
258,2052
258,3052
260,2375
260,2503
260,3130
260,3998
260,4245
262,44
262,533
262,865
262,964
262,1006
262,1185
262,1864
262,2979
262,3171
262,3479
262,3498
262,3845
262,4455
262,4877
264,1631
264,3447
265,1340
265,4376
266,10
266,93
266,377
266,2607
266,3362
267,1828
274,3384
274,3401
275,718
276,1990
278,118
278,1875
278,2605
281,909
281,2836
282,593
282,827
282,1052
282,1515
282,1532
282,1604
282,2003
284,2108
284,4777
285,597
285,1245
285,1794
285,2294
285,2374
288,4327
290,1421
290,1873
290,2082
292,1163
294,1277
295,162
295,788
295,975
295,1800
295,2801
295,4516
295,4559
298,634
298,647
298,1012
298,1115
298,3508
298,3945
298,4418
299,133
299,142
299,863
299,2110
299,3060
299,3624
299,3729
299,4775
299,4972
300,1631
300,3319
300,3498
301,2008
302,1608
302,1629
302,1793
302,1871
302,1937
302,2764
305,177
305,245
305,718
305,1321
305,1802
305,1903
305,2084
305,2140
305,2249
305,2302
305,2548
305,3639
305,4014
305,4576
305,4870
306,129
307,673
307,3084
307,4319
307,4808
307,4944
308,250
308,4393
309,704
309,975
309,1223
309,1386
309,1515
309,1804
309,2180
309,2862
309,2894
309,3277
309,3282
309,3567
309,4512
310,1834
310,3781
311,1794
312,392
312,2080
312,3709
313,490
313,653
313,1206
315,359
315,2831
316,971
316,1540
316,1642
316,3447
317,3287
317,4780
318,4306
320,142
320,169
320,240
320,355
320,993
320,1742
320,2202
320,3228
321,2297
321,2348
321,2484
321,2499
323,40
323,91
323,217
323,464
323,1393
323,1539
323,3923
323,4395
323,4707
323,4725
323,4989
324,440
324,445
324,871
324,1607
325,115
325,1258
325,3370
327,3516
327,3761
328,69
328,894
328,993
328,1458
328,1558
328,1609
328,1939
328,4195
328,4330
328,4605
331,2482
331,2538
332,23
332,28
332,250
332,552
332,636
332,851
332,1058
332,1222
332,1257
332,1368
332,1521
332,1567
332,3269
332,3282
332,3880
332,4451
332,4526
332,4976
333,1100
333,1201
333,3079
333,3649
334,367
334,371
334,508
334,1839
334,2730
334,3014
334,3369
334,4388
335,968
335,1058
335,1071
335,2021
335,2551
335,3275
335,4125
335,4709
336,139
336,890
336,967
339,440
339,446
339,509
339,900
339,1327
339,1637
339,2390
339,3079
339,3297
339,3317
339,3498
339,4190
339,4260
340,250
340,501
340,616
340,1248
340,1328
340,1847
340,2001
340,2646
340,2729
340,3410
340,3977
340,3979
340,4279
340,4897
341,644
341,674
341,1746
341,1894
341,2177
341,2513
341,2766
343,646
344,231
346,1138
346,1319
346,1371
346,2082
346,3342
349,601
349,632
349,902
349,1566
349,2008
349,3118
350,1608
350,1633
350,4662
351,1679
353,424
353,1245
353,2479
353,2512
354,3907
357,590
357,955
357,1805
357,2235
358,1981
360,329
360,1027
360,1379
360,1417
360,1691
360,1861
360,3189
360,3292
360,3510
362,3484
363,69
363,2169
363,3122
365,106
365,748
366,670
366,863
368,4784
369,1716
369,4335
369,4743
370,296
370,503
370,792
370,4984
375,267
377,82
382,471
382,602
382,689
382,924
382,2036
382,2384
386,301
386,380
386,1100
386,1586
386,2570
386,2729
386,2776
386,2948
386,3378
386,4684
387,1755
387,1987
387,3738
388,3231
389,244
389,324
389,510
389,860
389,900
389,914
389,1180
389,1647
389,1922
389,2179
389,2294
389,2601
389,4004
389,4650
390,2487
390,2845
390,4895
393,277
393,504
393,589
393,1000
393,1025
393,1169
393,3287
393,4460
396,166
396,3806
397,3463
397,4862
398,1756
398,2431
399,42
399,124
399,563
399,1021
399,1545
399,2060
399,2435
399,2464
399,2796
399,4275
399,4331
399,4402
400,287
400,463
400,1296
400,1310
400,2166
400,2367
400,4307
402,66
402,585
402,927
402,1191
402,2387
402,2673
402,2813
402,4130
402,4740
403,193
403,240
403,1835
404,416
404,2179
404,2288
404,2918
405,250
405,510
405,1353
406,1165
406,1923
406,2480
406,2512
407,440
407,3654
411,495
411,801
411,1185
411,1731
411,1764
411,2240
411,2671
411,3899
411,3912
414,3026
414,3460
414,4067
415,931
415,1284
415,2082
415,3122
415,3277
415,4952
416,4078
417,1864
417,2263
417,3665
419,408
421,44
423,344
423,2233
425,519
425,3267
427,44
427,1959
427,2606
427,3392
427,4685
429,3554
430,216
430,463
430,490
430,544
430,1231
430,1259
430,1387
430,1762
430,2147
430,2297
430,2375
430,2692
430,3820
430,3952
430,4176
430,4205
430,4567
431,1679
431,3041
431,3493
433,12
435,123
435,289
435,508
435,827
435,1266
435,1451
435,1870
435,1985
435,2767
435,3277
435,3642
435,3993
436,1024
436,1995
436,2437
436,3262
436,4094
436,4159
436,4174
439,1679
439,3524
442,917
442,4034
442,4407
444,148
444,2541
445,1670
445,4285
446,163
446,314
446,578
446,1371
446,1595
447,219
447,273
447,2522
448,2236
449,233
449,516
449,620
449,1172
449,1178
449,1407
449,1746
449,2240
449,2919
449,4794
450,2924
451,1245
451,3104
453,825
453,939
453,1067
453,1180
453,1508
453,2069
453,2173
453,2208
453,2915
453,3415
453,4356
455,119
458,1147
458,1430
458,2438
458,3139
458,4343
459,502
459,768
459,952
459,1129
459,1150
459,1199
459,1269
459,1714
459,1762
459,2078
459,2112
459,2472
459,2648
459,2650
459,2868
459,3137
459,3203
459,3401
459,3543
459,3553
459,3889
460,1452
461,193
461,939
461,1467
461,1970
461,3423
461,3431
463,35
463,601
463,745
463,900
463,1293
463,1512
463,1800
463,1903
463,2091
463,2124
463,2216
463,2671
463,3042
463,3670
463,3915
463,4759
463,4923
465,2960
465,4799
466,2266
466,2488
466,3921
466,4702
467,224
469,296
469,487
469,768
469,992
469,1025
469,1033
469,1072
469,1919
469,1935
469,2304
469,2597
469,2624
469,3356
469,3358
469,4005
469,4220
469,4676
469,4693
469,4743
469,4915
470,374
470,544
470,604
470,3620
470,3896
473,446
473,2650
476,69
476,1007
476,1402
476,2142
476,3455
476,3778
478,1679
481,69
481,718
481,832
481,1061
481,1076
481,1177
481,1189
481,1223
481,1627
481,1992
481,2799
481,3060
481,3069
481,3647
481,3799
481,4458
481,4482
481,4656
481,4811
482,4407
484,1538
484,1667
484,1988
484,2742
485,2555
488,2003
489,713
489,1684
489,3291
490,2
490,52
490,1992
490,3277
492,2331
492,2519
492,4499
494,312
496,1166
496,1174
496,1229
496,1255
496,1340
496,1907
496,2540
496,3553
496,3680
496,3880
496,3892
496,4977
497,768
497,1990
497,1992
497,3019
499,115
499,1108
499,1445
499,1857
499,2726
499,3462
499,3820
501,401
501,1848
501,2003
509,1388
511,193
511,412
512,3292
513,1076
513,2786
517,133
520,529
520,2845
520,2986
520,4330
522,2973
524,147
524,2356
524,2715
525,224
526,4145
527,145
527,250
527,456
527,1191
527,1418
527,1873
527,3518
527,4604
528,2130
528,2247
528,4523
530,3120
530,3709
531,79
531,1988
534,3907
534,3975
535,446
535,844
535,1863
535,3519
537,3152
537,3267
537,3277
538,914
540,4480
541,2782
541,2892
541,4567
542,138
542,322
542,899
542,4180
542,4472
543,391
543,544
546,245
546,472
546,633
546,949
546,1286
546,1381
546,1583
546,2369
546,2491
546,3538
546,4907
548,2096
550,646
550,849
550,981
550,1015
550,1231
550,1317
550,1496
550,1522
550,2003
550,4759
551,324
552,4000
555,970
556,372
559,203
559,779
559,991
559,1080
559,1191
559,1289
559,1812
559,2364
559,2570
559,3020
559,3092
559,3178
559,3384
559,3741
559,3772
559,4989
561,380
561,1188
562,952
562,3567
564,371
565,1787
565,2010
566,648
566,1406
566,2661
566,3800
570,312
571,4290
572,81
572,2323
573,1596
573,2241
574,1633
574,4480
576,3237
577,2201
577,3253
577,3880
580,1319
580,2678
580,3542
580,3920
581,69
581,1461
581,1667
581,3446
582,1125
582,1359
582,1564
582,4780
585,3506
587,392
587,1733
587,4407
587,4701
588,371
588,2180
588,3686
591,584
591,774
591,2674
591,2831
591,4567
592,2
592,1429
592,1923
592,2396
593,2218
594,4257
595,638
595,1966
595,2599
595,3923
595,4190
596,1857
596,1864
596,3204
597,367
597,1672
597,2010
597,3400
597,3446
597,3474
598,446
598,993
598,1784
598,2541
598,2949
598,4603
599,119
599,2456
599,4325
600,402
600,1794
600,3774
603,151
603,2785
603,4452
605,3069
609,270
609,1245
609,4913
610,34
610,155
610,379
610,813
610,861
610,1319
610,1607
610,2078
610,3598
610,3942
610,4428
610,4729
610,4982
612,1766
615,197
615,1080
615,4393
617,367
617,3277
619,604
619,754
619,1161
619,1326
619,1542
619,1734
619,3122
619,3498
619,3991
619,4693
622,1797
622,3163
624,408
624,1991
624,2519
624,3131
624,4636
624,4707
630,3800
634,438
634,1191
636,567
637,1295
637,2859
639,601
639,1017
639,1679
639,1725
639,4206
641,166
641,472
641,1314
641,1796
641,1836
641,2946
641,3864
641,4125
642,35
643,1120
643,2294
643,2863
645,52
645,237
645,374
645,662
645,1173
645,1667
645,1956
645,2115
645,2512
645,3351
645,3699
645,4159
646,951
646,1522
646,3382
646,3958
649,407
649,983
649,3758
649,4504
650,939
650,4152
651,35
651,2294
651,2784
652,177
654,1111
654,4510
656,664
656,2538
657,3237
658,1076
658,2776
658,2845
658,3543
660,216
660,564
660,597
660,1081
660,1821
660,1882
660,2100
660,2413
660,3260
660,4202
660,4480
661,454
661,717
661,3908
663,17
663,625
663,920
663,1970
663,2031
663,2047
663,2087
663,2223
663,2386
663,3277
663,3943
663,4517
663,4755
664,115
664,247
664,329
664,1346
664,1867
664,2322
664,2374
664,2597
664,3104
664,4836
665,186
665,812
668,50
668,662
668,991
668,1042
668,1266
668,2710
668,2874
668,3067
668,3572
668,3791
668,3993
668,4767
669,118
669,367
669,1679
669,1990
669,2043
669,2084
669,2697
669,2779
669,3855
670,1539
671,629
671,669
671,1366
671,1679
671,2498
671,2611
671,3014
671,3618
671,3958
671,4281
671,4785
672,613
672,3124
675,90
675,130
675,324
675,713
675,1990
675,3247
675,3315
675,3567
675,3571
675,4115
675,4213
675,4480
677,162
677,173
677,293
677,301
677,459
677,469
677,775
677,1053
677,3130
677,3705
677,4708
678,141
678,267
678,441
678,477
678,503
678,601
678,885
678,1159
678,3761
680,440
680,1237
681,4915
683,801
685,662
685,1571
686,12
686,263
686,392
686,412
686,827
686,928
686,1473
686,1486
686,4062
686,4109
686,4420
687,731
687,1254
687,2183
687,3649
691,4567
692,73
692,801
692,923
692,1449
692,2701
692,3689
694,175
694,773
694,2036
694,4489
695,34
695,693
696,247
696,1803
696,3128
697,42
697,139
697,162
697,193
697,623
697,1372
697,2396
697,4132
697,4904
698,4709
699,361
699,2602
699,3378
699,4136
699,4345
702,454
703,940
703,1629
703,1768
703,3761
703,4767
706,715
706,939
706,1326
706,2605
706,4433
707,312
707,1571
707,1857
707,3143
708,648
708,2776
709,1025
710,1470
710,4472
711,993
712,4219
713,483
713,567
713,869
713,1421
716,142
716,412
716,902
716,1391
716,1654
718,3101
718,3498
719,626
719,1111
720,731
721,1428
721,3267
721,4180
724,2845
725,307
726,40
726,77
726,1120
726,1165
726,1761
726,3761
726,4180
728,745
728,1245
728,4206
729,586
731,518
731,1020
731,2455
731,2883
731,4711
731,4881
732,69
732,2327
732,3376
733,529
733,4959
735,273
735,1477
735,2823
735,4624
736,2832
736,4335
736,4501
737,2375
737,4353
738,2294
739,518
739,922
739,2029
739,2854
739,2897
739,4864
741,1595
741,2106
741,2278
741,3195
741,4071
743,203
743,1053
744,66
744,267
744,795
744,1163
744,3029
744,3300
744,3621
744,3843
747,4383
749,446
749,4215
750,2191
751,763
751,3389
755,1100
755,1101
755,3293
755,4133
755,4428
755,4864
755,4929
758,69
758,203
758,1075
758,1551
758,1648
758,2175
758,2329
758,2726
758,3072
758,3110
758,3559
758,3754
758,4512
758,4897
759,203
759,2591
760,35
760,955
760,2268
760,3479
760,3822
765,296
765,2964
766,3081
769,1065
769,1443
769,2314
769,4430
770,768
770,1533
770,4993
771,1437
771,1835
772,1431
772,2734
772,3610
772,4260
774,1760
774,2085
774,2289
774,3787
774,4874
774,4934
776,272
776,4214
776,4606
777,636
777,2195
778,623
782,3351
784,194
784,378
784,477
784,802
784,1678
784,2259
784,2614
784,4381
785,991
785,3130
785,4657
786,509
786,614
786,1220
786,1401
786,1731
786,2278
786,4118
786,4235
786,4356
787,115
791,446
791,1120
791,2597
792,3567
793,402
794,1214
796,52
796,803
796,939
796,1309
796,2990
796,3275
796,3563
798,498
798,1538
798,1858
798,1926
801,177
801,385
801,446
801,602
801,914
801,952
801,1111
801,1139
801,1464
801,2198
801,2234
801,3484
801,3800
801,4073
801,4881
802,4759
803,1303
803,1731
805,1783
805,2008
806,1422
806,1542
806,2786
806,3700
806,4211
806,4316
806,4564
809,112
809,1815
809,2085
809,3712
809,4035
809,4330
809,4371
810,166
810,717
810,1311
810,1353
810,1582
810,4891
813,104
813,4685
814,575
814,1111
814,1231
814,2508
814,3372
817,4593
818,380
818,2989
821,498
821,981
821,1573
821,3688
821,4330
821,4489
822,2863
823,270
823,958
823,2153
823,2400
823,2416
823,2774
823,4331
824,1988
824,4904
826,988
826,1779
826,3880
829,923
829,3700
829,4124
832,60
832,1629
833,181
833,1173
833,1431
833,1731
833,2768
833,4085
834,477
834,1679
834,2613
834,4255
835,3993
838,601
838,1520
838,2212
838,2219
838,2484
839,475
839,1774
839,3463
840,2900
841,489
841,927
841,1321
841,3591
841,3761
841,4684
845,696
846,1089
846,2196
848,402
848,623
848,674
848,1733
848,2013
848,2438
848,3872
850,1287
850,3824
850,4450
851,116
851,3014
851,4231
852,780
852,1006
852,1522
852,1760
852,2037
852,2523
852,3145
852,3533
852,3540
852,3990
852,4407
852,4861
853,56
853,218
853,468
853,560
853,634
853,726
853,1075
853,1165
853,1422
853,1781
853,2931
853,3683
853,3800
855,1730
856,1191
857,169
857,1886
857,4759
858,12
858,1245
858,3016
859,192
859,607
859,4236
861,4059
862,579
862,712
862,2128
862,4161
863,479
867,3544
867,4076
870,35
870,263
870,1085
870,2392
870,2707
870,3500
870,4581
874,34
874,3601
876,2845
876,4681
878,34
878,1112
878,1614
878,2289
878,3122
878,4963
884,355
886,3292
887,1450
887,1945
887,3384
887,4861
887,4973
888,880
888,2899
888,3299
891,640
891,939
891,1177
891,1756
891,2142
891,2253
892,203
893,718
893,1441
894,159
894,1864
894,4180
896,1608
896,1725
897,4515
898,864
901,52
903,23
903,263
903,1094
903,1177
903,1191
903,1970
903,4330
904,44
905,939
907,115
907,312
907,1430
907,2536
907,3923
907,4681
908,252
908,1679
911,3122
912,1011
912,2129
912,2239
913,812
916,440
918,240
918,4776
920,3339
921,1313
921,1468
923,2568
926,272
926,2267
927,1384
927,1394
927,1399
927,2064
927,2215
927,2572
927,2658
927,3015
927,3611
929,279
931,2246
931,3071
932,224
932,227
932,912
932,1590
932,2615
932,2976
932,3130
932,3700
933,754
933,2118
933,3995
934,621
935,505
935,1026
935,1185
935,1463
935,1744
935,2104
935,3993
935,4330
935,4838
936,1732
936,3031
936,4205
936,4655
939,3139
942,283
942,954
943,147
943,279
943,446
943,501
943,1010
943,1139
943,1201
943,1484
943,1815
943,2165
943,2597
943,3439
943,3819
943,4393
943,4467
944,518
944,801
945,653
945,1027
945,1295
946,4572
947,4298
950,2962
950,3567
950,3910
950,4858
953,410
955,263
956,326
956,1888
956,3985
956,4207
956,4387
956,4480
956,4527
957,602
959,570
960,1178
960,1191
960,4109
960,4782
961,662
961,1283
961,1989
961,2089
961,3458
961,3683
962,512
962,567
963,2003
963,2090
963,3809
963,4798
965,3277
966,666
966,3882
966,4180
968,271
968,2363
968,3378
969,742
971,2927
971,3425
971,4180
973,130
973,409
973,544
973,1515
973,1912
973,2855
973,4245
973,4383
973,4719
973,4989
974,96
974,267
974,599
974,717
974,1201
974,1437
974,2449
974,3891
974,4922
976,1013
976,1553
976,4356
976,4361
976,4383
976,4587
977,2322
978,85
978,247
978,1443
978,2353
978,3771
978,3880
980,2792
983,2071
983,2597
984,727
984,1691
984,3907
985,1942
985,3568
985,3712
985,4963
987,3040
989,3558
995,877
995,1687
995,1818
996,1295
996,2664
996,4512
998,2753
998,2978
998,4631
999,548
999,629
999,1416
999,3042
1000,1519
1001,440
1001,2376
1001,2892
1001,4097
1002,1167
1002,2093
1002,4400
1003,2442
1005,1091
1005,1663
1005,2831
1008,2053
1009,994
1013,4526
1016,570
1016,1234
1016,2010
1016,2982
1018,459
1021,3834
1022,4327
1024,173
1024,267
1024,1049
1024,1628
1024,1735
1026,2256
1028,177
1029,2210
1029,3986
1030,194
1030,1157
1030,1245
1030,1795
1030,2311
1030,4717
1030,4859
1031,194
1031,548
1031,723
1031,984
1033,1917
1033,3320
1033,3616
1033,4651
1035,636
1035,1104
1037,748
1037,1794
1037,3422
1037,3598
1037,3951
1037,4743
1038,17
1038,992
1038,1794
1038,3252
1038,3456
1038,3559
1038,4472
1039,227
1039,1201
1039,3128
1039,3887
1039,4012
1040,1004
1040,2010
1041,217
1041,2485
1043,203
1043,1309
1043,3625
1044,623
1044,3292
1044,4187
1045,228
1046,445
1046,1316
1046,2196
1046,4851
1047,1258
1050,521
1050,939
1050,1532
1050,2183
1052,902
1052,1802
1055,1386
1055,2289
1057,601
1057,4132
1059,607
1059,3539
1060,355
1060,498
1060,1210
1060,2273
1060,3243
1064,44
1064,193
1064,1008
1064,2117
1064,2226
1064,3451
1065,579
1065,4732
1068,245
1068,1313
1068,3820
1068,4045
1068,4346
1068,4976
1069,1990
1073,472
1074,1277
1074,1702
1074,2786
1074,4776
1077,1928
1077,2552
1078,4685
1080,349
1080,2820
1081,1290
1081,2476
1081,2776
1081,2940
1082,610
1082,3326
1083,263
1083,1156
1083,1189
1083,1586
1083,2587
1083,4373
1084,510
1084,4911
1088,1134
1088,1486
1089,283
1089,567
1089,644
1089,1564
1089,3644
1089,4862
1091,947
1091,4031
1095,3130
1096,2144
1096,2887
1098,2294
1099,336
1102,49
1102,901
1102,2951
1103,3493
1103,3683
1104,757
1104,2614
1105,381
1105,1178
1105,1888
1106,2058
1106,2972
1106,4335
1107,1730
1109,124
1109,219
1109,442
1109,1051
1109,4714
1110,1093
1110,2372
1110,3484
1113,3110
1113,4566
1114,534
1114,4692
1117,664
1117,768
1117,1579
1117,3516
1118,107
1118,629
1118,1356
1118,3923
1119,322
1119,544
1119,2204
1119,2249
1119,4051
1119,4805
1120,4833
1121,40
1121,77
1121,82
1121,192
1121,259
1121,349
1121,539
1121,1482
1121,3514
1121,3683
1121,3781
1121,3914
1121,4862
1123,942
1123,3224
1123,4321
1127,682
1128,1692
1128,3972
1128,4859
1130,1
1130,82
1130,1401
1130,2371
1130,3268
1130,3834
1130,4465
1133,69
1133,1547
1133,1784
1133,2705
1133,3987
1133,4356
1133,4412
1135,2
1135,1487
1135,1787
1135,3369
1136,1191
1137,142
1137,872
1137,1217
1137,1354
1137,1697
1137,1934
1137,4260
1140,247
1141,1245
1141,2575
1142,1103
1144,73
1144,4294
1145,469
1145,1097
1145,4971
1148,244
1148,4449
1149,91
1149,1561
1149,1647
1150,1161
1150,1458
1150,2260
1150,3277
1150,3665
1151,106
1152,49
1152,1231
1152,1327
1152,1797
1152,2706
1152,3386
1152,3546
1152,3700
1152,4385
1152,4693
1153,1532
1153,4234
1154,3287
1157,764
1157,1904
1158,323
1160,1185
1167,490
1169,249
1169,361
1169,383
1169,485
1169,754
1169,1551
1169,2384
1169,3700
1169,4066
1170,24
1170,4711
1171,452
1171,950
1171,1938
1171,2208
1171,3831
1172,2056
1176,166
1176,3462
1176,4089
1176,4200
1178,722
1178,1000
1178,1988
1179,734
1179,1090
1179,1875
1179,3039
1180,162
1180,245
1180,722
1180,1214
1180,1854
1180,2427
1181,2755
1181,3016
1182,2036
1183,647
1183,3605
1184,3136
1184,3180
1187,1163
1190,441
1193,674
1194,42
1194,193
1194,244
1194,3503
1195,1048
1195,1178
1195,4078
1196,2218
1197,173
1197,501
1197,2879
1200,118
1200,843
1200,2603
1200,3409
1200,4016
1202,374
1204,2799
1205,2331
1205,4629
1206,880
1206,1186
1206,1353
1206,1400
1206,2519
1206,3384
1206,3468
1212,636
1214,129
1214,4744
1216,3834
1219,244
1219,722
1219,3882
1220,115
1220,213
1220,727
1220,4206
1221,1260
1221,1682
1224,634
1224,655
1224,1797
1224,1839
1224,3378
1225,192
1225,616
1225,730
1225,783
1225,1178
1225,2135
1225,2216
1225,2516
1225,4392
1227,972
1227,2299
1227,3398
1227,4160
1230,247
1232,192
1232,1018
1232,1522
1232,4567
1233,2892
1235,1200
1238,202
1239,253
1242,1353
1242,1751
1242,2613
1242,2658
1243,445
1243,4143
1244,209
1246,491
1247,61
1250,4214
1251,949
1252,899
1252,3016
1253,2426
1253,4952
1256,24
1256,1392
1258,426
1258,1428
1258,2479
1258,2729
1258,2933
1258,3250
1258,3772
1258,3931
1258,4368
1261,121
1261,950
1262,992
1262,3447
1262,3548
1263,1177
1263,2882
1264,1024
1267,529
1267,3032
1268,228
1268,249
1268,279
1268,312
1268,626
1268,648
1268,682
1268,693
1268,731
1268,914
1268,997
1268,1063
1268,1229
1268,1553
1268,2075
1268,2296
1268,2337
1268,2377
1268,2964
1268,3033
1268,3495
1268,4222
1268,4287
1268,4402
1268,4733
1268,4976
1270,900
1271,884
1271,1912
1272,155
1272,448
1273,839
1273,989
1273,3493
1273,4697
1274,441
1276,81
1276,2731
1277,214
1277,2544
1278,1857
1278,4278
1279,3602
1279,4073
1279,4330
1280,193
1280,224
1280,1512
1280,2734
1280,3522
1280,3861
1281,123
1283,3524
1283,3616
1283,3838
1285,812
1285,3670
1288,283
1288,2582
1290,1894
1290,2082
1290,3422
1290,3526
1291,277
1291,1939
1291,2850
1292,373
1292,3474
1292,3754
1294,3012
1294,4501
1295,669
1297,1108
1297,1175
1298,250
1298,1503
1298,4219
1299,203
1299,413
1299,503
1299,623
1299,1807
1302,623
1304,2971
1306,660
1307,529
1307,865
1307,895
1307,1377
1307,1818
1307,3778
1307,4375
1308,283
1308,514
1312,567
1312,4236
1313,3601
1315,51
1315,952
1315,3759
1318,669
1319,347
1320,383
1320,2267
1320,4363
1322,169
1322,1393
1322,2917
1322,3292
1324,1185
1325,504
1329,3680
1329,4459
1330,567
1330,722
1330,2743
1330,3012
1331,1147
1332,1085
1332,1376
1332,4759
1335,4672
1336,1437
1336,2753
1336,3451
1338,4393
1340,478
1340,584
1341,448
1341,1436
1344,1542
1344,1679
1344,1766
1344,2217
1344,2314
1344,2336
1344,2996
1344,3432
1345,1333
1345,2085
1348,625
1348,4260
1350,329
1351,1993
1351,4976
1352,61
1352,682
1352,1981
1352,2162
1353,1910
1355,715
1358,1797
1358,2024
1358,4319
1362,138
1362,682
1362,1032
1363,193
1363,1825
1363,2112
1363,3229
1363,4041
1363,4206
1364,4034
1364,4346
1365,740
1365,1970
1366,1296
1367,283
1370,676
1373,676
1373,2222
1373,2729
1373,3378
1375,563
1378,629
1381,3133
1382,825
1383,408
1386,237
1386,2863
1389,1797
1389,3546
1390,312
1391,448
1391,673
1391,1850
1391,2324
1391,2484
1391,2860
1391,3315
1391,3597
1391,4499
1394,93
1394,568
1394,1340
1394,3586
1394,4064
1396,1485
1396,1516
1396,2010
1396,2324
1397,1987
1397,2294
1398,59
1398,77
1398,268
1398,287
1398,532
1398,727
1398,1265
1398,1481
1398,4272
1400,4175
1401,1191
1401,2890
1402,868
1408,162
1410,2072
1410,4180
1411,173
1414,12
1415,464
1415,583
1415,2251
1415,2960
1420,2122
1420,2990
1420,2992
1420,3801
1423,634
1423,1062
1425,2784
1426,332
1426,638
1426,859
1426,1404
1426,1629
1426,2046
1426,2559
1426,2821
1426,2884
1427,634
1427,1421
1427,1738
1429,1813
1431,387
1431,1434
1431,1454
1432,329
1432,789
1432,1747
1433,193
1435,1871
1435,2337
1435,4693
1435,4759
1437,4693
1438,1372
1439,3439
1442,1007
1446,503
1447,235
1448,364
1448,783
1448,1104
1448,1191
1448,1988
1448,2757
1448,2824
1448,3846
1448,4937
1449,1101
1450,2058
1455,1139
1456,2213
1456,2768
1456,3670
1456,4145
1457,1386
1457,2165
1460,1265
1460,3169
1460,3426
1462,1390
1462,2652
1463,3970
1463,4253
1465,2051
1467,701
1467,3959
1469,1797
1470,1264
1470,1744
1471,3032
1474,498
1474,993
1474,2218
1474,2294
1474,2447
1474,4775
1475,4997
1476,1094
1478,503
1478,1708
1478,2848
1478,3754
1479,4407
1479,4672
1481,380
1488,82
1488,547
1488,554
1488,873
1488,2007
1488,4335
1488,4813
1489,3485
1489,4346
1490,4881
1491,1290
1492,4707
1493,1141
1493,2282
1493,2790
1495,326
1495,1289
1495,4644
1497,4976
1498,2566
1499,379
1501,1905
1501,2863
1502,1115
1502,2294
1505,3020
1506,1021
1506,2749
1506,3487
1506,4557
1506,4949
1507,4780
1508,44
1510,115
1510,181
1510,552
1510,1254
1510,1528
1510,1579
1510,1783
1510,2130
1510,3993
1510,4180
1511,412
1511,2127
1515,469
1516,542
1518,1227
1518,2346
1518,3227
1522,69
1522,3929
1523,1138
1524,1333
1525,874
1525,4288
1526,1026
1529,59
1529,3337
1529,4918
1532,1199
1532,1546
1532,1680
1532,2747
1532,2994
1532,3015
1532,3962
1534,1648
1534,1749
1535,193
1536,508
1537,91
1537,345
1537,604
1537,718
1537,3205
1537,3852
1537,4551
1538,886
1538,931
1538,991
1538,1321
1538,1679
1541,1522
1541,3828
1541,4914
1542,23
1542,740
1543,3277
1544,355
1545,2207
1545,2213
1547,1006
1547,2011
1547,3463
1548,515
1549,523
1549,4039
1550,3649
1552,199
1552,4512
1555,861
1555,4390
1556,229
1556,1188
1556,1220
1556,1648
1556,2454
1556,2519
1556,3027
1556,3445
1556,3918
1557,1173
1557,2636
1560,1431
1560,2109
1560,2129
1560,2396
1560,2831
1562,1515
1563,330
1565,994
1566,797
1566,2702
1566,3905
1566,3975
1570,1532
1570,4759
1571,1988
1572,1026
1574,235
1574,1185
1575,567
1575,1306
1575,2531
1578,705
1580,270
1581,1096
1581,2676
1584,626
1585,1036
1585,2426
1585,3209
1585,3784
1587,538
1587,912
1587,1801
1587,2148
1587,4432
1593,503
1593,3556
1594,2384
1597,367
1600,394
1602,235
1602,817
1603,467
1603,2802
1603,3285
1605,1178
1606,949
1606,3896
1609,456
1609,693
1610,3369
1611,2967
1612,2287
1613,509
1615,940
1615,1627
1615,1679
1616,490
1616,1789
1616,1898
1617,557
1617,662
1618,982
1622,199
1622,2875
1622,3801
1623,34
1625,538
1625,1063
1630,914
1631,820
1631,1880
1631,2373
1634,1361
1635,735
1636,1486
1636,2360
1636,4934
1637,1111
1637,3808
1638,1210
1638,2297
1638,3567
1640,2546
1641,1538
1641,1569
1641,2559
1641,2964
1641,3616
1641,4356
1643,748
1643,1360
1643,2845
1643,3267
1644,501
1644,837
1644,1208
1644,1464
1644,1800
1644,3355
1645,245
1646,79
1646,2290
1646,2485
1646,3655
1649,2721
1649,2842
1649,4354
1649,4492
1650,2119
1651,1794
1651,2597
1651,3088
1651,3697
1652,4693
1653,177
1653,669
1653,1741
1653,2015
1653,2544
1653,3282
1655,90
1655,485
1655,1794
1655,3156
1655,4150
1657,202
1657,909
1657,1096
1657,1231
1657,2384
1657,3220
1657,4549
1658,669
1658,2127
1659,1881
1659,2031
1660,2334
1661,69
1661,629
1661,4852
1662,1223
1664,1139
1665,173
1665,467
1665,977
1665,2287
1665,3761
1665,4445
1668,121
1669,717
1670,4923
1671,567
1671,1094
1671,1857
1671,2201
1671,3112
1671,3163
1671,3973
1672,2153
1673,75
1673,156
1673,164
1673,446
1673,951
1673,1049
1673,1133
1673,1514
1673,1731
1673,1741
1673,1850
1673,2433
1673,2607
1673,3305
1673,3329
1673,3504
1673,3585
1673,3592
1673,3986
1673,4319
1673,4335
1673,4622
1674,60
1674,231
1674,3983
1675,3069
1675,4180
1676,2266
1677,177
1677,831
1677,4997
1678,4693
1679,534
1681,474
1682,1309
1683,1599
1684,715
1685,1988
1686,1357
1686,2189
1686,2573
1686,3102
1686,3550
1686,4602
1686,4850
1688,1547
1689,851
1691,43
1691,1797
1693,727
1693,1165
1693,1301
1694,56
1694,625
1695,2294
1696,1442
1696,2971
1697,545
1697,2512
1697,3945
1698,1519
1698,2863
1698,2946
1698,4407
1699,2831
1700,2008
1700,3968
1701,2680
1701,3351
1703,2785
1705,4903
1707,1663
1709,1185
1709,4489
1709,4863
1711,1353
1712,82
1712,1240
1712,1772
1712,2198
1712,2825
1712,3012
1712,3267
1712,3378
1712,3626
1712,4269
1713,1551
1713,2065
1713,4081
1713,4189
1715,1124
1716,3378
1716,4051
1717,1277
1719,939
1719,4910
1720,767
1720,2677
1720,3292
1720,3923
1720,4042
1721,4613
1722,894
1722,1293
1724,1820
1724,2287
1726,636
1726,637
1726,1093
1726,4681
1727,1161
1728,510
1730,193
1733,104
1733,129
1733,199
1733,250
1733,659
1733,1133
1733,1290
1733,2280
1733,2648
1733,4260
1736,775
1736,3093
1739,3446
1742,34
1742,1164
1742,2293
1745,1486
1745,3962
1748,1551
1750,633
1751,169
1751,3161
1751,3784
1752,4245
1754,701
1757,2305
1757,2799
1757,3021
1758,1661
1758,2031
1758,4314
1759,202
1759,991
1759,3284
1759,3493
1759,4206
1762,774
1762,1646
1762,4010
1762,4805
1763,34
1763,118
1764,344
1764,2563
1764,3433
1764,3840
1764,4236
1764,4909
1765,3947
1766,1958
1770,486
1770,1663
1771,1245
1771,1809
1771,3493
1773,586
1773,982
1773,2458
1773,3083
1773,3679
1775,1036
1775,2722
1776,2892
1777,1310
1777,2620
1777,4310
1778,649
1778,1794
1778,2119
1778,2133
1780,1172
1780,3277
1782,2426
1783,1737
1786,1245
1788,4200
1791,2208
1792,1369
1792,3232
1795,3772
1797,73
1797,2137
1797,4710
1799,207
1799,263
1799,2327
1799,3809
1801,2751
1801,3327
1802,218
1805,3723
1806,1258
1806,1770
1806,3740
1810,1747
1810,3376
1811,2003
1813,193
1813,949
1813,2131
1813,2794
1813,3378
1813,3775
1813,4800
1814,383
1814,1089
1814,2445
1816,260
1816,3647
1818,130
1819,2044
1826,2831
1826,3898
1827,1281
1827,2908
1827,3463
1829,4923
1830,4501
1831,473
1831,4037
1832,2010
1833,17
1837,1220
1838,653
1840,1939
1841,1421
1841,4647
1842,623
1842,768
1842,2494
1843,1333
1843,2003
1843,2429
1843,3477
1844,381
1845,3
1845,1398
1846,1546
1846,3706
1848,3060
1850,52
1850,2767
1851,270
1851,910
1853,602
1855,788
1855,4446
1856,1779
1860,1277
1860,1849
1860,4016
1860,4942
1860,4976
1863,161
1863,3637
1864,1025
1864,1463
1864,4923
1865,2790
1868,877
1869,1289
1869,2031
1872,1473
1872,1482
1872,1857
1872,2401
1872,2527
1873,412
1875,4461
1876,207
1876,1026
1877,432
1877,3758
1878,2696
1878,3677
1878,4622
1883,837
1884,1458
1885,1290
1885,1604
1885,1835
1885,3895
1885,4981
1886,108
1886,1903
1886,2299
1886,2598
1887,495
1887,2001
1889,2519
1889,3041
1890,203
1890,263
1890,825
1890,1486
1890,3933
1890,4693
1890,4865
1891,983
1891,1797
1891,3119
1891,3418
1891,4403
1892,2
1892,81
1892,93
1892,247
1892,4335
1893,949
1896,2010
1896,2116
1896,2524
1896,3719
1897,1386
1899,166
1899,4700
1900,3384
1901,666
1901,2050
1901,4206
1901,4428
1901,4948
1902,1422
1906,35
1906,993
1906,2703
1906,3285
1906,4899
1909,155
1909,277
1909,3339
1913,940
1913,1578
1913,1989
1913,2194
1913,2783
1914,3019
1914,4337
1915,4094
1918,1805
1918,4303
1919,723
1919,1168
1921,1956
1924,4916
1925,1163
1927,490
1927,623
1928,715
1928,1311
1929,417
1930,2085
1930,4546
1930,4685
1931,1421
1933,1321
1933,3012
1933,3081
1936,155
1937,1013
1937,2900
1939,635
1939,906
1939,1087
1939,2520
1939,2663
1939,3463
1940,1126
1940,1988
1940,2001
1940,4681
1941,2102
1943,1908
1944,727
1946,754
1947,1434
1948,138
1948,618
1949,408
1949,981
1949,2290
1949,2500
1949,2964
1950,1667
1951,4636
1952,516
1952,895
1953,1817
1953,2419
1955,82
1957,1916
1958,3601
1960,1063
1961,1289
1962,446
1962,3489
1963,704
1965,1651
1967,1440
1967,1601
1968,34
1968,2559
1968,3675
1969,223
1969,808
1969,1404
1969,2530
1969,4414
1969,4782
1971,682
1971,3166
1973,1934
1974,1386
1975,142
1976,1004
1976,3139
1976,3550
1977,4228
1978,3977
1979,2517
1979,2589
1980,4759
1982,1875
1983,1861
1984,1185
1985,107
1986,1059
1986,3267
1988,917
1988,1436
1990,718
1992,4953
1994,2099
1996,4976
1998,2294
1998,2399
1999,3951
2001,17
2001,346
2001,3810
2002,1300
2002,3289
2004,1428
2005,552
2005,1482
2005,3712
2008,445
2012,1316
2013,56
2013,336
2013,508
2013,572
2013,1532
2013,2132
2013,3404
2013,3767
2013,3972
2014,4602
2016,4489
2018,242
2022,868
2022,1920
2023,477
2025,1731
2025,2241
2026,2106
2026,2597
2027,1177
2030,1356
2031,24
2031,301
2031,2845
2031,3397
2033,1023
2033,2900
2033,4757
2034,2960
2035,1032
2035,1314
2036,1133
2036,1339
2039,734
2039,4946
2040,2512
2041,2308
2041,3660
2041,4010
2042,3031
2044,2528
2044,4243
2045,3867
2045,4147
2048,731
2049,623
2053,839
2053,2119
2053,2210
2053,2259
2053,2380
2054,1326
2055,544
2055,2418
2055,4999
2056,467
2057,245
2057,1679
2058,1989
2059,684
2059,780
2061,970
2061,1431
2061,1521
2061,2380
2062,1177
2066,44
2066,56
2066,151
2066,329
2066,469
2066,1713
2066,2487
2066,3169
2066,3754
2066,4597
2066,4916
2067,2324
2068,166
2068,454
2068,938
2068,4190
2071,12
2071,222
2073,52
2073,1648
2073,4861
2074,44
2074,701
2074,1065
2074,2529
2074,4047
2074,4535
2075,4335
2077,634
2077,1092
2077,2776
2077,3378
2077,4667
2079,1812
2081,4094
2082,1272
2083,4073
2088,4567
2092,2
2092,197
2092,1058
2092,2435
2092,2888
2095,861
2095,927
2095,1203
2095,1231
2095,2321
2095,4227
2095,4567
2095,4573
2096,181
2096,374
2096,1245
2096,1264
2096,1321
2096,1329
2096,1516
2096,3202
2096,3683
2096,4347
2097,529
2097,655
2097,682
2097,745
2097,3854
2098,1820
2099,1882
2099,3498
2099,3954
2100,456
2100,2707
2101,948
2101,2249
2103,118
2103,2124
2105,3772
2105,4108
2107,1007
2111,2188
2111,2927
2112,807
2112,1027
2112,1289
2112,1679
2112,3746
2113,192
2114,445
2114,773
2114,1551
2114,4685
2116,93
2116,1199
2118,181
2118,1120
2118,1599
2118,2140
2118,2481
2118,4168
2119,107
2120,1882
2121,464
2123,1111
2124,3035
2125,2892
2126,1596
2130,1012
2136,2657
2137,448
2137,628
2137,1573
2137,1729
2137,3640
2137,3680
2140,2056
2140,2573
2140,4250
2141,751
2141,1894
2141,2935
2143,1764
2145,380
2145,954
2145,993
2146,653
2146,4590
2149,1639
2149,2659
2149,3670
2150,734
2150,868
2151,1161
2151,2647
2151,3211
2151,3569
2151,4374
2154,1760
2154,3340
2154,3670
2155,1191
2155,4204
2156,129
2156,942
2157,296
2159,1731
2159,4290
2160,52
2160,1662
2160,3376
2161,521
2162,412
2162,1854
2164,85
2164,1097
2166,1080
2167,169
2167,312
2167,3096
2170,1007
2170,2476
2170,2519
2171,329
2172,108
2172,184
2172,949
2172,1217
2172,3042
2172,3463
2172,3865
2172,4002
2172,4382
2172,4614
2172,4693
2176,2680
2176,3722
2178,17
2179,1249
2179,3176
2179,3923
2179,4104
2179,4901
2181,283
2181,1762
2181,3355
2181,3981
2182,4059
2183,3670
2184,312
2185,1539
2185,2949
2185,4411
2186,629
2186,2091
2186,2731
2187,514
2187,1323
2188,828
2190,4074
2191,2128
2192,1571
2192,2737
2196,1356
2196,2699
2196,3587
2197,2082
2198,4010
2199,1928
2199,3031
2203,289
2203,865
2203,894
2203,1861
2203,2941
2203,3498
2203,4571
2205,2522
2206,1277
2207,438
2207,748
2207,831
2207,1875
2207,3700
2208,1500
2209,367
2209,731
2209,3493
2209,4998
2214,232
2216,676
2221,77
2223,839
2224,402
2225,209
2225,1437
2225,1451
2225,2751
2228,3068
2228,4059
2229,515
2229,2783
2230,106
2230,659
2230,746
2230,812
2230,2675
2230,3144
2230,3270
2230,3880
2230,4234
2230,4607
2231,3068
2231,3649
2231,4073
2232,2236
2234,1101
2234,1398
2234,2890
2234,2952
2234,3709
2235,1690
2237,1532
2239,2363
2243,219
2245,192
2248,428
2248,1637
2251,1454
2257,3447
2259,2416
2261,81
2262,2799
2264,224
2264,498
2264,1448
2265,3081
2265,4637
2269,1794
2270,267
2270,270
2270,374
2270,655
2270,809
2270,1228
2270,1412
2270,2075
2270,2234
2270,2240
2270,2438
2270,2487
2270,2928
2270,3340
2270,4897
2271,1451
2271,3169
2272,1097
2274,2477
2274,3363
2274,3711
2276,2066
2279,859
2279,2556
2279,2700
2279,3132
2281,510
2281,3630
2283,1070
2284,1807
2284,3768
2285,3191
2286,1150
2286,2378
2287,12
2287,1725
2287,1780
2287,1879
2287,3125
2289,52
2291,82
2291,726
2291,2275
2291,2315
2291,4180
2292,1310
2292,2841
2295,786
2297,142
2297,1284
2297,4927
2298,1437
2300,602
2302,173
2302,312
2302,446
2302,487
2302,491
2302,570
2302,655
2302,989
2302,1096
2302,1200
2302,1210
2302,1265
2302,2193
2302,2251
2302,4051
2302,4284
2302,4396
2303,1527
2303,1666
2303,2546
2303,4716
2305,73
2305,349
2305,367
2305,854
2305,1412
2305,2375
2305,3439
2305,3529
2305,3975
2305,4318
2310,202
2312,664
2312,4515
2313,319
2313,664
2313,2266
2316,1508
2317,1443
2317,4027
2318,3673
2320,3040
2325,731
2325,3796
2327,1424
2327,2003
2327,3197
2327,3292
2327,4393
2330,1416
2330,2510
2331,857
2332,1023
2332,3016
2333,485
2333,2594
2334,2029
2335,504
2338,1277
2338,2148
2338,2434
2338,4567
2339,3630
2339,4422
2340,1847
2340,2099
2341,52
2342,615
2343,1978
2344,1470
2345,2050
2349,407
2350,607
2350,754
2350,901
2350,1326
2353,1139
2354,2236
2355,1388
2357,1366
2357,3557
2358,2529
2358,4073
2359,1156
2361,3516
2362,912
2362,3012
2365,80
2365,1727
2365,2655
2366,301
2366,2019
2366,2901
2366,3800
2366,4656
2366,4959
2368,505
2370,506
2371,731
2373,91
2375,4782
2379,533
2379,1593
2379,2610
2379,2995
2379,4281
2381,52
2381,4534
2383,2218
2386,3437
2386,4989
2388,748
2388,2469
2391,715
2391,1761
2391,2059
2391,2063
2391,2147
2394,1276
2395,2095
2395,3354
2398,827
2402,1361
2403,1234
2404,1958
2405,60
2406,1598
2406,2744
2407,705
2408,2935
2408,3214
2408,4509
2409,4864
2410,118
2411,648
2412,607
2414,383
2414,472
2414,912
2414,1120
2414,3490
2414,3907
2414,4463
2415,506
2415,4856
2417,564
2418,1337
2418,1486
2420,232
2421,223
2421,1198
2421,1403
2421,1515
2421,1629
2421,2010
2422,380
2422,3629
2423,2576
2424,1007
2425,1027
2426,2189
2426,3741
2427,209
2428,1093
2429,4059
2430,723
2431,1775
2431,2767
2431,3012
2434,931
2434,2009
2434,2881
2434,4438
2436,2347
2436,2592
2436,4629
2438,169
2438,2573
2438,4346
2439,970
2439,1992
2439,4024
2440,438
2441,1797
2441,3847
2441,4405
2442,312
2442,1785
2442,1800
2442,2823
2442,2862
2442,2942
2442,3260
2442,3746
2442,4407
2442,4474
2442,4581
2442,4604
2442,4947
2442,4961
2443,2845
2444,1131
2446,2297
2450,446
2450,880
2453,82
2453,1939
2453,2236
2458,495
2458,3170
2459,1141
2459,3734
2459,3832
2461,2323
2461,2327
2462,2238
2463,2003
2463,4817
2465,1871
2466,3516
2467,1
2470,748
2471,1
2473,371
2474,1766
2475,3880
2477,324
2477,2020
2478,2537
2478,2708
2483,2297
2485,2947
2486,1023
2488,567
2488,955
2488,4780
2490,991
2493,509
2494,402
2494,804
2494,2448
2494,3229
2494,4775
2496,1185
2497,1679
2501,145
2501,631
2501,2348
2502,1988
2503,177
2504,82
2504,992
2504,1189
2504,1834
2506,2299
2507,858
2507,3967
2507,4217
2507,4827
2512,1461
2512,3232
2512,3555
2514,329
2514,4776
2518,783
2521,503
2522,156
2522,1314
2522,2251
2522,4112
2522,4230
2523,1419
2533,1451
2533,2935
2534,1264
2535,2512
2535,4016
2537,1558
2538,1945
2538,3496
2542,201
2542,1400
2542,2124
2543,2367
2543,3105
2544,2575
2544,3446
2544,4468
2545,381
2547,312
2550,244
2553,267
2553,981
2554,1751
2554,4743
2555,740
2555,3068
2560,1969
2562,229
2564,1540
2565,1794
2565,2784
2569,352
2569,994
2569,1284
2569,1319
2569,2938
2569,3439
2569,4142
2569,4817
2574,2848
2574,3923
2576,2438
2576,4256
2577,2188
2579,2323
2580,185
2583,2
2583,123
2583,722
2583,783
2583,1027
2583,1079
2583,1191
2583,1568
2583,1576
2583,1651
2583,1751
2583,2468
2583,2505
2583,2597
2583,2636
2583,2958
2583,3166
2583,3218
2583,3531
2583,3671
2583,3851
2584,696
2585,1245
2585,3844
2588,1139
2588,3575
2589,232
2590,4693
2594,1522
2595,1714
2596,727
2596,2085
2597,4062
2600,1648
2600,2845
2601,3814
2603,407
2603,1185
2603,2515
2604,1576
2608,3012
2608,3196
2608,3685
2609,254
2609,648
2609,948
2609,2756
2609,2907
2609,3374
2609,4881
2611,31
2612,970
2616,2053
2616,3350
2617,3400
2618,1820
2619,56
2619,149
2619,568
2619,1004
2619,1319
2619,1824
2619,2152
2619,2809
2619,3923
2619,4989
2621,1245
2622,1569
2622,2685
2624,1775
2625,4234
2626,2266
2627,655
2627,4439
2629,664
2629,836
2629,1093
2629,1591
2629,3167
2629,4344
2629,4810
2630,118
2630,252
2630,486
2630,2149
2630,2276
2630,3128
2630,3683
2631,52
2632,2890
2633,3369
2634,731
2634,4026
2634,4864
2635,390
2635,4488
2637,3012
2638,3977
2639,324
2639,493
2640,1863
2641,24
2641,4180
2643,1296
2644,1400
2644,4692
2645,291
2645,745
2645,1032
2645,1087
2645,1663
2645,2233
2645,2529
2645,2892
2645,3581
2645,4407
2649,1542
2651,2900
2653,3758
2654,3254
2656,2281
2657,3649
2658,1349
2658,2593
2658,4575
2659,61
2659,590
2659,1725
2659,3068
2660,1509
2662,1017
2665,252
2665,296
2665,441
2665,970
2665,1100
2665,1122
2665,1164
2665,1305
2665,1449
2665,1920
2665,2218
2665,2344
2665,2384
2665,2961
2665,4499
2665,4952
2666,3139
2669,373
2669,1361
2669,1566
2669,2838
2669,2977
2670,1368
2670,3313
2670,3355
2672,155
2675,1062
2675,1473
2675,2278
2675,4512
2679,42
2681,49
2683,1093
2684,3845
2686,3349
2686,4894
2686,4952
2687,1191
2688,193
2689,428
2690,108
2690,578
2690,762
2690,877
2690,3758
2690,4206
2691,448
2691,1070
2693,1120
2693,1139
2693,1385
2695,249
2695,638
2695,748
2695,3402
2695,3923
2695,4511
2695,4514
2696,69
2696,217
2696,1463
2696,1648
2696,1663
2696,1990
2698,324
2698,666
2703,1797
2703,3369
2704,1255
2709,2437
2709,2828
2709,3776
2711,428
2711,487
2711,1710
2712,4622
2714,428
2714,2835
2714,2986
2714,3012
2715,90
2715,395
2715,648
2715,2247
2715,2522
2715,4228
2715,4709
2715,4943
2716,10
2716,718
2716,837
2716,1063
2716,1588
2716,2673
2716,3483
2718,367
2718,1436
2718,3550
2718,4048
2718,4384
2720,173
2720,377
2720,4225
2720,4633
2723,560
2723,1632
2723,4050
2724,607
2725,1070
2727,4059
2728,85
2729,2488
2732,1384
2732,3140
2732,4658
2735,252
2735,2921
2736,1731
2736,2460
2736,3294
2738,647
2738,990
2738,1161
2738,1340
2738,2597
2738,4805
2740,2539
2740,3897
2741,3995
2741,4759
2744,607
2744,664
2744,2862
2746,557
2746,1985
2746,3700
2746,4423
2747,1155
2747,1620
2747,1633
2747,1725
2747,2509
2747,2658
2747,4034
2747,4381
2747,4566
2748,2724
2748,4437
2750,1097
2753,895
2754,3973
2756,384
2756,3478
2756,3649
2756,4952
2758,666
2758,2539
2759,2374
2760,4205
2762,1517
2763,3923
2765,249
2765,2931
2765,3826
2769,4567
2770,805
2771,1835
2773,1032
2774,454
2774,474
2774,563
2774,568
2774,644
2774,2385
2774,2960
2774,3130
2774,4496
2775,233
2775,3060
2776,1875
2776,3292
2777,91
2778,514
2781,4627
2784,69
2784,861
2784,1517
2784,2348
2784,3218
2784,3986
2785,1205
2786,722
2787,1080
2787,2158
2787,2519
2787,2667
2787,3521
2788,1734
2789,2767
2790,4759
2791,1257
2792,1258
2792,2892
2792,3351
2793,219
2793,602
2793,1013
2793,2078
2793,3411
2793,3923
2793,4377
2796,91
2798,2071
2800,2102
2800,2751
2803,2731
2804,734
2804,1621
2804,3465
2805,1862
2808,646
2808,915
2808,1486
2810,3556
2810,3916
2811,3493
2812,217
2812,940
2814,501
2815,1185
2815,3900
2818,329
2818,636
2818,2912
2819,326
2819,2648
2819,3333
2820,2990
2821,35
2822,928
2825,3234
2826,2134
2827,3031
2829,1185
2830,3150
2830,3807
2830,4237
2833,247
2834,3402
2834,4670
2834,4926
2836,1861
2837,1174
2837,1175
2837,2384
2839,410
2839,914
2839,939
2839,1026
2839,2875
2839,3358
2840,2
2843,1026
2843,4029
2844,2512
2844,3307
2845,1096
2846,674
2847,260
2847,909
2847,2013
2847,3551
2847,3864
2848,244
2848,263
2848,521
2848,812
2848,1770
2848,4306
2848,4311
2849,42
2849,648
2849,756
2849,1395
2849,1421
2849,2035
2851,1666
2851,3612
2852,2845
2853,501
2856,718
2856,3137
2856,4346
2857,14
2857,332
2858,1607
2861,1081
2861,1970
2861,3305
2869,4955
2871,1309
2871,1315
2872,319
2872,446
2872,842
2872,1667
2872,2597
2872,2889
2872,3131
2872,4076
2872,4548
2873,3376
2873,3407
2873,4206
2876,367
2877,3185
2877,3683
2878,1264
2880,245
2885,611
2886,426
2891,3832
2892,2468
2893,2752
2894,416
2894,952
2894,1056
2894,1178
2894,1790
2894,2551
2895,2128
2898,553
2898,1596
2900,164
2900,384
2900,446
2900,1287
2900,1756
2900,1866
2900,2294
2900,2431
2900,2578
2900,3057
2900,3777
2900,4417
2900,4868
2902,1323
2903,1245
2904,717
2905,914
2906,202
2906,329
2906,1732
2906,2926
2907,722
2909,1988
2909,2021
2909,4505
2910,2831
2911,459
2911,3751
2911,4791
2913,487
2914,627
2915,4072
2916,695
2920,1725
2920,3462
2922,539
2923,2558
2924,1822
2925,1120
2925,3160
2926,3599
2927,2
2927,2309
2930,976
2931,4524
2934,2240
2935,514
2936,4076
2936,4081
2937,1995
2939,338
2940,4346
2944,1992
2946,1357
2946,2484
2947,1441
2950,312
2950,554
2950,3208
2950,4687
2953,905
2956,132
2956,1290
2957,1815
2959,3670
2961,1258
2961,2509
2961,3722
2961,4997
2963,1421
2963,2987
2963,3592
2965,501
2966,259
2966,783
2966,3375
2966,4745
2967,2544
2967,3036
2967,3156
2968,243
2969,1898
2973,73
2973,252
2973,364
2973,2749
2973,3763
2973,4985
2974,1122
2975,3493
2980,634
2980,2848
2981,2485
2983,553
2983,2082
2983,4567
2984,2858
2984,3419
2984,4051
2985,4330
2988,148
2991,344
2991,2385
2992,514
2992,864
2992,1972
2993,1988
2995,1191
2995,2183
2995,3295
2996,762
2996,2326
2997,347
2997,701
2997,2512
2997,4112
2998,1425
2998,1522
2998,3465
2999,655
2999,4864
2999,4976
3000,3846
3001,2
3001,73
3001,1089
3001,1139
3001,3168
3002,233
3002,1473
3002,3562
3003,602
3003,1871
3003,3781
3003,4773
3004,696
3005,1522
3007,501
3008,1564
3009,2548
3010,4190
3011,1323
3012,731
3013,2837
3013,4148
3014,148
3014,690
3014,1032
3014,1407
3015,2
3015,77
3015,252
3015,812
3015,1070
3015,1086
3015,2603
3015,3016
3017,493
3018,4411
3019,991
3019,2297
3023,402
3024,682
3024,2512
3024,3810
3025,1132
3026,409
3028,3683
3029,22
3030,2537
3031,2935
3032,138
3032,1767
3034,383
3034,4389
3036,2082
3037,1353
3037,3716
3037,4327
3038,815
3038,1679
3038,3596
3038,3845
3038,4933
3039,1131
3040,2438
3043,493
3043,1328
3043,1363
3043,2258
3043,4283
3043,4976
3045,1970
3046,1416
3047,2476
3047,3506
3047,4380
3049,1316
3050,387
3050,1111
3050,2516
3050,4759
3051,3962
3053,3110
3054,1289
3054,1509
3055,123
3055,1012
3055,1223
3055,1829
3055,2516
3056,3277
3058,1454
3059,402
3059,4834
3061,2396
3063,2837
3064,3422
3066,740
3066,1323
3070,3068
3070,4654
3073,12
3074,81
3075,1874
3076,2539
3078,1966
3080,1295
3081,3067
3081,3277
3082,2213
3085,3439
3085,3796
3086,82
3087,3512
3088,216
3088,1608
3088,2238
3089,1229
3089,2267
3089,3328
3090,3896
3091,94
3093,2169
3093,3552
3093,3685
3093,3789
3093,4565
3094,647
3094,1245
3094,1304
3094,3044
3094,4100
3097,10
3097,718
3097,3016
3098,1029
3099,1595
3100,1277
3106,468
3106,552
3106,2841
3106,3649
3107,837
3108,80
3108,666
3108,1103
3109,2240
3111,2254
3114,241
3114,456
3114,3115
3114,3507
3116,77
3116,3915
3117,151
3119,1416
3120,1601
3121,213
3121,3754
3121,4137
3122,228
3122,2372
3123,22
3123,162
3123,217
3123,224
3123,367
3123,501
3123,1034
3123,1129
3123,1191
3123,1249
3123,1504
3123,2068
3123,2263
3123,2809
3123,3197
3123,3689
3123,4470
3125,865
3125,1178
3125,1326
3125,1633
3125,3489
3125,3522
3125,3858
3125,4815
3126,2485
3128,14
3128,160
3128,438
3128,688
3128,3781
3129,682
3129,1608
3129,3120
3130,2887
3132,162
3134,1513
3134,2194
3135,727
3135,1934
3135,3408
3138,593
3142,512
3142,1679
3146,2296
3148,267
3148,283
3148,889
3148,1293
3148,3457
3148,4951
3149,740
3149,820
3149,942
3149,1592
3149,1762
3149,2160
3149,4234
3153,2960
3157,970
3157,1519
3158,2426
3159,2623
3162,4963
3164,175
3164,303
3164,1807
3164,2193
3164,2289
3164,2431
3165,147
3167,162
3167,230
3167,253
3167,356
3167,402
3167,479
3167,1988
3167,2597
3167,3956
3167,3975
3169,286
3169,4077
3169,4737
3173,3032
3174,93
3174,3836
3180,374
3180,3347
3181,216
3182,1314
3183,690
3184,2863
3186,3032
3187,1486
3188,2792
3190,293
3191,2696
3191,4424
3194,510
3198,1454
3199,753
3201,79
3201,1104
3201,2879
3202,1178
3206,446
3206,505
3206,1122
3206,1125
3206,1812
3206,1991
3206,2201
3206,2792
3206,4841
3206,4969
3207,2977
3210,2755
3217,1189
3217,4725
3218,2282
3220,216
3222,2195
3222,3569
3223,491
3224,42
3224,92
3224,601
3224,640
3224,1780
3224,2063
3224,2153
3224,3130
3224,3739
3224,4480
3225,4678
3226,857
3230,909
3231,1328
3233,3254
3237,1004
3237,2530
3237,4265
3237,4493
3237,4759
3237,4766
3239,1631
3239,4180
3241,345
3244,1893
3245,939
3246,1663
3246,4445
3248,2070
3248,2168
3248,2170
3249,1679
3251,3105
3251,4639
3252,44
3254,1327
3255,3629
3256,3617
3257,2218
3258,93
3258,114
3258,193
3258,371
3258,863
3258,883
3258,1539
3258,2119
3258,2572
3258,2705
3258,2807
3258,4974
3259,715
3259,730
3261,1740
3263,3122
3264,2281
3264,2294
3264,2481
3264,3451
3264,3916
3264,4330
3264,4613
3265,317
3266,12
3267,804
3270,2010
3271,194
3272,1036
3273,1987
3274,579
3274,1466
3274,2319
3274,2698
3274,2858
3276,775
3276,3592
3277,169
3279,727
3281,3284
3281,4567
3283,1042
3283,1567
3284,192
3284,575
3284,640
3284,828
3284,954
3284,1445
3284,2615
3284,3014
3284,4009
3285,203
3285,247
3285,2188
3285,3403
3286,882
3286,1300
3287,66
3287,322
3287,715
3287,1272
3287,1895
3287,1926
3287,2658
3287,3462
3287,3939
3288,209
3288,1807
3290,2806
3292,177
3293,1199
3293,2900
3295,2
3295,289
3295,363
3295,669
3295,1551
3295,1813
3295,2306
3295,3077
3295,4915
3296,289
3296,2050
3296,4486
3300,1920
3303,1281
3303,2495
3304,3012
3304,3659
3305,1463
3306,1607
3308,2522
3308,4601
3309,113
3309,715
3309,3401
3309,4727
3310,583
3310,3800
3311,2962
3314,825
3315,129
3316,2400
3317,1290
3319,2512
3320,407
3320,408
3320,1134
3320,1454
3320,1500
3320,1718
3321,2806
3321,4132
3322,69
3322,1034
3322,2995
3322,3122
3322,3893
3323,1314
3323,2799
3324,3451
3325,304
3325,1539
3326,552
3326,810
3326,1626
3326,2945
3326,3863
3326,4635
3326,4963
3330,2751
3332,510
3332,2489
3334,61
3335,1532
3335,3537
3335,4051
3336,1163
3338,2855
3341,718
3342,94
3342,121
3342,660
3342,1661
3342,3483
3343,166
3343,3468
3344,173
3345,2636
3348,151
3348,4889
3349,3130
3349,4854
3350,4775
3351,155
3351,925
3352,863
3352,1122
3352,2183
3355,912
3357,446
3357,1534
3357,2035
3357,2118
3357,2239
3357,2399
3357,4782
3359,4059
3360,166
3361,2539
3365,1321
3366,1800
3367,1275
3367,4638
3367,4939
3371,79
3372,982
3375,3880
3377,1007
3378,3235
3379,432
3379,1340
3379,4938
3381,939
3382,193
3383,107
3387,538
3389,3329
3390,914
3391,3543
3392,879
3393,80
3394,723
3395,2375
3395,4833
3396,237
3396,332
3396,352
3396,722
3396,1152
3396,4248
3397,106
3397,235
3397,627
3397,775
3397,1169
3397,1430
3397,1542
3397,2745
3397,3675
3397,3818
3397,4407
3397,4512
3397,4997
3399,2
3400,1764
3400,3986
3402,368
3406,438
3413,4445
3416,1733
3416,4586
3417,24
3419,47
3419,189
3419,1075
3420,2943
3421,1666
3421,3032
3424,280
3424,1257
3426,820
3428,754
3429,1666
3434,3378
3435,2130
3436,2468
3437,1542
3437,2982
3437,3667
3437,3749
3438,2495
3439,1241
3439,3635
3439,3674
3440,2624
3441,4292
3442,1663
3443,40
3443,727
3444,1431
3448,1853
3448,2008
3448,3582
3449,380
3450,1731
3452,4331
3453,1080
3453,3462
3454,24
3456,1487
3459,936
3460,91
3460,1178
3460,1679
3460,1985
3460,2434
3460,2864
3460,3430
3461,2273
3463,2731
3463,4502
3464,34
3466,900
3466,2597
3467,2165
3469,4712
3470,4214
3470,4413
3471,247
3471,1706
3472,940
3473,2452
3473,4228
3476,952
3481,825
3482,1629
3483,2
3483,1102
3483,1366
3483,1453
3484,1284
3485,510
3486,4059
3487,268
3487,462
3487,621
3487,2998
3487,3139
3488,584
3488,2071
3494,371
3494,1289
3494,2076
3494,3065
3497,2482
3497,4083
3499,193
3505,4916
3509,490
3510,2080
3511,3351
3513,2611
3515,3277
3517,249
3517,4859
3520,608
3520,1339
3521,4146
3522,2597
3523,1161
3523,3656
3523,3890
3527,2790
3528,1794
3532,1065
3532,3277
3532,4415
3533,493
3534,446
3535,4984
3536,3390
3541,820
3542,3463
3542,4844
3545,1357
3545,1463
3545,2252
3545,2375
3545,2887
3545,3767
3545,3800
3546,1255
3546,2297
3546,3081
3546,3229
3548,1281
3549,457
3549,1912
3561,970
3565,301
3567,330
3570,2572
3573,3381
3574,4290
3578,212
3578,250
3578,483
3578,1452
3578,1679
3578,2427
3578,2472
3578,2970
3578,3133
3578,3280
3578,3960
3578,3975
3578,4206
3579,2848
3579,4040
3583,989
3584,446
3588,3231
3589,992
3590,3419
3593,2863
3595,2227
3595,4849
3598,4062
3600,3318
3600,3498
3600,3663
3601,4112
3603,166
3604,93
3605,602
3605,1342
3606,1316
3607,77
3607,1258
3608,267
3609,2743
3611,3525
3613,1945
3614,113
3615,250
3617,2
3618,997
3618,1163
3618,2955
3618,3216
3618,3665
3618,3858
3619,107
3619,1962
3619,3902
3621,216
3621,1459
3621,2447
3621,2512
3621,3355
3621,4354
3622,259
3622,1189
3622,3110
3622,3754
3623,3670
3627,1515
3628,569
3629,3602
3630,434
3630,1666
3630,2590
3630,4881
3631,10
3631,24
3631,138
3631,509
3631,614
3631,2023
3631,2266
3631,2291
3631,3578
3631,3594
3631,3754
3631,4228
3631,4480
3631,4693
3632,1134
3632,1746
3633,648
3636,271
3637,1213
3637,4236
3638,3772
3638,3981
3639,174
3639,942
3639,1281
3639,2624
3639,3331
3641,1139
3643,1481
3643,2010
3645,1032
3645,1965
3646,877
3648,1912
3652,3612
3653,1152
3653,2680
3654,2722
3654,4249
3654,4604
3657,24
3658,3663
3660,1167
3660,2931
3661,1797
3662,422
3662,2075
3663,2729
3666,2
3666,813
3666,2129
3668,3411
3671,413
3672,984
3673,3411
3676,177
3676,3788
3678,2505
3681,4545
3682,1516
3684,244
3684,2831
3688,1682
3690,34
3690,3177
3690,4331
3691,1178
3691,4832
3692,1201
3693,1796
3694,3616
3695,1780
3696,2924
3700,1797
3701,1409
3702,4776
3703,2809
3704,854
3705,2
3705,1539
3707,194
3708,1450
3709,1595
3710,3277
3713,1114
3714,1737
3714,4226
3714,4795
3715,4044
3717,3447
3718,317
3720,722
3721,1245
3722,501
3724,312
3724,4513
3725,485
3725,2512
3726,85
3727,3498
3728,2986
3730,554
3731,336
3732,1805
3733,2068
3733,4021
3736,202
3741,3498
3742,383
3743,560
3743,1679
3744,40
3744,851
3744,4618
3747,2855
3748,2
3748,163
3752,319
3753,1189
3756,2572
3757,2934
3760,1245
3762,2848
3763,381
3763,402
3763,829
3763,1095
3763,1275
3763,1483
3763,1911
3763,2581
3763,3113
3763,4334
3763,4759
3763,4940
3764,1807
3765,2175
3768,4386
3769,1797
3769,3859
3769,4541
3770,2118
3772,2484
3773,2532
3779,1063
3781,4675
3782,2082
3782,3992
3785,812
3786,1734
3789,715
3791,4219
3792,1086
3792,2253
3793,485
3794,261
3795,1070
3797,1888
3797,4200
3800,2331
3801,2685
3802,585
3803,279
3804,3234
3805,697
3807,2472
3808,2896
3808,3011
3809,3498
3811,4029
3811,4135
3811,4456
3812,2247
3813,2327
3815,2717
3815,2768
3815,4016
3815,4121
3817,60
3817,2003
3817,2449
3818,1554
3818,2068
3818,4016
3821,380
3823,874
3823,4016
3825,812
3827,3069
3829,503
3830,3610
3833,4480
3834,647
3837,2375
3837,2855
3841,209
3841,714
3841,992
3841,1191
3841,1820
3841,3369
3841,3491
3841,3577
3841,3880
3841,4258
3842,3
3842,1812
3842,3501
3844,3670
3848,3777
3850,3975
3851,3995
3853,2085
3856,2829
3857,636
3858,3761
3860,2112
3860,4758
3862,115
3862,3200
3866,3498
3868,607
3868,3550
3869,1191
3869,3807
3871,734
3873,3907
3874,1805
3875,1787
3876,1908
3877,1762
3878,2749
3879,2009
3880,44
3880,1494
3880,1530
3880,2719
3880,2742
3880,3502
3881,113
3883,283
3885,939
3886,371
3888,1822
3894,1131
3894,2208
3895,230
3895,330
3895,958
3895,1624
3895,2384
3895,2831
3895,2924
3895,3707
3895,3932
3896,61
3901,491
3901,1065
3901,2044
3901,2139
3901,2863
3901,3953
3902,1146
3906,478
3909,2845
3911,3537
3912,151
3913,380
3915,816
3915,4776
3915,4966
3917,317
3917,1211
3917,1874
3920,4681
3922,3740
3924,132
3924,343
3925,1822
3926,1227
3927,473
3928,1991
3930,473
3934,1334
3934,2266
3934,3278
3935,2594
3936,1851
3936,2010
3937,2696
3938,734
3939,569
3940,1857
3941,3880
3944,4861
3946,480
3947,2597
3948,1138
3949,52
3949,634
3950,666
3951,1234
3952,6
3952,229
3952,1209
3952,2848
3953,3040
3954,1264
3954,3012
3955,3958
3957,3282
3958,1731
3960,224
3960,753
3960,900
3960,2389
3960,4010
3960,4218
3960,4318
3961,3447
3962,994
3962,3270
3962,4318
3963,459
3963,1134
3963,1143
3963,1932
3963,2898
3963,3312
3963,4020
3963,4271
3964,3141
3965,4567
3969,3761
3969,3923
3971,967
3974,717
3976,1191
3978,3355
3980,4073
3980,4772
3982,119
3982,1679
3984,3582
3986,1598
3987,4693
3988,1434
3989,1452
3990,813
3990,4228
3994,4709
3995,1518
3996,4243
3997,3068
3999,192
4000,34
4000,186
4000,402
4000,2010
4001,3846
4001,4193
4003,3498
4003,4866
4006,1104
4006,2255
4006,2865
4006,3530
4006,3880
4006,4076
4007,502
4008,844
4008,3642
4009,219
4009,504
4009,623
4009,1321
4009,1449
4009,1875
4009,3127
4009,4052
4009,4128
4009,4691
4011,510
4012,951
4014,1319
4014,3299
4014,3353
4014,3390
4015,245
4015,647
4015,1599
4015,2517
4015,3139
4016,2570
4017,279
4018,3562
4018,4763
4019,1266
4021,2682
4022,332
4023,440
4025,2539
4027,3724
4028,1058
4028,2567
4029,443
4030,2665
4030,3463
4032,2774
4033,3243
4036,2658
4038,4354
4044,991
4045,329
4045,1275
4045,1753
4045,2868
4045,3388
4045,4591
4046,24
4049,2032
4051,633
4051,1416
4051,1769
4051,2130
4051,4154
4051,4206
4051,4801
4053,104
4053,189
4054,3208
4055,1577
4055,2845
4055,3103
4055,3896
4056,1258
4056,1762
4057,142
4057,2052
4058,3592
4060,1065
4061,1276
4062,16
4063,2526
4065,1001
4068,1191
4069,1343
4070,2322
4075,774
4075,1093
4075,1690
4076,4330
4078,78
4078,225
4078,250
4078,446
4078,949
4078,972
4078,1131
4078,2028
4078,3618
4082,4629
4084,203
4086,123
4087,2947
4087,4333
4088,705
4088,2017
4088,2254
4088,4171
4088,4445
4090,481
4090,2106
4090,2220
4090,3800
4090,4471
4091,2010
4092,4445
4093,2938
4094,1209
4096,1607
4098,1690
4099,3484
4101,4449
4101,4579
4101,4703
4102,3907
4103,241
4103,261
4103,2169
4105,3068
4106,990
4107,356
4109,56
4110,1281
4111,811
4111,1245
4112,169
4112,568
4112,2112
4112,2733
4112,2971
4113,422
4116,1521
4119,412
4120,94
4120,510
4120,1633
4120,4942
4122,3141
4123,3147
4125,166
4125,329
4125,552
4125,1679
4125,2755
4125,3130
4125,3601
4125,4268
4125,4417
4126,34
4127,1356
4127,3887
4127,4476
4129,93
4129,4971
4130,4952
4131,2304
4134,80
4136,42
4136,1376
4136,1794
4138,1006
4139,2294
4140,344
4144,1386
4146,3566
4146,4876
4147,701
4147,912
4147,4290
4148,1023
4149,4776
4151,2792
4153,166
4155,267
4156,2433
4157,42
4158,1648
4160,1282
4160,1494
4162,3036
4164,23
4165,505
4165,507
4165,2790
4166,3775
4166,4672
4167,1621
4169,923
4170,250
4171,2250
4171,3277
4172,1679
4173,2003
4176,82
4177,812
4177,2218
4177,3238
4177,4013
4178,1733
4178,2642
4178,3602
4178,3919
4179,3356
4180,730
4181,894
4182,1191
4182,3451
4182,3567
4183,604
4184,3977
4186,2522
4186,3884
4186,4697
4188,567
4189,301
4191,1139
4192,567
4194,3855
4196,2508
4197,69
4197,3548
4198,2927
4199,1509
4201,563
4203,3378
4209,2153
4210,2452
4212,1258
4214,3605
4215,35
4216,872
4218,286
4218,445
4218,500
4218,542
4218,575
4218,1048
4218,1191
4218,1276
4218,2290
4218,2452
4218,3221
4218,3474
4218,3709
4218,4453
4218,4776
4220,1509
4220,4550
4221,2658
4221,2867
4223,297
4225,922
4225,2795
4225,3475
4225,4138
4225,4781
4228,90
4228,2576
4228,4100
4229,677
4229,3014
4229,3670
4231,446
4231,611
4231,635
4231,1703
4231,1789
4231,2131
4231,2817
4231,3590
4231,3780
4231,4776
4232,252
4233,1148
4234,4010
4235,757
4238,1245
4239,2050
4240,2658
4241,3292
4243,24
4243,217
4243,518
4243,866
4243,914
4243,967
4243,1207
4243,2403
4243,2739
4243,3148
4243,3422
4243,3745
4243,3839
4243,4242
4243,4346
4243,4496
4244,2180
4246,1691
4246,1704
4246,2010
4246,2816
4247,4864
4251,2516
4252,928
4254,923
4257,2200
4260,1032
4261,2360
4262,374
4263,2890
4264,2177
4266,2472
4266,3352
4269,1445
4269,1935
4269,3808
4270,1161
4272,326
4272,1568
4272,2451
4273,2511
4274,1534
4277,2960
4281,224
4281,246
4281,754
4281,1112
4281,1245
4281,1282
4281,1361
4281,1443
4281,1514
4281,1991
4281,2001
4281,3213
4281,3654
4281,4095
4282,1808
4283,941
4283,1436
4285,1781
4288,1421
4288,2870
4289,1781
4291,812
4292,3020
4295,1663
4296,2870
4297,381
4299,4776
4300,193
4300,230
4300,267
4300,467
4300,1161
4300,1321
4300,1693
4300,1857
4300,3995
4302,2266
4302,4211
4302,4919
4304,1431
4305,4013
4306,2432
4306,3411
4307,376
4307,473
4307,1990
4307,2071
4307,3698
4307,4717
4308,2378
4309,1379
4312,1063
4313,1912
4313,2590
4313,3977
4313,4778
4315,509
4317,3620
4319,3439
4320,44
4322,981
4323,693
4323,2692
4323,4641
4324,2897
4324,4916
4325,5
4325,1413
4326,2831
4328,141
4328,3032
4329,723
4329,1213
4329,1822
4330,337
4330,4873
4332,1577
4332,1628
4335,1225
4335,1764
4335,2060
4336,1100
4337,186
4338,23
4338,376
4338,1141
4338,1450
4338,1882
4338,2010
4338,2786
4338,3019
4338,3634
4338,4140
4338,4553
4339,3880
4340,4489
4341,614
4341,2685
4342,4066
4344,659
4349,233
4349,1908
4349,4460
4349,4594
4350,1939
4351,1254
4352,349
4352,437
4352,682
4352,1480
4352,2573
4352,2955
4352,2964
4352,4327
4355,3649
4356,939
4357,753
4358,1042
4359,2943
4360,2863
4361,267
4361,283
4361,1174
4361,1807
4361,2887
4361,3546
4361,4740
4362,166
4363,2138
4364,1717
4365,1021
4366,2218
4369,2147
4371,407
4372,52
4378,3209
4379,1
4379,1743
4379,1798
4381,602
4381,1888
4381,2301
4381,3966
4382,783
4382,3553
4382,3575
4385,272
4391,1058
4394,3031
4397,3122
4399,1847
4401,2374
4404,3674
4406,2218
4406,4028
4407,4440
4408,1039
4408,1454
4410,85
4410,900
4414,4133
4416,1025
4419,2393
4419,4776
4420,2926
4421,129
4421,613
4421,1386
4421,1522
4421,2597
4421,2848
4421,3062
4421,3081
4421,3169
4421,3616
4421,3781
4421,4739
4425,2529
4426,2522
4429,1277
4430,3630
4431,3670
4432,3647
4432,4462
4433,847
4433,1472
4433,1629
4433,2174
4433,2267
4433,2929
4433,3115
4435,1912
4440,1623
4441,2277
4442,2960
4444,2112
4445,324
4445,1089
4447,2484
4448,17
4448,1178
4454,1744
4456,237
4456,4193
4456,4608
4457,1227
4457,2572
4458,1287
4461,185
4461,4906
4464,173
4464,2575
4466,34
4469,1932
4471,1326
4471,4784
4473,1215
4473,1716
4473,2979
4473,3463
4475,58
4475,408
4475,4693
4477,2084
4478,3960
4479,514
4479,604
4479,618
4481,3
4481,1124
4481,1177
4481,3110
4481,4278
4481,4835
4483,1731
4483,2010
4484,79
4484,448
4484,573
4484,902
4484,3480
4484,3560
4484,4027
4484,4163
4485,3130
4485,3506
4487,1245
4489,267
4489,4206
4490,3172
4491,1376
4492,1451
4492,2003
4492,4163
4494,1307
4494,2537
4495,1464
4496,2435
4496,2606
4497,106
4497,742
4498,245
4500,3204
4501,252
4501,498
4501,515
4501,936
4501,2538
4501,3446
4501,4243
4501,4278
4503,1065
4506,2551
4507,3479
4507,3643
4510,1437
4512,4861
4514,263
4514,4381
4515,3355
4521,4322
4522,3103
4524,1989
4525,1583
4526,545
4526,2522
4528,2845
4529,4782
4530,2068
4530,2526
4530,3479
4532,77
4534,121
4534,1567
4534,2467
4534,3427
4534,4445
4534,4925
4536,229
4537,2289
4538,3478
4539,4989
4540,4224
4542,2824
4543,3364
4544,4077
4545,1199
4546,608
4547,2522
4552,648
4552,674
4552,1964
4553,2244
4554,4817
4555,79
4555,166
4555,993
4555,1241
4555,1687
4555,1706
4555,2134
4555,2397
4555,2512
4555,3298
4555,3346
4555,3457
4555,3488
4555,3493
4555,4280
4555,4668
4555,4709
4556,1133
4557,2006
4558,2570
4561,184
4562,4260
4563,2623
4563,3916
4563,4653
4563,4689
4565,199
4565,3880
4568,2982
4569,121
4570,2378
4572,4217
4574,432
4574,2751
4574,4709
4576,1317
4577,34
4577,312
4577,830
4577,839
4577,919
4577,1095
4577,1287
4577,1405
4577,1824
4577,3814
4577,3845
4577,4330
4578,4976
4580,1679
4581,1477
4582,85
4583,463
4583,3270
4584,2070
4586,438
4586,4117
4588,2031
4589,3463
4591,114
4591,563
4591,970
4591,1319
4591,1334
4591,1723
4591,3405
4592,244
4593,61
4593,1764
4593,2517
4595,1254
4596,3398
4598,402
4599,1207
4600,1988
4609,1684
4610,3616
4611,2976
4612,42
4612,1326
4612,2277
4612,4955
4613,364
4614,1257
4614,4100
4615,748
4616,1191
4617,863
4619,3140
4622,4200
4623,3567
4625,1614
4626,880
4627,636
4627,2063
4627,3120
4628,371
4628,374
4628,851
4628,2190
4628,4436
4630,2287
4632,90
4633,688
4633,2351
4635,2327
4636,3161
4640,1075
4641,279
4641,481
4641,1225
4641,4398
4642,4776
4643,3132
4644,2520
4645,287
4645,2591
4646,2960
4649,3315
4651,1407
4652,1260
4656,2195
4656,2947
4659,4389
4660,151
4661,2134
4663,2894
4663,3301
4663,4869
4665,454
4666,355
4666,2302
4669,80
4670,271
4671,2149
4673,3298
4674,296
4674,1083
4674,1380
4674,2924
4674,3735
4675,283
4675,1255
4675,1607
4675,2078
4675,2549
4675,3110
4676,454
4676,3292
4677,3581
4678,177
4678,1226
4678,2347
4679,3995
4680,438
4682,43
4682,718
4682,2804
4683,4952
4684,2945
4685,1607
4686,1177
4688,1063
4689,763
4690,634
4693,1063
4694,634
4695,374
4698,783
4699,3920
4701,800
4701,2242
4702,1988
4703,1463
4704,4564
4705,2
4705,44
4705,512
4705,806
4705,1245
4705,1289
4705,1521
4705,4427
4705,4559
4706,254
4706,376
4706,521
4706,548
4706,2751
4706,3122
4706,3412
4706,3634
4706,3700
4706,4219
4706,4759
4712,181
4713,1191
4715,1807
4718,3218
4720,1264
4720,1568
4720,2325
4721,1539
4721,1822
4721,4618
4721,4678
4722,383
4723,17
4724,1281
4726,2809
4727,807
4727,2352
4728,1731
4730,1333
4731,1834
4732,2423
4732,3501
4734,301
4735,1063
4736,3447
4737,5
4738,247
4738,549
4738,3040
4738,3154
4742,1319
4742,2007
4742,4190
4746,3798
4747,1992
4748,4512
4749,2438
4750,4354
4751,1102
4751,4797
4752,338
4756,1092
4757,200
4757,2032
4757,2685
4759,1867
4760,1807
4761,464
4762,3012
4767,391
4768,2251
4769,3115
4770,2820
4771,4407
4774,4124
4775,1400
4779,717
4783,284
4784,2363
4786,3140
4788,3305
4788,4905
4789,108
4790,799
4791,24
4791,193
4791,695
4791,718
4791,889
4791,1159
4791,1385
4791,2290
4792,1794
4793,1723
4796,1255
4800,12
4802,1463
4803,1132
4804,1025
4806,2078
4807,4214
4809,1599
4812,1012
4813,1328
4817,2
4818,2399
4819,763
4819,2845
4820,3975
4821,881
4822,2233
4824,301
4825,1054
4825,2870
4825,3216
4825,4301
4826,2065
4828,181
4829,3709
4830,4586
4831,1411
4833,971
4837,2532
4838,90
4838,134
4838,222
4838,244
4838,378
4838,607
4838,2275
4838,3120
4838,3240
4838,4346
4838,4354
4839,4604
4840,374
4842,2432
4843,1916
4845,2174
4846,1879
4847,418
4847,954
4847,3141
4847,3735
4847,3896
4848,490
4848,601
4848,1162
4848,1218
4848,1718
4848,3242
4848,3496
4848,4409
4848,4782
4853,1185
4855,3484
4855,4276
4857,501
4859,1254
4860,2517
4862,181
4864,2945
4865,480
4867,2147
4869,551
4869,3105
4870,501
4870,1169
4870,1508
4870,1737
4870,1879
4870,1912
4870,2382
4870,2566
4870,2614
4870,3380
4870,4976
4871,319
4872,218
4872,557
4872,3032
4872,4567
4877,827
4877,1554
4877,2123
4878,3180
4879,3899
4880,1
4881,4866
4882,3758
4883,418
4884,199
4884,209
4884,446
4884,632
4884,636
4884,2016
4884,2287
4884,2557
4884,2888
4884,2932
4884,3003
4884,3155
4884,3403
4884,3564
4884,3975
4885,203
4885,3122
4885,4648
4886,4984
4887,407
4888,3422
4890,69
4892,2266
4892,3105
4895,1286
4896,2828
4898,1820
4900,301
4902,993
4903,4335
4906,539
4908,1875
4910,255
4910,481
4910,718
4910,747
4910,748
4910,938
4910,1300
4910,1454
4910,4775
4912,3697
4917,2109
4919,1177
4920,4778
4921,2225
4924,418
4928,3141
4930,3758
4932,145
4935,1607
4935,2566
4936,3310
4938,3113
4941,1494
4945,2267
4948,344
4950,1066
4952,2940
4953,5
4953,209
4953,291
4953,390
4953,679
4953,688
4953,1139
4953,1343
4953,1696
4953,1807
4953,2327
4953,2898
4953,3029
4953,3616
4953,3870
4953,4346
4953,4511
4953,4754
4954,1583
4955,1326
4956,688
4957,2112
4960,34
4961,142
4964,1472
4965,3796
4967,971
4968,2845
4970,3582
4975,507
4976,24
4976,345
4976,367
4976,402
4976,1912
4976,2000
4976,2327
4976,2752
4976,3649
4976,4403
4978,4140
4979,3647
4980,42
4983,2324
4984,263
4984,1014
4984,2238
4984,2831
4985,297
4985,3179
4985,4696
4986,2220
4987,923
4988,3665
4990,4463
4991,1284
4992,2438
4993,1912
4994,2512
4995,1058
4997,1558
