src,dst
0,1
4,8
4,376
4,569
4,781
4,818
4,1690
4,2719
4,4680
6,1642
10,510
10,976
10,2513
11,925
11,4848
15,3778
17,0
17,215
17,232
17,240
17,318
17,915
17,1221
17,1750
17,2348
17,2502
17,3061
17,3268
17,3768
17,4930
20,4782
22,54
22,230
22,521
22,851
22,874
22,1058
22,2346
22,3629
22,3911
22,4510
26,3407
28,363
28,657
28,1694
29,46
31,822
31,830
31,860
31,1884
31,2025
31,2935
31,2985
31,3308
31,4128
33,2301
34,867
34,3920
34,4270
35,144
37,749
38,761
38,1522
38,2936
38,3485
39,159
39,163
39,164
39,243
39,398
39,599
39,680
39,743
39,1129
39,1139
39,2094
39,2576
39,3101
39,3593
39,3788
39,4164
39,4210
39,4295
46,279
46,1659
46,1956
47,253
47,480
47,1749
47,2266
47,2558
47,3807
47,4077
49,160
49,643
49,1411
49,1985
49,2937
50,8
50,699
50,1292
50,1460
50,1642
50,2198
50,3930
51,297
51,375
51,1633
51,2172
51,2204
51,2481
52,460
52,1142
52,1421
52,2718
52,2810
52,4132
52,4640
53,533
53,669
53,1023
53,1119
53,2412
53,2807
53,3827
55,1900
56,2697
56,2872
57,504
57,621
57,813
57,2810
57,2842
57,3832
58,1004
58,2360
58,3570
59,470
59,1012
59,1090
59,1371
59,1774
59,2744
59,4083
59,4132
59,4147
59,4859
61,1492
61,1555
63,228
63,3747
64,563
64,919
64,939
64,2922
64,4814
65,1755
65,2937
65,4144
66,2176
67,24
67,4312
69,431
69,501
69,852
69,886
69,1032
69,1217
69,1522
69,3407
69,4188
69,4505
70,3488
71,989
76,776
76,890
76,4476
77,770
77,1459
77,2301
77,2409
77,3356
80,128
83,261
83,542
83,930
83,1263
83,1798
83,2506
83,4532
84,1626
84,2234
84,3362
84,3568
84,3742
84,4101
84,4580
85,302
86,71
86,72
86,144
86,157
86,628
86,2133
86,4716
86,4945
87,114
87,2638
88,129
88,855
88,2120
88,2617
88,2679
88,3098
89,3012
89,4640
91,2175
92,463
92,1036
92,1122
92,1254
92,1263
92,2716
92,3195
92,4223
93,240
93,1233
93,3197
93,3602
94,227
94,324
94,390
94,416
94,462
94,900
94,1081
94,1219
94,1252
94,1391
94,1439
94,1490
94,1839
94,2186
94,2677
94,3438
94,4206
94,4381
96,971
96,1196
96,1330
96,1442
100,104
100,194
100,424
100,743
100,1707
100,2200
100,2686
100,2850
100,2882
100,3841
100,4270
102,314
102,1407
102,2609
102,3717
102,4210
102,4621
103,4220
104,749
105,27
105,306
105,903
105,2357
107,43
107,46
107,323
107,340
107,476
107,585
107,970
107,1809
107,2391
107,3494
107,3887
107,3958
111,749
112,2557
112,3288
113,2406
113,2584
113,3659
113,4342
115,249
115,834
115,1117
115,1380
115,2431
115,2622
115,3989
115,4016
115,4587
115,4799
115,4851
116,53
116,4426
117,30
117,717
117,1371
117,1801
117,2938
117,3024
117,3546
117,4868
117,4910
120,1516
120,2942
121,180
121,719
121,1677
121,3170
121,4433
122,365
124,723
124,847
124,4673
125,1055
125,4176
125,4885
126,768
126,930
126,977
126,1028
126,1101
126,1195
126,1299
126,1446
126,1731
126,2190
126,2406
126,3663
130,356
130,435
130,2936
132,307
136,4176
137,393
137,885
137,1032
139,2717
139,2940
142,3219
145,509
145,1659
146,2719
146,4679
149,2797
149,3025
150,3415
151,1544
152,3030
152,3832
156,336
156,705
156,4249
158,672
158,1435
158,2929
158,4791
160,2757
161,9
161,104
161,1472
161,3377
161,3439
167,122
167,430
167,3348
168,259
168,1972
168,1998
168,2420
168,3470
168,4339
170,460
170,547
170,729
170,1514
170,1549
170,1805
170,2520
170,2820
170,3155
170,3820
170,3914
170,4377
170,4875
172,1218
173,3154
174,147
176,1642
176,2295
176,3509
177,2996
177,3232
178,78
178,650
178,1609
178,1666
178,2013
178,2156
178,2651
178,2891
178,3381
178,3472
178,3497
178,3884
181,1121
183,529
183,1007
183,1298
183,1446
183,1561
183,1575
183,1766
183,2148
183,4048
183,4181
183,4335
184,81
184,1398
184,2218
184,3018
184,4624
184,4749
185,1976
185,4657
186,3840
188,214
188,460
188,548
188,2157
188,2245
188,3509
188,3594
188,3977
188,4206
190,2135
191,2191
192,4765
195,234
195,263
195,647
195,766
195,924
195,1320
195,2248
195,2544
195,2628
195,3875
195,4253
195,4351
196,640
196,1410
196,1611
196,1630
196,2135
197,3509
198,232
198,4071
199,138
199,665
199,977
199,1712
199,3383
200,682
201,3162
204,297
207,32
207,193
207,1263
208,4101
209,1312
211,86
211,1062
211,2138
211,2734
211,3984
212,14
212,263
212,3505
212,3699
212,4067
216,43
219,165
220,21
220,569
220,598
220,913
220,1464
220,1617
220,2264
220,3909
220,4402
223,1257
223,2013
223,2619
223,2937
223,4813
225,511
225,912
225,2740
226,474
229,3067
235,1042
235,1057
235,3916
235,4249
237,1599
237,4769
239,394
239,902
239,2041
239,2091
239,2722
239,3957
239,4270
242,3050
244,2286
244,4433
246,2242
246,2548
247,209
247,1009
247,1661
248,3395
249,514
249,2986
249,2998
249,3520
250,3658
252,601
252,1549
257,383
257,1335
257,1886
257,1959
257,2812
257,4206
257,4235
257,4949
259,768
259,3540
259,3915
259,4133
259,4317
259,4873
260,4071
262,75
262,3674
265,1379
265,2793
265,2886
267,19
267,133
267,340
267,1638
267,1960
267,2338
268,133
268,2673
268,3674
268,4549
270,114
270,148
270,2497
271,1770
271,2243
273,1712
276,3448
277,340
277,670
277,812
277,2132
277,3143
277,3385
277,3728
277,4473
277,4488
277,4506
278,818
278,972
280,2723
280,4370
281,4303
283,27
284,1427
284,3926
284,4133
286,3525
289,1211
289,3988
290,122
290,968
292,2993
293,215
293,352
293,672
293,725
293,918
293,1926
293,3101
293,4135
295,2025
295,2067
295,2810
295,3275
296,127
296,2118
298,133
298,847
298,2326
298,2454
298,3043
299,45
299,4321
301,3988
302,114
302,4420
304,2209
305,261
305,571
305,1163
305,1595
305,2101
305,3048
305,4781
307,2916
307,3594
308,167
308,770
308,2284
308,4118
310,2
310,992
310,1781
310,2593
310,4830
310,4832
312,109
312,245
312,342
312,1111
312,1374
312,1387
312,1877
312,2334
312,3413
312,4824
313,689
313,1047
313,1733
316,8
317,910
317,2167
319,221
319,4788
322,98
325,917
325,2714
325,3429
326,147
327,306
327,480
327,1204
327,2025
327,3213
328,27
328,764
328,783
328,1000
328,3912
328,3943
328,4707
329,180
329,930
329,1340
329,2353
329,2371
330,388
330,2690
330,3925
330,4431
331,3425
332,4953
333,520
335,784
335,2706
335,3063
337,1715
341,4551
341,4553
341,4865
343,418
343,434
343,671
343,753
343,780
343,938
343,1149
343,1933
343,2237
343,2559
343,2629
343,2697
343,2723
343,3125
343,3492
343,4020
343,4528
343,4730
344,2717
344,3604
348,3525
351,1476
351,2573
353,584
353,3525
354,45
355,297
358,213
359,81
359,307
361,93
361,123
361,2285
361,2426
362,103
362,340
362,409
362,692
362,730
362,785
362,907
362,934
362,1305
362,2171
362,2187
362,2833
362,2904
362,2974
362,3415
362,4916
363,264
367,338
367,987
367,1001
367,2176
367,2555
367,2921
367,3266
367,4847
368,749
369,417
369,572
369,1119
369,2552
369,2594
369,2747
369,3842
370,154
373,2993
374,276
374,1132
377,297
377,1229
377,1922
377,2713
377,4145
378,257
378,4989
380,3799
380,4358
380,4826
380,4976
381,375
381,567
381,1119
381,1256
381,1424
381,2429
381,2507
381,3035
381,3334
381,3955
382,2907
385,138
386,820
386,2882
386,3673
387,206
387,530
387,1434
387,2631
387,2886
387,4476
389,749
390,2409
390,2457
392,78
392,1364
392,3415
395,1385
395,2946
397,2463
397,3526
401,966
401,1442
403,258
404,1032
405,1039
405,1448
405,1528
405,4712
406,876
406,969
406,1329
406,1522
406,1865
406,1924
406,2526
406,2930
406,3168
406,3415
406,3584
406,4092
406,4359
406,4460
406,4796
407,860
407,927
408,1465
408,3272
408,4071
409,143
410,2197
410,2235
410,2567
410,2838
411,4476
412,4465
413,629
413,932
413,3407
419,539
419,1014
419,2484
419,2569
420,1659
420,2588
420,4101
421,4206
422,221
422,2237
424,390
424,1920
424,4969
426,339
426,858
426,1215
426,1735
426,2800
427,340
428,4354
429,415
436,480
436,594
436,931
436,1273
436,2447
436,4193
436,4298
437,213
439,4090
439,4339
439,4475
439,4939
440,82
440,2134
442,119
442,960
442,1283
442,4083
443,3
443,210
443,673
444,665
444,1248
444,2388
444,2445
444,4759
446,1898
446,2157
446,2488
446,4814
447,210
447,450
447,622
447,839
448,363
448,3674
449,221
449,536
449,927
449,1210
449,1356
449,2154
449,2536
449,2661
449,2734
449,3326
449,3674
450,138
450,1198
450,2081
450,4318
451,185
451,2444
451,3329
452,32
452,3583
454,251
455,335
455,458
455,696
456,222
456,1150
457,774
457,3460
459,1107
459,2084
459,4775
461,754
461,1645
461,2237
461,2328
464,973
464,3415
464,4527
466,1198
468,342
469,2723
470,1248
470,1281
470,1669
470,2117
470,4773
471,340
471,909
471,2457
474,3509
477,2127
477,2456
478,445
481,189
481,434
481,698
481,799
481,1353
481,1426
481,1804
481,3380
481,3893
481,3939
481,4409
481,4632
482,162
482,3073
482,3962
483,591
483,1063
483,1630
483,2728
484,313
485,241
485,662
485,1698
485,2449
485,2547
486,3384
486,3480
487,1846
487,2377
487,4600
492,261
492,585
492,776
495,2093
498,1072
502,4071
502,4100
502,4525
505,127
505,4879
506,300
506,1937
508,2719
510,848
510,1084
510,2517
510,2717
510,3903
510,4893
511,4551
514,213
514,634
514,1906
514,2288
514,3127
514,3541
514,3891
515,153
517,1076
517,1173
517,1653
517,4274
518,3334
518,3630
518,3636
518,4484
520,2243
523,865
523,1457
523,1668
523,2002
525,82
525,3761
525,4715
526,4657
527,1983
527,2629
528,1760
531,520
531,1046
531,2212
532,475
534,493
535,4657
538,106
538,122
538,291
538,646
538,776
538,786
538,922
538,1164
538,1420
538,1424
538,1864
538,2875
538,4480
539,224
539,472
539,3677
540,1042
542,584
542,1728
542,2515
543,159
543,206
543,946
543,4059
545,179
545,2624
545,3682
545,4809
546,166
549,591
550,1058
550,1203
550,1393
550,4558
552,2754
552,3241
552,4186
555,544
555,925
555,1032
555,1920
555,2193
557,1263
557,1336
557,2191
557,3323
557,3570
558,2176
558,2582
558,3440
558,4021
559,2044
559,4309
560,4765
561,1198
561,4818
564,263
565,2013
568,4239
570,418
570,3749
570,4857
571,4561
573,87
573,329
573,1120
573,4748
576,1659
577,335
578,512
578,1906
580,4657
581,114
581,1693
581,1901
582,2723
587,3012
588,101
588,1841
588,4314
589,300
590,205
590,542
591,1345
591,1712
592,2105
592,2969
593,1149
595,356
595,1739
595,1889
595,1988
595,4210
596,159
596,927
596,2246
598,2580
598,2789
598,4845
600,1042
602,680
602,3622
604,384
605,291
606,346
606,4771
607,554
607,1567
607,2318
607,2959
607,3267
607,4499
608,927
609,2707
609,3407
610,2140
610,2910
611,391
613,441
613,1888
613,2790
613,2824
613,2886
613,3429
613,4590
614,1594
614,1642
614,2295
614,3087
614,3664
616,742
616,954
616,1726
616,3232
616,4677
620,4995
625,103
625,263
625,400
625,657
625,1170
625,1295
625,1431
625,1817
625,3104
625,3592
625,3651
625,3786
625,4750
625,4922
626,87
626,1258
627,467
631,402
631,493
635,769
635,1215
635,1576
635,1835
635,2087
635,3525
635,4656
635,4768
637,4227
638,114
638,1915
639,123
641,3797
642,4098
642,4295
645,101
646,1448
646,2011
646,2611
648,25
648,2375
649,553
649,3608
649,4028
655,144
656,342
656,493
658,68
658,75
658,2690
658,2871
658,4537
659,1983
659,2581
660,3115
664,3988
665,79
665,2636
672,32
672,1511
673,342
674,485
676,1369
676,1725
676,3236
676,4324
677,3159
677,4792
679,4510
680,900
680,945
680,1185
680,1413
680,2723
680,4638
682,276
683,133
684,3000
685,2462
687,1442
687,1606
687,4831
688,12
688,908
688,1183
688,1407
688,1504
688,2873
688,3032
688,4887
691,1659
691,2882
691,4384
694,285
694,718
694,970
694,1074
694,2092
694,4371
695,340
695,4011
697,597
697,714
697,870
697,1710
700,1712
701,848
701,874
701,1717
701,2111
701,2905
701,2983
701,4469
702,480
703,95
704,827
704,856
704,1526
704,2108
704,2151
704,2480
704,2575
704,2649
704,2734
704,2740
704,3173
704,3849
704,4303
704,4428
704,4835
704,4998
707,705
707,3876
708,696
709,464
709,1287
709,1321
709,1362
709,3766
710,481
710,727
710,3525
711,1414
711,2590
711,3658
712,567
712,1463
712,1827
715,86
715,696
715,740
715,829
715,1038
715,1720
715,2794
715,3020
715,3846
715,4602
715,4956
716,1140
716,2671
720,347
722,985
722,2957
722,4680
724,1560
724,2339
725,2828
725,4610
726,622
726,3701
728,320
728,488
728,819
728,969
728,1316
728,1463
728,1785
728,2667
728,4051
728,4985
729,430
729,4379
732,1023
733,87
734,768
734,978
734,996
734,1802
734,2171
734,2546
734,2615
734,3219
734,3324
734,3781
734,4285
734,4546
735,433
735,675
735,1298
735,1327
735,1664
735,2530
735,3432
735,4549
735,4619
736,2908
736,3161
741,53
741,2086
743,481
743,4194
743,4580
745,2664
745,4759
746,138
746,157
746,303
746,1647
746,1807
746,2908
747,82
747,2176
748,43
748,828
748,1506
748,1867
748,2099
749,4405
751,675
752,646
752,4140
756,2300
756,2568
756,3626
756,3972
756,4197
757,1254
757,1955
757,2136
757,4395
757,4561
760,959
762,1677
763,4716
765,105
767,103
767,2836
767,3885
767,4475
772,464
772,2357
772,2503
773,258
775,1009
775,2015
775,2278
775,3076
775,4201
775,4549
775,4981
777,81
777,1103
778,1754
778,2189
778,4580
778,4661
779,127
779,723
782,1461
782,3209
782,4664
783,2720
783,3225
783,4913
786,3346
787,883
787,1273
787,1536
787,1927
787,2478
787,2633
789,321
789,4476
789,4743
790,1388
790,4277
790,4990
792,255
792,2741
793,910
793,1799
793,2148
794,2061
795,2013
796,415
797,42
797,391
797,398
797,1337
797,1772
797,2271
797,2330
797,2849
797,4456
798,2897
798,3229
799,3687
800,2549
800,2936
800,4272
800,4302
801,81
801,1744
802,71
802,3658
803,54
805,490
805,1706
805,1881
805,3259
805,3856
805,4042
806,342
806,371
806,1219
806,4814
807,563
807,3597
807,4248
807,4993
808,584
809,627
814,4429
815,4060
815,4673
816,624
816,1631
817,1032
823,574
823,1332
823,1434
823,1527
823,1574
823,2256
823,2366
823,3238
823,3878
824,198
824,678
824,1833
825,1569
825,1989
825,2916
826,123
826,4714
827,1763
831,818
832,209
832,2516
832,2877
832,4255
833,1207
833,1430
833,1888
834,1636
834,4534
835,3636
836,194
836,2295
837,990
837,1378
837,1712
838,4878
839,750
840,537
840,753
840,998
840,3290
840,4614
841,81
841,2926
841,3802
842,673
843,107
844,634
845,548
848,3649
849,122
849,1369
849,1375
849,1848
849,2130
849,3937
849,4295
850,4680
854,342
857,287
858,209
858,3765
859,856
860,2965
860,4254
862,1089
866,8
866,1857
866,2160
866,3089
866,4165
867,2845
867,4800
868,2907
869,3407
870,462
871,755
871,1033
871,4769
872,4501
875,2176
877,488
877,4580
879,2036
879,3334
879,4295
881,1997
881,3636
883,488
883,548
883,1198
883,1370
883,1684
883,2440
883,3373
883,4635
883,4667
884,3057
889,25
889,2442
889,3057
889,4295
891,1372
892,147
892,2497
892,3186
892,3629
893,445
893,4392
893,4800
895,123
895,993
895,1032
895,1994
895,3525
896,512
896,3407
896,4680
897,3756
898,303
899,24
899,54
899,82
899,810
899,1040
899,1161
899,1368
899,1680
899,1913
899,3054
899,3579
901,583
902,4661
904,8
904,600
904,1071
904,1310
904,2913
904,4869
905,1
905,970
905,1967
906,665
910,101
910,1088
910,1359
910,2159
910,2588
910,2621
910,4071
910,4215
911,4694
911,4725
922,187
923,3720
926,1579
926,2671
927,4112
928,409
928,1311
928,4471
929,548
929,670
929,1094
929,1225
929,1718
929,4105
929,4829
929,4880
933,627
933,2690
935,2175
936,1042
936,1068
936,1852
936,2295
937,493
940,924
940,1059
940,1799
940,4761
941,4716
942,493
942,1533
942,2049
942,2410
942,2434
942,3441
942,3635
942,4006
943,501
943,1789
943,2510
943,3970
944,224
944,2232
944,4739
946,3565
947,1452
948,475
949,54
949,3283
949,3415
949,3883
951,393
952,1920
952,3101
953,3035
955,270
955,2272
956,210
961,14
961,1104
961,1812
961,2118
962,3509
962,4281
962,4297
963,675
963,2621
963,3587
964,1524
965,514
965,1583
965,1599
965,2337
965,4918
969,1358
970,617
970,1445
970,2835
970,3122
970,3851
970,4765
974,2806
974,4942
975,1281
976,1468
977,2352
978,1310
978,2305
978,4069
979,1534
979,2432
979,3540
979,4043
980,74
981,32
981,114
981,2916
982,1631
982,1686
982,2104
983,2075
984,441
984,4128
984,4440
984,4497
986,4814
988,627
991,4466
991,4915
992,586
994,513
999,41
999,2864
999,2934
999,3494
999,4280
999,4319
1000,103
1000,144
1000,4716
1002,2295
1005,693
1005,847
1005,1544
1005,2474
1005,3218
1005,3641
1006,916
1006,1398
1007,2007
1008,227
1008,4414
1008,4915
1008,4929
1010,1544
1011,1853
1011,2408
1011,2735
1011,3250
1017,607
1017,618
1017,1797
1017,4871
1019,1226
1019,4218
1019,4459
1021,1730
1022,541
1022,4804
1026,3429
1027,1155
1027,4572
1027,4663
1029,432
1029,1477
1031,41
1031,437
1031,1831
1031,3639
1032,1618
1032,1777
1032,2467
1034,1200
1034,1822
1034,3095
1035,464
1035,667
1035,1628
1035,3316
1039,1751
1039,2092
1039,2185
1039,4376
1041,425
1042,3522
1042,4909
1043,93
1043,1467
1043,1962
1044,2754
1044,3028
1044,3125
1044,4151
1045,1032
1047,3092
1048,1042
1048,2009
1048,2407
1048,4944
1049,127
1050,3625
1051,927
1052,1422
1052,4354
1053,1536
1054,24
1054,4308
1056,4240
1056,4769
1057,2135
1057,3829
1057,4569
1057,4594
1058,109
1060,2081
1060,3480
1060,4618
1063,72
1064,179
1064,291
1064,399
1064,1240
1064,2851
1064,3027
1064,3232
1064,4338
1065,759
1065,923
1065,1307
1065,1470
1065,1550
1065,2936
1065,3194
1065,3199
1065,3400
1065,3896
1065,4047
1065,4118
1065,4287
1065,4385
1065,4438
1065,4864
1065,4950
1067,976
1069,1033
1069,2093
1069,2230
1070,453
1073,968
1073,1055
1073,4497
1073,4717
1075,727
1075,2226
1077,470
1077,1623
1078,541
1078,2430
1079,2707
1079,3026
1080,122
1080,1584
1080,1980
1082,8
1083,1298
1083,1531
1083,2486
1085,1264
1085,1445
1085,1619
1085,2694
1087,1370
1087,3765
1087,4551
1087,4806
1088,396
1088,1258
1088,2798
1088,3795
1088,4501
1090,232
1090,2742
1090,3070
1090,4356
1090,4861
1091,1951
1091,4339
1093,1799
1095,73
1095,1055
1095,1999
1095,3164
1095,3529
1096,1799
1097,1406
1097,1497
1097,1856
1097,1908
1099,445
1099,2743
1099,2966
1099,3072
1099,3369
1099,3678
1100,122
1100,636
1100,1165
1100,1604
1100,2237
1100,2703
1100,3883
1104,205
1104,2528
1104,4372
1104,4637
1105,81
1105,574
1105,654
1108,566
1108,851
1108,1581
1109,25
1109,1447
1109,1453
1109,1899
1109,1931
1109,3480
1109,4832
1110,209
1110,360
1110,1068
1110,1127
1110,4375
1112,205
1114,1492
1115,1163
1115,1637
1115,1814
1115,1935
1115,1978
1115,2053
1115,2059
1115,2715
1115,3013
1115,4115
1115,4677
1116,4549
1118,2044
1122,138
1122,342
1122,2589
1122,3302
1122,3622
1123,2621
1124,4076
1126,2023
1126,2145
1126,2882
1126,3038
1131,4657
1132,3025
1136,68
1136,1231
1136,4962
1137,198
1137,862
1137,2110
1137,2409
1137,4422
1138,10
1138,931
1141,739
1141,2586
1141,2883
1144,1642
1144,1877
1144,2814
1145,749
1145,1191
1145,1958
1145,3261
1146,914
1146,1625
1147,1754
1148,341
1148,1578
1149,3570
1152,1038
1153,1086
1153,1128
1153,1388
1153,1496
1153,1514
1153,1664
1153,3264
1153,3721
1153,4433
1157,4590
1158,54
1160,2055
1165,101
1165,1202
1165,2799
1165,2807
1165,3280
1166,923
1167,1712
1169,4982
1171,259
1171,4580
1177,2276
1177,3827
1178,475
1178,490
1179,887
1179,1456
1179,2772
1180,2962
1180,4186
1184,2006
1186,1478
1186,1799
1186,2605
1186,3865
1187,785
1187,970
1188,465
1188,1084
1188,1416
1188,2762
1188,4133
1188,4580
1189,351
1189,4012
1192,415
1193,915
1194,1218
1194,2499
1197,276
1197,398
1197,3367
1197,4889
1199,493
1199,1121
1200,1983
1200,2047
1201,1133
1205,2677
1205,4580
1205,4677
1208,861
1209,82
1209,285
1209,4999
1214,297
1214,1559
1214,4626
1216,209
1216,2135
1218,415
1218,2865
1218,4961
1219,2037
1220,583
1222,4650
1223,224
1223,1235
1224,3831
1228,297
1228,3320
1230,811
1234,384
1234,3764
1236,437
1237,2586
1239,3181
1239,3442
1239,4936
1240,423
1242,481
1242,1023
1242,1033
1244,4217
1244,4499
1246,2420
1247,4476
1249,453
1249,2383
1249,3153
1250,959
1251,72
1253,3041
1254,3179
1254,3638
1255,548
1257,240
1257,2918
1257,3655
1257,3732
1259,32
1259,1023
1260,93
1260,2216
1261,41
1261,494
1261,3357
1262,1024
1262,1646
1264,2121
1264,2465
1264,3106
1264,3229
1264,4339
1265,3092
1266,1712
1266,3643
1268,1537
1268,4267
1270,30
1270,1964
1270,2301
1271,4650
1272,475
1272,2844
1272,4294
1273,981
1273,1452
1273,1759
1273,2461
1276,82
1277,520
1277,1521
1277,3191
1278,2904
1278,4954
1279,4461
1282,914
1282,1023
1284,2423
1285,1448
1286,1541
1286,3494
1288,1291
1288,2166
1288,3332
1290,418
1291,25
1291,134
1291,291
1291,357
1291,3889
1291,4188
1293,1212
1294,996
1294,3823
1296,866
1297,671
1298,2098
1298,3650
1298,3783
1300,2581
1300,3176
1301,160
1302,4186
1303,3688
1303,4256
1303,4324
1304,441
1304,1659
1304,3923
1304,4364
1305,475
1305,568
1305,624
1305,924
1306,1119
1308,210
1308,1305
1308,1320
1308,1341
1308,3888
1309,1544
1314,76
1317,406
1317,1626
1317,2215
1317,2884
1318,870
1318,4769
1319,258
1319,2058
1319,2948
1319,3298
1323,1037
1324,585
1324,2295
1324,3304
1325,3554
1326,8
1326,3761
1328,127
1328,2959
1328,3089
1328,3116
1328,3461
1328,3614
1331,1130
1331,2228
1331,2518
1331,2756
1331,3754
1332,366
1332,551
1334,3473
1338,1256
1339,4101
1343,651
1343,2182
1343,2699
1344,82
1345,790
1345,873
1346,537
1346,886
1346,4049
1347,1557
1348,159
1348,3849
1349,475
1349,2804
1352,670
1352,3681
1354,4100
1357,2808
1360,1335
1363,1712
1365,135
1365,923
1365,1040
1365,4357
1367,1010
1370,1027
1370,1407
1370,1650
1370,2123
1370,2353
1370,3556
1370,3629
1370,4362
1371,821
1372,916
1372,959
1372,1350
1372,1703
1372,2238
1372,3256
1372,3415
1373,756
1373,2550
1373,3401
1377,988
1381,463
1383,3962
1384,2278
1384,4193
1386,1275
1386,1604
1386,1820
1386,2530
1386,2683
1386,4805
1390,1013
1390,1421
1390,3645
1390,4303
1394,35
1394,3935
1396,599
1396,2683
1397,4668
1399,3345
1399,3599
1399,4231
1400,460
1400,705
1401,4465
1402,44
1402,270
1402,465
1402,519
1402,597
1402,723
1402,2165
1402,2231
1402,2985
1402,3676
1404,279
1405,811
1405,2739
1405,3797
1407,3645
1408,43
1408,97
1408,1280
1408,1281
1408,2687
1408,3204
1408,3508
1408,3719
1408,4312
1408,4810
1409,1173
1410,43
1412,321
1413,1840
1417,1341
1417,1818
1417,4774
1418,680
1418,1626
1418,1974
1418,4153
1419,2640
1419,3651
1419,4128
1419,4648
1421,3778
1423,950
1424,1602
1424,1702
1424,1837
1424,3209
1425,4465
1428,81
1428,432
1428,516
1428,3012
1428,3473
1428,3714
1428,4311
1430,2048
1432,1165
1433,1013
1433,1807
1433,1885
1433,2928
1434,2371
1434,3160
1437,154
1438,415
1438,927
1438,3187
1439,1938
1439,4479
1440,309
1440,623
1441,4943
1444,25
1446,95
1446,1395
1446,1472
1446,2075
1446,2874
1446,3593
1446,3921
1446,4186
1446,4483
1446,4800
1449,409
1449,828
1449,2656
1450,4006
1451,2025
1452,3638
1454,2167
1454,3429
1454,3809
1456,3918
1458,768
1465,1887
1465,3042
1465,3985
1469,4656
1471,2934
1472,3890
1473,194
1474,128
1474,472
1474,2083
1474,2899
1474,3175
1474,3426
1474,3467
1474,4174
1476,1199
1476,1773
1480,900
1481,82
1482,17
1482,3728
1482,3933
1482,4093
1483,82
1484,3509
1485,2473
1485,3154
1487,236
1487,3676
1488,62
1488,4718
1489,101
1489,880
1489,4238
1491,995
1491,2995
1491,4018
1494,213
1495,728
1495,1872
1498,939
1498,1878
1498,1946
1498,1983
1498,2110
1498,3634
1499,153
1499,3140
1500,1132
1500,2321
1501,1452
1501,2110
1503,170
1505,954
1507,372
1507,2760
1507,2853
1507,3832
1507,3962
1508,3576
1509,105
1509,675
1510,345
1510,432
1510,3396
1512,1283
1512,4251
1513,1502
1513,2209
1513,4095
1517,2127
1518,438
1519,591
1523,1370
1523,1683
1523,3826
1524,633
1524,1371
1524,1545
1524,2885
1525,445
1525,1055
1525,1616
1525,1754
1525,2206
1525,2937
1529,4357
1530,727
1530,2502
1530,3247
1530,4456
1530,4745
1532,82
1534,2446
1534,4157
1535,1888
1536,346
1538,566
1538,723
1538,1691
1538,2783
1540,2538
1540,2700
1540,4038
1540,4351
1542,3579
1542,4552
1543,493
1543,1368
1543,3072
1543,3627
1543,4061
1543,4400
1545,1890
1546,1730
1547,3655
1548,373
1549,651
1549,4185
1552,48
1552,1558
1552,3726
1552,4170
1553,4759
1554,1009
1554,2545
1554,3039
1559,930
1560,670
1563,646
1563,1038
1565,45
1565,1542
1566,786
1568,3920
1570,2399
1571,1240
1572,468
1573,4765
1577,909
1577,1830
1579,87
1579,1794
1579,2089
1579,4578
1579,4607
1580,1055
1582,263
1582,4408
1585,40
1586,1108
1587,2105
1588,548
1589,2353
1590,35
1590,323
1590,497
1591,696
1591,2738
1592,141
1594,1788
1596,1594
1596,2700
1597,498
1597,2176
1597,2602
1597,2630
1597,3906
1597,4590
1600,227
1601,122
1603,647
1603,2674
1605,209
1605,1125
1607,198
1610,297
1610,1880
1610,2705
1612,1437
1612,1843
1613,2444
1614,399
1614,2102
1614,2463
1615,129
1616,2587
1617,65
1620,2054
1620,2836
1621,256
1621,1633
1621,2514
1621,2691
1621,3564
1621,4562
1622,930
1624,3232
1627,1245
1627,1531
1628,657
1628,1398
1630,520
1631,2061
1631,4397
1634,1593
1634,2963
1634,3493
1635,591
1635,4491
1639,1707
1639,2237
1639,3284
1639,4599
1639,4845
1640,3480
1640,3866
1640,4134
1640,4670
1641,668
1641,1701
1641,2223
1643,282
1643,2916
1644,93
1644,259
1644,2298
1649,1560
1652,4076
1654,1459
1654,2015
1654,2632
1655,705
1656,1560
1657,105
1657,716
1658,727
1660,331
1660,4091
1662,1694
1662,2084
1663,157
1665,501
1665,1567
1665,4114
1665,4668
1667,4686
1668,738
1668,3737
1670,234
1671,398
1672,1243
1673,2370
1673,4462
1674,1522
1675,18
1675,93
1676,1269
1678,738
1678,2398
1678,2881
1678,4474
1679,539
1681,4930
1685,768
1685,3328
1685,4167
1686,451
1686,855
1687,363
1689,437
1689,4991
1690,1134
1690,4326
1694,3050
1696,221
1696,3873
1696,4019
1699,108
1699,771
1699,2241
1699,2502
1699,3336
1700,104
1702,3415
1702,4687
1704,60
1704,2878
1705,4344
1708,524
1708,1779
1709,2999
1711,1757
1711,2299
1711,2681
1711,4649
1712,336
1713,905
1714,3509
1715,4932
1716,1452
1716,2933
1719,391
1719,1861
1720,4494
1721,828
1722,1533
1723,234
1724,157
1724,2112
1727,784
1727,2496
1727,4102
1729,2209
1732,2525
1732,4079
1734,123
1737,1335
1738,4716
1740,1476
1741,1307
1741,1949
1741,2763
1741,3378
1742,1255
1742,4671
1743,414
1746,4139
1747,636
1748,1058
1750,758
1752,1063
1757,2067
1757,2700
1758,1536
1760,234
1761,519
1761,1811
1761,3253
1762,215
1762,521
1762,636
1762,970
1764,2067
1764,3338
1767,1255
1767,2183
1768,3968
1769,1032
1769,1844
1769,3409
1769,4153
1769,4305
1770,272
1771,414
1775,3429
1775,3570
1775,4429
1776,3252
1776,3420
1776,3926
1776,4042
1777,594
1777,2792
1777,4507
1778,3415
1780,2127
1780,4580
1782,46
1786,2295
1786,2420
1786,3746
1786,4390
1787,4953
1791,43
1791,457
1791,749
1791,888
1791,2255
1792,1074
1793,3507
1793,4439
1795,2559
1795,4077
1796,4865
1799,1472
1799,2234
1800,1081
1801,811
1801,1882
1803,2548
1805,205
1808,414
1808,1883
1808,2127
1808,2727
1808,4897
1810,99
1810,360
1810,2295
1810,3239
1813,4769
1815,749
1815,813
1816,2836
1819,1730
1819,2000
1821,970
1823,159
1824,571
1825,597
1826,93
1828,4580
1829,599
1831,86
1831,1605
1832,2025
1834,1626
1837,4003
1838,740
1845,1733
1845,4608
1847,647
1849,859
1850,206
1850,1263
1851,321
1855,1623
1856,813
1856,1578
1858,8
1858,1911
1859,1560
1862,785
1863,42
1863,261
1863,652
1863,4590
1863,4697
1866,4766
1870,990
1871,1799
1871,3942
1873,1292
1874,3797
1876,1130
1876,2236
1881,1448
1881,4296
1891,2127
1893,3579
1894,4290
1894,4845
1895,3334
1900,415
1900,3611
1901,213
1902,264
1902,2122
1903,958
1904,2274
1904,2629
1904,4749
1905,425
1905,3008
1905,3017
1905,3100
1905,3709
1907,3880
1908,238
1908,553
1908,861
1908,3099
1908,3293
1909,1267
1909,4580
1910,3090
1910,3833
1910,4947
1914,82
1915,231
1915,379
1915,524
1915,1020
1915,2304
1915,3668
1915,4008
1916,4303
1917,46
1917,4592
1918,1528
1918,2843
1919,1897
1920,157
1920,4935
1922,716
1922,1274
1922,2222
1923,1248
1924,2196
1924,3339
1924,4995
1925,572
1925,4502
1928,1920
1929,727
1929,1245
1929,3431
1930,279
1936,783
1939,1100
1939,4298
1940,48
1941,363
1941,4299
1942,4121
1943,1575
1945,4580
1948,1413
1950,977
1953,458
1953,2511
1953,2866
1954,2680
1957,2430
1957,3157
1957,4002
1963,4357
1966,3570
1967,1058
1968,215
1968,1865
1968,2482
1968,4419
1969,1244
1969,4023
1970,3475
1973,491
1973,2095
1973,2768
1973,3170
1974,903
1974,2080
1974,4048
1975,1229
1979,1757
1981,453
1981,3797
1982,364
1983,1846
1984,1594
1986,4647
1987,201
1987,3309
1987,3397
1990,2351
1990,4656
1992,698
1992,2778
1994,2583
1994,3317
1994,3429
1995,3390
1995,3415
1996,394
1996,681
1996,1175
1996,2252
1996,2908
1996,2988
1996,4504
2000,1143
2000,4232
2001,373
2003,3189
2003,4952
2004,1134
2004,4068
2004,4993
2005,1072
2005,1431
2006,1544
2008,4832
2010,2032
2012,95
2012,3629
2012,3743
2014,769
2017,511
2017,3651
2018,813
2019,970
2020,109
2020,1162
2020,1226
2021,395
2021,920
2021,1355
2021,2937
2021,3459
2021,4067
2022,1176
2024,148
2027,1941
2028,1522
2028,3978
2029,2237
2030,4875
2033,1633
2033,2735
2034,30
2038,4476
2039,4657
2040,169
2040,2177
2042,520
2042,2050
2043,1792
2044,2663
2044,3286
2044,4148
2044,4324
2045,959
2046,4953
2049,1253
2052,87
2056,591
2057,3102
2060,1185
2060,1784
2061,1371
2062,4101
2063,78
2063,103
2063,480
2064,1560
2065,2016
2065,4264
2065,4631
2066,396
2067,132
2067,153
2067,418
2067,1243
2067,2214
2067,2525
2067,3582
2067,4363
2068,307
2068,1452
2068,3501
2070,255
2070,2608
2070,4641
2072,4532
2073,634
2074,2279
2075,624
2075,1018
2076,2469
2076,4680
2077,985
2077,4510
2078,3988
2084,1258
2085,1165
2088,1475
2088,4846
2089,187
2090,4037
2092,155
2092,509
2092,678
2092,1373
2092,1490
2092,1630
2092,1856
2092,1865
2092,4434
2092,4766
2092,4882
2093,462
2093,3230
2093,4780
2093,4958
2095,93
2095,499
2096,930
2096,3394
2096,3727
2100,791
2102,218
2103,105
2103,2585
2103,2656
2103,3800
2105,1885
2105,3478
2106,287
2107,2372
2107,2882
2107,3232
2108,276
2108,4853
2113,221
2114,1086
2115,493
2124,213
2125,53
2125,62
2125,321
2125,3486
2126,1119
2128,671
2128,4542
2129,32
2130,139
2130,663
2131,1330
2131,1393
2132,583
2133,4227
2134,1342
2135,591
2137,1875
2137,2237
2137,3471
2137,4672
2137,4845
2139,627
2142,133
2142,4845
2143,101
2143,1841
2144,32
2144,2395
2144,3363
2146,1333
2147,1944
2149,829
2150,133
2152,3786
2153,1448
2155,2879
2158,2098
2162,2579
2163,3476
2164,171
2164,1296
2164,4011
2164,4206
2165,181
2165,2116
2165,2834
2168,599
2168,2981
2168,4335
2169,2908
2170,1786
2170,2328
2170,2698
2170,3823
2170,4782
2171,750
2171,1847
2173,8
2178,2058
2178,2387
2178,2861
2179,1799
2179,4233
2180,2702
2180,3598
2180,4549
2181,2176
2181,2662
2181,2728
2181,3407
2181,3988
2184,811
2188,3629
2189,536
2190,373
2190,460
2190,2720
2192,1248
2192,1293
2192,1341
2194,537
2194,924
2195,2135
2197,1710
2199,529
2199,3355
2199,3562
2199,4860
2202,1630
2202,2258
2202,2644
2202,3780
2203,738
2203,932
2205,481
2205,4723
2207,339
2207,737
2207,2869
2208,627
2210,2866
2211,1047
2215,4443
2217,32
2217,4456
2220,522
2220,2592
2220,3195
2221,887
2224,1790
2225,1092
2225,1407
2225,2016
2225,2910
2227,784
2229,396
2229,2442
2229,3291
2233,4845
2235,1962
2235,2314
2235,2706
2235,4965
2236,4229
2240,862
2240,2123
2243,2825
2243,2863
2243,3281
2244,434
2247,44
2249,696
2250,1814
2251,1797
2253,170
2254,2171
2254,3573
2257,217
2259,1962
2259,3499
2260,1522
2261,548
2262,87
2262,493
2263,3
2263,1581
2265,2507
2267,480
2267,3452
2268,1159
2268,3605
2268,4695
2269,1872
2270,984
2270,2403
2270,2428
2270,2639
2270,3787
2272,493
2273,1962
2275,363
2275,3450
2279,978
2280,2670
2280,3225
2281,1856
2282,2266
2282,3140
2288,3480
2289,153
2289,3778
2290,1524
2291,106
2291,248
2291,1934
2291,3267
2291,3685
2293,491
2294,1414
2296,678
2297,784
2297,2285
2297,3684
2302,122
2303,1590
2304,3877
2306,413
2306,3700
2307,1799
2308,44
2309,493
2309,1249
2309,4136
2310,3203
2311,114
2311,1429
2311,1476
2312,4846
2313,599
2315,32
2317,4831
2319,675
2322,1388
2323,1820
2323,3066
2323,3073
2323,4398
2324,2136
2325,851
2327,2025
2327,2797
2327,3109
2327,3692
2327,4936
2329,2717
2329,2859
2329,4359
2332,132
2332,255
2332,371
2332,1520
2332,3281
2333,537
2333,1753
2333,1773
2333,3724
2333,4292
2333,4549
2335,349
2336,1119
2340,1846
2341,599
2342,2640
2343,4662
2344,2688
2345,1464
2347,4827
2347,4908
2350,2427
2355,144
2355,4874
2356,579
2356,2396
2358,352
2359,584
2359,3467
2361,157
2363,2237
2364,460
2365,1333
2367,827
2367,3358
2368,931
2369,1630
2370,661
2373,1335
2373,3795
2374,1274
2374,3554
2378,474
2380,1305
2382,147
2384,2171
2385,2161
2385,3575
2389,2013
2390,1630
2390,4556
2392,82
2392,201
2393,976
2394,1063
2394,1464
2394,1991
2395,848
2395,2997
2397,903
2399,1322
2400,159
2400,406
2400,2044
2400,3019
2400,3375
2400,3704
2400,3996
2401,740
2401,3437
2402,1464
2403,2790
2404,3788
2405,346
2405,813
2405,3530
2405,4436
2406,1533
2408,665
2411,43
2411,3585
2411,4482
2413,946
2413,2892
2414,3761
2416,4433
2417,175
2418,847
2419,2512
2419,2801
2419,4040
2419,4048
2421,396
2421,4199
2422,32
2425,1848
2430,1466
2431,476
2432,363
2432,1852
2434,350
2434,1551
2434,3753
2435,600
2435,4645
2436,1258
2437,472
2438,425
2439,1502
2439,2350
2439,3335
2439,4135
2441,1544
2442,266
2442,607
2442,4126
2442,4712
2443,2387
2444,671
2448,236
2450,1033
2452,1865
2453,1940
2454,2161
2455,4076
2458,1811
2459,813
2459,3563
2460,445
2462,219
2462,2574
2466,3571
2466,4909
2470,4657
2472,324
2472,3674
2475,468
2476,4203
2477,1195
2481,755
2483,349
2483,2409
2485,769
2485,4346
2486,132
2487,217
2487,2728
2487,3340
2488,2897
2488,3883
2489,234
2490,334
2491,396
2492,2190
2493,2459
2494,1063
2494,4532
2495,3570
2497,1542
2498,547
2498,654
2498,1044
2498,1912
2498,2630
2498,3902
2500,2886
2500,4659
2501,1382
2501,1398
2501,3713
2501,4726
2505,255
2505,4072
2508,1077
2509,4858
2519,4101
2520,2031
2521,215
2521,233
2521,1190
2521,1241
2521,3964
2521,4752
2522,4249
2523,114
2524,1594
2525,445
2525,3040
2525,3407
2525,4735
2527,1414
2527,3462
2527,3932
2529,438
2531,3685
2533,202
2533,2007
2533,3578
2534,1962
2535,915
2535,2852
2537,1940
2539,2723
2540,127
2540,133
2540,1912
2540,3905
2541,938
2542,946
2543,2514
2544,4190
2548,1459
2548,2614
2548,4143
2548,4915
2551,544
2551,4814
2551,4979
2553,432
2554,2778
2554,4064
2556,44
2556,846
2556,967
2556,997
2556,1172
2556,1238
2556,1380
2556,3313
2556,3494
2556,3537
2556,3983
2556,4657
2557,331
2557,395
2557,2256
2557,3456
2557,4583
2558,1332
2558,4915
2559,2376
2560,493
2561,68
2563,393
2564,1807
2565,1459
2566,2408
2569,930
2569,1707
2569,4898
2570,4241
2571,8
2571,3436
2572,104
2572,4020
2575,1287
2578,507
2578,721
2578,738
2578,1116
2578,1366
2578,4776
2579,258
2580,87
2580,957
2580,2277
2580,2632
2580,4496
2580,4723
2583,522
2586,76
2586,4580
2591,24
2595,140
2595,2424
2595,2890
2595,3057
2595,3341
2597,1594
2598,1617
2598,2646
2599,209
2600,415
2600,603
2600,1712
2600,1848
2600,2349
2600,3244
2600,3763
2600,4257
2601,1522
2603,131
2607,19
2610,2375
2612,4357
2612,4793
2613,1924
2613,3124
2613,4109
2618,119
2618,4101
2623,1435
2623,2937
2623,3251
2623,4461
2625,1698
2626,1526
2627,474
2629,1504
2633,3270
2634,3642
2635,1999
2637,2081
2640,8
2641,1846
2641,4374
2642,2586
2643,1856
2643,3099
2643,4579
2645,646
2646,61
2646,105
2646,643
2646,1921
2646,3068
2646,4447
2647,1754
2650,934
2652,1295
2652,4920
2653,1232
2654,553
2654,4481
2655,848
2657,3558
2657,4932
2658,1896
2658,3711
2659,4114
2660,4549
2662,1416
2662,3299
2665,1212
2665,1257
2666,5
2666,193
2666,206
2666,776
2666,1398
2666,1517
2666,2071
2666,3351
2666,3762
2666,4341
2666,4832
2668,579
2668,822
2668,2026
2669,2424
2670,584
2670,4063
2676,340
2679,1783
2680,1263
2681,3371
2684,228
2688,1165
2689,1920
2691,950
2691,2176
2691,3917
2691,4295
2691,4901
2692,1659
2692,1818
2692,4512
2693,490
2695,2239
2695,2547
2699,3797
2701,1799
2701,3559
2703,723
2704,1151
2704,1296
2707,856
2707,3152
2707,4052
2707,4659
2708,445
2709,1165
2709,1594
2711,2409
2711,3561
2712,1089
2716,2201
2723,2468
2724,2
2724,413
2724,632
2724,670
2724,1688
2724,2174
2724,2732
2724,2908
2724,3065
2725,2622
2726,1003
2726,1632
2726,2863
2729,321
2730,2985
2730,4749
2731,1712
2733,43
2736,689
2737,698
2745,536
2745,3861
2746,2379
2747,673
2748,1068
2748,3716
2749,1967
2750,1839
2751,738
2752,2252
2753,219
2755,2434
2755,4778
2756,205
2756,975
2756,2130
2758,2619
2761,1263
2761,4820
2761,4932
2764,2970
2764,4249
2765,1712
2769,2974
2769,3423
2770,481
2770,1961
2770,2679
2770,3094
2771,4295
2772,53
2772,498
2772,813
2772,1119
2772,4396
2772,4559
2774,2720
2774,4800
2775,410
2775,2797
2775,3778
2776,394
2777,3507
2780,2044
2781,713
2782,1900
2784,1122
2785,1690
2786,959
2787,1292
2791,640
2794,1176
2794,1340
2794,1422
2795,3817
2795,4575
2796,1365
2797,2141
2801,166
2801,479
2801,718
2801,1181
2801,1313
2801,1333
2801,1955
2801,2415
2801,4403
2801,4584
2801,4680
2802,217
2802,3177
2802,4890
2803,32
2805,627
2805,3843
2805,4772
2808,1337
2809,876
2811,599
2812,144
2812,4658
2815,159
2815,3415
2817,1993
2818,4845
2819,3093
2819,3402
2819,3501
2821,1651
2823,32
2826,4206
2827,1257
2829,2013
2831,1122
2832,1037
2832,1398
2837,2723
2839,3282
2839,3415
2840,1388
2840,3662
2841,740
2846,360
2847,1032
2847,2440
2848,231
2854,1143
2854,4001
2855,1630
2855,4415
2856,1927
2856,4129
2856,4465
2857,80
2857,2609
2857,3012
2860,1278
2861,1236
2861,1289
2862,1630
2864,887
2867,1430
2868,777
2869,2390
2869,4196
2870,4846
2873,755
2873,1493
2876,2715
2876,4445
2880,165
2880,393
2882,390
2882,2779
2885,1967
2888,749
2889,2886
2892,335
2892,414
2892,1522
2892,3542
2893,3429
2893,4529
2894,356
2896,1337
2896,3636
2901,128
2902,2510
2903,2067
2906,2171
2909,251
2909,458
2910,2595
2911,2269
2912,1951
2912,4056
2914,699
2915,407
2916,123
2916,2457
2919,2757
2920,2950
2923,21
2923,541
2923,921
2923,1593
2923,2370
2923,2562
2923,2836
2923,3443
2923,3755
2923,4416
2923,4563
2924,4232
2924,4337
2925,236
2925,2194
2925,3767
2927,383
2927,4246
2928,804
2930,1215
2930,3844
2931,1321
2932,1009
2934,3166
2934,3739
2939,1702
2942,1537
2942,3680
2943,566
2943,3652
2944,588
2945,2908
2947,249
2947,692
2949,2121
2950,2447
2952,1072
2952,2002
2953,263
2954,2171
2955,375
2955,3001
2956,903
2956,3778
2960,2594
2960,3178
2960,4243
2961,35
2964,4117
2964,4551
2967,924
2968,75
2968,615
2968,618
2968,905
2968,2219
2968,3638
2968,4580
2968,4727
2972,107
2972,3063
2972,4421
2975,887
2975,1683
2975,3203
2976,1551
2977,912
2978,856
2979,1299
2980,1380
2982,8
2987,44
2989,4716
2990,945
2990,2055
2991,76
2991,261
2992,2720
2993,1086
2993,3037
2994,123
2996,1263
2997,7
2999,1712
3000,1335
3002,309
3003,885
3004,3685
3005,2406
3006,2431
3006,4456
3007,76
3007,123
3007,864
3007,3628
3007,4765
3009,162
3010,3693
3010,3723
3010,4639
3010,4657
3011,853
3014,1827
3014,3869
3015,4551
3018,1480
3021,739
3022,190
3022,784
3022,1875
3022,3830
3023,4064
3025,1057
3026,30
3026,65
3026,668
3026,1515
3026,4369
3026,4394
3029,2269
3031,2316
3031,3824
3031,4973
3033,1522
3034,375
3034,2995
3034,3398
3043,1016
3043,1978
3043,4925
3044,1128
3045,1542
3045,4714
3046,1382
3046,3509
3047,209
3047,4823
3049,1232
3050,2314
3051,222
3051,2237
3052,41
3053,1462
3054,1157
3054,2423
3054,3721
3055,813
3056,276
3056,1526
3058,1524
3058,3618
3058,4004
3058,4191
3059,2719
3059,3274
3060,175
3060,1139
3060,2672
3060,3061
3060,4688
3062,997
3064,2428
3067,1275
3067,3118
3069,4481
3071,1827
3071,3418
3073,4378
3074,2131
3075,2882
3078,3127
3079,1638
3080,787
3080,1806
3080,1978
3081,976
3081,1590
3081,1756
3081,1859
3081,4041
3081,4232
3082,1465
3082,3793
3083,3832
3083,4926
3084,174
3085,3026
3086,2941
3086,3073
3088,8
3088,391
3088,1392
3088,2035
3088,3509
3088,3677
3089,562
3091,2590
3092,1602
3094,76
3095,519
3095,584
3096,851
3096,3892
3102,1134
3102,4731
3103,2576
3105,4680
3108,1993
3110,618
3110,2357
3110,3817
3111,2237
3112,3565
3113,1730
3114,103
3115,259
3116,1121
3117,1210
3117,4411
3119,1038
3120,2983
3121,2497
3123,43
3124,1254
3124,4029
3125,1666
3125,2079
3125,2728
3126,4510
3128,4909
3129,856
3130,384
3131,1016
3131,1154
3131,1564
3131,2917
3131,3407
3132,1363
3132,3260
3133,2596
3134,371
3134,566
3134,2451
3134,3179
3134,3509
3134,3772
3135,2430
3136,1514
3138,1446
3141,4692
3141,4909
3142,1033
3142,4498
3143,106
3143,1609
3144,32
3145,1522
3146,3998
3147,2328
3147,3787
3149,3170
3150,281
3151,530
3151,599
3153,880
3153,1542
3154,2567
3157,1182
3157,1814
3157,2151
3158,3066
3159,1283
3163,1546
3165,4680
3167,1476
3169,2720
3172,1628
3172,1877
3174,916
3177,4832
3180,181
3182,3384
3183,3073
3184,373
3185,1443
3188,42
3190,32
3192,1063
3193,2503
3193,4765
3194,62
3194,690
3196,1633
3198,403
3200,854
3200,3229
3201,829
3202,668
3202,3561
3202,4380
3203,938
3206,345
3207,340
3207,2697
3207,3370
3207,4323
3208,314
3210,2171
3211,1263
3211,4749
3212,1735
3214,342
3216,1113
3216,4336
3217,627
3219,532
3220,1198
3220,2330
3220,4260
3221,224
3221,2998
3222,68
3222,1063
3222,2266
3224,51
3225,627
3226,3488
3228,3098
3231,1465
3232,1924
3232,2127
3232,4547
3233,2547
3234,4433
3235,2151
3237,2993
3240,291
3242,1875
3243,1964
3245,3596
3246,3050
3248,1560
3249,1113
3249,3586
3252,19
3252,4234
3254,2905
3255,1320
3257,2882
3258,2301
3261,2648
3261,4589
3262,1642
3265,2697
3268,1133
3269,2932
3271,583
3273,2239
3277,393
3277,630
3277,4405
3278,2444
3278,4530
3279,586
3283,587
3283,1790
3283,1952
3287,927
3288,131
3288,4854
3289,4227
3291,913
3291,4056
3292,493
3294,2081
3295,87
3296,921
3296,1165
3297,1198
3300,2614
3300,3847
3300,4417
3301,4725
3303,153
3305,1128
3306,1165
3306,2951
3307,1322
3310,1668
3311,553
3311,4693
3312,1812
3314,2054
3317,475
3321,678
3322,2586
3325,4210
3326,575
3326,1539
3326,1860
3326,1977
3326,1995
3326,4386
3327,3099
3327,4300
3330,259
3331,32
3331,82
3331,1156
3331,1470
3331,1805
3331,2276
3331,2685
3331,2984
3333,3374
3334,603
3337,822
3337,3774
3337,4852
3337,4908
3338,415
3340,282
3340,1322
3340,1455
3340,3268
3340,4175
3342,194
3343,2302
3344,902
3344,2167
3346,4273
3347,2326
3348,3316
3349,1836
3349,3457
3349,3576
3349,4232
3349,4747
3350,402
3353,1287
3354,351
3359,2596
3360,4303
3361,3797
3364,1715
3365,2959
3366,2447
3368,3315
3370,36
3370,61
3370,198
3370,618
3370,2577
3370,2616
3370,4473
3372,3739
3372,4524
3374,4953
3376,3962
3379,1961
3379,3406
3382,153
3383,1545
3383,4490
3384,542
3386,1812
3388,542
3388,1347
3388,3447
3389,2853
3391,1219
3391,3028
3392,3106
3393,1527
3399,2667
3403,3540
3404,1252
3405,1098
3405,3992
3405,4564
3405,4680
3408,2859
3410,4174
3411,321
3411,1206
3411,2081
3412,259
3414,1703
3415,258
3415,287
3415,1066
3415,3707
3416,254
3416,3475
3417,1520
3417,2295
3417,3285
3417,4024
3417,4156
3417,4636
3417,4921
3419,395
3421,910
3421,4548
3422,209
3422,3387
3423,519
3424,4386
3425,1636
3425,4072
3427,1658
3428,1233
3433,1111
3434,1094
3435,3788
3439,1492
3439,3476
3444,3089
3445,727
3445,3822
3446,2586
3447,3352
3449,2778
3449,4221
3451,977
3451,1245
3452,1275
3452,1504
3453,53
3453,4622
3454,41
3455,342
3455,2082
3455,2586
3455,4351
3456,127
3456,2148
3458,1157
3462,202
3462,205
3462,210
3462,269
3462,437
3462,939
3462,1022
3462,1307
3462,1574
3462,2362
3462,2886
3462,4680
3463,4932
3464,3540
3465,2337
3467,54
3468,3831
3469,1533
3469,4247
3473,221
3473,2331
3474,2127
3477,1844
3478,3738
3479,2882
3481,3765
3484,2727
3484,4746
3487,1047
3488,1682
3489,3480
3491,2067
3492,40
3493,1185
3493,1648
3493,3107
3495,19
3496,347
3496,1185
3496,3073
3498,105
3501,636
3502,1648
3503,2346
3506,190
3507,205
3509,1207
3510,513
3510,1593
3511,851
3512,464
3512,4046
3513,970
3514,336
3515,2237
3516,671
3516,970
3516,4712
3517,82
3518,3166
3519,1693
3520,3
3520,53
3520,311
3520,372
3520,1298
3520,1546
3520,1868
3520,2051
3520,2858
3520,3156
3520,4657
3521,13
3523,1128
3525,2390
3526,72
3526,334
3526,959
3526,1462
3527,4412
3528,2950
3528,2989
3531,227
3532,970
3532,2864
3532,4106
3533,1593
3533,4749
3534,2025
3535,1616
3535,4988
3536,939
3538,2167
3539,3568
3540,4615
3543,776
3544,1493
3545,4077
3547,4680
3548,114
3548,776
3548,3570
3549,445
3550,2440
3552,811
3557,1229
3560,1630
3565,221
3566,600
3566,2109
3566,4241
3567,2156
3570,2631
3571,853
3571,4566
3572,259
3574,1646
3577,3401
3580,909
3581,1875
3581,4171
3583,1257
3588,2428
3588,3751
3589,1754
3589,2013
3591,35
3591,571
3591,4206
3594,1889
3594,2767
3595,32
3596,2042
3599,3194
3599,4320
3600,1522
3601,915
3603,1464
3605,174
3605,441
3605,491
3605,496
3605,500
3605,511
3605,713
3605,916
3605,1971
3605,2678
3605,3097
3605,3490
3605,3597
3606,3525
3606,3998
3607,4716
3609,2015
3610,2243
3610,4744
3612,2713
3612,4909
3613,1842
3616,3406
3617,1020
3618,3387
3619,807
3620,8
3620,3631
3621,2723
3623,1174
3623,2586
3625,870
3625,2886
3632,1023
3633,1901
3637,1502
3638,4340
3639,2013
3640,1514
3641,75
3641,2175
3642,4033
3642,4780
3643,612
3643,2971
3644,1847
3646,4680
3647,2201
3648,2879
3648,4657
3653,4615
3654,3988
3654,4968
3656,3270
3657,1822
3659,474
3659,4146
3660,3219
3661,553
3665,259
3665,1443
3665,3524
3665,3590
3666,1305
3667,2086
3668,1944
3669,3292
3670,3341
3671,3797
3672,3186
3674,2428
3675,1541
3678,1556
3678,3628
3679,2171
3683,619
3683,1068
3683,2386
3683,3137
3686,159
3686,167
3686,441
3686,668
3686,1682
3686,2406
3686,3710
3687,696
3689,360
3689,3263
3689,4026
3690,2997
3691,2830
3692,1745
3692,2696
3695,3425
3696,8
3698,2167
3702,946
3703,2157
3705,4101
3706,749
3707,2438
3708,4206
3712,2044
3715,339
3715,3845
3718,2632
3718,4099
3718,4452
3722,1257
3725,542
3728,60
3728,3555
3728,4186
3729,458
3731,473
3731,2759
3733,2256
3734,309
3735,705
3735,4472
3736,340
3736,3636
3737,3
3739,2965
3740,1105
3741,723
3741,1361
3741,1493
3741,2503
3741,3677
3744,2604
3745,55
3745,4206
3746,12
3746,1063
3746,1102
3746,4310
3747,4694
3747,4797
3748,524
3750,1536
3752,1023
3754,109
3754,1408
3754,1692
3754,2759
3754,3585
3754,4665
3756,2503
3757,258
3757,4358
3758,3988
3759,2462
3760,728
3760,3338
3760,3576
3767,771
3769,106
3769,878
3770,1701
3771,81
3773,629
3773,4407
3775,3988
3776,4461
3777,2797
3778,2886
3779,657
3780,3382
3782,123
3784,321
3785,238
3785,245
3785,3223
3785,4551
3788,861
3788,1130
3788,2110
3788,2360
3788,2433
3788,3025
3789,0
3790,2586
3791,3823
3792,2646
3794,970
3796,104
3797,930
3798,4105
3801,2159
3803,1542
3804,1135
3804,1465
3804,4297
3805,2467
3807,2381
3807,2497
3807,3227
3808,109
3808,3035
3808,4883
3810,1712
3811,819
3812,600
3813,4119
3814,109
3815,2596
3816,1214
3816,2122
3816,2269
3818,4336
3819,2899
3821,4405
3823,468
3823,4636
3824,706
3825,880
3825,4142
3827,978
3828,1889
3828,4007
3829,141
3831,2988
3835,93
3836,2588
3837,2661
3838,887
3839,1289
3840,48
3845,56
3845,3570
3848,3570
3850,1773
3852,3751
3854,481
3855,291
3856,3125
3857,54
3857,489
3857,788
3857,3649
3857,4716
3858,1521
3859,2176
3860,81
3862,2845
3863,1048
3864,3636
3865,776
3867,3544
3868,2176
3871,4476
3873,86
3873,1436
3873,3309
3874,2222
3877,4932
3879,696
3880,678
3880,1414
3880,3927
3880,4045
3881,496
3882,374
3885,3576
3886,3909
3886,4206
3888,2375
3888,2773
3888,2958
3888,3466
3888,3569
3890,23
3890,32
3890,693
3890,1315
3890,3697
3890,3922
3894,1984
3895,336
3895,1447
3895,2606
3895,4259
3895,4928
3897,2985
3898,4329
3899,2907
3900,2648
3901,4575
3904,261
3908,1434
3910,4206
3911,114
3913,2237
3916,3509
3917,1897
3917,4053
3919,3847
3924,1156
3924,4785
3928,970
3929,3302
3930,1947
3931,1313
3934,1164
3936,3645
3937,118
3937,804
3937,1253
3937,3663
3938,3229
3940,3229
3941,464
3944,1363
3945,749
3946,4303
3947,548
3948,324
3948,3988
3949,287
3950,154
3951,1661
3952,1817
3953,1533
3954,1020
3954,1403
3954,2097
3956,958
3956,4466
3957,2807
3957,3232
3959,3432
3960,2131
3961,4532
3962,276
3962,640
3962,4274
3963,1683
3965,123
3966,536
3967,123
3968,2478
3969,3781
3971,1480
3972,16
3972,1859
3972,2479
3973,3423
3974,1470
3975,4728
3976,790
3979,1335
3980,3219
3981,106
3981,3636
3982,275
3986,1633
3987,3570
3990,830
3991,300
3991,945
3993,210
3994,2996
3995,93
3996,2675
3997,791
3999,2706
4000,3036
4003,1063
4003,1310
4003,4865
4005,820
4006,46
4008,1024
4009,2706
4010,2243
4013,3116
4014,233
4014,1651
4014,4759
4015,1104
4017,1651
4021,2690
4021,4545
4022,2622
4025,1204
4027,187
4030,1342
4030,4129
4031,2318
4032,4769
4033,1932
4033,3553
4034,2596
4034,3571
4035,279
4035,4258
4035,4784
4036,148
4039,169
4044,8
4046,315
4046,597
4046,731
4046,1168
4046,1965
4046,2198
4046,2276
4046,3504
4046,4640
4054,1629
4055,480
4056,371
4056,445
4057,1415
4058,4274
4060,1865
4062,32
4062,4485
4064,65
4064,838
4064,882
4064,1227
4064,2721
4065,221
4066,1273
4070,2238
4073,3674
4074,3438
4075,179
4076,591
4078,476
4079,744
4080,3509
4081,2167
4082,3554
4084,303
4085,398
4086,364
4086,480
4086,686
4086,1854
4087,467
4087,4244
4088,291
4089,945
4089,2081
4089,3430
4089,4295
4092,154
4092,300
4092,2292
4092,2579
4094,32
4094,4182
4096,1593
4097,647
4099,93
4099,2379
4099,3685
4100,82
4101,977
4102,14
4102,103
4102,556
4102,914
4102,1025
4102,2504
4102,2653
4102,3500
4102,3570
4104,2619
4105,1071
4107,2778
4108,2256
4110,2636
4111,107
4113,838
4114,2590
4116,2609
4117,1061
4118,916
4118,2010
4119,3107
4120,914
4121,504
4122,74
4122,503
4122,522
4122,623
4122,1106
4122,1492
4122,1661
4122,2237
4122,2320
4122,2942
4123,1665
4124,3480
4125,2015
4127,2735
4130,2740
4131,4079
4131,4646
4137,43
4137,4822
4138,3571
4139,4845
4149,180
4149,1350
4150,1039
4152,1864
4153,666
4153,1009
4153,1269
4153,2887
4154,93
4157,438
4157,1842
4157,3238
4157,3319
4158,2231
4159,1154
4160,509
4161,480
4162,4225
4163,2502
4166,1859
4168,217
4169,497
4173,2882
4176,394
4176,503
4176,568
4176,3054
4176,3483
4176,4401
4177,4206
4178,41
4178,344
4179,1504
4180,1421
4180,4423
4180,4786
4183,2191
4184,3189
4187,1630
4189,2331
4192,4430
4193,4144
4195,2357
4198,2816
4200,1330
4200,1479
4200,2532
4200,2941
4200,4488
4202,4258
4203,759
4204,32
4204,1389
4204,2882
4205,2573
4207,3179
4208,4312
4209,654
4210,1960
4212,2637
4213,2002
4216,666
4216,931
4218,970
4219,2444
4221,1898
4222,1949
4224,2594
4225,1726
4226,1347
4226,1830
4226,2214
4227,900
4228,512
4230,2079
4231,995
4231,1100
4231,2468
4231,3401
4231,3546
4232,2198
4236,82
4237,1098
4240,4862
4242,804
4242,4539
4245,2079
4250,1435
4252,4723
4261,977
4262,2171
4262,4435
4263,453
4265,4429
4266,75
4267,342
4267,544
4267,2156
4268,4069
4269,3614
4271,4580
4274,2266
4275,352
4276,40
4277,530
4278,384
4278,476
4278,587
4278,1376
4278,1601
4278,2782
4279,2882
4282,4885
4283,4076
4284,1040
4286,202
4286,4357
4288,3087
4291,1667
4293,109
4294,462
4297,1068
4298,2214
4301,4170
4303,4046
4304,813
4306,2734
4307,182
4307,630
4307,774
4307,4191
4307,4625
4307,4936
4311,1415
4313,287
4313,1675
4315,363
4315,3140
4322,2633
4323,98
4324,169
4324,181
4324,1457
4324,1616
4325,1638
4326,123
4326,3576
4326,3730
4327,131
4327,162
4327,487
4327,861
4327,894
4327,1818
4327,1859
4327,2090
4327,2120
4327,2697
4327,2754
4327,2822
4327,3036
4327,3289
4327,3834
4327,3870
4328,1295
4329,3242
4330,493
4331,165
4332,1854
4332,4877
4333,2434
4334,954
4336,1482
4340,2160
4342,321
4342,4807
4343,1252
4344,2127
4345,1862
4347,1030
4348,32
4349,1598
4350,4300
4352,567
4352,1480
4352,4155
4353,4657
4355,4038
4356,288
4358,127
4358,254
4358,566
4358,1486
4360,4189
4361,3286
4365,2730
4366,228
4368,2916
4371,788
4373,3840
4375,1023
4375,1667
4375,3636
4375,4872
4377,203
4377,1065
4377,3853
4379,3551
4381,950
4382,2351
4383,599
4384,4050
4385,275
4385,1869
4387,2063
4388,1062
4389,2630
4391,1949
4393,101
4399,2766
4399,4148
4403,4440
4404,1712
4404,2355
4406,119
4409,2406
4410,4374
4412,1579
4413,470
4418,3101
4422,1130
4424,3685
4425,430
4425,653
4425,1086
4425,1355
4425,4249
4425,4760
4426,2295
4426,4456
4427,2567
4429,1593
4430,4069
4432,43
4437,3017
4441,1176
4444,4657
4446,4210
4448,2295
4449,2171
4450,1593
4451,1256
4451,1897
4453,485
4453,2759
4454,1550
4455,4206
4456,3427
4457,2740
4458,959
4461,2399
4462,3464
4463,3309
4464,931
4464,4342
4465,2740
4466,1996
4467,1567
4468,109
4470,3468
4473,393
4473,4816
4475,87
4477,1843
4478,198
4484,205
4484,2119
4484,2283
4486,1773
4487,323
4487,4577
4489,4680
4492,3355
4493,2790
4495,3585
4499,274
4500,1020
4501,3154
4503,2617
4508,2350
4508,3584
4509,3551
4510,2682
4510,2797
4510,3139
4510,3872
4510,4442
4511,35
4511,219
4511,739
4511,859
4511,1212
4511,1558
4511,1879
4511,2895
4511,2900
4511,3000
4511,3318
4511,4172
4511,4719
4513,2871
4514,3883
4515,1174
4515,1632
4515,3315
4516,458
4517,3077
4518,1336
4519,1944
4520,363
4521,3614
4522,155
4522,256
4522,2316
4522,2471
4522,2994
4522,4103
4523,1814
4526,3291
4527,2788
4530,2830
4531,1459
4532,2193
4533,791
4535,2632
4536,1630
4538,2589
4540,1011
4540,1683
4541,599
4543,2620
4544,3583
4549,54
4550,3680
4551,1593
4552,3019
4554,2575
4555,2946
4557,2444
4558,298
4560,4186
4563,60
4563,90
4563,648
4563,1218
4563,1351
4563,1446
4563,2586
4563,2863
4565,2595
4565,4705
4567,81
4567,450
4567,1892
4567,4899
4568,3575
4570,1515
4570,3105
4571,379
4573,32
4574,2694
4574,2898
4575,2371
4575,4948
4576,81
4578,913
4578,1629
4578,3658
4581,45
4581,266
4581,1000
4581,1562
4581,4964
4582,1983
4585,2690
4586,221
4588,3933
4590,3106
4591,3998
4592,1442
4593,2176
4593,3171
4594,791
4594,3036
4595,4475
4596,670
4597,916
4598,1998
4601,2845
4602,13
4602,311
4602,1030
4602,1475
4602,1513
4602,1598
4602,2064
4602,2069
4602,2886
4602,3205
4602,3615
4602,3806
4602,4036
4602,4040
4602,4367
4602,4840
4602,4955
4603,4099
4604,774
4605,4549
4606,340
4608,165
4608,2710
4609,3806
4611,2698
4612,1502
4612,3688
4613,4775
4614,1608
4615,2444
4616,4476
4617,2462
4620,1202
4623,3010
4624,1695
4624,4316
4626,667
4626,1291
4626,4894
4626,4993
4627,2173
4628,4405
4629,4298
4630,1712
4631,1896
4633,463
4633,737
4633,3754
4633,4716
4634,3841
4642,758
4643,458
4644,2237
4647,1219
4650,40
4651,123
4652,255
4653,1514
4653,4870
4654,2908
4655,4519
4659,1608
4659,1730
4659,2213
4659,2287
4659,2354
4659,2973
4660,321
4660,4529
4662,390
4666,3751
4668,4413
4669,123
4673,1712
4674,76
4675,198
4675,696
4675,1149
4676,548
4678,2121
4681,1023
4682,3415
4683,4952
4684,2735
4685,4539
4687,1799
4689,2013
4689,2589
4690,416
4691,81
4694,3333
4695,584
4696,35
4696,3276
4696,3540
4696,4289
4697,994
4697,1028
4698,488
4699,1292
4700,4196
4701,4908
4702,599
4702,2907
4703,2899
4704,1226
4704,4978
4706,1464
4708,1659
4709,1299
4710,24
4710,78
4710,274
4710,861
4710,1213
4710,1790
4710,1993
4710,2013
4710,2988
4710,3215
4710,4214
4710,4909
4711,340
4713,1910
4720,2102
4721,398
4722,4211
4723,4980
4724,105
4727,97
4728,1545
4729,1368
4730,491
4730,3277
4730,3920
4732,104
4733,3480
4734,3911
4736,114
4737,205
4738,4186
4740,441
4741,3203
4742,4910
4748,3551
4751,48
4751,627
4751,2478
4751,2813
4751,3103
4751,3125
4751,3467
4751,4615
4753,1116
4754,1544
4755,3871
4756,3570
4757,82
4758,1922
4759,4342
4762,1219
4763,2161
4764,2087
4767,2816
4767,3576
4769,628
4770,432
4777,4171
4779,2444
4780,542
4782,624
4783,624
4787,3036
4789,668
4790,219
4794,900
4795,1341
4798,4377
4799,294
4799,1189
4799,1198
4799,1697
4799,1736
4799,1888
4799,3148
4800,3013
4801,1901
4802,2640
4803,750
4808,2409
4809,110
4809,127
4809,174
4809,251
4809,622
4809,971
4809,1765
4809,2208
4809,2595
4809,3719
4809,4522
4811,415
4812,4170
4815,82
4816,651
4817,4071
4817,4211
4819,4256
4821,4225
4825,1630
4827,2063
4827,3077
4828,1040
4831,3437
4832,2135
4833,1444
4834,1792
4836,3682
4837,3699
4838,2778
4839,35
4841,957
4842,4258
4843,4814
4844,1204
4845,3570
4846,4885
4846,4909
4849,291
4850,2568
4853,1015
4853,1522
4853,3694
4855,395
4855,1372
4855,1840
4855,2569
4856,4476
4858,4193
4859,13
4859,753
4859,863
4859,4449
4860,4141
4863,2079
4866,1470
4867,78
4869,1104
4872,1694
4875,2879
4876,93
4877,2620
4881,4580
4884,931
4886,3330
4888,2648
4891,4831
4892,357
4895,166
4896,159
4896,2604
4896,3624
4900,2886
4901,3767
4902,644
4902,1567
4903,32
4904,2464
4904,3026
4904,4476
4905,570
4906,2673
4907,406
4909,945
4911,3988
4912,2649
4914,547
4917,4211
4919,686
4922,1476
4923,1626
4924,2567
4927,4456
4931,2939
4933,2172
4934,1470
4935,2008
4937,2237
4937,2697
4937,4210
4938,4680
4940,1940
4941,945
4942,4440
4943,1452
4944,3016
4946,1820
4947,3101
4951,1058
4952,441
4953,2807
4957,1031
4959,4680
4960,3189
4963,4144
4966,1664
4967,4270
4970,3501
4971,467
4972,4319
4974,2933
4975,3480
4977,476
4980,1544
4982,2772
4983,40
4984,2886
4986,1993
4987,480
4991,671
4992,217
4992,488
4992,1721
4992,3482
4992,3907
4994,2200
4995,32
4996,4170
4997,1938
4998,2759
