src,dst
0,1
1,2855
2,2502
2,2878
3,12
3,113
3,4881
4,3017
5,137
5,361
5,815
5,992
5,2638
5,2812
5,3348
7,49
7,315
7,4080
9,281
9,825
9,1295
9,2134
9,4004
11,691
11,2710
11,4091
13,251
13,275
16,121
16,1207
16,1258
16,1759
16,2202
16,4431
20,3026
25,3072
26,3126
26,3266
29,167
29,244
29,289
29,539
29,628
29,657
29,750
29,1035
29,1077
29,1163
29,1665
29,1783
29,1959
29,1982
29,2453
29,2592
29,2681
29,3430
29,3633
29,3884
29,3980
31,186
31,760
31,1116
33,212
33,407
33,593
33,826
33,2011
33,4923
33,4942
35,2867
37,18
37,1031
37,2463
37,2681
37,2696
37,4237
37,4945
38,49
38,626
38,4545
39,69
39,4209
40,514
42,91
42,289
42,1289
42,1305
42,2642
42,2751
42,2904
42,4510
43,159
43,277
43,723
43,3076
43,3458
43,3461
47,1344
47,2109
47,3892
47,4793
48,2189
48,2846
48,4945
52,1162
52,1263
52,2068
52,2673
52,3828
52,4172
54,252
54,352
54,1051
54,1595
54,3686
55,2749
55,3036
55,4990
57,3798
58,3126
58,3852
59,1476
59,1664
60,1062
61,14
61,460
61,694
61,922
61,1022
61,1507
61,1531
61,1803
61,1976
61,2066
61,2318
61,2501
61,2697
61,4016
61,4373
61,4707
61,4945
61,4982
62,195
62,706
62,1177
62,1307
62,2039
62,2278
62,2988
62,3692
63,1371
63,1663
63,2518
63,3324
63,3390
64,1670
64,2221
64,2692
64,2990
64,3126
64,4442
64,4672
67,3567
68,1950
68,3208
68,3265
68,3641
68,4877
69,4928
73,444
73,502
73,700
73,1849
73,1943
73,2684
73,3871
73,4421
73,4710
74,215
74,1006
74,1898
74,2407
74,3008
74,3787
74,4392
75,91
75,150
75,156
75,992
75,2629
75,2867
77,4511
81,479
81,880
81,2401
81,2706
81,3772
83,1772
84,1168
84,1259
84,1387
84,2066
84,2782
84,3324
84,4477
84,4817
85,4711
85,4849
86,72
86,167
86,168
86,303
86,1305
86,2963
86,3008
86,4416
86,4931
87,441
87,1652
87,2213
87,3182
87,3444
87,4782
89,344
89,961
89,1378
90,340
90,2581
90,3260
90,3693
90,4659
91,515
91,749
91,3024
92,3252
93,1101
93,1208
95,4072
96,518
96,912
96,1184
96,2318
96,2628
96,2683
96,4289
98,816
98,4901
99,454
99,2253
101,273
101,1917
101,4872
102,30
102,868
102,911
102,947
102,1420
102,3649
102,4265
102,4929
103,91
103,1586
103,1592
103,1809
103,1936
103,2488
103,3218
103,3700
104,36
104,298
104,639
104,731
104,737
104,2441
104,3208
104,3270
104,3514
105,236
105,2435
105,3629
107,442
107,1185
107,1903
109,1077
109,2933
109,3951
110,718
110,1108
110,1259
110,4083
110,4095
110,4529
110,4537
111,314
111,381
111,1352
111,1737
111,2123
111,3252
111,4325
111,4659
112,2283
114,203
114,444
114,657
114,1527
114,3266
115,318
115,798
115,4626
115,4704
116,4386
119,309
119,403
119,1218
119,4370
119,4836
122,27
122,282
122,310
122,418
122,1025
122,1230
122,1623
122,1720
122,2011
122,2156
122,3102
122,3285
122,3637
122,3793
122,4430
123,1863
123,2265
123,2394
123,2867
125,816
125,2534
125,3012
126,73
126,162
127,367
127,2119
127,2687
127,3619
127,3721
127,4195
128,2071
128,2688
131,156
131,448
131,3260
131,4573
132,1681
132,4418
133,3536
133,3563
138,1211
138,2012
138,4574
139,217
139,3023
140,281
140,291
140,3252
140,3641
140,4276
143,78
144,681
144,4825
146,18
146,2618
148,1448
148,2618
148,3149
149,495
149,2103
149,2351
149,2391
149,2598
149,3194
149,3512
149,3731
151,718
151,931
153,3017
154,315
157,808
157,1764
157,1798
157,1896
157,1970
157,3861
158,663
158,2276
158,3139
159,3351
160,56
160,231
160,274
160,467
160,1095
160,1839
160,1911
160,1916
160,2029
160,2191
160,2747
160,3465
160,3584
160,3738
160,3748
160,4168
161,1007
161,1781
161,1917
161,1942
161,2595
161,3742
161,4515
161,4720
161,4833
163,286
163,526
163,809
163,1429
163,1814
163,2051
163,2097
163,2197
163,2223
163,2635
163,2767
163,3131
164,1898
165,228
165,451
165,837
165,1020
165,1332
165,1339
165,1461
165,1476
165,1618
165,2246
165,2677
165,3311
165,3327
165,3542
165,3897
165,4439
166,316
166,344
166,694
166,1371
166,1790
166,1854
166,2109
166,2293
166,2623
166,2733
168,560
169,963
169,3182
170,338
170,864
170,1846
170,4347
171,1917
172,281
172,1313
172,1609
172,2590
172,4251
174,263
175,129
175,193
175,1241
175,1476
175,1716
175,3567
176,1419
177,2320
180,328
180,1807
180,2185
180,2605
180,4410
182,1911
182,2824
185,473
185,2396
185,2492
185,2668
185,2723
185,4128
187,28
187,3324
188,992
188,1436
188,2920
188,3303
188,3724
189,704
189,1577
189,1917
189,2688
190,80
190,4810
191,32
191,1498
192,803
192,857
194,1361
194,2899
194,3017
196,3941
199,267
199,1772
199,3032
200,53
202,1137
204,749
204,798
204,2747
207,428
207,1326
207,2381
207,4739
213,1570
213,1625
213,1715
213,1774
213,2466
213,2647
213,2929
213,3461
218,28
218,236
218,287
218,622
218,795
218,1905
218,1986
218,2011
218,2148
218,2507
218,3530
218,3666
218,4497
218,4928
219,781
219,1173
219,1775
219,3348
221,1585
222,1663
222,1704
222,2416
222,3457
223,1025
223,1253
223,1319
223,2860
223,3729
223,3973
224,285
224,897
224,901
224,1555
224,1804
224,3047
224,3416
224,3544
224,4804
225,3525
225,4628
226,39
226,199
230,355
230,1268
230,1651
230,1833
230,2148
230,2700
230,2878
230,3362
230,4490
230,4741
232,2292
233,18
233,694
233,2027
233,3114
233,3830
233,4636
242,713
242,1399
242,1881
242,1898
242,2231
242,2590
243,420
243,827
243,4202
245,798
245,1578
245,2166
245,2398
245,3123
246,950
246,3438
248,18
248,45
248,217
248,770
248,1004
248,1206
248,1245
248,1289
248,1296
248,2430
248,2496
248,2695
248,2907
248,3017
248,3405
248,3476
248,3496
248,3595
248,3640
248,3753
248,4500
249,41
249,315
249,444
249,1149
249,1776
249,1935
249,2719
250,267
253,292
253,337
253,528
253,1307
253,1384
253,1987
253,3223
253,3675
253,4117
254,150
254,229
254,379
254,534
254,641
254,853
254,1208
254,1209
254,1349
254,2060
254,2361
254,3313
254,3560
254,3561
254,3614
254,3707
254,3979
254,4037
254,4335
254,4388
254,4651
255,2318
256,920
256,3225
256,4277
258,3721
260,79
260,3019
262,244
262,952
262,1071
262,2280
262,4697
264,632
264,771
264,1208
264,1597
264,1915
264,2687
264,3126
264,4363
264,4832
265,28
265,460
266,39
266,1252
266,2537
269,4165
269,4560
270,666
270,972
270,1689
270,1796
270,2155
270,2848
270,2948
270,3955
270,4825
271,529
271,1330
271,2979
271,3008
271,3262
271,3768
271,4174
271,4199
271,4215
274,4607
278,444
279,1208
279,3156
279,4580
279,4585
281,1051
283,71
283,1185
283,1423
283,2202
283,3020
283,3557
284,781
284,3324
285,456
285,4951
288,774
288,3059
289,1491
289,3573
290,4980
293,2102
293,2301
293,3641
294,3375
295,459
295,694
295,1444
295,1511
295,2061
295,2381
295,4265
296,159
296,428
297,338
297,2879
299,148
300,219
300,2454
300,2641
300,2871
300,2881
301,247
302,1772
302,3531
302,4058
302,4585
303,2665
303,3182
304,156
304,179
304,557
304,1126
304,1533
304,1732
304,1737
304,2493
304,2577
304,3626
304,4064
304,4486
304,4859
306,1092
306,1931
306,3324
307,636
307,713
308,2351
311,2159
311,3225
312,309
312,980
313,4265
314,69
314,901
314,1359
317,999
317,1259
317,3043
317,3338
317,3595
320,784
320,1305
320,2688
321,850
321,899
321,2019
321,2228
321,2878
321,3582
322,28
322,443
322,578
322,798
322,953
322,1111
322,1404
322,1860
322,2045
322,2741
322,2887
322,3585
322,4480
322,4629
322,4883
323,272
323,463
323,3461
325,2002
325,3690
329,152
329,251
329,441
329,1285
329,3795
329,4087
330,69
331,2293
332,2318
333,212
333,426
333,3182
333,3302
333,3759
333,3831
334,696
334,3641
334,4456
335,150
335,610
335,3774
335,4928
336,135
336,2646
336,3279
339,167
339,813
339,869
339,985
339,1624
339,3036
339,3306
340,231
341,737
341,2504
341,3755
346,3065
346,4637
347,548
347,1032
347,1203
347,1704
347,1918
347,2015
347,2574
347,2671
347,3260
347,3302
347,3975
347,3997
347,4249
347,4258
351,4562
353,954
353,1986
353,2381
353,3254
353,3812
354,147
354,329
354,428
354,550
354,822
354,830
354,921
354,1428
354,2681
354,3323
354,3462
354,4103
356,1175
356,1184
356,1734
356,2405
357,758
357,1266
357,1485
357,2618
357,4585
359,1446
359,2249
359,2629
360,100
360,129
360,134
360,370
360,506
360,1089
360,1098
360,1156
360,3959
360,4928
362,135
363,701
363,2370
364,36
364,1376
364,4749
366,1836
368,402
368,1287
368,1307
369,66
369,763
369,1355
369,1854
369,2853
371,2403
371,2496
377,901
377,981
377,1347
377,2383
377,4673
377,4703
378,4046
380,878
383,155
383,3200
383,4631
386,150
386,203
386,3845
388,229
389,133
389,167
389,227
389,366
389,921
389,3392
389,3413
391,11
391,536
391,2622
391,4079
391,4083
393,444
393,1066
393,1245
393,2097
394,121
394,514
394,1175
394,1338
394,1454
395,1175
396,140
397,140
397,208
397,328
397,590
397,600
397,1807
397,1893
397,2035
397,2064
397,2086
397,2918
397,2940
397,3924
398,1476
399,251
399,1920
399,2290
399,2822
399,3826
400,1663
404,4249
406,880
406,992
406,1054
406,1201
406,2248
406,4643
408,32
408,1318
408,2102
408,3813
409,112
410,2098
410,2691
411,281
411,1537
412,197
412,247
412,316
412,698
412,1614
412,1698
412,3028
412,3166
412,3521
412,3722
414,1911
414,4506
415,87
415,787
415,3076
415,4545
415,4646
415,4810
416,4514
417,932
417,3509
419,286
419,2004
419,2889
419,4680
421,469
421,894
421,2156
421,3061
421,3531
422,1399
423,1225
428,4
428,491
428,2097
430,215
431,444
431,1784
431,4319
431,4933
432,4023
433,1474
433,3748
435,124
435,911
435,1165
435,2555
436,129
436,307
436,2428
436,4097
437,4493
438,533
438,1208
438,4575
439,4950
440,28
440,775
440,3217
444,1478
444,3438
444,4810
447,18
447,664
447,768
447,949
447,2914
447,3150
447,3623
447,4702
447,4752
449,744
449,1098
449,4202
449,4549
449,4950
450,326
452,121
452,1515
452,2653
452,4744
452,4973
453,229
453,1509
453,1701
454,212
454,1104
458,2318
458,4081
462,1187
462,3157
462,4216
464,4480
468,88
468,529
468,1419
468,2738
468,4244
470,3629
471,5
471,592
471,1336
471,4022
471,4670
472,355
472,542
472,1986
475,252
475,274
475,486
475,2040
475,4042
476,210
476,2766
477,647
477,2102
478,606
478,1039
478,4061
480,3126
481,113
481,3165
482,668
482,947
482,1938
483,13
483,28
483,704
483,763
483,937
483,1598
483,1749
483,2630
483,4785
484,18
484,908
484,2481
484,2843
484,3556
484,4576
485,4125
487,422
487,1155
488,992
488,1144
488,1159
488,1289
488,1865
488,2019
488,2994
488,3355
489,1056
489,4114
489,4532
492,663
492,694
493,4433
494,298
494,1590
494,1799
497,4289
497,4889
498,1
498,3218
498,4264
498,4476
499,49
499,179
499,793
499,831
499,1183
499,1338
499,1348
499,2607
499,2704
499,2917
499,4146
499,4409
499,4719
500,878
500,1629
500,2600
500,3344
501,486
501,1193
501,2109
501,4521
501,4830
503,433
503,1341
503,3193
504,699
504,2160
504,2171
506,1178
506,3156
506,3595
506,4695
508,1079
508,1329
509,1670
510,1006
510,1220
510,2459
510,3400
510,3697
510,4026
510,4614
512,1898
514,534
516,50
516,179
516,2609
516,3961
516,4249
518,3356
519,1741
519,1800
519,2695
520,4133
521,1167
521,1426
521,2174
523,663
524,4726
528,617
530,402
530,768
530,850
530,1526
530,3554
530,3749
531,950
532,1460
532,2032
534,1245
534,2299
534,3296
534,4032
534,4901
537,444
538,151
538,535
538,691
538,1255
538,2876
538,3899
543,31
543,1925
546,827
547,593
547,749
552,1928
552,2549
552,3108
552,3233
554,913
554,1026
554,3531
554,4434
555,1115
555,1322
555,2778
555,3531
558,1838
558,3442
558,4119
559,73
559,2526
559,3312
561,1498
563,3628
564,2124
564,2249
565,1276
565,1475
567,2363
573,1677
573,2242
573,2588
573,3348
573,3429
573,3449
575,460
576,2689
576,3721
576,4554
577,2312
577,4928
580,1189
580,3748
582,708
582,1469
582,2878
583,4927
584,3576
585,3392
587,49
587,315
587,550
587,1040
587,2328
588,1084
588,1381
588,1903
588,1922
588,2261
588,2751
588,3194
588,3505
588,3639
588,4206
589,3531
591,666
591,4569
593,239
593,326
593,432
593,535
593,1356
593,1518
593,1865
593,2144
593,3077
593,4046
593,4051
593,4540
593,4854
593,4986
594,155
596,355
596,1169
596,2060
599,444
599,495
599,604
599,615
599,1807
599,1814
599,1906
599,2077
599,2143
599,2145
599,2534
599,4453
602,8
603,1049
603,1147
604,2549
605,134
607,91
607,495
607,1181
607,2820
607,3044
607,4665
607,4950
608,771
608,1436
608,1925
609,3489
609,3721
611,50
611,1296
611,1804
611,4511
613,156
613,179
613,569
613,1578
615,162
615,3637
618,3036
618,3199
619,1176
619,2191
619,3531
620,3470
620,3731
621,49
621,1214
622,636
622,2406
622,4727
623,13
625,460
629,479
629,3036
629,3324
629,4254
629,4781
630,2197
630,3940
631,643
631,798
631,1663
631,2709
633,100
633,1889
633,4341
634,370
634,550
635,611
636,214
636,1578
636,3169
637,1586
637,1917
638,314
640,939
640,1466
640,3324
644,69
644,1477
645,1989
645,2381
645,3844
646,992
646,2310
646,2383
648,1344
648,3769
649,3750
649,4937
650,28
650,628
651,66
651,3036
652,885
652,1981
652,2378
652,2534
652,4985
654,922
654,4220
656,338
656,771
656,2191
656,2990
656,3864
656,4342
658,2517
659,53
659,474
662,315
662,2230
662,2870
665,403
665,2383
666,527
666,2060
666,2712
667,240
667,535
667,3124
669,121
669,2664
671,529
671,2987
671,3070
672,287
673,1846
674,134
674,242
674,276
674,4993
675,2657
675,3808
677,42
677,2760
677,2921
679,2053
679,2294
679,2757
679,2990
679,3399
679,4266
680,832
680,971
680,1831
680,2441
680,2739
682,66
683,3861
683,4276
684,1651
684,1713
684,1919
684,2699
684,2975
684,3721
684,3767
684,4523
684,4888
685,28
686,670
686,920
686,3324
687,1625
687,2899
687,3750
688,4928
689,535
689,895
689,2160
689,3726
691,66
691,533
691,819
691,1510
692,2283
693,1
695,374
700,922
703,159
703,217
703,441
703,466
703,731
703,1387
703,2313
703,2564
703,4028
703,4819
704,617
704,628
704,2253
706,148
706,529
706,1265
706,1583
706,1773
706,2034
706,2113
706,2302
706,2637
706,3805
706,4059
707,3687
707,4186
707,4218
709,473
713,27
713,4271
714,289
714,1037
714,1164
715,134
715,1766
716,3375
716,4825
717,129
717,1450
717,2602
717,4245
719,53
719,2840
719,4810
720,572
720,976
720,1364
720,2757
720,3884
722,3161
722,3941
724,451
724,2418
725,135
725,328
725,1026
725,1915
727,1178
728,80
728,2091
732,2237
732,2784
732,3036
732,4278
732,4545
734,247
734,401
734,3253
735,4521
736,2263
736,2975
736,3725
739,178
739,718
739,1603
739,2675
739,3171
739,3679
739,3687
740,1306
741,3126
742,1040
742,1288
742,1550
742,1698
742,1903
742,1913
742,2333
742,2360
742,2867
742,3274
742,3378
742,4345
742,4637
745,2363
745,3567
745,4024
746,922
746,1596
746,3342
746,3731
747,31
747,1929
747,1954
747,2366
747,2551
747,3054
747,3724
747,3750
747,4671
748,1062
748,3531
749,136
752,2063
754,162
754,1817
755,1332
755,2248
755,3306
756,3036
757,681
758,376
758,4241
762,3113
762,4293
762,4314
763,286
763,759
763,1004
763,1085
763,1402
763,2314
763,2488
763,2938
763,3636
763,4517
763,4557
764,487
764,1306
764,1415
765,355
765,1172
766,3936
767,4093
767,4550
768,1181
768,2381
768,3040
770,355
772,506
772,2846
772,4521
773,316
773,2283
774,701
774,2191
774,2458
774,4283
774,4571
777,91
777,3132
777,3459
777,4400
777,4975
778,1898
779,140
779,2479
780,617
780,2126
782,1843
782,2865
782,3406
787,861
788,767
790,162
790,3551
790,4013
790,4308
791,2366
792,502
792,1135
792,1644
792,3511
792,4701
794,32
796,152
796,527
796,1950
796,3720
796,4417
796,4827
797,324
797,3320
799,3442
800,1950
801,1155
801,1420
801,2516
802,34
804,4424
804,4862
805,4040
805,4720
806,1766
806,3595
807,18
807,287
807,789
807,1092
807,1746
807,4439
810,1580
810,2890
811,276
811,1434
811,3685
817,1055
817,2334
818,1931
818,3034
818,4476
820,27
820,2272
823,1394
828,953
828,2222
829,3064
833,1017
833,4206
834,527
834,604
834,761
834,1297
834,1665
834,2160
834,2197
834,3050
834,3212
834,3932
834,4397
834,4507
834,4521
836,541
836,946
836,1335
836,1410
836,3035
838,3531
839,624
839,991
839,1393
839,2767
839,4708
840,2021
841,315
841,687
842,69
842,214
842,527
842,571
842,1040
842,1172
842,1267
842,1470
842,1632
842,1692
842,1772
842,1852
842,1880
842,2063
842,2284
842,2428
842,3740
842,4046
842,4355
842,4483
842,4510
842,4695
842,4874
842,4878
844,460
844,906
844,4222
845,193
845,3135
846,401
846,2721
846,2915
847,660
847,2550
849,135
851,723
852,1846
852,3651
853,506
853,1488
853,1718
853,4322
854,28
854,382
854,757
854,3503
854,4558
854,4642
856,197
856,358
856,670
856,691
856,1705
856,3169
858,527
858,1001
860,527
862,1361
862,1604
862,3225
862,3455
862,3891
863,636
863,1607
863,4855
868,1853
871,3595
872,231
872,2328
873,3224
873,4072
873,4685
874,87
874,289
874,1293
874,1379
874,2667
874,3158
874,3625
874,4188
874,4411
874,4627
874,4796
876,69
876,743
876,1911
876,3364
877,355
877,424
877,529
877,1127
877,1472
877,3248
877,3617
877,4212
877,4625
877,4987
879,897
881,318
881,3333
882,2851
883,487
883,1494
884,2124
884,3419
886,785
886,2364
887,2382
887,4825
888,2089
889,344
889,2271
889,2639
890,1019
890,1896
891,215
891,285
891,3265
892,236
892,1189
892,2040
892,2506
892,3574
893,227
893,850
893,2630
896,1137
896,1246
896,1957
896,4688
898,203
898,309
898,918
898,1339
898,1484
900,718
900,3324
902,1835
902,3182
903,236
904,939
904,1851
904,2542
904,3324
904,4798
905,3182
909,636
910,505
910,723
914,244
915,3036
916,3906
916,4579
916,4856
917,3477
917,4220
919,355
919,2046
919,4855
922,238
922,310
922,1041
922,1933
922,2357
922,2899
922,3192
922,3236
922,3323
922,3392
922,4105
922,4521
922,4637
923,441
923,1476
923,2742
923,2960
923,3913
923,3925
923,4557
924,416
924,2435
925,850
926,344
926,3713
926,4535
928,159
929,4254
929,4512
930,837
930,3793
930,4328
932,286
932,762
932,3662
933,41
934,298
935,374
935,977
935,1025
935,1442
935,1545
935,2382
935,3196
935,3409
935,3599
935,4108
935,4134
935,4996
940,405
941,473
942,1746
943,6
943,588
943,4521
945,467
946,897
946,3460
948,247
949,1093
950,4048
951,14
951,42
951,79
951,160
951,416
951,2095
951,3323
951,3399
955,217
955,993
955,1228
955,3721
956,569
958,1019
958,1900
958,2013
958,2711
958,2975
959,4628
960,106
960,315
960,418
960,428
960,4656
961,36
961,136
961,376
961,404
961,2223
961,2286
962,4874
963,155
963,1839
964,1578
965,2623
966,604
966,1401
967,597
967,2206
967,4745
968,2614
968,4162
969,39
969,3946
970,281
970,1078
970,1345
970,1578
970,1950
970,2683
972,1398
975,167
979,50
979,281
979,624
979,1666
980,315
981,19
981,3036
981,4849
982,3256
982,3289
983,1077
983,4249
986,1571
986,2524
986,4459
987,2890
987,4203
987,4510
987,4946
988,429
988,463
988,3798
995,729
995,2146
995,4885
996,1371
1000,2476
1000,3348
1003,604
1004,3189
1005,215
1005,247
1005,549
1005,827
1005,1159
1005,1553
1005,2447
1005,2831
1005,4154
1005,4763
1006,13
1006,2149
1008,227
1008,3192
1008,4521
1009,206
1010,49
1011,670
1011,2202
1011,3026
1011,3830
1011,4928
1012,600
1012,1394
1012,3302
1012,3821
1013,1911
1014,2459
1021,628
1021,3165
1022,15
1023,3429
1024,282
1024,813
1024,1208
1024,1414
1024,2020
1024,3117
1024,3595
1024,4398
1027,563
1027,760
1028,159
1028,508
1028,2917
1028,2942
1029,880
1030,444
1033,885
1033,2290
1036,452
1041,2487
1042,1419
1042,2696
1042,3429
1042,3624
1043,486
1043,4050
1044,3335
1045,781
1047,1143
1047,3976
1047,4882
1048,718
1048,2490
1049,1981
1050,2213
1052,382
1052,2101
1053,144
1055,2381
1057,1321
1057,4637
1058,3629
1059,2382
1060,229
1060,1720
1061,91
1061,385
1061,2096
1061,2598
1061,4806
1063,3830
1064,8
1064,2428
1065,315
1067,2088
1068,757
1068,1078
1068,1926
1068,2475
1068,4240
1070,4560
1074,4024
1076,361
1080,502
1080,1104
1081,420
1081,626
1082,1322
1083,1035
1083,4864
1083,4991
1084,2588
1086,2124
1086,2502
1086,3354
1086,4068
1086,4596
1089,819
1089,2852
1089,4017
1091,3862
1094,240
1094,2780
1094,4959
1095,1276
1100,273
1100,1358
1100,2598
1100,2890
1100,4745
1101,32
1101,3764
1102,827
1102,2391
1103,147
1103,843
1103,1118
1103,1883
1105,203
1105,3742
1107,28
1107,49
1107,1350
1107,2591
1109,550
1109,1542
1109,1647
1109,1677
1109,1901
1109,1968
1109,2305
1109,2653
1109,3222
1110,261
1110,402
1110,427
1110,1274
1110,3075
1110,3509
1110,4061
1112,167
1112,2890
1113,827
1113,1578
1113,2169
1113,2609
1114,286
1116,2055
1116,3610
1116,3935
1117,2517
1119,251
1119,444
1119,770
1119,1339
1119,2243
1121,1049
1122,2975
1124,912
1124,4432
1125,1455
1125,2330
1128,215
1128,2975
1128,4951
1129,241
1129,1338
1129,4913
1130,4984
1131,3531
1131,3571
1133,798
1133,2270
1134,1896
1134,3762
1136,4491
1138,36
1138,173
1138,1586
1138,3381
1140,1413
1140,3226
1141,315
1141,3374
1141,4240
1142,4361
1145,553
1145,832
1145,1524
1145,2414
1145,2668
1145,3302
1145,4127
1145,4458
1145,4945
1146,604
1147,365
1147,1903
1148,4811
1151,1201
1151,2363
1154,3531
1157,558
1157,939
1157,1755
1157,2863
1157,4327
1157,4433
1158,681
1161,1049
1162,291
1162,655
1166,420
1167,2082
1167,3717
1169,41
1169,1207
1169,3358
1169,3641
1170,721
1171,1155
1171,4422
1174,361
1174,1062
1174,4318
1176,71
1176,1478
1176,2376
1176,3898
1177,1354
1177,3038
1177,3194
1180,785
1180,4234
1180,4628
1182,569
1184,30
1184,116
1184,517
1184,901
1184,1332
1184,1781
1184,2139
1184,3145
1184,3280
1184,3324
1184,3686
1184,3830
1184,4115
1184,4509
1184,4827
1188,87
1188,1295
1188,1654
1188,1731
1188,1838
1188,1887
1188,1984
1188,2050
1188,2397
1188,2626
1188,2868
1188,3008
1188,3500
1188,3721
1188,3861
1188,4113
1188,4686
1190,429
1190,2589
1190,2770
1190,4263
1191,1261
1193,2261
1193,3259
1193,3282
1193,3838
1194,4327
1194,4907
1195,795
1195,971
1195,3546
1195,4257
1196,443
1196,2191
1198,80
1198,141
1198,558
1198,1179
1198,1776
1198,2228
1198,2321
1198,2975
1198,3993
1198,4284
1198,4404
1198,4884
1198,4974
1199,1006
1202,385
1202,950
1202,2208
1202,3119
1202,3242
1202,3703
1202,4030
1204,326
1205,384
1205,429
1210,4439
1211,65
1211,267
1211,1183
1211,1242
1212,1419
1213,529
1213,3402
1215,69
1216,2653
1219,2293
1221,496
1221,2088
1222,550
1223,506
1223,1531
1224,3514
1224,3641
1224,3672
1224,3850
1224,4947
1226,553
1226,1996
1226,2030
1226,3466
1227,422
1227,479
1227,1079
1227,1121
1227,3323
1227,3522
1227,3898
1227,4373
1229,1329
1229,1950
1229,2306
1229,3349
1229,4762
1231,2383
1231,4677
1232,227
1232,267
1233,2074
1233,2136
1234,31
1234,4287
1236,808
1237,2534
1238,251
1239,2479
1240,670
1244,2423
1244,2624
1244,4821
1245,28
1245,569
1245,1203
1248,1911
1249,2727
1249,3415
1249,4328
1249,4511
1250,1312
1250,3830
1251,856
1254,236
1256,338
1256,1270
1256,3126
1257,1144
1259,511
1260,606
1261,53
1262,2846
1262,3595
1262,4844
1262,4924
1265,1606
1266,3169
1266,3724
1269,809
1269,3241
1271,355
1271,2030
1271,3348
1272,946
1273,2006
1273,3036
1275,28
1275,1419
1275,1519
1275,1819
1275,3073
1278,1167
1279,49
1280,18
1280,3375
1282,939
1283,4051
1284,1116
1284,1167
1284,3126
1284,3933
1285,3586
1286,563
1286,944
1286,989
1286,1922
1286,3421
1286,4439
1290,66
1291,305
1291,1616
1291,4533
1294,361
1295,2890
1295,2933
1295,4855
1298,36
1299,199
1299,1999
1299,2137
1299,3874
1299,4179
1300,1868
1300,3536
1302,738
1302,1606
1302,1629
1302,2309
1302,2318
1302,2605
1305,939
1306,568
1306,2172
1306,2272
1306,2536
1306,3721
1308,1181
1309,1737
1309,4992
1310,4494
1313,1225
1314,1289
1315,1181
1316,2874
1319,2990
1320,1208
1322,1307
1323,549
1324,6
1325,541
1325,1394
1328,4479
1331,451
1331,3817
1331,4310
1334,2432
1334,2677
1334,2810
1334,4265
1337,3573
1341,423
1341,1960
1341,4130
1341,4475
1342,32
1343,719
1343,1826
1349,627
1351,511
1351,3436
1353,1286
1359,73
1359,541
1359,1218
1359,1814
1359,4338
1360,1899
1360,2211
1363,2958
1366,418
1366,1918
1366,2623
1366,2698
1368,4898
1369,3143
1369,4825
1370,529
1370,1578
1372,315
1372,1154
1373,1588
1374,4545
1375,179
1375,1274
1375,1736
1375,2523
1375,4262
1375,4511
1375,4825
1377,167
1378,690
1378,1657
1378,3151
1378,4429
1378,4961
1379,783
1379,1220
1379,1395
1379,3650
1379,4560
1380,1734
1383,315
1383,710
1383,2216
1383,4424
1385,291
1385,3942
1388,939
1388,2914
1388,4314
1388,4435
1388,4676
1389,2187
1389,4424
1390,604
1390,2641
1390,2642
1390,3873
1390,4780
1392,3883
1392,4200
1393,456
1394,2466
1394,4303
1396,467
1396,1183
1396,2975
1397,1371
1399,4205
1400,3629
1403,2479
1403,2975
1404,41
1404,216
1404,286
1404,298
1404,1291
1404,1613
1404,2001
1404,3154
1404,3506
1404,3510
1405,157
1405,315
1405,1304
1405,2824
1405,2899
1405,3048
1408,1511
1409,134
1409,3268
1412,1663
1412,2803
1416,1382
1417,1391
1418,49
1420,91
1420,259
1420,1046
1420,3400
1421,221
1421,329
1421,1362
1421,1992
1421,3252
1421,3830
1424,401
1425,3807
1427,4249
1430,167
1430,441
1430,1910
1431,1606
1433,474
1433,866
1433,2396
1433,4249
1435,661
1435,3111
1437,440
1437,633
1437,3456
1439,762
1440,1306
1441,1264
1441,3366
1441,3888
1443,329
1443,507
1443,1950
1443,3510
1445,946
1447,2485
1447,4480
1449,702
1449,865
1449,4206
1449,4503
1451,50
1451,360
1451,2852
1451,3008
1451,3089
1451,4106
1451,4168
1451,4511
1451,4910
1456,1297
1457,53
1457,4008
1457,4713
1458,600
1459,3941
1459,4261
1463,558
1464,4673
1465,30
1465,2980
1465,4393
1467,140
1467,2398
1468,535
1468,1039
1470,1438
1470,2674
1470,3187
1473,422
1473,868
1473,2845
1474,866
1474,1476
1474,3186
1476,525
1476,1208
1476,2161
1476,3147
1476,4942
1477,4726
1478,15
1478,21
1478,159
1478,231
1478,244
1478,291
1478,535
1478,1631
1478,1799
1478,1930
1478,2068
1478,2429
1478,2586
1478,3277
1478,3370
1478,4630
1478,4863
1479,1950
1479,4326
1480,386
1480,402
1480,2428
1480,2538
1480,3902
1481,286
1481,3641
1481,3765
1483,660
1483,4912
1486,1511
1487,1155
1487,2737
1487,4860
1489,1754
1490,2321
1492,2653
1492,2668
1492,2697
1493,39
1493,519
1493,4787
1495,420
1495,3222
1497,1116
1498,267
1499,2458
1499,2671
1499,4664
1501,3874
1502,1498
1502,4726
1503,1981
1504,326
1504,1794
1505,385
1505,1319
1505,1714
1505,3001
1505,4494
1505,4738
1506,281
1506,761
1506,1066
1506,2181
1506,2317
1506,4290
1508,604
1508,2129
1508,2565
1513,541
1514,36
1516,1924
1516,3064
1516,3329
1517,425
1520,42
1520,314
1520,315
1520,2610
1520,3093
1520,4381
1522,88
1523,719
1523,1201
1523,2527
1524,2873
1525,4
1525,2275
1528,853
1529,4704
1530,240
1534,1841
1534,4356
1536,42
1536,3639
1538,217
1539,900
1540,862
1540,4407
1541,1940
1543,3531
1543,4159
1544,17
1544,1333
1544,4189
1546,555
1548,135
1548,287
1548,3030
1549,1598
1549,2434
1549,2534
1549,2597
1551,708
1551,2957
1551,3685
1557,338
1557,1896
1558,984
1559,240
1559,569
1559,2331
1559,4394
1559,4606
1560,373
1560,550
1560,738
1560,864
1560,1917
1560,3386
1560,3861
1560,4377
1561,1846
1561,4276
1562,522
1565,1341
1567,1666
1567,4203
1568,36
1568,49
1568,3474
1569,251
1572,535
1574,1537
1575,209
1575,263
1575,653
1575,1454
1575,1640
1576,550
1576,2085
1576,2267
1576,4650
1579,179
1579,273
1580,117
1580,670
1580,1545
1580,1827
1580,4904
1581,28
1584,34
1584,1537
1584,2013
1584,3324
1588,473
1588,1239
1589,1163
1592,446
1593,231
1594,999
1594,2417
1594,3307
1594,3747
1599,529
1600,197
1601,1349
1602,418
1605,1805
1605,3262
1608,50
1609,994
1609,2914
1609,4078
1609,4654
1611,259
1612,939
1615,1259
1617,1184
1619,167
1620,1153
1621,1049
1621,2793
1622,437
1626,3724
1627,880
1628,1177
1630,309
1633,18
1633,3212
1634,82
1634,289
1635,826
1635,3083
1636,167
1637,28
1637,2747
1638,974
1639,4739
1641,326
1642,3686
1642,4285
1643,1458
1643,2392
1643,2800
1643,3036
1644,992
1644,3697
1644,4928
1645,3419
1645,4206
1646,1177
1646,4470
1647,1812
1647,2956
1647,3301
1648,28
1648,616
1648,1132
1648,1636
1650,18
1650,3022
1650,4639
1651,385
1651,529
1653,2435
1655,2867
1656,855
1656,1510
1656,1979
1656,4865
1657,2539
1657,3835
1658,3567
1659,2043
1659,3850
1659,4436
1661,160
1661,1738
1661,2596
1662,3281
1663,4327
1666,4501
1667,1626
1668,1201
1669,160
1669,1733
1669,2584
1669,2807
1669,4739
1670,1295
1670,3306
1670,3775
1671,8
1671,28
1671,551
1671,1361
1671,2700
1671,2767
1671,2791
1672,227
1674,119
1674,2132
1674,4069
1674,4184
1676,2381
1676,4102
1678,1429
1679,247
1680,552
1680,1488
1681,3225
1681,4015
1682,60
1682,124
1682,785
1682,1791
1682,2022
1682,2128
1682,2316
1682,2337
1682,2689
1682,3088
1682,3441
1683,4628
1684,4251
1685,485
1686,267
1687,2691
1687,4139
1687,4882
1688,73
1688,1285
1688,1896
1688,2304
1688,2407
1688,2683
1689,44
1689,1264
1689,2892
1689,3849
1689,4156
1690,3203
1690,4249
1691,420
1694,718
1694,2163
1694,4435
1697,1796
1697,1808
1697,3141
1697,3544
1697,4031
1698,812
1699,32
1700,425
1700,2177
1702,309
1702,2605
1702,4254
1706,553
1706,2051
1706,2162
1706,2681
1707,723
1707,957
1707,1477
1707,1482
1707,2227
1707,2740
1707,2982
1707,3420
1707,4545
1707,4747
1707,4998
1708,4022
1709,1477
1710,2958
1711,550
1711,641
1711,1079
1711,4920
1712,4855
1713,2899
1714,798
1714,1894
1717,636
1718,721
1718,2261
1718,3721
1719,1476
1719,3097
1719,3793
1719,4576
1719,4855
1723,28
1723,880
1723,3421
1723,3843
1724,935
1724,1104
1724,2445
1724,3064
1724,3798
1725,272
1726,1155
1726,1981
1726,2078
1726,3901
1727,1357
1729,2413
1729,2641
1729,2999
1729,3037
1729,3861
1730,1647
1733,2502
1735,1120
1739,1911
1740,2032
1742,2782
1742,3026
1743,2124
1743,3987
1744,912
1745,535
1746,2331
1746,3911
1746,4085
1747,45
1747,150
1747,209
1747,402
1747,413
1747,981
1747,1220
1747,1287
1747,1382
1747,1422
1747,1562
1747,1673
1747,2794
1747,3543
1747,3637
1747,4025
1747,4224
1747,4734
1750,657
1751,2102
1751,4621
1752,1088
1752,3058
1752,3300
1753,28
1754,814
1754,1698
1754,1950
1754,3264
1754,3581
1755,1189
1755,1429
1755,3680
1755,4927
1756,4720
1758,1678
1761,1917
1763,160
1763,2669
1763,2799
1767,1518
1768,66
1768,2320
1769,1652
1769,3080
1770,338
1771,617
1771,870
1771,1307
1771,2435
1778,28
1778,3731
1779,4
1779,1173
1779,4413
1780,1858
1784,355
1784,4693
1786,560
1788,624
1788,1817
1789,11
1792,511
1792,1306
1792,1842
1792,2233
1792,2629
1792,4008
1795,4445
1796,1532
1797,18
1798,3182
1800,62
1800,518
1800,2734
1801,3641
1804,3532
1805,803
1805,1943
1805,2170
1810,219
1810,267
1810,2751
1810,4072
1811,254
1813,950
1813,1361
1813,4420
1813,4720
1815,536
1815,1297
1815,2769
1815,4225
1816,1159
1818,1868
1818,4637
1820,2136
1820,2480
1820,3116
1820,4900
1821,167
1822,1413
1822,3889
1825,1585
1828,2735
1829,3480
1830,2088
1830,3126
1832,4928
1834,28
1834,2150
1835,901
1835,3815
1835,4413
1837,135
1837,3437
1840,527
1840,1554
1841,4124
1842,1554
1844,286
1846,315
1847,3323
1848,18
1848,4341
1850,3911
1852,120
1852,127
1852,862
1852,1012
1852,1040
1852,2533
1852,2664
1852,2974
1852,3801
1853,1419
1855,558
1855,2125
1855,2383
1855,3260
1855,3477
1856,2044
1856,3078
1856,3487
1857,1498
1857,1748
1857,4486
1857,4755
1858,466
1858,3781
1859,1220
1861,1772
1862,1217
1862,2751
1862,3169
1862,3756
1862,4697
1866,1288
1867,1201
1867,3948
1869,121
1869,1417
1869,1578
1869,2153
1869,3087
1870,880
1871,1192
1873,3233
1874,13
1874,2351
1874,2806
1874,3109
1874,4423
1875,4855
1876,1677
1882,1950
1884,984
1885,135
1885,490
1885,3237
1886,636
1888,1961
1888,4972
1890,545
1890,3126
1890,4685
1892,1399
1892,2803
1892,4551
1894,267
1894,1243
1894,2605
1894,4035
1894,4711
1895,238
1895,460
1895,1154
1896,946
1896,3963
1897,2975
1897,4577
1903,700
1904,1246
1906,155
1906,711
1906,784
1906,962
1906,1039
1906,1406
1906,1902
1906,2032
1906,2638
1906,4855
1907,3963
1908,4207
1911,535
1911,1192
1912,1997
1912,3017
1913,4901
1919,1762
1922,3021
1923,1743
1923,4036
1925,4911
1927,28
1927,932
1927,1945
1927,2147
1927,4052
1927,4208
1934,355
1934,1116
1937,479
1937,1692
1938,62
1938,3028
1938,3118
1941,999
1941,1823
1941,2067
1941,2977
1941,3803
1941,3806
1941,4459
1942,4259
1947,2191
1947,3534
1947,4495
1948,1911
1948,2662
1948,2913
1948,4481
1950,3826
1951,460
1951,4360
1951,4496
1953,1454
1955,1610
1958,831
1958,3804
1963,628
1963,3721
1964,227
1965,1172
1967,1358
1967,4709
1969,1772
1969,3253
1971,135
1971,152
1971,3748
1972,1606
1973,3017
1974,664
1974,4017
1975,698
1978,991
1978,2530
1979,130
1979,767
1980,3826
1981,4778
1983,1034
1983,2313
1985,1263
1987,1148
1987,1641
1987,3067
1987,4662
1988,912
1989,574
1990,2191
1993,527
1993,4191
1993,4243
1993,4720
1994,3749
1995,2398
1998,3523
1999,1689
1999,2782
2000,394
2000,3295
2003,610
2004,1297
2004,3210
2004,3468
2004,4457
2005,53
2005,515
2005,4828
2009,490
2009,737
2009,2438
2009,3688
2012,264
2012,342
2012,522
2012,527
2012,721
2012,973
2012,1217
2012,3080
2012,3686
2014,1911
2014,2018
2014,4593
2016,4424
2019,1055
2019,2241
2019,3090
2020,1902
2021,1031
2021,3414
2024,385
2024,787
2024,936
2024,4136
2025,4424
2026,1787
2026,2013
2030,281
2030,1803
2030,2387
2030,2466
2030,3496
2031,880
2032,901
2033,1286
2036,178
2036,1914
2038,1903
2038,4120
2040,1765
2040,2050
2042,939
2044,636
2044,4720
2048,3731
2049,112
2049,803
2049,827
2049,3133
2049,3931
2049,4674
2052,1319
2054,563
2054,4486
2057,3080
2058,550
2058,4517
2058,4657
2058,4893
2059,1338
2059,1585
2062,88
2062,1743
2063,418
2063,2720
2065,4280
2070,4084
2073,1136
2073,3341
2075,1861
2079,558
2080,541
2080,2819
2081,155
2083,984
2083,1999
2084,3900
2085,4433
2087,167
2087,309
2087,2691
2088,4251
2089,132
2089,1371
2089,4350
2093,1292
2094,267
2099,4096
2100,231
2104,1035
2105,586
2106,16
2106,2728
2106,4685
2107,558
2107,1288
2108,1968
2109,231
2110,374
2111,1208
2112,444
2114,736
2115,318
2116,124
2116,374
2116,4708
2116,4963
2117,2326
2117,3196
2118,855
2120,769
2121,999
2121,4790
2122,1458
2122,4857
2127,4576
2133,3348
2134,423
2134,429
2134,2540
2134,4741
2134,4743
2135,1996
2136,2002
2136,3034
2138,3164
2138,3749
2140,3531
2141,1189
2142,2665
2142,3562
2148,232
2148,2023
2149,394
2149,990
2149,1060
2151,2611
2152,160
2154,1911
2156,113
2156,1101
2156,3473
2156,4449
2157,2202
2157,4435
2158,783
2158,1361
2160,238
2165,1071
2167,2881
2168,2318
2168,2912
2169,1399
2169,1700
2169,1864
2169,3508
2171,570
2171,824
2171,1073
2171,1347
2171,2283
2171,2493
2171,2561
2171,2806
2171,3674
2172,12
2172,183
2172,231
2172,490
2172,974
2172,1097
2172,1176
2172,2613
2172,3673
2173,4482
2175,2239
2175,3762
2176,479
2178,1367
2179,69
2179,4187
2180,1356
2180,3524
2182,861
2182,1962
2183,4480
2184,3595
2186,3677
2186,3710
2187,1192
2188,231
2190,2668
2192,1912
2193,134
2194,1799
2194,4744
2195,775
2195,2848
2196,552
2196,4157
2198,1093
2199,286
2200,3576
2201,1156
2202,8
2202,238
2202,1346
2203,197
2204,418
2205,4249
2207,315
2209,1341
2209,2831
2210,18
2211,315
2211,950
2212,28
2212,575
2212,2392
2213,88
2213,1154
2214,3510
2215,1529
2217,868
2218,490
2220,487
2222,2191
2222,2681
2222,3005
2222,3565
2224,39
2224,569
2224,971
2224,982
2224,1777
2224,2153
2224,3518
2224,3903
2225,3369
2225,4637
2226,4846
2229,946
2232,355
2232,922
2232,1167
2232,1796
2232,2272
2232,2619
2232,2910
2232,2931
2232,4060
2232,4956
2235,2001
2235,4265
2236,770
2236,1425
2237,3302
2238,4560
2240,701
2240,1311
2244,173
2244,254
2244,4853
2245,487
2245,535
2247,212
2252,4
2253,1944
2253,2734
2253,2758
2255,3861
2256,4825
2257,350
2257,2858
2258,1578
2259,214
2259,298
2259,375
2259,678
2259,1054
2259,1241
2259,3113
2260,738
2260,3986
2262,1680
2264,517
2264,2588
2264,2925
2268,3013
2270,4046
2273,770
2274,3011
2279,291
2281,3492
2282,422
2288,4240
2288,4760
2291,18
2292,118
2292,558
2292,1069
2292,1088
2292,2365
2295,4874
2296,28
2296,1181
2296,3100
2296,4512
2297,314
2297,3092
2298,539
2298,3488
2298,3750
2300,1590
2302,198
2302,486
2302,556
2302,737
2302,853
2302,912
2302,1020
2302,1130
2302,1235
2302,1720
2302,1746
2302,2037
2302,2202
2302,2806
2302,3485
2302,3731
2302,4246
2302,4372
2302,4653
2303,314
2303,525
2307,1387
2307,2061
2308,784
2309,730
2309,2933
2311,3260
2312,179
2315,4972
2317,903
2317,1123
2320,560
2320,1332
2320,2774
2321,870
2321,1802
2321,3668
2323,315
2323,2975
2324,691
2325,1316
2325,3825
2327,88
2329,4585
2330,1220
2331,1
2332,280
2335,1358
2338,156
2339,267
2339,4949
2340,1307
2341,178
2341,937
2341,1304
2342,2066
2342,4226
2343,3141
2344,1663
2345,1353
2346,3830
2347,1355
2348,2878
2349,760
2350,1183
2350,2802
2350,3012
2350,3252
2350,3513
2351,424
2352,28
2352,4096
2353,738
2354,1760
2355,3898
2356,79
2356,403
2356,2373
2358,3093
2359,1243
2362,352
2362,2293
2362,3306
2363,2881
2366,358
2367,4957
2368,4637
2369,272
2369,1287
2370,1563
2370,4247
2371,529
2371,938
2371,2727
2371,2928
2372,485
2372,2017
2373,870
2375,2634
2375,4855
2376,46
2376,268
2376,505
2376,1393
2376,1482
2376,1748
2376,1917
2376,1946
2376,2035
2376,2289
2376,2303
2376,2374
2376,2395
2376,2407
2376,2836
2376,3113
2376,3840
2376,4726
2376,4958
2377,2890
2379,119
2379,180
2379,540
2379,549
2379,624
2379,726
2379,1135
2379,1401
2379,1477
2379,1677
2379,3339
2379,3531
2379,3750
2380,8
2380,291
2380,442
2380,581
2380,627
2380,642
2380,894
2380,1591
2380,1817
2380,2850
2380,2943
2380,3477
2380,3542
2380,4698
2382,3428
2384,422
2384,1158
2384,1526
2384,2388
2384,3484
2385,2985
2385,4521
2385,4994
2386,771
2387,718
2389,976
2391,199
2395,376
2396,28
2396,4092
2399,3011
2400,718
2400,2434
2403,281
2403,912
2408,2780
2409,569
2410,124
2410,3723
2410,4167
2410,4251
2411,459
2411,2378
2411,4206
2411,4504
2412,2030
2412,3898
2415,316
2419,137
2419,4151
2420,343
2420,699
2420,757
2420,843
2420,2459
2420,3715
2420,3836
2420,4516
2420,4741
2420,4769
2421,167
2422,1106
2424,309
2425,819
2425,4630
2426,798
2426,3829
2426,3912
2427,228
2433,3389
2433,3663
2433,3963
2436,1972
2437,1111
2439,179
2439,568
2440,681
2441,2250
2441,2612
2443,120
2444,152
2444,1179
2446,4726
2448,1579
2449,97
2449,179
2449,455
2449,1814
2449,1849
2449,2269
2449,2466
2449,2475
2449,2482
2449,4641
2449,4825
2449,4972
2449,4995
2450,4739
2451,281
2452,1025
2456,467
2456,544
2456,558
2456,1018
2456,1675
2456,4945
2457,2823
2457,3064
2460,558
2461,2347
2464,560
2464,4333
2466,195
2467,186
2468,2166
2468,2570
2469,4540
2470,2899
2470,3742
2471,550
2472,2156
2472,2219
2472,4202
2473,3492
2474,1183
2474,3151
2477,733
2477,1025
2477,2755
2478,939
2478,2816
2480,760
2480,1898
2480,2056
2480,2546
2480,2795
2483,1950
2484,315
2486,444
2487,3059
2487,4685
2489,8
2491,1311
2494,3302
2495,628
2496,295
2496,776
2496,1949
2496,1966
2496,2595
2496,3060
2496,4149
2497,344
2498,69
2498,1806
2499,291
2500,385
2502,1917
2502,4874
2505,1106
2505,3741
2505,4355
2508,2878
2509,216
2509,1044
2509,1573
2509,1610
2509,2028
2509,2110
2509,4595
2512,78
2513,927
2514,2086
2515,3059
2519,3008
2520,2143
2520,3509
2521,2244
2521,2786
2521,3275
2522,4424
2525,1318
2528,2061
2529,1255
2531,3442
2532,3348
2532,4723
2535,2584
2536,13
2536,27
2536,474
2536,513
2536,535
2536,1333
2536,1382
2536,1678
2536,2958
2536,3223
2536,3724
2536,4570
2536,4619
2536,4802
2537,1
2537,31
2537,848
2537,2023
2538,1163
2538,1521
2541,541
2541,2655
2541,4316
2543,276
2544,906
2546,287
2547,1900
2548,1246
2551,2318
2552,3501
2553,1311
2554,1297
2556,1341
2556,2657
2556,3085
2557,466
2558,1476
2559,529
2560,1450
2560,3861
2561,31
2561,162
2561,1090
2561,1175
2561,1957
2561,1991
2561,2135
2561,2430
2561,3768
2561,4810
2561,4972
2562,219
2563,28
2563,231
2563,3622
2563,4928
2564,4073
2567,129
2567,534
2567,901
2567,3566
2567,3908
2567,4821
2567,4939
2568,1952
2568,4511
2569,670
2571,1106
2572,13
2573,3526
2573,3528
2573,3987
2575,3212
2576,1218
2577,133
2577,1453
2577,1782
2577,1943
2577,3182
2577,4525
2579,1959
2580,760
2582,461
2583,2396
2583,4655
2584,355
2584,3982
2585,305
2585,316
2585,402
2585,2566
2587,1703
2587,4545
2590,179
2591,41
2592,3011
2593,3501
2594,32
2597,2462
2597,3665
2598,442
2599,3641
2599,4723
2601,28
2603,4051
2606,1150
2606,1167
2608,2731
2608,3302
2608,4976
2616,444
2617,544
2617,803
2617,3332
2617,4367
2617,4480
2617,4983
2618,28
2618,487
2618,1705
2618,2417
2620,328
2620,711
2620,1828
2621,3485
2621,3652
2627,1734
2627,2808
2627,3721
2627,4704
2627,4774
2631,2348
2631,3450
2632,505
2636,3169
2636,3929
2640,428
2643,550
2644,70
2645,1784
2648,627
2649,2475
2650,723
2651,385
2652,558
2652,1016
2652,1285
2652,1371
2652,1998
2654,108
2654,691
2654,2837
2656,2933
2658,2285
2659,2045
2660,4637
2661,1841
2663,444
2665,597
2665,2525
2665,2653
2666,732
2666,2545
2668,2030
2670,257
2670,4521
2671,34
2672,2171
2672,2206
2676,2588
2678,217
2685,1168
2686,467
2686,4311
2688,827
2690,1104
2690,4612
2691,3861
2693,920
2693,3562
2694,978
2694,1319
2694,3473
2694,4328
2696,2010
2696,2076
2696,2839
2701,1488
2702,2376
2703,1903
2703,4265
2707,1167
2708,1426
2709,457
2713,1722
2713,3717
2713,3881
2714,2266
2714,3069
2714,3918
2715,2650
2715,4297
2716,1564
2717,1120
2718,4568
2722,4046
2724,198
2725,633
2728,1718
2728,2633
2729,66
2730,1714
2732,309
2733,3818
2736,4791
2743,4545
2744,156
2745,4510
2746,2085
2746,4706
2748,3531
2750,944
2754,2331
2754,4486
2756,1454
2761,1135
2762,3011
2763,2890
2763,3176
2764,1208
2765,1025
2765,1120
2765,4136
2767,3102
2768,1402
2771,3531
2772,1379
2773,3217
2775,135
2776,106
2777,1665
2777,4621
2778,604
2778,2322
2778,2578
2778,2741
2779,816
2779,1301
2783,2605
2785,442
2785,1147
2785,3554
2788,460
2788,3597
2788,4473
2789,1163
2789,4374
2790,511
2791,281
2791,3564
2791,4256
2791,4496
2791,4842
2792,389
2792,3531
2792,3620
2792,4249
2794,903
2794,2171
2794,3182
2796,1454
2797,91
2797,342
2797,3288
2798,135
2800,1283
2801,1124
2804,3996
2804,4149
2805,2899
2806,3392
2809,616
2810,1552
2811,3641
2811,4802
2813,305
2813,3480
2814,1020
2815,921
2817,2726
2818,761
2818,2008
2818,3324
2818,4834
2821,550
2826,150
2826,352
2826,1239
2826,1277
2826,1521
2826,2987
2826,3127
2826,4568
2827,971
2827,4828
2828,384
2828,3403
2828,4206
2829,66
2829,3409
2829,4588
2830,3267
2830,3770
2832,1838
2832,3737
2832,3974
2832,4661
2832,4953
2833,1235
2833,3870
2835,45
2839,76
2839,234
2839,1075
2839,1722
2839,1960
2839,2223
2839,2965
2839,3058
2839,3306
2839,3629
2840,28
2840,3678
2840,4601
2841,2890
2842,30
2844,3650
2846,1218
2846,3018
2847,2506
2849,1329
2849,2076
2849,3297
2850,1846
2854,384
2856,211
2856,3190
2856,3861
2859,3008
2862,1035
2862,1060
2862,2319
2862,2682
2862,3265
2862,3699
2862,3920
2862,4014
2862,4177
2862,4300
2862,4628
2863,46
2866,1203
2866,2853
2867,286
2868,3851
2869,982
2875,746
2875,4594
2877,212
2877,1006
2877,3784
2878,2697
2878,3883
2879,2171
2881,1046
2882,1582
2882,2381
2883,465
2883,3830
2885,663
2886,1860
2887,1208
2888,4521
2889,416
2890,3911
2891,2045
2893,2032
2894,624
2894,1095
2894,1854
2894,1917
2894,4778
2894,4945
2895,535
2895,4178
2896,4492
2897,549
2898,217
2899,1297
2900,2040
2902,8
2902,36
2902,819
2902,1281
2903,1209
2905,3697
2906,1700
2906,2219
2907,3762
2907,4010
2908,28
2908,444
2908,2857
2911,227
2911,4340
2911,4378
2913,4597
2916,2262
2919,251
2919,280
2919,749
2919,1016
2919,2309
2919,3493
2919,4238
2922,71
2922,324
2922,1734
2922,2039
2922,2319
2922,3203
2922,3323
2922,4676
2924,505
2924,4742
2926,1846
2927,3544
2930,2413
2932,575
2934,2172
2937,1863
2939,315
2939,2072
2941,1135
2941,3182
2944,974
2944,3316
2945,2017
2947,3310
2949,28
2949,2039
2950,563
2950,1651
2950,4728
2951,581
2952,2072
2952,4955
2954,28
2954,422
2954,2825
2955,3770
2956,2450
2956,3524
2958,527
2961,1734
2962,319
2962,2501
2964,244
2966,2840
2967,738
2968,358
2969,229
2969,1623
2970,660
2970,2562
2971,328
2971,2312
2972,1903
2973,1419
2973,3661
2973,4402
2973,4443
2974,16
2974,4952
2976,1159
2978,4082
2981,4521
2983,370
2984,466
2984,1155
2986,1167
2989,697
2989,1348
2991,1177
2991,4930
2992,134
2992,3020
2992,4294
2993,527
2994,719
2994,3489
2994,3548
2994,4847
2995,1258
2996,1901
2997,3637
2998,4720
3000,348
3000,550
3000,816
3000,875
3000,1056
3000,1319
3000,1450
3000,1512
3000,2622
3000,3306
3000,3839
3000,4855
3002,880
3002,1794
3002,2658
3002,3039
3005,3101
3006,2309
3007,2549
3009,136
3009,3854
3010,3605
3010,3629
3011,2109
3013,4521
3014,437
3014,2819
3022,1504
3023,1158
3025,2781
3026,487
3027,1178
3029,542
3030,73
3030,201
3030,385
3030,1705
3031,88
3031,228
3033,241
3033,3428
3035,1177
3035,4321
3039,1034
3039,1434
3041,73
3041,156
3041,1152
3041,1407
3041,1547
3041,2095
3041,2181
3041,2679
3041,3015
3041,3099
3041,3384
3041,3642
3041,3653
3041,4250
3041,4752
3042,507
3045,636
3049,73
3051,1264
3055,4072
3057,152
3057,257
3057,1197
3057,4810
3060,291
3060,374
3060,761
3060,978
3060,1247
3060,1274
3060,1803
3060,2394
3060,4491
3060,4684
3062,116
3062,445
3064,3641
3066,2887
3068,527
3071,2314
3072,2293
3074,698
3079,231
3079,291
3079,1475
3079,3404
3081,1
3082,628
3084,4133
3090,838
3090,939
3090,4573
3090,4720
3091,241
3091,843
3091,1167
3091,1680
3091,2191
3092,8
3092,1062
3092,1357
3092,1841
3092,2254
3092,2404
3092,2759
3092,2916
3092,3415
3092,3743
3092,4295
3094,2681
3095,616
3096,1162
3098,1734
3102,4845
3104,864
3104,3571
3104,4805
3106,2447
3106,4166
3106,4364
3107,1001
3109,394
3110,429
3110,1161
3110,4419
3112,3309
3112,4280
3113,3225
3113,3306
3115,3169
3120,1770
3121,2773
3122,1883
3125,897
3128,338
3128,937
3129,2197
3130,32
3130,3630
3131,393
3131,3461
3131,4149
3132,4764
3134,441
3134,3989
3136,3169
3138,875
3139,897
3139,1006
3140,2066
3141,1911
3142,2102
3142,3209
3144,535
3144,1986
3146,3154
3146,4704
3148,32
3152,558
3153,135
3153,422
3153,473
3153,1606
3153,1896
3153,2237
3153,2262
3153,2959
3153,3053
3157,403
3159,3731
3160,2213
3160,3595
3162,3306
3163,2699
3167,82
3168,3036
3170,1737
3170,1787
3170,2664
3172,136
3172,3847
3173,3492
3173,4644
3174,2381
3175,156
3177,1663
3177,3670
3178,1292
3178,3802
3179,1695
3179,4499
3180,3069
3181,507
3183,507
3184,3139
3185,1292
3188,418
3191,1173
3191,4681
3195,2342
3197,2115
3198,2931
3200,1455
3201,3542
3202,1680
3204,3544
3205,1376
3206,2653
3208,3748
3208,4839
3212,156
3213,445
3213,2653
3213,3822
3214,437
3215,1748
3215,2390
3216,2370
3216,2990
3219,4072
3220,1296
3220,2336
3220,2641
3221,1307
3223,719
3223,1077
3223,3295
3227,2233
3228,71
3229,2696
3229,4074
3230,2975
3231,1
3231,181
3231,1263
3231,2124
3232,2629
3234,974
3234,1364
3235,1673
3237,1
3237,15
3237,24
3237,228
3237,382
3237,1019
3237,1327
3237,1629
3237,2318
3237,2363
3237,2503
3237,2699
3237,2750
3237,3126
3237,3207
3237,3435
3237,4269
3237,4366
3238,1006
3238,3090
3239,1986
3240,1721
3242,466
3242,3714
3243,601
3243,2434
3243,2809
3244,553
3244,953
3244,3943
3245,394
3246,1429
3247,282
3247,597
3247,1118
3247,2629
3247,3353
3249,4928
3250,3629
3251,691
3251,4628
3252,1453
3252,2260
3252,2283
3255,2092
3257,1319
3257,1960
3258,4282
3261,1364
3263,563
3263,798
3263,811
3263,3186
3266,1145
3266,1150
3266,3086
3266,4989
3271,1120
3271,3251
3272,2684
3276,3323
3276,4112
3276,4361
3278,1594
3279,2840
3281,939
3281,2731
3281,3004
3281,3470
3283,231
3284,3184
3284,4628
3286,1898
3288,367
3290,469
3291,4562
3292,1793
3292,3323
3293,4576
3294,550
3294,2803
3294,4150
3297,460
3297,982
3298,3217
3299,4585
3300,4266
3304,1950
3305,3685
3307,2005
3308,167
3310,2109
3314,827
3315,769
3315,1156
3316,151
3316,666
3316,867
3316,1056
3316,1381
3316,1929
3316,3052
3316,4031
3316,4628
3316,4741
3317,723
3318,588
3318,3772
3318,4398
3319,280
3321,1357
3322,459
3322,544
3322,1208
3322,3995
3325,420
3325,534
3326,1267
3326,2553
3326,2757
3327,1814
3327,4173
3328,770
3328,1101
3328,1153
3328,4779
3330,3133
3331,1669
3334,1845
3334,2283
3336,3685
3337,280
3340,361
3343,221
3343,1286
3343,1695
3343,3286
3343,3591
3343,4686
3343,4731
3344,2362
3345,3544
3345,4424
3346,1814
3348,2124
3349,238
3349,1326
3349,1760
3349,4141
3349,4712
3351,694
3352,1395
3352,2172
3357,2591
3359,878
3359,1143
3359,1603
3359,1863
3359,4251
3360,3224
3361,3461
3362,1352
3363,91
3365,1035
3365,3428
3367,1703
3368,280
3368,558
3368,1462
3368,4249
3370,1099
3370,4257
3371,4339
3372,3392
3373,1663
3377,28
3379,1757
3379,3756
3380,3501
3381,628
3382,2646
3383,1002
3385,1672
3388,558
3391,1181
3393,4817
3394,535
3394,1488
3395,3133
3396,738
3397,2285
3398,1007
3400,71
3401,1417
3401,3869
3406,315
3406,4640
3407,1730
3407,3154
3408,2166
3408,4166
3410,355
3410,1845
3411,2156
3412,276
3412,878
3417,2635
3418,4928
3422,2177
3423,2156
3424,4825
3425,4157
3427,2510
3428,26
3428,36
3428,1772
3428,2363
3428,3469
3428,3574
3428,3874
3428,4521
3429,2485
3431,639
3432,624
3432,1550
3432,3126
3432,3631
3432,3886
3433,808
3433,2488
3434,1845
3439,783
3440,1040
3441,124
3441,558
3441,4188
3442,2331
3443,957
3445,3911
3446,167
3446,3535
3447,3637
3448,2206
3451,770
3452,30
3452,550
3452,1072
3452,1303
3452,1693
3452,1845
3452,1956
3452,2008
3452,2884
3452,3736
3452,3840
3453,287
3454,6
3457,11
3459,4240
3463,15
3464,816
3464,3262
3467,1499
3467,1675
3467,3046
3468,545
3469,1348
3471,2096
3472,3283
3475,3421
3477,562
3478,3485
3479,3450
3479,4219
3479,4311
3480,3270
3481,2865
3482,1578
3483,240
3490,550
3490,1721
3490,2705
3491,563
3492,217
3494,443
3495,28
3498,558
3499,257
3501,286
3502,141
3502,3952
3502,4323
3504,1208
3507,457
3507,4938
3511,535
3511,3791
3513,27
3513,137
3513,167
3513,1333
3513,4741
3514,1162
3514,1940
3515,1161
3516,3279
3517,304
3519,1297
3520,1607
3522,70
3522,309
3522,1578
3522,3731
3522,4876
3527,906
3528,550
3529,155
3532,41
3533,1038
3533,2055
3533,3760
3533,4829
3535,3696
3537,3262
3539,358
3541,229
3543,3387
3544,318
3544,1660
3544,2191
3545,3521
3547,1843
3549,932
3549,2109
3549,3468
3549,3972
3549,4279
3549,4967
3550,2890
3552,3126
3553,1748
3554,1879
3555,203
3555,460
3558,274
3559,3182
3561,244
3561,490
3561,595
3561,729
3561,938
3561,997
3561,2331
3561,2568
3561,3103
3561,4515
3563,2266
3568,875
3568,1653
3570,1475
3570,2590
3570,4280
3572,460
3573,4837
3575,4327
3576,405
3576,2517
3577,28
3577,36
3577,167
3578,1167
3580,3813
3582,322
3582,1049
3582,2228
3582,3941
3583,247
3583,4395
3587,2839
3587,3830
3588,2383
3589,1893
3590,2319
3592,460
3593,327
3593,1259
3593,2475
3595,999
3595,4284
3595,4487
3596,39
3596,3510
3598,1220
3600,462
3601,1193
3602,485
3602,4703
3603,1286
3604,1
3604,911
3606,2376
3607,2294
3608,1629
3609,3409
3612,1341
3613,1677
3615,604
3616,1939
3616,2734
3616,3931
3617,4771
3618,3259
3618,4906
3621,1344
3627,1578
3628,4896
3629,2751
3632,1986
3633,45
3633,231
3633,2588
3634,231
3634,3837
3634,4722
3635,2639
3635,3848
3635,4090
3639,129
3639,642
3639,653
3639,1296
3639,2620
3639,3000
3639,3735
3639,3798
3639,4623
3640,4825
3643,3630
3644,1562
3645,3898
3646,901
3647,402
3647,737
3648,1478
3649,91
3649,244
3650,2672
3654,4032
3655,3941
3656,2319
3657,1734
3659,11
3659,31
3659,53
3659,422
3659,907
3659,1178
3659,1422
3659,2277
3660,1292
3664,152
3664,661
3664,1663
3664,1673
3664,3034
3666,1476
3667,3172
3669,522
3671,448
3671,1283
3671,2431
3671,3212
3674,18
3674,51
3674,319
3674,445
3674,485
3674,566
3674,837
3674,984
3674,1186
3674,1587
3674,1653
3674,1803
3674,1932
3674,2092
3674,2383
3674,2442
3674,2872
3674,2933
3674,2970
3674,3540
3674,3610
3674,3658
3674,4286
3674,4784
3676,2706
3676,4096
3678,2394
3678,4231
3681,1163
3682,1165
3683,514
3684,219
3684,1132
3684,1160
3684,1806
3684,3686
3685,3011
3685,4221
3686,971
3689,350
3690,2534
3691,186
3694,1162
3695,1590
3697,2039
3698,251
3698,3496
3701,291
3702,550
3702,1015
3702,3435
3702,4331
3703,3638
3703,4539
3704,205
3704,798
3705,1296
3708,2381
3709,220
3709,1737
3710,3218
3710,3651
3711,69
3712,315
3715,1155
3716,4945
3717,838
3718,2618
3719,267
3719,3283
3723,4511
3723,4532
3723,4553
3723,4821
3724,939
3724,4299
3724,4997
3727,1221
3727,2782
3727,4652
3728,287
3730,3324
3732,352
3732,4833
3734,10
3734,418
3734,2236
3737,2164
3738,2510
3739,251
3739,511
3745,1150
3746,3017
3748,263
3748,457
3748,1887
3748,1988
3748,2007
3749,984
3749,3273
3750,2595
3752,2938
3752,4748
3754,1206
3757,2143
3762,32
3762,4532
3763,1259
3763,1411
3766,215
3768,1578
3770,4311
3771,3474
3773,3510
3776,4521
3777,1297
3778,2872
3779,1296
3780,1617
3782,280
3782,2668
3785,2085
3786,1097
3788,2946
3789,2453
3790,429
3792,3725
3794,157
3794,1413
3795,69
3795,1168
3795,1914
3795,2492
3795,2753
3796,3840
3797,786
3797,1545
3797,1814
3798,2502
3799,1365
3799,3252
3801,761
3802,2680
3808,3375
3809,3182
3809,3876
3809,4988
3810,2253
3810,3273
3811,2102
3814,240
3815,23
3815,1168
3815,1419
3815,1672
3815,3155
3815,4806
3816,808
3817,273
3817,1806
3817,2283
3817,3806
3817,4104
3818,994
3818,2041
3819,758
3819,2773
3820,1773
3822,276
3824,3750
3826,220
3826,4849
3827,1783
3828,4183
3832,819
3833,1928
3841,2646
3841,4825
3846,2082
3846,4053
3852,1301
3855,39
3855,1532
3855,4545
3856,2071
3856,2642
3857,770
3858,28
3858,553
3858,3078
3858,3834
3859,1035
3860,2381
3861,87
3862,1361
3863,2578
3865,3594
3865,4214
3866,1715
3867,349
3867,4278
3868,1189
3870,3387
3870,4726
3872,78
3872,142
3872,1066
3872,1153
3872,1183
3872,2283
3872,3233
3872,3898
3875,1264
3877,2109
3878,749
3879,2987
3880,267
3881,868
3881,2251
3881,2381
3881,2511
3882,636
3884,65
3884,3560
3884,4581
3885,521
3885,1469
3885,2491
3887,4257
3890,976
3891,315
3893,3544
3894,1173
3895,2974
3896,230
3897,121
3900,1287
3900,1911
3900,2510
3900,2668
3903,1139
3903,1696
3903,1918
3903,3853
3903,4721
3904,87
3905,244
3907,380
3909,2629
3909,3919
3910,514
3911,3674
3914,1296
3914,3964
3915,912
3915,3998
3916,2689
3917,1794
3921,328
3922,533
3923,1442
3923,4129
3926,1297
3926,3117
3927,1371
3928,1452
3928,1772
3928,2699
3928,3036
3928,4641
3928,4835
3930,3584
3934,3908
3936,1666
3936,2557
3936,4273
3937,361
3937,3236
3938,197
3938,295
3938,392
3938,606
3938,1016
3938,1728
3938,2066
3938,2069
3938,2752
3938,3003
3939,3801
3940,2021
3941,39
3941,2611
3942,712
3944,28
3944,91
3944,167
3944,469
3944,821
3944,1316
3944,1432
3944,1500
3944,1578
3944,3579
3944,4658
3944,4928
3945,3295
3946,1476
3947,4015
3949,4327
3950,60
3950,2899
3951,733
3951,1313
3951,1535
3951,2155
3951,2689
3951,2887
3951,4301
3951,4349
3953,798
3956,3069
3957,3861
3957,4758
3958,2053
3960,628
3961,598
3962,50
3963,3850
3964,22
3964,50
3964,155
3964,244
3964,690
3964,932
3964,957
3964,1300
3964,1909
3964,1996
3964,2185
3964,2319
3964,2383
3964,2614
3964,3376
3964,3742
3964,3800
3964,3953
3964,4185
3964,4541
3965,2488
3966,217
3966,1155
3966,1471
3969,1977
3969,3266
3969,3538
3970,1181
3970,3758
3970,3936
3970,4521
3971,3354
3976,2904
3977,798
3978,1098
3980,1754
3981,385
3981,4875
3983,1900
3984,1476
3985,3073
3986,1463
3986,1785
3986,2604
3986,2666
3986,2924
3986,3721
3986,3783
3987,1197
3988,3883
3990,3731
3991,3665
3992,2318
3994,3531
3999,36
3999,387
3999,440
3999,463
3999,710
3999,1842
3999,2124
3999,3014
3999,3414
3999,3751
3999,3931
3999,4792
4000,1957
4000,4708
4001,3675
4002,2233
4002,3733
4002,4526
4003,4280
4005,2022
4006,460
4007,56
4009,36
4009,705
4009,2297
4009,3348
4011,803
4011,2778
4011,3484
4012,73
4015,2787
4015,2806
4018,1004
4018,3574
4018,4324
4019,1942
4019,4163
4020,4433
4021,706
4022,1902
4022,2061
4022,4855
4025,1877
4027,1757
4033,3574
4038,79
4039,3595
4039,4217
4040,432
4040,1006
4040,1649
4040,2441
4040,2625
4040,4316
4041,556
4043,4031
4044,298
4044,466
4044,3468
4044,4951
4045,2530
4047,2434
4048,1159
4049,1596
4051,558
4054,1040
4055,4995
4056,448
4057,1175
4062,1002
4063,878
4063,2310
4063,4343
4065,2671
4066,1124
4067,701
4070,444
4070,1016
4070,2090
4071,3901
4072,2290
4075,723
4076,251
4076,1903
4076,2287
4076,3569
4076,4257
4077,2839
4081,626
4081,1806
4081,3026
4081,3726
4082,2940
4084,2060
4086,3742
4088,3192
4089,263
4092,3685
4093,155
4093,2171
4093,2393
4093,2534
4094,705
4096,1025
4097,1317
4098,1575
4098,1986
4099,244
4100,18
4101,1480
4102,1172
4107,554
4108,1566
4108,2475
4108,3575
4108,3590
4109,350
4109,2317
4110,227
4111,2878
4116,1264
4118,53
4118,1696
4118,3392
4118,3850
4120,208
4120,2935
4121,167
4121,4024
4122,2297
4122,2810
4122,3486
4122,4061
4126,2899
4127,3697
4131,286
4131,2130
4131,2936
4132,15
4132,769
4132,3629
4133,1720
4133,4207
4135,953
4136,413
4136,1163
4136,4855
4137,4023
4138,30
4138,3350
4138,4170
4140,3721
4142,4945
4144,280
4145,2633
4147,3000
4148,2430
4151,314
4153,3058
4155,181
4157,429
4157,1316
4157,2782
4157,4123
4158,72
4158,753
4158,1386
4158,1422
4158,1824
4158,1846
4158,2331
4158,2933
4158,3026
4158,3812
4158,3997
4158,4252
4158,4556
4160,2623
4161,444
4164,3597
4166,4880
4167,3619
4169,1173
4171,152
4171,4951
4172,1089
4172,1878
4172,2050
4172,4945
4174,1155
4175,156
4175,545
4175,1367
4175,1554
4175,4687
4176,974
4180,2938
4182,2172
4184,42
4184,4846
4185,1836
4190,1073
4191,1087
4191,2488
4191,2850
4192,3975
4193,1563
4194,3756
4196,2081
4197,2598
4198,1111
4199,210
4199,358
4199,1399
4199,2319
4199,3426
4201,1172
4204,991
4210,1498
4213,1766
4214,401
4214,1340
4216,316
4216,4366
4218,1843
4221,3161
4223,1624
4225,250
4227,394
4227,2319
4228,1179
4229,206
4230,4873
4231,527
4231,553
4231,1794
4231,1903
4231,2302
4231,2381
4231,3213
4231,3567
4231,3611
4232,62
4232,2482
4233,918
4235,2517
4235,3016
4235,3649
4236,426
4239,3132
4240,1050
4240,4803
4242,2366
4247,2055
4248,1476
4248,2848
4250,34
4250,803
4250,856
4250,866
4250,896
4250,1167
4250,1496
4250,1921
4251,3641
4253,4492
4255,3556
4257,2897
4260,3018
4264,1743
4264,3845
4265,1183
4267,1581
4268,211
4270,1678
4272,3911
4273,4613
4274,451
4275,444
4276,4203
4278,134
4278,264
4278,522
4278,3364
4279,2517
4280,281
4280,4814
4281,2897
4287,3597
4288,4901
4291,361
4292,221
4292,254
4292,880
4296,4133
4298,2319
4302,372
4302,387
4302,1034
4302,1626
4302,1638
4302,3842
4303,486
4303,612
4303,1382
4303,2853
4303,4435
4304,1333
4305,2672
4305,2904
4305,3233
4306,628
4307,88
4307,155
4309,1288
4311,27
4312,466
4313,53
4313,920
4315,4316
4320,184
4320,467
4320,628
4320,843
4320,855
4320,2269
4320,2455
4320,2750
4320,2851
4320,3406
4320,3905
4320,4590
4320,4683
4320,4928
4328,39
4328,69
4329,1781
4330,4821
4332,1846
4334,939
4335,106
4335,206
4335,550
4335,569
4335,1944
4335,2864
4335,3347
4335,3968
4335,4557
4336,195
4337,3155
4339,2019
4340,434
4340,2191
4340,4395
4342,2228
4342,2878
4342,2887
4343,150
4343,390
4343,4352
4344,2755
4345,2868
4345,3269
4348,1452
4348,4502
4350,831
4351,3039
4353,315
4353,4437
4354,2899
4357,1737
4358,1274
4359,2421
4362,1666
4365,135
4366,241
4366,1173
4366,2234
4366,3763
4368,997
4369,442
4369,4895
4370,453
4370,1556
4370,1775
4370,2807
4371,1911
4371,2958
4371,3461
4372,304
4373,1663
4373,4474
4375,28
4376,3075
4379,3348
4380,3364
4381,1305
4382,2807
4383,3267
4384,3099
4385,150
4387,1703
4387,4940
4389,3218
4390,315
4390,4410
4391,2191
4392,4605
4394,4901
4396,28
4396,2510
4396,3437
4396,4032
4399,785
4401,1903
4403,569
4403,4295
4405,1172
4406,3528
4408,4560
4412,2382
4412,4520
4413,2689
4414,3182
4414,3546
4415,310
4418,4951
4421,3630
4424,134
4425,2330
4426,628
4427,216
4428,666
4428,4532
4432,1425
4432,2115
4432,2861
4438,763
4440,2629
4440,4046
4441,1088
4443,140
4443,405
4443,660
4443,819
4443,821
4443,1292
4443,4328
4443,4850
4443,4972
4444,4413
4445,1950
4446,385
4447,2417
4447,4921
4448,1814
4450,4398
4451,2155
4451,4825
4452,2889
4453,1201
4453,2197
4454,1607
4455,723
4459,2904
4460,2103
4461,1267
4462,28
4463,1498
4464,1846
4465,550
4466,1307
4467,1578
4467,4492
4468,8
4469,3059
4469,4977
4471,1678
4472,2534
4478,2653
4479,4136
4482,2872
4484,3795
4485,3101
4487,921
4488,1766
4489,469
4489,3137
4490,1762
4490,2509
4490,3459
4490,4433
4493,1417
4493,2110
4494,1096
4494,4206
4496,345
4496,835
4496,2629
4496,3288
4496,3954
4498,277
4499,4620
4500,221
4501,1564
4501,2142
4501,3323
4501,4317
4503,1931
4505,4492
4508,2624
4508,4855
4510,3696
4511,2803
4511,3911
4512,2946
4513,3845
4515,267
4518,2878
4519,28
4519,402
4519,1672
4519,1701
4519,3967
4521,721
4521,2990
4522,36
4524,4481
4526,235
4526,614
4526,643
4526,676
4526,710
4526,1307
4526,1368
4526,1551
4526,2283
4526,2834
4526,3823
4526,4029
4526,4725
4527,1911
4528,2987
4530,1295
4530,2726
4530,3782
4531,2595
4534,4149
4535,18
4536,3117
4538,79
4542,227
4542,1172
4542,2909
4543,4521
4544,4907
4545,461
4545,759
4545,1987
4545,2450
4545,2810
4545,3056
4545,3105
4545,3260
4545,4480
4545,4919
4546,2013
4547,36
4547,3218
4548,1737
4552,1192
4555,18
4559,28
4560,4037
4561,1394
4561,1734
4562,4222
4563,2051
4564,4245
4565,2695
4566,1701
4567,1804
4567,3731
4569,1766
4571,2990
4572,1462
4574,798
4578,2181
4579,3399
4582,4102
4583,402
4584,525
4586,1173
4587,3931
4589,666
4591,373
4591,1787
4591,1872
4591,3706
4591,3721
4592,4575
4597,289
4598,15
4598,2047
4598,2319
4598,4383
4598,4777
4599,3260
4600,198
4600,2923
4600,4086
4602,291
4603,1868
4603,2401
4604,819
4604,3225
4607,604
4607,2825
4607,3302
4608,3011
4609,11
4610,3348
4611,535
4615,1652
4616,822
4617,2485
4618,1
4622,3847
4624,315
4627,121
4627,1106
4627,2171
4627,2759
4627,3287
4627,3967
4627,4638
4632,1814
4633,156
4633,247
4633,505
4633,586
4633,1297
4633,1737
4633,2131
4633,2266
4633,3830
4633,4034
4634,1175
4635,298
4645,2074
4647,467
4648,1666
4649,1794
4655,3594
4656,1734
4657,466
4657,1887
4657,4152
4659,3468
4660,1737
4660,2642
4663,558
4666,3762
4667,1411
4667,2990
4668,1084
4669,4480
4672,3497
4673,1665
4674,237
4675,145
4675,3750
4676,1002
4678,1678
4678,2781
4679,3199
4680,1041
4680,3544
4682,2333
4686,912
4686,2122
4689,1495
4690,291
4691,4200
4692,3323
4692,4737
4694,606
4695,107
4696,228
4697,4554
4699,1500
4704,2622
4705,4341
4706,3182
4708,382
4708,422
4708,1891
4708,2510
4708,3233
4708,3731
4708,4181
4708,4193
4708,4785
4708,4849
4714,670
4714,4757
4715,2890
4716,3182
4717,1159
4718,786
4720,309
4724,3697
4726,1776
4728,1055
4728,4700
4729,3444
4730,3184
4731,3252
4732,2299
4733,486
4733,927
4733,2889
4733,2901
4733,3560
4733,3692
4735,612
4736,4741
4739,751
4740,4525
4741,227
4746,2475
4747,1200
4747,4143
4750,3518
4751,527
4753,18
4754,911
4756,2824
4758,626
4758,1783
4758,2880
4758,3850
4759,2055
4760,3211
4761,1322
4762,2345
4762,2615
4762,3258
4765,3874
4766,1819
4767,416
4768,28
4770,2061
4772,4157
4773,1
4775,2132
4776,641
4783,1305
4785,1551
4786,1903
4788,1230
4789,1900
4791,441
4794,3461
4795,859
4795,1809
4797,1734
4797,4979
4799,3913
4800,4102
4801,2171
4806,2893
4807,388
4808,2850
4809,385
4809,3323
4812,628
4813,2206
4813,3761
4813,3840
4815,4211
4815,4490
4816,66
4818,4046
4819,1348
4819,2465
4819,3063
4820,3113
4821,1632
4821,4840
4822,937
4823,4491
4824,4217
4825,4163
4826,3629
4830,79
4831,3506
4832,2402
4838,287
4841,563
4843,1161
4843,2336
4843,4030
4843,4908
4848,1167
4851,2293
4852,579
4852,1921
4852,3818
4855,1715
4858,4258
4860,441
4860,2838
4860,3059
4860,4346
4861,918
4866,2102
4866,3004
4867,511
4867,3252
4868,527
4869,920
4870,2039
4871,2605
4873,34
4874,541
4876,3510
4879,333
4886,328
4887,2382
4890,511
4891,1
4892,4
4894,2840
4896,2110
4897,1307
4899,4874
4901,898
4902,2496
4903,880
4905,653
4909,3260
4911,350
4913,1208
4914,444
4915,2013
4916,2109
4917,558
4918,2171
4921,460
4921,1925
4921,4207
4922,4513
4925,2578
4926,1794
4928,4970
4929,1068
4932,221
4933,2348
4934,4950
4935,94
4935,361
4935,998
4936,3362
4937,1849
4941,3343
4943,3941
4944,486
4945,572
4945,3612
4948,1936
4950,4939
4954,3034
4957,2588
4960,3743
4962,444
4964,4510
4965,4436
4966,3416
4968,2260
4969,719
4971,78
4971,1580
4971,2283
4972,385
4977,1830
4977,2953
4978,4656
4980,3199
4981,328
4986,737
4986,1099
4990,2124
4992,2326
4996,3744
4999,3480
