src,dst
0,1
0,2740
2,308
2,337
2,441
2,1112
2,1116
2,1218
2,1810
2,2206
2,2725
2,2886
2,3232
2,3736
2,3788
2,4275
2,4899
3,39
3,1582
3,2425
3,4148
4,165
7,123
7,1365
7,1912
7,2236
7,3777
9,36
9,311
9,2207
9,3887
9,4032
10,204
10,270
10,437
10,574
10,799
10,1801
10,2045
10,3378
10,3532
10,3893
12,973
16,1601
16,4562
18,17
18,90
18,775
18,1045
18,1527
18,1875
18,1949
18,2712
18,2989
18,3575
18,3863
18,4212
23,1910
23,2748
23,4136
23,4192
25,54
25,59
25,179
25,249
25,303
25,520
25,628
25,747
25,1870
25,2634
25,4364
25,4771
25,4926
26,1380
26,2472
26,2842
26,4129
26,4239
27,1671
27,4083
28,1638
30,575
30,1379
30,4009
30,4917
31,451
31,1532
31,1857
31,3522
31,4336
32,40
32,742
32,868
32,1379
32,1860
32,2236
32,4561
33,1804
33,2340
33,3840
34,605
34,2038
34,2065
34,3075
34,3141
34,3320
35,3159
35,3543
37,638
38,2391
41,347
41,719
43,460
43,1074
43,1183
43,1594
43,1857
43,2388
43,2531
43,2850
43,3573
43,3808
43,4102
43,4449
44,4364
44,4578
45,212
45,1404
46,3998
48,3079
49,152
49,280
49,462
49,1064
49,1528
49,2228
49,2592
49,2605
49,3427
49,3676
53,2620
53,3726
53,4732
54,2508
54,3447
55,540
55,3827
58,22
58,550
58,642
58,882
58,1278
58,1282
58,1638
58,2552
58,2616
60,2759
60,3478
61,87
61,142
61,197
61,257
61,354
61,541
61,542
61,588
61,1243
61,1731
61,1795
61,1825
61,1986
61,2141
61,4172
61,4449
61,4667
61,4718
61,4725
61,4757
63,356
63,367
63,1073
63,1512
63,1955
63,3987
64,2750
65,4722
67,486
70,8
70,56
70,425
70,1774
70,3481
70,4694
70,4718
71,1912
72,1467
72,1976
72,3748
72,4813
73,1161
73,1267
73,1293
73,1408
73,1710
74,501
74,2706
74,2925
75,203
75,365
75,3742
75,4143
77,1253
77,1407
77,1467
77,2215
77,3604
78,169
78,227
78,378
78,1091
78,1718
78,2061
78,2449
78,4069
80,89
80,281
80,674
80,687
80,954
80,999
80,1747
80,2130
80,2668
81,3311
82,1117
82,1678
82,2508
82,2979
82,4273
82,4652
83,2472
85,4447
86,155
86,264
86,4358
91,219
91,386
91,856
91,1000
91,2081
91,3720
91,4064
93,815
93,3367
93,3756
93,4562
94,412
94,834
94,1999
94,2057
94,2278
94,2306
94,4358
98,638
98,3774
98,4637
100,1190
100,2080
100,2128
100,2217
100,4924
102,100
102,110
102,686
102,1215
103,4718
104,381
104,1106
104,2405
104,2503
104,2506
104,3176
104,3878
105,274
105,447
105,492
105,960
105,1304
105,1369
105,1388
105,1511
105,1564
105,1971
105,3298
105,3315
105,3476
105,3725
105,4742
107,701
107,840
107,2209
107,3871
108,88
108,4680
110,3241
112,4336
115,99
115,101
115,228
115,250
115,403
115,705
115,1036
115,1112
115,1193
115,1238
115,1365
115,1852
115,1885
115,1958
115,2055
115,2086
115,2127
115,2295
115,2773
115,2904
115,3359
115,3493
115,3717
115,3726
115,3754
115,4110
115,4594
115,4826
115,4928
116,786
116,2037
116,4168
118,2055
121,602
121,1344
121,4283
124,100
126,714
126,1739
126,2087
126,2371
126,2499
126,2756
126,2909
126,3250
126,3274
126,3530
126,3907
126,4922
127,1444
131,88
131,333
131,2915
131,4648
132,647
132,2370
132,4066
133,68
133,3769
133,3799
133,4586
135,786
136,305
136,776
136,1079
136,1409
136,1491
136,2943
138,50
138,84
138,290
138,293
138,347
138,1170
138,1177
138,1261
138,1886
138,2115
138,4168
139,3543
140,240
140,396
140,989
140,1085
140,1106
140,1123
140,1942
144,1371
144,4010
144,4329
145,68
145,1632
145,1856
145,4853
145,4931
147,20
149,71
149,173
149,819
149,2499
151,4557
154,357
154,366
154,2059
154,4228
156,2196
156,4005
158,111
158,3692
159,3234
160,1249
160,2096
160,2402
160,2898
160,2903
160,3455
160,3489
160,3617
163,100
163,272
163,1234
163,1803
163,2691
163,3762
163,4239
164,332
164,510
164,1336
164,3098
164,4686
166,646
167,424
167,1144
167,1717
167,2251
167,2597
168,2692
170,2157
171,486
171,4948
176,896
176,1105
176,1137
176,2673
176,3379
176,3745
176,4363
177,4026
178,84
180,4391
182,974
182,2174
182,3557
185,1338
185,3633
186,1137
186,1547
186,3248
186,3589
186,4069
187,13
187,446
187,461
187,920
187,1137
187,1175
187,1551
187,1857
187,3030
187,3108
187,4536
188,227
188,235
188,274
188,457
188,474
188,1142
188,1757
188,1984
188,2443
188,3237
188,3600
188,4205
188,4746
189,71
190,3009
190,3779
192,1380
192,2713
193,380
193,432
193,846
193,1111
193,1269
193,1521
193,1666
193,1705
193,2257
193,3866
193,4177
193,4195
193,4314
194,205
194,1335
194,4050
196,714
196,1670
199,1619
201,1081
201,4924
203,270
203,755
203,1501
203,2960
203,4731
203,4981
204,2845
204,4234
206,54
206,2952
206,4164
208,4056
209,495
211,113
212,1278
212,1855
212,3004
212,4890
213,3613
213,3893
215,3806
217,111
217,750
217,2279
217,2329
217,2468
217,3003
217,3034
217,3279
217,3423
217,4073
220,113
220,295
220,433
220,1106
220,1551
220,2068
220,2611
220,3291
220,3833
220,4114
220,4365
221,2208
223,473
223,877
223,4146
224,84
224,101
224,685
224,1011
224,1619
224,1630
224,1821
224,1931
224,2111
224,2136
224,2272
224,2620
224,4354
225,222
225,1106
225,2137
225,2471
226,3985
230,3199
232,542
232,832
232,2056
232,4757
233,1621
233,3573
233,4449
236,227
236,635
237,1000
238,4698
239,1312
239,1333
239,1526
239,1854
239,3146
239,3402
241,243
241,1777
241,4026
241,4821
242,1379
245,436
246,490
247,969
247,4239
248,73
250,266
250,629
250,694
250,4478
251,210
254,909
254,3879
255,423
255,526
255,657
255,701
255,1239
255,1614
255,3075
256,11
256,176
258,157
259,1151
259,1483
259,2821
259,4384
260,1501
260,2796
260,4698
262,3543
263,1380
263,2008
265,701
265,899
265,931
265,2365
267,1517
267,4382
268,100
269,498
269,1349
269,1370
269,1857
269,3113
270,1627
270,4876
271,714
271,2154
271,4370
275,2085
275,3465
277,318
277,2759
278,40
278,771
278,857
278,1640
278,2108
278,2204
278,3823
278,4564
285,19
285,2032
285,2188
285,4366
286,2157
286,3567
287,495
287,600
287,636
287,747
287,1824
287,4907
288,3396
291,1913
291,2251
292,568
292,1356
292,1398
292,2659
292,4924
292,4965
294,198
294,2140
296,202
297,2793
297,3224
297,4550
300,203
300,1123
300,4357
301,414
301,1703
301,3893
301,4720
302,1191
306,3143
310,2472
310,3497
310,3809
311,4234
312,557
312,1219
312,1602
312,3375
312,4476
314,610
314,747
316,486
317,57
317,90
317,657
317,918
317,1136
319,2324
319,2972
319,4386
321,1612
321,1629
321,1941
321,3599
321,4974
322,528
323,1098
323,1349
324,4398
326,347
328,21
328,2728
328,4383
329,693
329,1178
329,1638
331,318
331,2762
331,2769
334,281
334,1179
334,4239
335,733
335,999
335,1156
335,2116
335,2845
335,2926
335,3239
335,3403
335,3848
335,4127
335,4529
338,248
339,739
339,2759
339,4270
345,486
345,1184
345,4155
346,11
346,853
346,1827
346,4390
347,807
347,982
347,1733
348,1139
348,4722
349,909
350,130
350,198
350,309
350,442
350,625
350,1000
350,1137
350,1174
350,1382
350,1631
350,2507
350,3020
350,3543
350,4610
350,4657
350,4820
352,1472
352,1874
352,2616
352,3178
352,3668
353,216
353,1978
355,1501
355,1713
361,500
361,781
363,909
364,161
364,630
364,1371
364,4429
367,1904
367,2845
367,3804
371,749
374,506
374,597
374,1340
374,1342
374,3336
375,6
375,511
375,531
375,658
375,3330
375,4726
377,117
377,279
377,579
377,700
377,2091
377,3893
377,4675
381,1392
381,1645
381,1675
381,2771
382,795
382,1354
382,1905
382,3538
384,714
384,2788
384,3485
387,344
387,925
387,1612
387,1633
387,2287
387,3048
387,4382
388,1609
389,319
389,1137
389,1305
389,1506
389,2595
389,2702
389,3287
389,3348
390,1810
393,1161
395,623
395,628
395,648
395,2401
395,2542
395,3543
395,4957
397,305
397,573
397,706
397,1202
397,1522
397,1525
397,1563
397,1870
397,2897
397,3394
397,4124
397,4964
400,406
400,2645
400,2736
400,4504
402,84
402,475
402,4508
404,4619
405,4650
408,949
409,47
409,1302
409,1860
409,4718
410,466
410,2667
410,2822
411,1123
411,3421
411,3884
413,110
413,240
413,517
413,988
413,2460
413,3139
413,3148
413,3622
413,3765
413,4435
416,315
416,459
416,565
416,1733
416,2078
416,2107
416,2126
416,2425
416,2679
416,4995
417,39
417,3490
417,4891
419,73
419,231
419,305
419,313
419,373
419,490
419,543
419,701
419,776
419,1161
419,1768
419,1890
419,1942
419,2199
419,2487
419,2758
419,2902
419,3127
419,3163
419,3168
419,3351
419,4367
419,4562
419,4996
420,59
422,100
422,433
422,1074
427,51
427,54
427,365
428,4479
429,1010
429,1091
429,1501
429,2587
429,4041
432,280
434,2188
435,153
435,486
435,529
435,759
435,952
435,988
435,1493
435,1648
435,1726
435,1781
435,2175
435,2494
435,2861
435,3314
435,4082
435,4135
435,4651
435,4772
436,4059
436,4873
438,439
438,2241
438,4600
440,701
440,1245
440,3953
440,4026
445,2291
445,2472
445,2991
445,3330
445,3985
445,4161
452,191
452,1856
452,1860
452,2761
453,666
453,2080
453,3626
453,3635
453,4280
453,4722
454,1338
454,4984
455,391
456,2188
458,3850
458,4562
463,858
463,2554
463,2604
463,4243
463,4715
464,367
464,553
464,727
464,1000
464,1202
464,1276
464,1416
464,1585
464,2564
464,3310
464,4413
465,4160
465,4855
467,252
467,293
467,318
467,392
467,1418
467,1599
467,1738
467,2361
467,2521
467,2527
467,2791
467,3775
467,4006
467,4867
468,1086
468,1135
469,146
469,3369
471,519
471,1279
471,1370
471,1784
477,1960
477,2186
478,407
478,1235
479,432
479,2193
483,1181
485,356
485,2789
485,3893
486,1693
487,17
491,66
491,728
493,1733
494,84
494,2811
494,3353
495,3931
496,719
496,2628
497,97
497,1355
497,3044
499,308
499,4234
499,4413
501,2367
501,4108
501,4177
502,57
503,459
503,3805
504,2269
504,4562
507,847
507,881
507,2871
507,4109
507,4165
508,1154
508,1309
508,1370
508,1573
508,1651
510,153
510,1393
513,134
513,495
513,898
513,1814
513,2146
513,2556
514,4391
515,1601
516,4066
518,92
521,520
521,533
521,1476
521,2017
521,4803
524,434
524,1197
524,1245
524,2716
524,3997
524,4957
530,755
530,1576
530,2034
530,4924
532,59
532,69
534,3215
534,4229
534,4382
535,784
535,2429
535,3200
535,4543
538,786
545,2845
546,66
546,2552
546,4020
547,200
547,1243
547,1945
548,950
548,1790
549,4036
551,2102
552,333
552,2125
552,2845
552,4125
556,252
556,752
556,922
556,948
556,1043
556,1997
556,2602
556,3573
556,4566
558,406
558,1320
559,204
559,1281
559,1293
559,4794
561,2909
562,1638
562,1712
563,1237
563,3234
564,305
565,1313
565,4423
566,441
566,1209
566,1390
566,2236
566,2508
567,1112
567,4891
568,59
568,1147
568,1338
568,1522
568,1942
568,2100
569,1601
571,165
575,117
575,461
575,2100
575,2107
575,2369
575,3135
575,3298
576,406
577,57
577,173
577,248
577,1293
577,1608
577,2203
577,3592
577,4046
578,315
580,822
580,876
580,925
580,926
580,1320
580,3895
580,4040
580,4077
580,4638
582,298
582,869
582,3434
584,1174
584,1308
584,4194
585,3192
585,4625
586,470
586,3650
587,1638
587,4378
589,264
589,470
589,787
589,909
589,1284
589,1577
589,1919
589,2385
589,2509
589,2619
589,2629
589,2813
589,2975
589,3370
589,3588
589,3821
589,4418
590,21
590,892
590,2208
590,4215
591,731
591,3526
591,3542
591,3571
592,69
592,1861
592,3235
592,3927
592,4061
593,3769
593,4605
594,1030
594,2079
594,2290
594,2837
595,279
596,57
596,179
596,183
596,686
596,1744
596,3105
598,522
598,1775
598,2222
599,807
600,2162
603,1034
603,1688
603,1781
603,2943
604,1380
604,3232
606,181
606,971
606,2723
607,476
608,293
608,748
608,1185
608,1379
608,1956
608,2290
608,2827
608,2840
608,3074
608,3212
608,3279
608,3441
608,4432
608,4727
611,3952
616,602
616,714
616,2020
617,2830
617,4059
619,2794
622,115
623,222
623,2064
624,88
624,96
624,318
624,752
624,1338
624,1922
624,2233
624,2495
624,3093
624,3134
624,3340
624,4214
624,4537
624,4704
626,544
626,995
626,2035
626,3097
626,4726
627,84
627,522
627,696
627,960
628,2090
631,212
631,2326
631,3773
631,4047
634,109
634,1185
634,2349
635,274
637,938
637,988
637,1330
637,2748
637,3108
638,2678
640,137
640,1680
640,2950
641,157
642,4877
643,1467
643,4634
644,687
644,1540
645,119
645,531
645,913
645,4245
646,1401
649,570
649,988
649,4735
651,498
651,1494
651,1683
651,4389
652,59
652,282
653,786
654,936
655,407
655,1608
656,2672
657,274
661,785
661,1230
661,1981
661,2978
661,4619
662,2897
662,4968
663,4996
664,257
664,498
664,2150
665,162
665,689
665,756
665,1965
665,2289
665,3676
665,3720
666,168
666,964
666,999
666,1024
666,1541
666,3169
667,396
667,799
667,3163
667,4231
668,144
669,1137
670,325
670,745
670,2525
670,4301
671,3128
672,142
673,69
673,4170
675,1710
676,4059
677,3540
678,1949
678,4796
680,143
680,284
680,911
680,928
680,1174
680,1429
680,1865
680,2986
680,3470
680,3703
682,373
682,1380
682,2032
682,2216
682,4026
682,4277
683,1782
687,4382
688,174
690,1638
691,59
692,3860
692,4113
693,713
693,1172
693,2042
693,2854
693,3293
693,4722
695,162
697,68
697,718
697,869
697,2117
697,2526
697,3192
699,1876
699,4562
702,735
703,42
703,1429
703,3533
703,4206
703,4800
704,66
704,614
708,1679
708,2570
710,588
711,432
711,1840
711,3336
711,4314
712,274
712,1693
712,3096
712,3311
715,4391
716,1186
716,1653
720,2973
721,4757
722,379
722,4130
723,752
724,806
724,3192
725,2164
725,3230
725,3300
725,4942
726,2527
729,870
729,983
729,1268
729,1830
729,2391
729,2456
729,2947
729,3092
729,3595
729,4487
730,4158
732,658
732,787
732,1091
732,1709
732,1811
732,3491
732,4287
737,308
737,1170
737,4160
738,2188
738,2196
740,1106
741,512
741,2387
743,1125
743,2056
743,4123
743,4252
744,68
748,222
748,1681
748,1943
748,2481
748,2660
748,2977
749,988
750,18
750,962
750,2903
751,99
751,2508
751,4073
753,1163
753,1467
755,176
757,51
757,143
757,432
757,1485
757,2695
757,3639
757,3662
758,495
758,831
758,874
758,1476
758,1792
758,2435
761,1049
761,1093
761,1538
761,3029
761,4356
761,4521
762,279
762,736
764,433
764,4374
765,913
766,4129
772,460
772,2386
772,2795
773,2728
775,248
777,1171
777,4287
778,18
778,700
779,111
780,448
782,527
782,2926
782,4017
783,68
783,1084
783,1526
783,2031
783,2552
783,4698
786,11
786,1184
786,1993
786,3198
786,4083
786,4120
788,279
789,56
790,315
790,1008
790,2732
790,2939
790,4391
792,877
792,1893
793,57
794,4029
796,500
797,3818
797,4234
797,4314
802,2157
803,585
803,795
803,1302
803,2482
803,3696
804,2291
807,1574
807,1744
807,3609
809,1125
809,2088
811,2641
812,264
812,2265
812,2333
812,3732
812,3889
812,4646
818,391
820,701
821,700
821,2239
821,2318
822,4274
823,495
824,2563
824,3676
825,134
826,3907
827,549
827,2531
827,3007
827,4438
829,27
830,687
830,1663
830,3952
830,4427
830,4484
832,486
832,1436
832,1572
836,2165
836,4793
837,3108
838,1467
838,4413
839,342
839,1522
839,1733
839,2608
839,4457
840,1843
841,222
842,2883
846,161
847,2392
848,203
849,1131
849,1924
849,2586
850,277
850,3356
851,1106
851,2272
851,3362
852,59
852,528
852,781
852,862
852,1370
852,2929
853,486
854,3529
854,4716
855,1307
856,3075
859,609
859,1380
860,687
861,57
861,588
863,2524
863,4577
866,4301
867,466
871,451
875,1422
875,2188
875,4714
876,3228
878,252
878,4020
879,432
879,1011
879,1113
879,1285
880,1137
882,1457
885,340
885,2165
885,2552
885,4334
886,1402
886,4667
889,4073
890,1137
891,52
891,2104
893,1000
893,1278
894,347
897,17
897,4137
898,76
900,264
900,3027
902,1380
904,243
906,162
906,191
906,605
906,2279
906,2970
906,3388
906,3739
907,1278
910,370
910,2471
910,3337
910,3930
912,2143
912,3311
912,4348
912,4567
915,66
915,1278
915,1524
915,2640
916,1017
916,2474
916,2786
916,4853
917,2557
917,4640
918,536
919,1000
923,579
924,1549
924,2587
924,2640
924,2938
924,4249
927,152
929,1154
929,1438
929,3754
929,4059
929,4449
930,2983
932,68
932,3397
934,1597
934,1857
934,2499
934,2661
934,4961
935,1717
935,2620
935,3179
935,4435
936,343
936,958
936,1565
936,1823
936,4148
936,4151
936,4619
937,1100
937,2508
941,168
944,257
944,308
945,367
945,376
945,1034
945,2898
945,3244
945,4001
951,2045
951,3192
951,3439
951,4486
952,161
952,379
952,495
952,4878
955,2107
955,3666
956,234
956,2303
957,1312
957,2012
957,2133
957,3713
959,1851
959,1971
959,3257
959,4260
960,279
961,696
962,4064
963,834
964,2904
965,498
965,2258
965,4171
966,686
966,2959
966,4597
967,536
967,1079
967,1364
967,1440
968,342
968,1934
970,1722
970,2755
975,4650
977,549
977,1080
977,2748
977,4963
978,4899
979,909
980,1662
980,4757
984,928
984,974
984,2620
985,305
989,1455
989,1458
989,3648
989,4449
989,4531
989,4561
990,51
990,500
990,2906
991,2036
991,3290
992,1297
992,1618
992,1654
992,1658
992,2224
992,2733
992,2961
992,3869
992,3907
992,4250
994,2516
994,2839
994,2966
997,981
998,84
1000,14
1000,59
1000,120
1000,250
1000,2188
1001,311
1001,1464
1001,4838
1002,284
1002,1044
1002,1338
1002,2562
1002,3112
1002,3676
1003,1567
1005,2811
1005,3299
1006,1365
1006,1710
1007,394
1007,600
1009,308
1009,1679
1009,4413
1011,816
1012,735
1012,869
1012,1798
1012,4093
1012,4225
1013,142
1014,1472
1014,1725
1015,2606
1015,4795
1015,4964
1016,520
1016,1638
1016,2988
1016,3514
1016,3871
1017,2871
1018,50
1018,4495
1019,2531
1019,4863
1020,162
1020,204
1020,3797
1020,3844
1021,939
1023,4338
1024,3622
1025,913
1025,940
1026,3848
1028,954
1028,1512
1028,3081
1028,4683
1030,1016
1031,684
1032,179
1032,2916
1033,701
1035,831
1035,1464
1035,1744
1037,660
1037,1277
1037,1723
1037,2291
1037,3667
1037,3905
1038,68
1038,211
1038,4239
1038,4437
1039,490
1039,503
1039,1421
1039,2843
1040,2954
1040,3397
1042,203
1046,84
1048,315
1048,4872
1050,933
1050,934
1050,1366
1050,1907
1050,2357
1050,4239
1051,612
1051,1512
1051,2371
1051,3047
1051,3724
1052,392
1055,1237
1055,2236
1055,2815
1055,4364
1056,1179
1056,2322
1056,2505
1057,4073
1058,111
1058,274
1058,2845
1058,4701
1059,466
1059,2315
1059,4244
1060,1842
1060,2988
1061,407
1062,648
1062,1873
1062,2543
1063,1144
1063,2433
1065,27
1065,1773
1065,1948
1065,3755
1066,1894
1066,4680
1067,14
1068,1799
1068,3043
1068,3326
1069,280
1069,4377
1070,2154
1070,2285
1070,2641
1072,68
1072,3152
1075,4386
1077,1619
1078,1485
1078,2738
1083,17
1083,495
1083,540
1083,1733
1083,1901
1083,2536
1083,2905
1083,2973
1083,3012
1083,3107
1083,3898
1083,4096
1083,4217
1083,4447
1083,4705
1083,4953
1088,4364
1089,169
1092,207
1092,523
1092,1857
1094,805
1095,73
1095,446
1095,1413
1095,1485
1095,1736
1095,2234
1095,2517
1095,3089
1095,4616
1096,61
1096,2201
1096,4353
1101,113
1101,2162
1101,2707
1101,4486
1103,2578
1103,3647
1103,4486
1104,165
1104,378
1108,42
1108,84
1108,531
1108,679
1108,3142
1108,4392
1109,615
1110,1000
1113,4301
1114,2290
1115,846
1115,2830
1115,2872
1117,99
1117,808
1117,844
1117,1311
1117,1357
1117,3348
1117,3776
1117,3872
1117,4974
1120,84
1120,1054
1120,1302
1120,1578
1120,2565
1120,3442
1120,4268
1121,1155
1121,1198
1121,4036
1121,4158
1122,1137
1122,3787
1124,4984
1127,1099
1129,714
1129,4468
1130,3013
1132,687
1133,1137
1134,520
1134,3015
1135,17
1135,1301
1138,152
1138,4386
1140,807
1142,162
1143,531
1143,1582
1145,444
1146,436
1146,2552
1146,3562
1148,3885
1148,4667
1149,332
1149,660
1149,1776
1149,2210
1149,4818
1150,366
1150,3929
1151,1842
1151,2012
1151,3253
1151,3564
1152,1918
1152,3128
1153,2552
1157,4391
1161,48
1161,801
1161,3483
1161,3550
1162,495
1162,1307
1164,638
1165,520
1167,424
1168,385
1173,1582
1176,756
1176,1582
1179,3255
1179,3549
1179,3770
1181,2057
1186,1536
1186,2761
1188,660
1188,800
1188,2800
1188,2952
1188,3271
1188,3786
1189,111
1189,3048
1189,4158
1191,1572
1191,1928
1191,2614
1191,3241
1191,3885
1195,391
1195,2218
1196,444
1196,4653
1199,1485
1199,2452
1199,3154
1200,3103
1200,4920
1201,921
1201,2827
1201,3397
1201,3581
1203,1081
1204,366
1205,99
1206,557
1206,4561
1207,1593
1207,4234
1210,1380
1211,2373
1211,4404
1211,4667
1212,11
1213,333
1213,462
1213,1000
1213,1284
1213,1461
1213,1778
1213,2279
1213,2334
1213,3561
1213,4247
1214,1011
1214,4294
1216,1368
1217,17
1217,531
1220,1364
1220,2192
1220,2477
1220,4064
1221,281
1222,90
1222,2582
1222,3692
1223,432
1223,1912
1223,2103
1223,2738
1226,2475
1227,406
1227,466
1227,2178
1228,752
1228,2949
1229,13
1229,1592
1229,2679
1229,3586
1229,4078
1229,4507
1232,610
1232,1278
1233,322
1233,4228
1238,1638
1238,2441
1240,3985
1240,4499
1241,4883
1243,1278
1243,1638
1243,2409
1243,4462
1244,14
1244,161
1244,1373
1246,3292
1248,942
1248,1614
1248,3961
1250,728
1250,1835
1250,2236
1250,2269
1250,2979
1250,4993
1254,602
1255,869
1255,1857
1255,2659
1255,3027
1255,4592
1257,1554
1257,2107
1257,2327
1257,3063
1258,318
1260,747
1263,3647
1265,432
1265,2036
1266,536
1266,4286
1266,4578
1267,2740
1269,749
1269,4087
1270,356
1270,2061
1272,877
1273,3952
1274,1299
1274,1581
1274,1886
1275,1029
1280,810
1283,2154
1284,142
1286,1814
1287,3977
1288,152
1288,441
1288,472
1288,1290
1288,3245
1288,4002
1288,4704
1289,308
1289,1484
1291,799
1292,4413
1294,106
1294,527
1294,4928
1295,3576
1295,4284
1295,4493
1295,4718
1298,142
1300,1586
1300,4924
1303,254
1303,882
1303,1416
1303,1717
1303,1807
1303,2383
1303,2965
1306,486
1306,1750
1310,59
1315,4787
1316,147
1316,1638
1316,4562
1317,1445
1317,1842
1317,4935
1318,1091
1318,3428
1319,252
1319,407
1319,2984
1322,243
1322,1562
1322,1566
1322,4026
1322,4031
1322,4126
1323,2099
1324,340
1324,1490
1324,2643
1324,4087
1326,431
1326,1981
1327,531
1329,441
1329,1123
1329,3660
1330,378
1330,486
1330,908
1330,1000
1330,1225
1330,4405
1330,4711
1331,770
1331,1137
1331,1187
1332,210
1334,52
1334,1174
1334,3647
1336,21
1336,4129
1337,3893
1339,498
1341,949
1343,1380
1343,4166
1345,946
1346,950
1348,3225
1351,1113
1351,3951
1351,4603
1352,633
1352,1521
1352,2653
1353,432
1354,1638
1357,101
1358,1245
1358,2239
1358,4237
1360,734
1360,2188
1360,4510
1360,4994
1361,215
1361,2884
1362,4817
1367,1010
1368,379
1368,3990
1368,4066
1371,942
1372,4205
1372,4916
1374,3622
1375,155
1376,588
1377,2552
1380,396
1380,2299
1380,4449
1381,707
1383,392
1384,250
1386,1582
1386,4459
1386,4834
1387,17
1387,347
1387,4026
1391,807
1392,2077
1395,4338
1396,340
1396,1728
1397,184
1397,1443
1397,4584
1399,4708
1400,3144
1405,391
1405,739
1405,1684
1405,3144
1405,4971
1407,767
1407,814
1407,3655
1408,3373
1408,3531
1410,607
1410,875
1410,1085
1410,1464
1410,2612
1410,3375
1411,609
1411,1293
1411,3396
1412,1
1412,293
1412,2619
1412,2834
1413,4654
1414,293
1414,1638
1414,2555
1415,24
1415,169
1415,612
1415,769
1415,2616
1415,2671
1415,2732
1415,3543
1417,1857
1417,3444
1417,4500
1418,1091
1419,995
1419,1262
1419,2071
1419,2763
1420,305
1422,161
1422,1231
1422,1234
1422,1770
1425,111
1425,146
1427,1034
1428,876
1429,2130
1431,1582
1433,1349
1433,1860
1435,749
1437,4757
1439,950
1439,1629
1439,1765
1439,4755
1439,4846
1441,270
1441,2057
1442,457
1446,742
1446,771
1446,1087
1447,2188
1448,681
1448,1725
1449,3132
1450,216
1450,719
1451,660
1451,1639
1452,1293
1453,4498
1454,620
1454,2738
1454,3464
1454,3785
1456,498
1456,962
1456,1228
1456,1755
1456,2033
1456,2281
1456,3506
1459,831
1459,2553
1459,3708
1462,418
1465,150
1465,1271
1465,1564
1466,3511
1466,3567
1467,95
1467,443
1467,498
1467,896
1467,1137
1467,1369
1467,1582
1467,2310
1467,3614
1468,898
1470,1541
1470,4171
1473,110
1473,149
1473,181
1473,944
1473,1385
1473,2208
1473,2298
1475,1301
1477,763
1478,682
1479,84
1479,2955
1480,1011
1480,4105
1480,4397
1480,4570
1480,4602
1481,760
1481,1147
1483,4135
1486,240
1486,1527
1486,1551
1486,2406
1486,3825
1486,4081
1487,362
1487,1472
1487,3251
1487,4645
1488,1933
1488,4073
1489,1712
1489,1847
1491,3174
1492,165
1492,572
1492,609
1492,628
1492,947
1492,1022
1492,1985
1492,2383
1492,3060
1495,4935
1496,510
1497,119
1497,448
1497,2236
1498,745
1500,560
1500,1047
1500,1993
1500,2940
1500,3573
1500,4742
1502,96
1502,1861
1504,1029
1504,3546
1504,3632
1505,311
1505,816
1507,486
1508,1357
1508,4988
1510,1429
1511,3377
1512,674
1512,1536
1512,3974
1513,1723
1513,1999
1513,3543
1513,3999
1513,4944
1514,2338
1514,2943
1516,2174
1516,2424
1516,3059
1518,2196
1518,2345
1523,1
1523,888
1523,3938
1526,2089
1526,4070
1529,279
1530,1817
1530,2471
1530,3036
1533,57
1533,1704
1533,4696
1534,630
1534,2377
1534,4262
1537,3311
1539,222
1539,391
1539,430
1539,2018
1539,2168
1539,3550
1541,539
1541,980
1541,1598
1542,279
1542,1242
1543,90
1543,609
1543,4198
1543,4560
1543,4728
1544,613
1544,639
1544,1111
1544,2340
1544,3920
1544,4693
1545,51
1545,4228
1546,204
1546,1379
1546,1941
1546,4014
1548,4788
1551,4526
1552,1338
1552,2260
1555,366
1557,995
1557,1755
1557,2891
1557,3952
1558,1933
1559,285
1560,111
1560,2845
1561,77
1562,2734
1567,219
1568,2830
1569,308
1569,4035
1569,4859
1570,142
1573,2835
1575,66
1575,289
1575,3735
1577,421
1580,2803
1584,988
1584,1099
1584,2543
1584,4601
1585,195
1585,798
1585,1927
1585,2692
1587,638
1588,2995
1588,3140
1591,202
1591,3621
1593,367
1593,1712
1596,918
1596,1611
1596,1723
1596,2425
1598,4698
1600,252
1603,3336
1603,3509
1604,489
1604,2208
1604,4525
1605,885
1605,3815
1607,293
1607,2088
1607,2346
1607,3345
1610,3945
1610,4739
1615,1463
1616,1912
1617,1029
1617,1114
1617,1624
1619,323
1619,633
1619,1366
1619,1430
1619,1754
1619,2260
1619,4092
1620,1912
1622,588
1623,4059
1624,760
1624,2749
1625,4177
1628,1325
1628,3391
1633,1653
1633,2790
1633,4092
1635,1565
1637,1638
1637,3820
1637,3902
1641,1604
1642,57
1642,3428
1643,2611
1644,250
1644,4815
1646,554
1650,714
1650,1653
1650,1760
1650,2173
1650,3057
1650,3116
1650,3264
1653,579
1653,684
1653,1958
1653,4050
1654,148
1654,210
1654,1363
1654,2805
1657,336
1659,119
1659,2689
1660,394
1664,365
1665,432
1667,120
1668,204
1668,2434
1668,4668
1669,448
1669,1128
1672,909
1672,1666
1673,495
1676,952
1677,1857
1677,3903
1677,4739
1678,6
1678,128
1685,490
1690,2153
1691,896
1692,84
1692,2898
1693,1251
1694,875
1694,3507
1695,391
1697,572
1697,1943
1697,1962
1697,3440
1697,4791
1698,1701
1699,447
1701,275
1701,749
1701,1158
1701,1361
1701,1711
1701,2980
1702,701
1702,1746
1702,1868
1702,2619
1702,4910
1702,4962
1705,1403
1706,1112
1706,2652
1706,3331
1706,4322
1707,168
1708,2234
1708,3540
1713,2279
1714,97
1715,2468
1719,1380
1720,1624
1720,2750
1721,1022
1722,8
1722,47
1722,701
1722,3186
1722,4662
1722,4748
1724,1413
1729,267
1729,1991
1729,2613
1730,4234
1735,2514
1737,1949
1737,3034
1740,681
1740,2009
1740,3688
1742,4498
1743,4772
1745,137
1745,173
1745,324
1745,333
1745,1535
1745,1906
1746,1501
1749,281
1751,1145
1753,1582
1756,681
1756,4821
1758,281
1761,347
1761,819
1762,4698
1763,17
1763,267
1763,284
1763,688
1763,1482
1763,1527
1763,4158
1764,500
1764,1828
1764,2446
1767,1933
1769,1401
1769,2846
1769,3225
1769,4026
1771,2433
1771,2461
1772,1017
1779,1589
1779,1657
1780,1961
1780,2952
1780,3973
1782,3573
1783,264
1783,1933
1783,3437
1785,538
1785,1436
1785,1897
1785,2270
1785,2483
1786,4175
1786,4382
1789,2653
1790,2425
1792,2004
1793,874
1794,776
1794,2313
1794,2502
1794,2680
1796,248
1797,1106
1799,695
1802,510
1805,146
1806,161
1808,84
1808,3141
1809,1034
1812,1245
1812,1858
1813,44
1813,2770
1813,4087
1814,3731
1815,958
1815,3621
1815,4565
1815,4754
1816,1074
1817,1737
1817,2748
1817,3452
1817,3911
1818,120
1819,2458
1822,929
1822,1380
1823,52
1823,901
1823,973
1823,1166
1823,3202
1823,3740
1825,1611
1826,1190
1829,1047
1831,3048
1832,1599
1833,283
1833,406
1833,2008
1833,2926
1834,486
1835,66
1835,709
1835,1155
1835,1716
1835,2098
1835,2523
1835,4413
1835,4719
1836,1472
1836,3571
1837,307
1837,2544
1838,36
1838,2695
1840,705
1841,597
1841,2847
1841,4382
1842,828
1842,1137
1842,3294
1842,3685
1842,4234
1844,341
1844,742
1844,1242
1844,2638
1844,3428
1844,3716
1844,3822
1845,56
1846,2102
1847,791
1848,267
1849,1424
1850,1113
1851,1601
1853,1147
1853,1182
1853,2994
1853,4049
1857,714
1857,1081
1858,127
1858,2340
1859,243
1861,2479
1862,3126
1863,134
1869,227
1874,2598
1874,2616
1874,2771
1874,4000
1875,4440
1877,4404
1877,4889
1878,591
1880,1347
1880,3181
1882,210
1882,1457
1882,2580
1882,4591
1883,1296
1884,1349
1886,495
1887,197
1887,3190
1887,4860
1887,4955
1888,1638
1888,2693
1888,3071
1888,4251
1889,1522
1889,3320
1891,615
1891,1928
1895,134
1895,3061
1896,1512
1896,2460
1898,2763
1898,3316
1898,4091
1898,4340
1899,4614
1899,4929
1900,231
1900,330
1900,362
1900,365
1900,1141
1900,1159
1900,1169
1900,1185
1900,1463
1900,1649
1900,1876
1900,2019
1900,2321
1900,2508
1900,2871
1900,4554
1900,4834
1902,1790
1902,3365
1903,2809
1903,4281
1908,2232
1908,2429
1908,2809
1908,3003
1908,3258
1908,4685
1908,4757
1909,498
1911,4667
1913,484
1913,2044
1913,2394
1913,2793
1913,2796
1913,3792
1914,1231
1914,2953
1914,4759
1915,100
1915,1011
1915,1522
1917,618
1920,1461
1921,228
1921,972
1921,3297
1921,3492
1921,3892
1922,1226
1923,1107
1925,62
1925,864
1925,2245
1925,2303
1926,1759
1926,2531
1926,2540
1929,470
1929,3484
1929,4571
1930,505
1930,816
1930,3651
1932,1912
1933,1161
1934,253
1934,415
1934,1401
1934,1871
1935,24
1935,3720
1935,4382
1936,486
1937,257
1938,817
1938,1708
1940,88
1947,2508
1951,754
1954,3183
1954,3697
1955,418
1955,1071
1955,1460
1955,2759
1955,4472
1957,2830
1957,2909
1959,4413
1960,688
1960,1581
1960,2261
1960,3193
1963,3777
1965,581
1966,113
1966,368
1967,768
1970,47
1972,476
1973,2612
1974,1857
1975,73
1975,2624
1975,4865
1977,93
1977,719
1977,3695
1977,4063
1977,4387
1977,4496
1978,358
1980,891
1980,1242
1980,4924
1982,115
1982,322
1982,490
1982,600
1982,1053
1982,1679
1982,2293
1982,3843
1982,4178
1983,59
1984,111
1984,3214
1984,4089
1986,1252
1986,1436
1986,1657
1986,1995
1986,2124
1986,3985
1986,4391
1988,1876
1990,1531
1990,3462
1991,120
1991,1661
1991,2151
1991,3453
1991,4527
1992,742
1994,203
1994,4768
1996,929
1998,4217
1999,3666
1999,4750
2000,2818
2000,3647
2000,4827
2001,210
2005,1000
2005,4403
2007,99
2007,1565
2007,4559
2010,365
2010,3069
2011,875
2013,2239
2013,2572
2013,2601
2013,3674
2013,4382
2014,2562
2014,4276
2015,1380
2016,946
2016,2161
2019,351
2019,2668
2019,3762
2021,1246
2022,999
2022,3054
2023,769
2023,2782
2025,4063
2025,4673
2027,379
2028,111
2028,3313
2029,2898
2030,1080
2030,2154
2030,2472
2030,3789
2032,2717
2036,1744
2039,88
2040,418
2041,1737
2043,2927
2043,3904
2046,1398
2047,142
2047,2522
2047,2530
2047,3199
2048,3144
2048,4669
2049,84
2049,279
2049,1388
2049,2760
2050,115
2050,1370
2050,1626
2050,2656
2050,3767
2051,231
2052,1111
2053,696
2053,2996
2054,1243
2057,1325
2057,2096
2058,450
2060,2748
2060,3401
2060,4938
2062,336
2062,2084
2062,2359
2063,281
2063,728
2063,1034
2063,2372
2063,2801
2063,3543
2063,4512
2063,4883
2067,1773
2067,1946
2067,3955
2067,4982
2070,1807
2072,4472
2074,988
2075,4231
2076,4064
2082,633
2082,2926
2082,3798
2083,4716
2084,56
2084,1000
2084,2847
2084,3633
2087,274
2087,4234
2090,2036
2091,3801
2092,24
2094,1651
2094,2718
2095,4974
2097,939
2097,3041
2099,1804
2100,391
2102,2084
2102,4950
2109,670
2112,719
2112,1145
2112,3243
2114,1574
2118,2176
2118,3151
2118,3744
2118,4823
2121,527
2122,11
2123,1293
2125,2723
2128,2643
2128,3778
2128,4059
2129,111
2132,313
2134,1170
2138,1095
2138,1567
2138,2458
2139,2960
2139,4083
2142,73
2142,1696
2142,2796
2142,3156
2144,356
2144,1278
2145,27
2147,581
2147,4160
2148,407
2149,2008
2149,2120
2149,2629
2149,4361
2151,1349
2152,307
2153,1330
2153,1744
2153,1870
2153,2276
2153,2521
2153,2919
2154,1355
2156,1455
2156,4358
2156,4913
2156,4984
2157,1179
2158,1398
2158,3550
2158,4159
2158,4692
2160,56
2164,1247
2164,3350
2164,3912
2165,281
2166,1541
2167,210
2167,2239
2167,2775
2167,3235
2167,3599
2167,4064
2167,4206
2167,4716
2169,898
2170,2154
2171,2465
2177,2635
2177,4344
2179,1638
2179,2312
2180,1368
2181,490
2181,1158
2181,4083
2183,2162
2183,2364
2184,50
2184,1293
2184,2545
2185,3676
2187,597
2187,2982
2189,495
2189,1380
2190,4264
2191,2256
2191,2560
2191,4667
2194,365
2195,2037
2196,460
2197,406
2197,470
2197,512
2197,905
2197,946
2197,1952
2197,3727
2199,588
2199,1074
2200,2845
2202,3003
2203,2348
2205,2735
2205,3301
2205,3893
2206,1132
2208,1154
2208,2492
2208,4251
2208,4395
2208,4894
2211,2204
2211,3451
2212,588
2213,4784
2220,4243
2221,142
2221,2914
2223,585
2224,2036
2224,2705
2224,4444
2225,4534
2225,4924
2226,3880
2229,4301
2229,4900
2230,1799
2230,4976
2231,54
2231,1512
2231,1626
2235,157
2237,475
2237,583
2237,614
2237,1261
2237,1429
2237,1493
2237,1741
2237,2026
2237,2508
2237,3233
2237,3861
2237,4066
2240,4779
2242,22
2242,489
2242,835
2242,1807
2242,2216
2243,1373
2243,2471
2244,1403
2246,1867
2246,4757
2247,1472
2247,1536
2247,1886
2247,2384
2247,3170
2247,3392
2247,3638
2248,2032
2248,2374
2248,4905
2249,243
2250,2845
2251,24
2252,315
2252,4764
2253,460
2254,1366
2254,1551
2254,4231
2255,66
2259,1993
2259,2830
2261,1100
2262,1278
2264,2508
2268,4708
2271,14
2273,2295
2274,988
2275,1022
2275,2284
2277,1457
2277,3325
2277,3513
2277,4974
2280,1919
2282,1192
2282,1434
2282,3151
2283,554
2283,4069
2286,2963
2286,3396
2287,2296
2287,2659
2287,3757
2288,3258
2291,1278
2292,1123
2292,2793
2294,813
2294,2732
2296,3197
2298,634
2298,2963
2298,4059
2299,2024
2299,2171
2299,3775
2300,68
2300,1079
2300,4819
2301,4073
2302,1504
2303,1733
2304,386
2304,4062
2304,4098
2304,4488
2306,283
2306,523
2306,539
2306,554
2307,536
2308,486
2309,470
2311,1237
2311,2442
2314,639
2314,939
2314,943
2314,2067
2314,2154
2316,351
2316,3853
2316,4777
2317,2290
2319,21
2320,600
2323,605
2324,1264
2330,1857
2331,299
2331,401
2331,2273
2331,3640
2332,2285
2332,4925
2335,638
2335,1890
2335,2445
2335,3166
2335,3607
2337,1278
2339,3541
2339,3676
2340,304
2341,280
2342,1590
2343,1179
2343,1781
2344,2446
2344,2659
2347,2066
2350,2151
2351,2208
2351,4964
2354,1145
2354,2385
2355,4413
2358,3573
2358,3946
2360,4301
2362,2395
2362,2738
2363,274
2363,1106
2366,142
2366,1118
2366,1916
2366,3931
2366,3991
2368,4066
2375,1278
2375,4808
2376,1582
2376,2612
2377,211
2377,696
2378,2425
2379,528
2379,1282
2379,3560
2379,4145
2379,4190
2379,4569
2380,2864
2384,1182
2387,1686
2387,1791
2387,2550
2389,1366
2389,1787
2389,2279
2389,2396
2389,2733
2393,3192
2395,660
2396,4162
2397,2311
2398,240
2399,392
2400,1107
2400,1113
2400,1699
2402,3617
2403,527
2403,4355
2404,142
2406,56
2406,2816
2406,3088
2407,3192
2410,670
2410,4083
2411,4148
2412,872
2412,2641
2413,107
2414,1601
2415,214
2415,714
2415,3447
2416,1712
2418,2659
2418,4095
2419,896
2420,134
2421,1403
2422,696
2422,2676
2422,4115
2422,4486
2423,3183
2425,227
2425,2600
2426,1558
2426,2691
2426,3175
2426,3531
2426,4928
2426,4980
2427,77
2429,4742
2430,4716
2431,2626
2432,770
2432,2090
2432,4185
2433,909
2433,4596
2434,88
2434,215
2434,276
2434,555
2434,876
2434,1179
2434,1426
2434,1634
2434,1638
2434,1969
2434,2019
2434,2263
2434,2589
2434,2859
2434,2860
2434,2912
2434,3140
2434,3227
2434,3469
2434,3772
2434,4619
2434,4854
2436,882
2436,2471
2437,446
2437,1638
2438,1128
2440,19
2440,2478
2447,298
2448,554
2450,1958
2450,2569
2451,3030
2451,4440
2453,3336
2454,191
2457,1744
2459,1095
2460,51
2460,476
2460,565
2460,1137
2460,1579
2460,2238
2460,2609
2460,2613
2460,3713
2460,3734
2460,3773
2460,3928
2460,4765
2462,198
2463,2370
2464,1653
2464,3378
2466,1225
2468,1437
2469,59
2470,2090
2471,2733
2471,4548
2473,1312
2473,1579
2476,1250
2477,431
2477,1296
2477,2182
2477,2574
2477,3009
2477,3192
2477,3414
2479,222
2479,2131
2479,2894
2479,3838
2479,4691
2480,1944
2480,2182
2480,2529
2480,4306
2480,4911
2485,373
2485,3336
2486,607
2487,66
2487,1713
2487,2650
2488,2073
2489,84
2490,1626
2491,2960
2493,2926
2494,332
2494,1727
2494,1790
2494,2340
2494,2694
2494,3014
2497,1807
2498,500
2498,565
2498,701
2498,1432
2498,1638
2499,498
2500,510
2500,3331
2501,2164
2501,2579
2503,954
2503,2960
2504,2295
2505,4284
2508,505
2512,995
2512,3445
2512,4057
2513,4487
2514,746
2514,2371
2515,1902
2515,1924
2515,4561
2516,146
2516,407
2516,4061
2518,1978
2519,1520
2519,3150
2519,4848
2520,2289
2520,4648
2524,442
2524,3580
2527,365
2527,4413
2527,4880
2528,1912
2530,293
2532,3454
2533,4659
2534,2871
2535,2006
2536,122
2536,832
2536,1296
2536,1436
2536,2496
2537,909
2538,2354
2538,4209
2539,351
2539,1989
2539,2150
2540,66
2540,1582
2545,3211
2546,1565
2547,3986
2547,4838
2548,632
2548,1125
2548,3184
2548,4135
2549,3893
2549,4853
2552,1380
2554,568
2554,3393
2558,597
2558,4382
2559,15
2559,248
2561,2922
2561,3192
2561,4407
2562,1029
2562,3982
2566,229
2568,315
2569,1497
2570,3943
2571,2509
2573,714
2575,1563
2575,4667
2577,1301
2577,2622
2577,3419
2577,4319
2577,4428
2579,3199
2580,146
2581,1928
2583,20
2584,728
2584,2599
2584,2880
2585,560
2585,2942
2587,4177
2588,1800
2590,777
2591,1076
2593,1651
2593,4676
2594,1231
2595,1520
2595,2380
2595,4228
2596,2216
2596,2751
2596,4839
2601,2382
2603,1084
2607,97
2607,359
2607,807
2607,1126
2607,1314
2607,2291
2610,283
2610,698
2610,3232
2611,68
2612,274
2613,433
2615,161
2615,609
2615,742
2615,981
2615,1362
2615,2716
2616,3208
2616,4879
2617,137
2618,280
2621,184
2622,2985
2622,3146
2623,1551
2623,3381
2623,3468
2625,1618
2627,161
2627,3977
2630,701
2631,1359
2633,198
2633,281
2633,3971
2634,50
2634,928
2634,2614
2634,3430
2634,4304
2635,57
2635,796
2635,1519
2636,1713
2637,884
2637,1571
2639,2471
2642,1128
2643,356
2643,1034
2643,1857
2643,2117
2643,2871
2643,4325
2645,2188
2645,2697
2645,3292
2646,1864
2648,1239
2648,2931
2648,4770
2649,1093
2649,1200
2649,2285
2649,4239
2651,1000
2654,2258
2655,232
2655,1418
2655,4239
2657,754
2657,1526
2658,1054
2659,745
2662,609
2663,101
2664,1842
2664,2874
2665,2105
2666,585
2667,1380
2667,2943
2669,2359
2670,367
2671,2063
2673,1490
2673,3307
2673,3360
2673,3568
2674,2517
2676,2417
2677,3647
2678,8
2678,505
2678,2789
2678,4660
2680,632
2680,1256
2680,3001
2680,3868
2682,253
2683,896
2683,4259
2684,2032
2685,4198
2686,253
2687,162
2688,2481
2689,2119
2690,2613
2691,90
2692,2435
2692,3183
2696,1380
2698,752
2699,1582
2700,2471
2703,88
2706,1224
2706,1398
2706,1582
2706,1987
2706,2484
2706,3824
2706,3968
2708,191
2709,1151
2710,1918
2711,2433
2714,1981
2719,607
2719,2171
2720,305
2720,988
2720,1867
2720,4177
2721,4127
2722,2434
2722,3784
2722,4308
2724,2164
2726,4220
2726,4565
2727,424
2727,3908
2729,489
2729,689
2729,2510
2729,4619
2730,1401
2731,1699
2731,4158
2733,1206
2733,4497
2734,142
2737,807
2738,2009
2739,1464
2741,406
2741,2886
2742,982
2743,29
2744,1705
2745,3923
2745,4454
2746,936
2746,2279
2746,2753
2746,4678
2747,383
2749,1191
2749,1582
2752,1106
2754,2458
2757,1262
2761,1860
2761,2901
2762,1927
2765,293
2765,4059
2765,4974
2766,11
2766,1964
2766,3019
2767,120
2768,4565
2772,385
2772,3769
2772,3890
2774,1137
2776,1886
2777,73
2777,4218
2778,1208
2779,1434
2779,4486
2780,522
2780,4314
2781,2165
2782,4404
2783,1759
2784,482
2786,2198
2788,4853
2789,2701
2793,1284
2793,1717
2794,2587
2797,120
2798,347
2799,1528
2804,1123
2807,1912
2808,2897
2810,3330
2814,1504
2817,999
2819,1429
2820,4447
2823,222
2824,2845
2825,424
2825,1054
2825,2340
2826,2188
2827,489
2828,1910
2829,27
2831,1243
2832,495
2832,4575
2833,2315
2833,2830
2836,1804
2838,266
2842,1000
2845,1368
2845,2644
2845,3265
2845,3811
2845,4157
2845,4734
2847,68
2847,542
2847,1881
2847,2353
2847,2792
2847,2935
2847,3252
2847,3481
2847,3762
2848,47
2848,488
2848,588
2848,810
2848,1137
2848,1683
2848,1748
2848,2567
2848,3922
2849,1123
2851,1711
2852,4083
2853,73
2855,1279
2856,148
2856,2749
2857,2552
2857,4022
2858,406
2858,2941
2859,4158
2862,1701
2863,56
2865,2886
2865,2967
2866,343
2866,822
2868,1541
2868,1745
2869,279
2869,1491
2870,2645
2870,3543
2870,4073
2873,3336
2875,3362
2877,636
2878,1781
2881,100
2882,1010
2883,243
2883,3950
2885,480
2886,1851
2887,218
2888,281
2888,4452
2889,392
2890,1174
2892,1344
2893,486
2895,928
2896,531
2896,3280
2899,1091
2900,609
2900,813
2900,1912
2900,4742
2903,179
2907,2898
2908,466
2908,3537
2910,4287
2911,2428
2911,4180
2914,1871
2917,4955
2918,597
2918,1105
2918,3216
2920,1355
2921,1285
2923,120
2923,210
2923,768
2923,1606
2923,2197
2923,2747
2923,4011
2923,4580
2924,964
2927,2188
2927,2898
2928,2370
2930,141
2930,389
2930,4902
2931,18
2931,486
2931,692
2931,895
2931,922
2931,1076
2931,1128
2931,1318
2931,1389
2931,1520
2931,1609
2931,2113
2931,2340
2931,3162
2931,3727
2932,987
2932,1949
2933,1670
2934,84
2934,383
2937,845
2937,3357
2944,143
2944,1939
2944,3610
2945,1
2946,1333
2947,2589
2948,1601
2948,3135
2950,299
2950,432
2950,862
2950,1004
2950,1082
2950,1282
2950,4043
2950,4413
2951,1662
2952,1581
2956,442
2957,1000
2958,1281
2959,531
2962,1000
2966,2353
2968,1191
2969,1024
2969,3520
2971,62
2971,3737
2973,1638
2974,61
2974,4382
2976,505
2978,2541
2981,2297
2982,1401
2987,2499
2987,4489
2988,2930
2992,2906
2993,929
2997,639
2998,1804
2998,4356
2999,424
3000,2845
3001,3937
3001,4600
3003,1076
3003,4774
3005,84
3008,1290
3010,686
3010,2424
3010,3119
3011,394
3011,4644
3013,2429
3017,3618
3017,3621
3017,4059
3018,1653
3018,4391
3020,2182
3021,3952
3022,4135
3023,218
3023,2186
3024,1010
3025,2612
3026,280
3028,1413
3031,3815
3032,358
3033,1449
3033,2024
3033,2827
3033,3711
3033,3988
3033,4317
3033,4957
3035,2036
3035,3185
3035,3940
3037,1022
3038,2909
3038,4336
3039,4667
3040,325
3040,2809
3040,3985
3040,4211
3041,2069
3041,2478
3042,777
3046,1365
3049,2284
3049,2555
3050,1934
3051,229
3051,315
3051,1469
3051,4667
3052,1800
3055,2613
3056,3241
3058,2354
3062,11
3062,498
3064,503
3064,1430
3065,3827
3066,1237
3067,2864
3068,2175
3070,1919
3073,281
3076,1713
3077,1309
3078,609
3078,3672
3080,2535
3080,3169
3080,4057
3080,4341
3081,1786
3083,17
3083,394
3083,632
3083,1297
3083,2324
3083,3234
3083,4487
3083,4718
3084,1349
3085,2276
3085,4482
3086,873
3086,2172
3087,1237
3090,11
3090,358
3090,4836
3091,1
3094,357
3094,1595
3094,3943
3095,161
3096,66
3096,3693
3096,4501
3099,2274
3100,1482
3102,2096
3103,1737
3104,1705
3105,573
3106,2554
3108,988
3109,4600
3110,1349
3110,3410
3110,4562
3110,4669
3111,470
3113,2338
3114,2460
3114,3226
3114,3658
3115,1621
3116,1632
3117,484
3118,3079
3120,2472
3120,3708
3121,2361
3122,84
3124,2371
3124,3349
3125,2845
3125,4551
3126,1968
3128,293
3129,4036
3130,1259
3131,2417
3131,3970
3133,2291
3137,1081
3138,1208
3138,3643
3140,1097
3143,227
3143,1325
3143,3500
3144,214
3144,828
3145,800
3145,3886
3145,4832
3147,4036
3149,1429
3151,636
3153,1801
3153,4788
3153,4884
3155,147
3155,191
3155,285
3155,2311
3157,3027
3157,4707
3158,633
3158,4838
3160,308
3161,274
3161,368
3161,861
3161,877
3161,1949
3161,2721
3161,3400
3161,4811
3162,248
3164,29
3165,1540
3165,4804
3167,3827
3167,4449
3171,92
3171,3952
3172,383
3173,1582
3179,1406
3179,2502
3179,3240
3179,4205
3182,570
3182,1294
3182,2061
3182,2787
3187,3148
3188,1099
3189,1097
3191,117
3194,4066
3195,1128
3196,1123
3200,2785
3201,1673
3201,1870
3201,4075
3201,4248
3203,356
3203,3344
3204,3192
3204,4642
3205,486
3207,1237
3208,1788
3208,2093
3208,3136
3208,3570
3208,3839
3209,1860
3210,3624
3213,1011
3213,1440
3213,2841
3213,3894
3213,4757
3215,774
3218,2467
3218,4261
3219,1744
3220,21
3220,2458
3220,4326
3221,1811
3222,2340
3223,1429
3223,4267
3225,1904
3231,1590
3234,1693
3234,3386
3236,120
3236,332
3238,1526
3241,2845
3242,1526
3246,1700
3247,4814
3249,2098
3254,120
3254,3913
3256,995
3256,2161
3257,244
3257,365
3257,520
3257,565
3257,845
3257,952
3257,1102
3257,1178
3257,2647
3257,2839
3257,2844
3257,2845
3257,3720
3257,3943
3258,1244
3258,3053
3259,57
3259,398
3259,698
3259,1191
3259,1370
3260,2101
3261,1297
3262,1927
3263,4007
3263,4129
3267,173
3267,244
3267,763
3267,1556
3267,1636
3267,1875
3267,2586
3267,2675
3267,2845
3267,3162
3267,4026
3268,1771
3268,4420
3270,2351
3272,3543
3273,99
3273,266
3273,470
3273,505
3273,1218
3273,1968
3273,2002
3273,2106
3273,3871
3273,4274
3274,996
3275,2345
3276,4129
3276,4656
3277,3692
3278,162
3278,2589
3278,4589
3281,360
3281,2163
3282,1359
3286,447
3288,27
3289,50
3290,1611
3293,362
3293,498
3293,2066
3295,490
3295,658
3295,887
3295,1655
3295,2067
3295,2672
3296,2151
3298,2567
3299,218
3299,304
3299,659
3299,2714
3299,3979
3302,2019
3305,2613
3308,257
3309,1307
3309,2619
3311,2748
3311,3829
3311,4067
3312,284
3315,1090
3317,1811
3318,2290
3319,1981
3320,629
3320,1107
3321,120
3322,1885
3323,4066
3324,110
3328,1556
3332,173
3333,770
3334,248
3334,2328
3335,1449
3337,1340
3338,2037
3339,2310
3339,4821
3340,1328
3341,2429
3342,520
3343,54
3345,401
3345,909
3345,4116
3346,1827
3347,227
3347,434
3347,1379
3348,2990
3351,2821
3351,3269
3351,3959
3352,142
3354,15
3355,657
3358,550
3362,50
3362,261
3363,4401
3364,2886
3364,3852
3366,130
3368,2552
3372,2530
3374,2922
3374,3773
3375,2084
3376,1128
3376,1527
3378,734
3378,3985
3379,588
3380,2848
3382,406
3382,3405
3383,50
3384,2164
3384,4158
3384,4864
3385,4129
3386,79
3386,613
3386,2757
3387,1394
3387,2175
3387,4315
3389,755
3390,1800
3398,2751
3398,3729
3400,2835
3400,3229
3400,3639
3401,2182
3401,4672
3402,134
3402,2439
3404,61
3406,1084
3408,2704
3410,614
3410,4634
3411,3235
3412,2279
3413,2747
3414,254
3414,394
3414,1652
3415,742
3416,1259
3417,1234
3418,602
3420,434
3421,470
3421,993
3421,4176
3422,2204
3424,500
3425,1601
3426,2206
3428,47
3429,1378
3429,3361
3431,4036
3431,4933
3432,1563
3432,3452
3433,298
3435,3251
3436,2988
3436,3679
3436,4724
3438,120
3438,333
3438,2867
3441,5
3441,109
3441,197
3441,342
3441,383
3441,481
3441,484
3441,541
3441,896
3441,996
3441,1158
3441,1259
3441,1359
3441,1495
3441,2017
3441,4413
3441,4918
3443,1962
3446,1368
3448,742
3449,952
3449,3625
3450,88
3450,1359
3456,807
3457,333
3458,21
3458,198
3458,1099
3458,1105
3458,3048
3458,3700
3459,1771
3460,1370
3460,2460
3460,4234
3461,1918
3461,2720
3461,3202
3461,3304
3461,3315
3461,4114
3462,939
3463,4284
3465,4838
3466,303
3467,2738
3472,1942
3474,2530
3475,2079
3475,3496
3475,4524
3477,2474
3480,2525
3482,554
3483,1364
3483,3683
3486,714
3486,4013
3487,4026
3488,2267
3488,3199
3488,4235
3489,2990
3489,3645
3489,4142
3494,3290
3495,3557
3497,486
3498,745
3498,4783
3499,2019
3501,282
3501,2771
3501,4798
3502,3020
3502,4419
3503,22
3503,128
3503,777
3503,1194
3503,1499
3503,1509
3503,2105
3503,4915
3504,100
3504,203
3504,307
3504,503
3504,775
3504,817
3504,819
3504,1515
3504,2434
3504,2802
3505,1817
3505,1904
3507,1340
3507,3258
3508,988
3509,1971
3510,1886
3511,755
3511,3652
3512,2805
3513,544
3513,650
3513,666
3513,2668
3513,3923
3516,4391
3516,4904
3517,1526
3518,218
3519,365
3521,840
3521,4871
3523,1335
3524,2353
3525,4562
3526,1215
3527,1638
3533,2381
3533,3072
3533,4874
3534,2428
3534,4460
3535,862
3536,4911
3539,2435
3540,1807
3544,2844
3545,1956
3547,3193
3548,4834
3551,2798
3552,2659
3553,362
3554,434
3556,2645
3557,202
3558,717
3559,2137
3560,1085
3563,4204
3565,633
3566,2458
3569,588
3569,4516
3570,1041
3570,4912
3572,602
3574,3993
3577,490
3578,332
3579,1857
3582,394
3584,1631
3585,479
3586,3200
3587,4928
3590,3331
3590,4141
3590,4875
3591,120
3591,4208
3596,109
3598,1027
3598,1125
3598,1827
3598,4833
3601,3235
3602,191
3602,3485
3603,227
3604,3570
3605,77
3606,1696
3606,2738
3606,4083
3608,1170
3608,3915
3610,66
3610,2431
3611,13
3611,612
3611,1580
3611,1618
3611,2879
3612,614
3615,161
3616,308
3617,911
3619,1309
3621,2208
3623,4239
3624,1558
3627,1278
3627,4631
3628,807
3629,490
3630,3284
3631,344
3631,1403
3631,3082
3631,3283
3631,3741
3631,4562
3631,4909
3636,17
3636,214
3636,3167
3637,84
3641,3531
3642,674
3643,1527
3643,1638
3643,2770
3643,4852
3644,1649
3646,2718
3647,3290
3648,599
3649,88
3649,523
3649,1424
3649,1958
3649,3101
3650,1471
3653,713
3654,800
3656,4364
3657,3451
3657,4522
3659,68
3661,1182
3662,4649
3663,489
3664,1457
3665,3391
3669,3639
3670,505
3671,4401
3673,347
3675,4561
3677,1282
3677,4943
3678,202
3680,1144
3680,4430
3681,3430
3682,2037
3684,1177
3686,461
3686,4464
3687,747
3689,1717
3690,3053
3691,1481
3694,1185
3697,2131
3698,3197
3698,4298
3699,2204
3701,709
3701,1000
3701,1423
3701,1857
3701,3329
3702,2056
3704,301
3705,113
3706,588
3709,1912
3710,909
3712,1553
3714,536
3716,525
3716,573
3718,2919
3719,2260
3720,962
3721,293
3722,1540
3723,1944
3728,2293
3730,439
3730,1894
3733,13
3735,3412
3738,3193
3738,4986
3739,1839
3739,4688
3746,3952
3747,1085
3749,1136
3749,1687
3749,4265
3750,229
3750,2552
3751,1293
3752,42
3753,1320
3754,3720
3758,484
3759,305
3759,1011
3760,1681
3761,2369
3763,391
3764,1321
3764,4845
3766,425
3768,1717
3769,249
3769,2566
3770,1256
3770,3620
3771,1256
3779,2165
3780,588
3780,1528
3780,2196
3781,3336
3783,807
3790,2956
3791,495
3793,340
3794,614
3795,3330
3797,2219
3800,11
3800,57
3800,97
3800,315
3800,1474
3800,2020
3800,2444
3800,3151
3800,4263
3800,4283
3800,4632
3802,554
3802,3266
3803,2659
3806,1670
3807,17
3807,1828
3807,1879
3812,4168
3813,1550
3813,1733
3814,1154
3817,577
3819,2845
3821,1350
3822,615
3822,1583
3822,1682
3822,2110
3822,2793
3822,4028
3822,4757
3826,270
3827,4248
3828,1791
3828,1912
3828,3720
3830,73
3831,705
3831,903
3831,1860
3831,2325
3832,22
3834,2761
3835,1624
3836,560
3837,1301
3840,1820
3841,1154
3841,2400
3841,2552
3841,3306
3841,4316
3842,378
3845,2267
3846,1194
3846,2652
3846,4337
3847,1390
3847,4391
3849,2396
3850,227
3850,584
3850,735
3850,1171
3850,1478
3850,2511
3850,2845
3850,3182
3850,3217
3851,101
3853,942
3853,2120
3853,3471
3853,4287
3853,4685
3853,4802
3854,3784
3855,2092
3856,279
3856,519
3856,782
3856,929
3856,2532
3856,4679
3857,1073
3858,234
3859,4314
3861,1717
3862,1871
3862,3283
3864,3013
3865,638
3867,29
3867,553
3867,3097
3867,3310
3870,3551
3872,2352
3873,315
3873,482
3873,1347
3874,696
3875,347
3877,861
3880,1958
3880,4205
3881,947
3882,3396
3883,373
3884,2135
3887,2361
3887,2424
3887,3180
3887,3952
3887,4722
3888,3175
3891,1583
3891,1732
3891,2102
3891,3123
3893,3126
3896,1323
3897,360
3897,372
3897,442
3897,1076
3897,2765
3897,3407
3897,3583
3899,128
3900,1215
3905,366
3906,1243
3909,1973
3910,1304
3913,2914
3914,1054
3914,1752
3914,2279
3916,1708
3917,486
3918,1517
3919,88
3921,3397
3922,660
3924,21
3925,1243
3926,1912
3932,1423
3933,1563
3934,2748
3935,424
3936,451
3939,240
3939,2543
3939,2686
3942,1766
3942,1953
3942,2164
3944,3176
3945,1686
3948,79
3948,3634
3949,895
3952,243
3954,1811
3956,1606
3956,3650
3957,1638
3958,1712
3958,2567
3960,2689
3962,2902
3962,4345
3963,157
3964,861
3964,3266
3965,66
3966,1085
3967,360
3967,2717
3969,865
3969,1590
3972,3233
3975,1810
3976,701
3978,1099
3979,807
3979,1000
3980,1599
3981,3952
3982,800
3983,36
3984,3336
3989,1106
3992,1243
3993,460
3994,1185
3996,1349
3998,1359
4003,1000
4004,2157
4008,4083
4010,3409
4012,3343
4013,358
4013,717
4015,1378
4015,4928
4016,2310
4016,3299
4018,701
4019,2056
4021,3985
4023,3048
4024,3216
4025,2297
4026,214
4027,415
4029,2965
4030,1155
4033,1563
4034,1601
4036,415
4037,2196
4038,2165
4039,365
4039,522
4042,4487
4043,1145
4043,1790
4043,2903
4043,3258
4044,1237
4045,1284
4045,1875
4048,172
4048,1160
4048,1182
4048,3299
4048,4228
4048,4514
4048,4695
4049,4934
4050,3485
4051,2151
4051,4681
4052,18
4052,47
4052,3042
4054,273
4054,1224
4054,1304
4054,2130
4054,2637
4054,2653
4055,2748
4056,191
4058,2472
4059,909
4059,1626
4060,450
4060,843
4060,862
4060,1119
4060,1713
4060,2006
4060,2230
4060,4010
4061,4113
4062,1872
4064,3297
4065,371
4065,2879
4066,1247
4068,3762
4071,240
4071,274
4071,356
4071,391
4071,2157
4071,4291
4072,3232
4072,4785
4073,4007
4074,972
4074,3592
4074,4881
4075,306
4075,940
4076,895
4077,3543
4079,3096
4080,484
4083,1482
4084,462
4084,4321
4085,3214
4086,343
4088,896
4090,1572
4097,1739
4098,2632
4099,2769
4099,3971
4100,4382
4100,4812
4101,807
4104,1284
4106,51
4107,3030
4107,3075
4110,2552
4111,1320
4112,465
4114,3336
4115,113
4115,1050
4117,3197
4117,4782
4118,2604
4119,1562
4121,1781
4121,4615
4122,2196
4123,3298
4128,273
4129,742
4131,227
4132,111
4133,2032
4133,4530
4134,447
4136,1979
4137,2926
4138,1444
4138,2645
4139,2361
4140,234
4140,2598
4140,4781
4144,2611
4147,1981
4149,240
4149,1656
4149,2188
4150,1911
4152,1638
4153,120
4154,3639
4156,2947
4163,826
4167,146
4168,84
4168,2704
4168,4331
4168,4396
4169,1649
4172,756
4172,2936
4172,3782
4172,4847
4173,62
4173,155
4173,293
4173,913
4173,1528
4173,1662
4173,2943
4173,3303
4173,3621
4174,410
4174,2806
4174,3969
4177,4667
4177,4945
4178,3640
4178,4359
4181,421
4183,1614
4183,2876
4184,3952
4186,503
4187,3075
4188,327
4188,845
4188,1073
4188,4576
4189,1467
4191,76
4193,785
4193,805
4193,1393
4193,2236
4193,3624
4193,4297
4195,560
4195,988
4195,3707
4196,1429
4198,2390
4198,2433
4198,3284
4198,4838
4199,1370
4200,1231
4200,4604
4201,415
4201,3437
4202,1179
4203,2914
4204,510
4204,913
4204,1577
4204,2297
4207,2133
4210,1366
4210,2258
4213,537
4213,1236
4213,1801
4213,2850
4213,3593
4216,3952
4219,1380
4219,1497
4221,120
4222,746
4224,4073
4226,129
4226,480
4226,509
4226,583
4226,734
4226,949
4226,2408
4226,3048
4226,3200
4226,4103
4226,4358
4226,4506
4227,804
4227,3947
4228,4175
4230,2387
4232,2346
4233,1179
4233,1801
4233,3551
4233,4687
4236,59
4238,1549
4238,2361
4240,1589
4240,2297
4241,2154
4242,2088
4243,742
4243,4002
4244,1114
4244,2761
4244,2897
4244,3796
4246,1209
4251,4447
4253,742
4254,1766
4255,211
4256,1457
4257,4562
4258,3434
4263,325
4263,488
4263,2101
4263,2715
4263,3399
4263,3941
4263,4674
4264,1460
4264,1472
4264,2508
4266,4924
4269,2508
4271,3892
4272,110
4272,274
4272,601
4274,1817
4274,2723
4277,700
4277,2681
4279,231
4282,356
4284,2566
4285,2224
4288,162
4290,1811
4292,157
4293,44
4293,2171
4293,4736
4295,4974
4296,3336
4299,2092
4300,849
4302,127
4303,1137
4305,1528
4305,3726
4307,2087
4309,136
4310,1481
4311,373
4312,253
4312,1689
4312,3327
4312,4223
4312,4289
4312,4297
4313,279
4317,1365
4318,4344
4320,3337
4322,921
4322,2302
4323,1636
4327,3003
4328,2037
4330,520
4332,835
4332,1141
4332,2164
4332,2250
4332,2619
4332,2943
4332,3613
4332,3622
4333,2425
4334,2385
4334,3045
4335,3943
4336,2297
4338,771
4338,2356
4338,4158
4338,4185
4339,3419
4342,3005
4343,2991
4344,3613
4346,681
4347,2747
4347,4998
4349,1113
4349,4480
4350,2453
4351,415
4352,3462
4355,216
4358,4413
4360,2227
4362,4251
4365,539
4365,4519
4365,4797
4366,976
4366,1531
4366,2471
4366,3503
4366,3594
4366,3597
4366,4146
4368,1301
4368,1360
4369,460
4371,1278
4372,939
4373,2370
4375,4236
4376,1011
4379,960
4380,3397
4381,4248
4382,1526
4385,4772
4388,3830
4391,2090
4393,3227
4394,1522
4399,2175
4400,407
4400,2913
4400,4294
4401,157
4402,4113
4404,1728
4405,760
4405,1401
4405,4015
4408,861
4409,117
4409,368
4409,466
4410,1366
4410,2446
4410,2576
4410,2902
4410,3911
4411,2687
4412,2536
4413,2370
4415,1284
4416,142
4417,2336
4417,4063
4417,4438
4418,8
4418,4064
4421,347
4422,2381
4424,128
4425,2943
4426,1154
4429,4770
4431,4708
4434,88
4436,1582
4438,2196
4439,4287
4441,701
4442,467
4443,648
4443,1054
4443,1178
4443,1613
4443,2366
4443,3810
4446,2172
4447,369
4448,1799
4450,56
4450,3853
4451,540
4453,660
4455,225
4456,1638
4458,414
4460,210
4461,4667
4463,3911
4465,2020
4466,462
4467,1528
4469,29
4470,2228
4471,280
4472,1112
4474,769
4475,51
4475,467
4475,684
4475,746
4475,883
4475,1762
4475,1866
4475,2164
4475,2227
4475,3510
4475,4179
4475,4331
4475,4406
4476,2592
4477,1191
4479,1136
4481,2717
4483,66
4483,4518
4485,191
4485,299
4485,387
4485,618
4485,1674
4485,2707
4485,2812
4485,4198
4485,4391
4489,3014
4490,2065
4491,114
4491,472
4491,2641
4491,3621
4492,2748
4494,560
4496,2117
4496,3715
4496,4708
4497,110
4497,2297
4497,2743
4497,3395
4498,3336
4501,466
4501,1261
4501,3876
4502,4231
4503,3720
4505,460
4509,1563
4511,1857
4513,14
4517,2554
4520,1394
4522,1857
4522,2148
4522,2656
4522,3528
4522,4158
4522,4835
4523,3361
4528,1472
4528,4634
4530,3758
4532,988
4532,1731
4533,1243
4534,3193
4535,944
4538,1054
4539,3893
4540,3182
4541,681
4542,4482
4542,4969
4544,4784
4544,4964
4545,3492
4546,905
4547,1626
4549,1307
4550,1892
4552,3543
4553,1271
4555,1582
4556,947
4557,1766
4558,775
4559,3371
4562,4217
4563,877
4568,2850
4572,399
4572,950
4572,1127
4572,1553
4572,1800
4572,2510
4572,2692
4572,3086
4572,3177
4572,4053
4572,4406
4573,4165
4574,4087
4576,1601
4579,891
4581,2251
4582,1380
4583,1011
4584,3986
4585,795
4587,1278
4588,4407
4590,1000
4593,73
4595,618
4598,1034
4599,1629
4600,612
4606,1439
4607,807
4608,2216
4608,4094
4612,4984
4617,1076
4617,4666
4618,3176
4620,1335
4620,1429
4621,3141
4623,670
4623,4550
4624,308
4626,1633
4627,2188
4628,19
4629,1638
4629,3703
4630,279
4633,120
4633,754
4633,980
4634,3057
4635,179
4636,2792
4639,621
4639,2260
4639,2361
4640,367
4641,3778
4643,73
4644,202
4644,298
4644,3002
4644,3901
4645,2455
4647,2481
4649,184
4650,379
4650,550
4651,4324
4653,11
4654,1047
4655,482
4656,1638
4656,2155
4658,2328
4659,3708
4661,801
4663,1174
4664,2425
4665,17
4670,341
4671,2471
4674,174
4674,3548
4677,552
4678,252
4678,833
4678,2266
4678,2611
4678,3473
4678,4941
4682,398
4684,406
4684,1866
4687,3555
4689,1385
4690,1093
4692,322
4692,323
4692,1842
4692,2672
4692,4613
4693,3298
4697,4166
4698,3557
4699,577
4699,869
4699,3743
4699,4188
4700,1312
4702,280
4703,3075
4704,280
4704,1807
4706,816
4707,56
4709,602
4710,1137
4711,4158
4712,146
4713,4427
4714,4650
4716,2912
4717,4081
4718,1950
4721,2717
4723,4036
4725,2785
4727,320
4727,609
4727,2764
4729,442
4730,2057
4733,1928
4734,4026
4737,1098
4737,4445
4737,4515
4738,1171
4740,4430
4741,3169
4743,3053
4744,2562
4745,3622
4747,2165
4749,486
4749,2130
4749,3016
4749,3692
4749,4622
4751,1309
4753,4657
4756,1711
4758,392
4758,1243
4758,3285
4760,1128
4761,817
4761,1180
4762,2097
4763,536
4766,550
4767,3079
4769,2175
4771,4667
4772,2736
4772,4158
4773,3397
4775,1890
4776,3799
4778,1179
4779,707
4780,714
4784,161
4786,1380
4787,111
4789,4619
4790,2806
4792,688
4797,134
4797,249
4797,426
4797,1201
4797,1503
4797,1572
4797,1657
4797,1886
4797,2231
4797,2305
4797,2467
4797,2891
4797,3887
4801,4407
4804,953
4805,4066
4806,1933
4807,482
4807,4898
4809,2487
4810,2740
4814,1657
4816,930
4816,1247
4816,1278
4816,1398
4816,2130
4816,2551
4816,4278
4816,4752
4820,536
4820,1461
4820,1621
4820,4414
4822,1413
4824,986
4824,3633
4824,4026
4825,3009
4826,4433
4828,432
4829,1563
4830,100
4831,2373
4837,365
4839,165
4839,539
4839,2159
4839,3006
4839,4182
4839,4799
4839,4868
4840,3261
4840,3816
4841,88
4842,539
4843,2387
4844,904
4846,1293
4846,1394
4849,3716
4850,4124
4850,4949
4851,415
4853,308
4856,227
4857,3298
4858,2017
4859,1864
4861,66
4862,592
4862,763
4862,1800
4862,2361
4862,3206
4862,3543
4862,4473
4865,632
4866,274
4866,449
4866,762
4866,1208
4866,1490
4866,4168
4866,4619
4867,176
4867,2566
4867,3995
4869,296
4869,572
4870,358
4873,2956
4874,3768
4879,2458
4880,84
4882,1309
4883,50
4883,2003
4883,3799
4885,1285
4886,165
4887,2164
4888,3885
4891,2543
4891,4708
4892,110
4892,4983
4893,602
4895,1942
4896,4231
4896,4919
4897,3280
4900,57
4900,157
4900,1752
4900,2214
4900,2407
4900,3287
4901,273
4903,2381
4905,4036
4905,4659
4905,4960
4906,2728
4907,3211
4908,470
4910,200
4914,337
4914,361
4914,448
4914,707
4914,3515
4914,4197
4920,1382
4921,784
4923,1745
4927,2158
4929,4562
4930,3318
4932,754
4932,914
4932,1021
4932,2019
4932,3777
4932,4609
4933,222
4933,356
4933,768
4933,1030
4933,1262
4933,1321
4933,1429
4933,1606
4933,1825
4933,2433
4933,2481
4933,2488
4933,3479
4933,4611
4934,125
4934,168
4934,343
4934,1647
4934,4990
4935,1242
4935,1700
4935,1734
4935,2964
4935,3692
4935,4737
4936,3481
4937,57
4939,2653
4940,1123
4946,368
4947,3197
4951,4681
4952,4066
4954,500
4956,3088
4958,186
4959,2843
4966,936
4967,882
4970,3645
4972,1725
4973,134
4975,4984
4977,4562
4978,2733
4979,557
4985,3396
4987,281
4988,175
4989,2552
4991,2096
4992,1979
4997,1728
4999,1047
