src,dst
0,1
3,547
3,2376
3,3471
3,4315
4,330
4,984
4,997
4,2328
4,2371
4,2732
4,2872
4,2938
4,3065
4,3965
4,4665
4,4916
5,35
5,1469
5,3580
5,4616
6,45
6,145
6,158
6,3886
6,4841
8,196
8,2551
8,4106
9,3381
10,20
10,69
10,231
10,554
10,681
10,725
10,766
10,872
10,882
10,1172
10,1219
10,1443
10,1482
10,1939
10,2514
10,3887
10,4066
11,229
11,262
11,376
11,640
11,997
11,1074
11,1111
11,3268
11,3956
11,4240
11,4501
11,4998
13,325
13,1759
13,1821
13,1831
13,2590
13,2694
13,3429
13,3899
14,117
14,1094
14,3837
17,73
17,309
17,415
17,816
17,868
17,990
17,1140
17,1231
17,2145
17,2527
17,2528
17,3175
17,3209
17,3491
17,4237
18,975
18,1201
18,1785
18,2455
19,23
19,26
19,53
19,196
19,198
19,202
19,231
19,315
19,380
19,513
19,750
19,911
19,1063
19,1114
19,1144
19,1360
19,1445
19,1482
19,1772
19,1893
19,1960
19,2035
19,2179
19,2219
19,2223
19,2553
19,2799
19,2872
19,2899
19,2952
19,2979
19,3321
19,3901
19,3965
19,4167
19,4487
19,4603
19,4640
19,4746
19,4859
20,1950
21,12
21,127
21,229
21,332
21,452
21,696
21,984
21,1048
21,1171
21,1209
21,1455
21,1561
21,1821
21,1918
21,2371
21,2557
21,2619
21,2649
21,2780
21,2786
21,2839
21,3047
21,3086
21,3175
21,3250
21,3271
21,4040
21,4095
21,4573
21,4878
22,114
22,165
22,252
22,378
22,465
22,552
22,880
22,1532
22,2211
22,3109
22,3800
22,3849
22,4815
22,4873
25,511
25,1048
25,1153
25,2869
25,3324
25,3635
25,3935
25,4602
26,1110
27,257
27,431
27,677
27,862
27,1528
27,2382
27,3100
27,3743
27,3761
27,4560
27,4573
28,3209
28,4878
31,184
31,366
31,407
31,1204
31,1406
31,1830
31,2318
31,3273
31,3496
31,3849
31,3920
31,4501
31,4705
31,4748
32,55
32,913
32,1228
32,3524
32,4781
33,130
33,280
33,653
33,822
33,927
33,1690
33,1752
33,1963
33,1996
33,2084
33,2218
33,2272
33,2278
33,2361
33,2403
33,2571
33,2767
33,2912
33,3562
33,3893
33,4516
33,4603
33,4698
33,4887
34,990
34,2124
34,2649
34,3602
34,4495
37,52
37,651
37,664
37,737
37,988
37,2269
37,3008
37,3175
37,3602
37,3902
37,4982
38,2520
39,48
39,69
39,217
39,330
39,621
39,811
39,941
39,952
39,1048
39,1305
39,1446
39,1531
39,2146
39,2207
39,2751
39,3099
39,3893
39,4598
41,265
42,2359
43,212
43,1056
43,1445
43,1560
43,1820
43,2190
43,2335
43,4321
44,36
44,376
44,522
44,578
44,836
44,1023
44,1258
44,1268
44,1405
44,1427
44,1527
44,1528
44,1633
44,1750
44,1752
44,2019
44,2532
44,2915
44,3135
44,3139
44,4116
45,62
46,30
46,39
46,212
46,234
46,499
46,634
46,1231
46,1481
46,1846
46,2226
46,2457
46,2763
46,3134
46,3317
46,4018
46,4892
47,605
49,162
49,1231
49,1258
49,1896
49,2833
49,4139
50,48
50,617
50,658
50,696
50,2399
50,3051
51,96
51,1432
51,2020
51,2370
51,3139
57,4044
57,4560
58,4501
60,148
60,169
60,246
60,1320
60,1687
60,3545
60,4315
60,4449
60,4905
61,330
61,2798
62,12
62,81
62,104
62,276
62,451
62,513
62,591
62,793
62,880
62,952
62,984
62,1442
62,1451
62,1480
62,1654
62,1752
62,1787
62,2245
62,2275
62,2839
62,3016
62,3317
62,3496
62,3653
62,3701
62,3752
62,4064
62,4243
62,4273
63,78
63,132
63,178
63,196
63,276
63,376
63,385
63,515
63,844
63,997
63,1098
63,1286
63,1459
63,1497
63,1736
63,1917
63,2072
63,2077
63,2090
63,2588
63,2827
63,2988
63,3209
63,3468
63,3602
63,3788
63,4136
63,4147
63,4374
63,4649
63,4723
63,4947
64,4483
65,20
65,23
65,1821
65,4282
67,452
67,1714
67,2185
67,4494
67,4910
68,1048
68,1279
72,69
74,16
74,309
74,455
74,634
74,875
74,949
74,1086
74,1105
74,1402
74,1568
74,1648
74,1977
74,2199
74,2434
74,2700
74,2926
74,3030
74,3249
74,3359
74,3550
74,4152
74,4561
75,524
75,658
75,1090
75,1191
75,1268
75,1451
75,1520
75,1825
75,2006
75,3140
75,3359
75,3698
75,3801
75,4236
75,4251
75,4788
79,435
79,2747
79,3148
79,3324
79,3837
80,2371
80,2839
80,2879
82,24
82,366
82,415
82,513
82,1208
82,1421
82,2268
82,2855
82,2899
82,3443
82,3623
82,3886
82,4060
83,477
83,753
83,997
83,1342
83,1764
83,2279
83,2836
83,3236
83,3721
83,3956
83,4083
83,4507
83,4683
84,23
84,102
84,120
84,176
84,231
84,246
84,305
84,315
84,362
84,599
84,631
84,668
84,720
84,1007
84,1048
84,1064
84,1200
84,1233
84,1303
84,1451
84,1695
84,1866
84,2022
84,2119
84,2267
84,2361
84,2419
84,2505
84,2509
84,2764
84,2900
84,3003
84,3843
84,4114
84,4288
84,4691
84,4849
84,4911
85,3596
85,4557
87,23
87,738
87,1485
87,2211
87,2889
88,167
88,187
88,2119
88,2873
89,1336
89,4237
91,107
91,148
91,229
91,268
91,293
91,391
91,452
91,1151
91,1231
91,1251
91,1408
91,1828
91,2189
91,2647
91,2774
91,3018
91,3264
91,3887
91,3975
91,3984
91,4636
91,4737
91,4967
92,1
92,422
92,721
92,1197
92,2323
92,4480
93,202
93,949
93,3984
93,4183
94,1763
94,2872
94,3453
94,3688
94,3849
95,591
95,1107
95,1251
95,1279
95,2257
95,2503
95,3042
95,3272
95,3623
95,3800
95,4066
95,4116
95,4151
95,4290
95,4501
97,48
97,1939
97,2330
97,2888
97,3953
97,4638
99,1673
99,2074
99,3861
101,20
101,271
101,309
101,431
101,1030
101,1048
101,1076
101,1279
101,1280
101,1785
101,1876
101,1989
101,2044
101,2218
101,3612
101,4311
101,4633
101,4878
102,2253
103,1866
103,3317
105,58
106,3242
109,1752
109,4561
110,461
110,1604
110,3091
111,98
111,4152
113,409
113,414
113,748
113,1375
113,1448
113,1968
113,4705
117,107
117,1175
117,1603
117,1756
117,1914
117,2572
117,3032
119,1007
119,3937
119,4930
122,12
122,128
122,997
122,1048
122,1140
122,2879
122,3171
122,3994
122,4023
122,4105
122,4632
122,4699
123,552
123,4576
124,58
125,120
125,151
125,700
125,1062
125,1796
125,2898
125,3443
125,4279
125,4474
125,4878
126,1559
126,2851
126,4818
128,4878
129,245
129,376
129,558
129,1008
129,1397
129,2119
129,3965
131,20
131,196
131,330
131,333
131,375
131,524
131,531
131,554
131,1204
131,1854
131,1896
131,2124
131,2371
131,2373
131,3431
131,3460
131,3562
131,3972
131,4005
131,4609
133,319
133,2652
133,4483
134,718
134,1397
134,3040
134,3578
135,36
135,1245
135,1274
135,1466
135,4445
135,4691
136,2640
138,392
138,417
138,747
138,1978
138,3168
138,3200
138,3833
138,3886
139,145
139,197
139,204
139,229
139,260
139,627
139,696
139,735
139,1204
139,1648
139,2269
139,2371
139,2531
139,3450
139,3655
139,4066
139,4573
139,4965
140,1
140,107
140,131
140,223
140,513
140,599
140,1178
140,1204
140,1450
140,1939
140,2227
140,2303
140,2966
140,3001
140,3181
140,4365
140,4824
142,257
142,305
142,849
142,1459
142,1470
142,1714
142,1914
142,2063
142,2501
142,2606
142,2770
142,2867
142,4023
144,1191
144,1531
144,1968
149,325
150,3934
152,1030
152,2512
153,4545
156,212
156,985
158,1060
159,640
159,749
159,1039
159,2242
159,2258
159,3934
162,24
162,78
162,333
162,1092
162,1983
162,2119
162,4483
166,56
166,172
166,195
166,362
166,413
166,591
166,1380
166,1481
166,1574
166,1828
166,2207
166,3865
166,4563
166,4705
167,1278
167,1449
167,1960
167,2836
168,911
168,1187
168,1526
168,1771
168,2207
168,2303
168,2670
168,3011
168,4557
170,419
170,578
170,1074
170,1114
170,1747
170,1876
170,4100
170,4216
170,4389
175,2433
176,2872
177,235
177,285
177,286
177,332
177,602
177,684
177,720
177,1090
177,1769
177,1906
177,1976
177,2190
177,2373
177,2524
177,2674
177,2924
177,3560
177,3823
177,3841
177,4066
177,4224
177,4374
177,4684
178,1140
179,1149
179,1346
179,2705
179,3175
179,3694
180,3494
180,4494
181,58
181,1451
181,1469
181,1960
181,2158
181,4527
181,4895
182,201
182,444
182,495
182,1204
182,1623
182,1796
182,3267
182,3276
182,3435
182,4249
183,303
183,1268
183,1381
183,1836
183,3063
185,53
185,2206
185,2405
186,112
186,154
186,2507
186,4366
187,1896
188,3349
189,4878
190,58
190,330
190,1205
190,1431
190,1874
190,2899
190,3154
190,3788
190,4224
190,4955
191,937
191,1197
191,1268
191,1968
191,4480
191,4530
192,61
192,390
192,695
192,767
192,1914
192,2485
192,2872
192,3018
192,3496
192,3598
192,4821
193,1321
193,1571
193,1963
193,2150
193,2860
194,700
194,3640
197,815
197,1258
197,1668
200,450
200,3309
201,997
201,2515
203,69
203,1417
203,2545
203,3472
203,4032
204,1839
204,3870
206,36
206,56
206,173
206,559
206,846
206,1326
206,1370
206,1383
206,1449
206,2131
206,2741
206,2799
206,3371
206,3496
206,4188
207,200
207,2977
207,3108
207,3558
208,1
208,58
208,4659
209,1591
209,2492
209,2583
209,3237
209,3602
209,4699
209,4974
211,230
211,291
211,324
211,337
211,522
211,2204
211,2767
211,3176
211,3541
211,3602
211,3727
211,3823
211,3904
211,4256
211,4338
211,4483
211,4890
213,940
213,1551
213,1855
213,1876
213,1968
213,2390
213,2531
213,2839
213,3139
213,4150
214,684
214,2194
214,3450
214,3901
215,197
215,833
216,187
216,522
216,1081
216,1843
216,1947
216,2014
216,2204
216,2735
216,3372
216,3698
218,69
218,108
218,109
218,2799
219,454
219,2281
219,2732
219,3318
220,100
220,4023
221,760
221,1575
221,1786
221,2353
221,2638
221,3948
221,4038
222,3934
224,1575
224,2019
224,2070
224,3373
224,4980
226,169
226,280
226,302
226,340
226,452
226,465
226,513
226,1060
226,1111
226,1206
226,1294
226,1306
226,1717
226,1819
226,1911
226,4011
226,4215
227,58
227,566
227,1268
227,1451
227,2771
227,3478
228,50
228,1078
228,1292
228,2457
228,3050
228,4152
228,4645
229,236
229,362
229,4457
230,2207
230,4530
233,1082
233,1938
233,4150
236,197
236,1106
236,1451
237,478
237,1001
237,1023
237,1444
237,1607
237,2694
237,3886
237,4250
240,102
240,731
240,4091
240,4913
241,2
241,145
241,604
241,813
241,1282
241,1942
241,3482
242,130
242,2839
242,3289
242,4099
244,127
244,1089
244,1231
244,1594
244,1938
244,2312
244,3250
244,3309
244,3516
244,4438
245,490
245,1218
245,2957
247,56
247,309
248,1650
248,3548
250,454
250,691
250,951
250,1923
250,2152
250,3525
250,3975
250,4483
254,107
255,4483
256,449
256,1007
256,4705
257,78
257,699
257,834
257,1008
257,1023
257,1046
257,1557
257,2576
257,3209
257,3224
257,3506
257,3519
257,3618
257,3800
257,4460
257,4491
257,4514
257,4600
258,147
258,2006
258,2767
258,3067
258,3614
258,4202
258,4250
267,264
267,982
267,1466
267,1837
270,231
270,614
270,1968
272,1222
272,2179
272,2520
272,2872
275,114
275,385
275,958
275,1113
275,1594
275,1597
275,2083
275,2764
277,163
277,257
277,941
277,964
277,1441
277,1939
277,2051
277,2466
277,2531
277,2802
277,2872
277,4148
277,4278
277,4871
278,3388
281,169
281,727
281,880
281,2947
282,370
282,1118
282,3934
288,453
288,910
288,4318
288,4701
289,112
289,145
289,1325
289,1546
289,1570
289,2386
289,2406
289,2685
289,2814
289,4487
289,4560
289,4963
290,187
290,340
290,725
290,1025
290,1118
290,1736
290,1768
290,1931
290,1937
290,2277
290,2546
290,3849
290,4108
290,4570
290,4643
290,4878
290,4902
291,16
291,330
292,125
292,321
292,753
292,806
292,870
292,1161
292,1427
292,2221
292,2288
292,2405
292,2687
292,2717
292,2878
292,3420
292,3846
292,4593
294,100
294,718
294,1061
294,1659
294,1968
294,2328
294,3370
294,4633
295,36
295,217
295,591
295,1071
295,1102
295,1595
295,1880
295,2086
295,4066
296,1004
299,362
299,691
299,872
299,1746
299,3595
300,365
300,1451
300,1920
300,3610
300,3830
300,3843
300,4593
302,964
302,2199
304,50
304,115
304,333
304,674
304,1489
304,2872
304,3208
304,4878
306,317
306,552
306,1023
306,1653
306,1723
306,1902
306,2114
306,2287
306,2320
306,2371
306,2971
306,3036
308,453
308,684
308,1551
308,3707
308,3804
308,4856
309,756
309,2077
309,3011
312,26
312,196
312,1396
312,1657
312,2258
312,2724
312,2728
312,2896
312,2961
312,3319
312,4117
312,4543
312,4788
314,55
314,2361
314,4201
315,4862
318,53
318,225
318,624
318,846
318,1290
318,4524
319,55
319,117
319,405
319,495
319,665
319,1159
319,1527
319,1528
319,1634
319,1710
319,1803
319,2556
319,4014
319,4028
320,2742
320,3140
322,941
323,733
323,1112
323,1204
323,2742
323,2924
323,3040
323,3467
327,24
327,63
327,93
327,121
327,392
327,417
327,1197
327,1531
327,1757
327,1768
327,2057
327,2233
327,2428
327,2649
327,3109
327,3698
327,4110
327,4462
327,4643
327,4802
329,132
329,1814
329,3158
329,3233
329,4032
329,4301
331,76
331,1314
331,3496
331,4237
334,76
334,593
334,2371
334,2521
334,3073
335,26
335,160
335,731
335,953
335,1282
335,1500
335,2427
335,2531
335,2741
335,3789
335,4406
335,4490
335,4878
336,1876
337,750
337,894
337,1090
337,1513
337,2189
337,3644
338,269
338,602
338,870
338,912
338,1497
338,1752
338,2649
338,4078
338,4252
338,4442
339,330
339,589
339,921
339,3258
341,281
342,61
342,141
342,178
342,438
342,619
342,952
342,1138
342,1305
342,4124
342,4153
342,4560
342,4638
343,349
343,532
343,1736
343,2135
344,2135
344,4878
345,1876
348,121
348,237
348,1188
348,1268
348,2626
348,2839
348,3126
348,3175
348,3965
350,651
350,1201
350,2872
350,3139
351,170
351,3039
351,3236
352,319
354,1391
354,2515
354,2839
354,4690
355,1
355,552
355,3392
357,1876
357,3631
358,1060
358,1380
358,1540
358,1856
360,340
360,4519
363,1876
364,330
364,1377
367,223
367,501
367,1714
367,2346
367,2879
367,2899
367,3421
367,3706
369,81
369,1406
369,2010
369,3237
369,3623
369,4281
371,3392
371,3706
372,1999
374,45
374,882
374,2764
374,4930
375,659
375,1333
375,1913
375,2371
375,3470
379,3640
381,104
381,413
381,1451
381,2211
381,2295
381,2300
381,2353
381,2559
381,2650
381,2769
381,3195
381,3799
381,4005
382,477
382,1037
382,2872
382,2893
382,3833
382,4370
383,18
383,76
383,737
383,1191
383,1519
383,3379
383,4757
386,565
386,2361
386,2465
388,260
392,756
392,822
392,2125
392,2884
392,4685
393,1105
393,1457
393,3439
393,3556
393,3843
394,3736
395,266
395,1050
395,1451
395,1968
395,2052
395,3688
395,4048
396,1081
396,3934
396,4706
397,910
397,1231
397,1844
397,4633
399,158
399,697
399,957
399,1062
399,1259
399,1291
399,1582
399,1932
399,2603
399,2700
399,3040
399,3684
399,3934
399,4286
399,4554
399,4650
399,4766
401,50
401,2879
401,3706
403,271
403,996
406,330
406,389
406,481
406,920
406,1445
406,2371
406,3374
406,3525
406,4372
406,4438
408,20
408,245
408,385
408,781
408,2668
410,1489
410,2947
412,58
412,776
412,4926
414,4649
415,524
415,2898
415,3459
416,482
416,1960
416,4560
417,70
417,114
417,640
417,798
417,1416
417,1634
417,2109
417,3232
418,1912
418,4300
421,160
421,1058
421,1201
423,3788
423,4705
426,81
426,728
426,995
426,1092
426,1202
426,1397
426,1521
426,1568
426,1769
426,2571
426,3219
429,640
429,816
429,994
429,1007
429,1763
429,1813
429,2202
429,2328
429,2860
429,3018
429,3109
429,3195
429,3362
429,3673
429,3887
429,4038
429,4483
429,4843
429,4857
430,291
430,319
430,1451
430,1527
430,1598
430,2153
430,2371
430,2434
430,2580
430,3135
430,3313
430,3421
430,3976
430,4150
432,70
432,330
432,1139
432,1876
432,2354
432,4169
433,1008
434,120
436,169
436,305
436,842
436,969
436,1239
436,1554
436,4832
437,659
437,915
437,3540
437,3800
438,1014
438,1650
438,2363
438,3496
438,4490
439,53
439,132
439,481
439,513
439,565
439,1453
439,2193
439,2736
440,50
440,463
440,4302
443,471
445,23
445,271
445,405
445,531
445,856
445,1066
445,1324
445,2202
445,2761
445,3496
445,3752
446,239
446,1570
446,1775
446,3242
446,3659
446,3800
446,4318
446,4332
448,141
448,1995
448,3524
449,1103
449,1584
449,2323
453,53
454,4249
458,281
458,1358
458,2074
458,2281
459,368
459,547
460,259
460,1419
460,2290
460,2872
460,3443
460,3833
461,31
461,1542
461,2946
461,3760
462,1275
462,3607
462,4699
463,20
463,1062
463,1167
463,2585
463,2590
464,235
464,276
464,564
464,658
464,852
464,1379
464,1995
464,2604
464,3209
464,4207
466,4706
467,378
467,1435
467,1557
467,2240
467,4021
467,4529
469,3140
469,4557
470,1010
471,20
471,53
471,526
471,1528
471,1599
471,1906
471,2214
471,2461
471,2860
471,4116
473,3482
475,780
475,1210
475,1917
475,2049
475,2525
475,2839
475,3455
475,4306
475,4624
476,4649
477,53
477,231
477,1550
477,1655
479,700
479,1875
479,2590
479,3450
479,3635
480,2155
480,2739
480,2884
480,3886
480,3894
480,3985
480,4862
481,98
481,104
481,615
481,1681
481,1876
481,1960
481,2031
481,2732
481,3340
481,3885
481,4431
483,151
483,330
483,3654
483,4917
484,280
484,361
484,489
484,1331
484,1814
485,368
485,712
485,954
486,1557
486,1903
486,2742
487,1197
487,3900
488,1375
488,1450
488,2921
488,4593
489,499
489,3719
491,4005
492,3536
492,4878
493,132
493,1157
493,2455
493,4318
493,4391
494,389
494,585
494,994
494,1840
494,1891
494,4169
495,239
495,649
495,1074
496,1279
497,1279
497,1632
497,1845
497,2081
497,2124
497,3198
497,3242
497,3299
497,3637
497,4420
497,4693
497,4788
497,4961
497,4989
498,202
498,4691
500,4561
504,1689
504,3142
504,4224
505,452
505,2285
506,50
506,169
506,2636
506,3536
506,3864
506,3886
506,4271
507,3748
507,4491
508,552
508,2638
508,3237
508,4380
508,4560
510,2204
510,3800
512,2842
514,522
514,1313
516,4098
517,53
517,1875
518,1379
518,3837
518,4066
519,47
519,78
519,229
519,356
519,1120
519,1197
519,1370
519,1949
519,2007
519,3074
519,3635
519,3684
519,4067
519,4878
521,1279
521,1554
523,3132
523,3934
525,385
525,1023
525,1095
525,1423
525,1466
525,1481
525,2037
525,2117
528,20
528,70
528,246
528,301
528,389
528,928
528,1065
528,1131
528,1604
528,2084
528,2271
528,2711
528,3384
528,3898
528,4076
528,4505
528,4645
528,4691
528,4878
529,316
530,81
530,324
531,2328
534,392
535,4857
536,934
536,1451
536,1837
536,2780
537,24
537,900
537,1268
537,2169
537,2279
537,3748
537,4250
539,928
539,1048
539,3571
539,3640
539,4110
539,4483
539,4577
540,665
540,3948
540,4529
540,4598
541,20
543,81
544,931
544,1111
544,1149
544,1783
544,2084
544,3676
544,4027
544,4501
545,76
545,1968
545,4779
547,96
547,1019
547,1361
550,1796
553,1876
553,3371
554,792
556,136
556,340
556,973
556,3905
560,3883
560,4005
561,2034
561,2649
561,2780
561,2979
561,3934
561,4719
562,1258
562,2839
567,4862
569,4250
571,1027
571,3869
572,12
572,31
572,310
572,995
573,305
573,1319
573,3706
573,4878
574,4817
575,352
575,900
576,147
576,225
576,3543
577,20
577,55
577,1217
577,3139
579,527
579,1845
579,2394
579,2694
579,2797
579,3175
579,4641
581,1342
582,451
582,4443
583,75
583,2872
583,4076
584,1938
584,2045
584,2168
584,2433
586,838
587,89
587,1097
587,1287
587,1350
587,3243
588,765
588,1163
588,2441
588,2619
588,3800
588,4259
589,1313
589,2767
590,718
592,20
592,340
592,1968
592,2016
592,3975
592,4507
593,911
593,2492
593,3043
593,4107
593,4143
594,1252
594,1934
594,3125
594,3239
594,3496
594,4274
595,526
596,171
596,1078
596,1449
596,1668
596,3580
596,3783
597,169
597,355
597,1960
597,2893
597,3771
597,4690
600,2253
604,252
605,173
605,1531
605,3494
605,4521
606,453
606,1956
606,3242
607,50
607,436
607,1865
607,3361
607,3760
607,3849
607,3952
607,4878
608,531
610,376
610,526
610,4438
611,409
612,24
612,265
612,349
612,1131
612,2827
612,3838
613,3623
621,114
622,2541
622,4224
622,4438
625,1662
625,4136
625,4852
628,3702
628,4643
629,132
629,1245
629,1286
629,1442
629,1545
629,2397
629,2933
629,3235
629,4014
629,4040
629,4438
631,2083
632,36
632,659
632,1023
633,175
633,1938
633,3318
633,4254
633,4288
633,4737
635,376
635,4331
636,1516
636,1987
636,2124
636,3900
637,237
637,1125
637,1981
638,26
638,58
638,254
638,1197
638,1200
638,1876
638,1898
638,1927
638,2641
638,2986
638,3321
638,4031
639,339
639,718
639,2070
640,4335
642,565
642,1112
642,2141
644,12
644,261
645,317
645,1466
647,1066
647,1575
647,1876
647,2805
647,3170
647,3861
647,4521
647,4529
648,117
648,1481
648,3616
648,3975
648,4895
649,145
649,205
649,449
649,1567
649,2344
649,2866
649,2968
649,4717
650,591
650,762
650,915
650,1056
650,1258
650,1320
650,1656
650,3165
650,3212
650,3235
650,4893
652,76
652,601
655,1914
655,4826
656,727
656,846
659,382
659,1018
659,2354
659,3427
660,212
660,1551
661,143
661,269
661,3392
662,4649
664,3934
667,4035
669,303
670,1279
670,1828
670,2441
671,1268
671,1794
672,331
672,558
672,1306
672,2890
672,3043
672,3058
674,1500
678,257
678,725
678,1060
678,2187
678,2311
679,36
679,762
679,1445
679,2899
679,4551
681,132
681,301
681,1353
681,1523
681,1540
681,2272
681,2649
681,3485
681,3498
681,3522
681,3947
682,175
683,621
685,1876
686,1341
686,1843
687,634
687,919
687,3110
689,565
689,1346
689,1391
689,2005
689,4318
691,622
692,3242
693,59
693,2350
694,568
694,4691
695,248
695,407
695,453
695,1993
695,2685
695,4138
695,4795
699,3108
700,284
700,1662
700,1728
700,1898
700,2836
700,3602
701,359
701,1528
701,1647
701,2839
701,2882
701,3496
701,4874
702,95
702,249
702,298
702,453
702,513
702,706
702,804
702,879
702,880
702,1451
702,1914
702,2671
702,2729
702,2768
702,3602
702,4291
702,4461
702,4532
702,4697
704,1140
704,4281
705,3953
707,58
707,1029
707,2204
707,4318
707,4878
710,1445
710,2879
710,4058
710,4663
712,175
713,273
713,4705
714,4638
716,404
716,994
716,3975
719,160
719,1551
719,2345
719,2491
719,3100
719,3651
722,3554
722,3886
724,1973
725,361
725,640
725,3229
725,4878
729,154
729,718
729,3135
729,3156
729,3640
730,184
730,924
730,1291
730,1383
730,1846
730,2021
730,2041
730,2207
730,2610
730,2721
730,2991
730,3080
730,3337
730,3525
730,4441
730,4796
732,1242
733,340
733,528
733,1352
733,1850
733,1912
733,3220
733,3457
733,3934
733,4598
735,48
735,176
735,797
735,920
735,924
735,1237
735,1557
735,2855
735,3004
735,3969
736,466
736,1092
736,1268
736,1442
736,1705
736,2190
739,2370
740,1231
741,552
741,951
741,1064
741,1140
741,1881
741,3186
742,755
742,840
742,880
742,885
742,3003
742,3849
744,1958
744,2141
744,2936
744,3948
745,748
745,1096
745,1546
745,2144
745,2764
745,2980
745,4231
746,41
746,167
746,409
746,753
746,1426
746,1891
746,3676
746,3849
746,3889
746,4014
746,4293
746,4468
752,23
752,104
752,780
752,1451
752,1459
752,1890
752,1982
752,2595
752,2683
752,3636
752,4985
754,276
755,20
755,2649
755,3496
755,3695
755,4606
756,2760
756,3849
757,330
757,1164
757,1777
757,1828
757,4666
758,107
758,1819
758,3706
759,3433
763,1342
764,78
765,199
770,50
770,58
770,151
770,1451
770,2541
770,2608
770,2830
770,2995
770,3317
771,1279
771,1949
771,2255
773,3800
774,116
774,1048
774,1653
774,2239
774,2354
774,2450
774,2535
774,2603
774,3858
774,4318
775,2520
775,3808
776,4453
776,4740
778,330
778,368
778,868
778,1050
778,1485
778,3120
779,422
779,517
779,856
779,953
779,1201
779,1202
779,4016
782,3176
783,1317
783,2780
784,23
784,286
784,645
784,1551
784,2533
784,2621
784,3176
784,3675
784,3800
784,4020
786,1070
786,1550
786,3994
786,4019
787,2228
787,3421
788,325
788,3451
788,3529
788,3596
789,3429
790,48
790,52
790,1291
790,1377
790,1960
790,2302
790,3123
790,3146
790,3974
790,4019
790,4116
791,279
791,872
791,942
791,1570
791,2371
791,2619
791,4633
793,20
793,62
793,225
793,842
793,2709
793,2864
794,578
794,4308
795,127
795,659
795,1427
795,1669
795,1898
795,2544
795,2572
795,4016
797,146
797,2565
797,2941
797,3992
797,4006
802,225
803,517
803,717
803,2513
803,3244
805,526
807,634
807,997
807,2275
807,3959
808,125
808,552
809,81
809,1622
809,1713
809,2461
810,219
810,291
810,1370
810,1449
810,1796
810,2350
810,3123
810,4281
810,4819
810,4862
811,1094
811,2652
811,4691
812,797
812,4068
813,266
814,2046
818,725
819,70
819,377
819,869
819,1619
819,2294
819,3166
824,243
824,558
824,1228
824,1300
824,1901
825,3100
826,71
826,1723
826,1927
826,4229
827,263
827,324
827,725
827,967
827,1448
827,1892
828,58
828,248
828,1956
828,1960
828,2515
828,2764
828,2886
828,3056
828,3324
828,4529
829,125
829,634
829,1959
829,2950
830,20
830,330
830,842
830,1007
830,3863
831,3349
835,1380
835,1424
835,1643
835,4438
837,513
837,1960
838,565
839,50
839,1823
841,481
841,2405
845,1192
845,2166
845,2486
845,3800
845,4438
846,1060
846,1154
848,4158
848,4795
850,359
853,196
858,257
858,665
858,1050
858,1069
858,1258
858,1590
858,2872
858,3555
858,3863
859,78
859,362
859,3567
860,2577
860,3698
861,1551
864,169
865,169
865,2278
865,2498
866,1022
866,4535
871,20
871,1938
873,61
873,524
873,1074
873,1968
873,2000
873,4281
874,55
874,2912
876,640
877,47
877,391
877,417
877,665
877,868
877,902
877,962
877,1019
877,1304
877,1630
877,1731
877,1966
877,2090
877,2682
877,2971
877,3179
877,3328
877,3430
877,3871
877,3893
877,4011
877,4490
877,4978
878,565
878,1464
878,1896
878,2216
878,2230
878,2287
878,3442
878,3656
878,3901
878,4682
878,4787
878,4962
881,2455
881,3630
882,127
882,1282
882,2931
882,3242
882,4057
883,2526
883,4372
883,4691
884,107
884,1429
884,2725
884,3920
887,52
889,796
889,1451
889,1765
889,2042
889,2135
889,2697
889,3815
889,4917
890,859
890,1527
891,313
891,1268
891,1445
891,3365
892,4487
892,4646
892,4697
895,2371
896,3596
896,3910
897,784
899,59
901,2365
901,4127
902,117
902,425
902,1067
902,3054
902,4380
905,940
905,3175
906,1714
907,762
909,2957
912,52
912,114
912,2022
912,2119
912,2650
912,4098
912,4598
915,1067
915,2043
915,2356
915,3860
915,4055
915,4706
916,4070
917,160
917,1880
917,2193
917,2594
917,3934
918,141
921,703
921,2786
921,3158
921,3800
922,90
923,462
923,784
923,1549
923,1571
923,3286
923,4649
925,100
925,1279
925,1397
925,2647
925,3780
926,136
926,1001
926,2241
926,4561
926,4863
928,376
928,3893
929,328
929,1876
929,2573
929,2780
929,3887
929,4447
929,4494
930,3221
930,3711
930,3852
930,4369
932,268
932,563
932,593
932,997
932,1664
932,1691
932,1750
932,2360
932,2617
932,2792
932,2899
932,3438
932,3752
932,3800
932,4512
932,4967
933,23
933,454
933,524
933,723
933,953
933,1132
933,1451
933,1668
933,1911
933,1928
933,1931
933,2193
933,2250
933,2359
933,2360
933,2804
933,3176
933,4906
938,2822
938,2852
938,3939
938,4748
940,173
940,717
940,744
940,1234
940,1397
940,3267
941,362
941,3774
943,3066
943,3100
944,776
945,792
945,1111
945,1139
945,3185
945,4292
947,4040
948,265
950,1449
953,1246
955,4706
959,2478
959,3176
960,264
960,4038
961,1064
961,1280
961,1500
961,4691
963,2337
965,104
965,1563
965,1657
965,3443
965,3968
967,120
967,2638
968,1043
968,1568
968,4532
971,2873
971,2944
971,4699
972,1380
974,309
974,727
974,964
974,1896
976,305
977,3140
979,504
979,3962
980,3321
981,1172
983,164
983,234
983,676
983,1466
983,1810
983,1915
983,2143
983,2861
983,4268
989,117
989,1820
991,1
991,797
991,1043
991,1154
991,1443
991,1952
991,4049
992,2190
993,20
994,3547
994,4438
997,70
997,107
997,291
997,552
997,1187
997,1996
997,4312
998,813
998,1112
998,3242
1000,1968
1002,104
1002,269
1002,496
1002,2183
1003,269
1003,953
1003,1231
1003,1245
1005,785
1006,53
1006,3392
1009,405
1011,66
1011,697
1011,1876
1011,4501
1013,2049
1015,624
1015,800
1015,3429
1016,417
1016,1866
1016,4550
1017,2627
1018,271
1018,1899
1018,2277
1018,2280
1018,3971
1020,405
1020,4175
1021,1083
1022,473
1022,3644
1024,872
1024,1126
1024,1746
1024,3699
1024,4076
1024,4405
1026,321
1026,1239
1026,1430
1029,453
1029,688
1029,4640
1030,1462
1030,1896
1030,4250
1030,4733
1032,589
1032,1632
1032,2914
1032,3289
1032,3558
1033,100
1033,1064
1033,1140
1033,3604
1034,405
1034,1177
1034,1648
1034,2265
1034,2720
1035,997
1035,1811
1035,1975
1035,4494
1036,2767
1038,131
1038,1030
1038,1408
1038,2884
1041,4638
1042,285
1043,169
1043,4299
1044,680
1044,766
1046,95
1046,279
1046,533
1046,644
1046,936
1046,1528
1046,3251
1047,1836
1047,3031
1047,4233
1047,4833
1049,3684
1051,1834
1051,3388
1051,3561
1053,1763
1053,3887
1053,4638
1054,58
1054,1896
1068,2424
1070,175
1070,3553
1070,4977
1071,76
1071,377
1071,496
1071,695
1071,709
1071,1459
1071,3957
1071,4601
1072,565
1072,3934
1073,330
1073,1204
1073,1320
1073,1926
1075,1023
1075,1866
1075,2004
1075,4098
1076,20
1076,849
1076,999
1076,1945
1076,2020
1076,2326
1076,2839
1076,3824
1076,4119
1077,2419
1077,3501
1078,721
1078,892
1078,1070
1078,1126
1078,1960
1078,2428
1078,2591
1078,2788
1078,3167
1078,3676
1078,3795
1078,4480
1078,4483
1079,1088
1079,1459
1079,1819
1080,104
1083,2914
1084,3684
1085,1186
1085,1894
1085,3615
1087,1197
1087,3359
1088,1505
1091,1575
1091,4561
1092,1397
1092,1451
1092,2228
1092,3522
1093,170
1093,2564
1097,303
1097,920
1097,2100
1097,2149
1097,3002
1099,330
1100,1421
1100,2189
1100,3886
1101,3901
1102,1911
1103,197
1103,212
1103,265
1103,325
1103,477
1103,1043
1103,1535
1103,1696
1103,2193
1103,3058
1103,3233
1105,157
1105,766
1105,3127
1105,3837
1108,78
1108,621
1108,725
1108,766
1108,1459
1108,1683
1108,3739
1108,3983
1109,56
1109,291
1109,898
1109,1455
1112,1162
1112,1613
1112,3886
1115,1045
1115,1968
1115,2135
1115,2371
1115,3443
1115,3722
1115,4940
1116,602
1116,3800
1116,4356
1116,4491
1117,309
1117,2354
1117,3754
1121,437
1121,717
1121,2590
1122,543
1123,890
1124,58
1128,380
1128,2685
1129,1736
1129,4266
1130,784
1130,1377
1130,1876
1130,2218
1130,4122
1130,4878
1133,276
1133,4641
1134,114
1134,225
1135,602
1135,2324
1136,132
1136,1603
1136,2109
1136,3123
1136,3800
1136,4030
1137,4315
1138,2694
1141,822
1141,1753
1142,2251
1142,2455
1143,120
1145,763
1146,694
1146,3091
1146,4040
1146,4617
1147,52
1147,513
1147,1835
1147,1898
1147,2455
1147,4438
1147,4650
1147,4812
1147,4909
1150,50
1150,3496
1152,407
1152,4433
1154,4483
1155,330
1155,964
1155,1397
1155,2550
1156,4930
1158,543
1158,673
1158,1595
1158,4338
1160,769
1160,2732
1160,4244
1162,4040
1165,674
1165,2132
1165,2553
1165,3490
1166,4105
1166,4844
1169,813
1169,1557
1170,1140
1170,4878
1171,511
1171,598
1171,2161
1171,3139
1173,56
1173,115
1173,643
1173,781
1173,1746
1173,1968
1174,441
1176,176
1176,4598
1177,424
1177,718
1177,1920
1177,2839
1177,3058
1177,3670
1178,145
1178,3070
1180,104
1180,749
1180,784
1180,2031
1180,2613
1180,2764
1180,2867
1180,4796
1181,1049
1181,2901
1181,3886
1182,160
1183,966
1183,1842
1183,3492
1184,4293
1185,685
1185,2113
1186,3648
1189,599
1189,719
1189,1201
1190,3429
1191,1765
1193,4116
1194,522
1194,3850
1195,2225
1195,4145
1195,4878
1196,273
1196,3202
1198,3635
1199,496
1199,1110
1200,552
1202,727
1203,1048
1206,1331
1206,1846
1206,2786
1207,389
1207,634
1207,1824
1207,2898
1207,3422
1207,3508
1207,3800
1207,3849
1207,4560
1208,2020
1208,2252
1209,2677
1209,4483
1209,4525
1211,330
1211,1126
1211,2260
1211,2310
1211,2573
1211,4530
1215,1609
1215,1957
1215,4691
1216,2359
1216,2548
1216,3102
1216,3122
1216,4591
1220,1148
1221,1356
1221,3201
1221,3706
1222,1071
1222,2280
1222,2659
1222,2769
1223,63
1224,2124
1225,1393
1225,2152
1226,1007
1226,1876
1226,4993
1227,589
1227,1759
1229,2649
1230,3057
1232,1235
1232,3845
1236,3800
1236,4691
1238,102
1238,2580
1238,4878
1239,4466
1240,279
1240,1793
1241,921
1242,147
1242,1112
1242,1466
1242,2684
1243,1807
1243,2439
1243,2838
1243,3576
1243,3755
1243,4561
1244,20
1247,1386
1247,1960
1247,2614
1247,3420
1248,331
1250,420
1250,4930
1251,396
1252,570
1252,1653
1252,2588
1252,3900
1253,823
1253,941
1253,3401
1253,4796
1254,4019
1255,56
1255,70
1255,317
1255,1320
1255,3090
1255,4288
1256,921
1256,1279
1256,2223
1257,330
1257,385
1257,776
1257,1560
1257,3737
1260,3079
1261,640
1261,1258
1261,1709
1261,4081
1262,2054
1263,2466
1264,70
1264,1452
1264,1526
1264,2553
1267,4913
1268,3861
1269,1321
1269,1614
1269,2839
1269,3949
1271,389
1272,109
1272,953
1273,482
1273,1313
1273,2708
1274,26
1274,2535
1274,3965
1275,524
1276,1896
1277,268
1277,601
1277,1603
1277,2611
1277,3536
1278,3175
1281,245
1283,132
1283,1835
1283,2492
1285,1171
1289,35
1289,2705
1289,3173
1291,305
1291,309
1293,766
1295,261
1295,3788
1296,513
1296,593
1296,618
1296,681
1296,698
1296,756
1296,822
1296,1112
1296,1471
1296,1489
1296,2101
1296,2544
1296,2860
1296,3781
1296,3785
1296,3893
1296,4076
1296,4152
1296,4341
1296,4420
1296,4645
1297,382
1297,1342
1297,1573
1297,1674
1297,1989
1297,2476
1297,2649
1297,3374
1297,3790
1297,4300
1298,1451
1299,908
1299,1788
1299,3838
1299,4434
1299,4788
1301,391
1301,715
1301,2160
1301,4293
1301,4801
1302,167
1302,2204
1307,117
1307,2277
1309,309
1310,3472
1311,3429
1312,1018
1312,2791
1312,2925
1315,167
1315,617
1315,1159
1315,2354
1315,4690
1316,98
1318,98
1318,3922
1318,4252
1322,997
1323,499
1323,1320
1323,3244
1323,3684
1323,4777
1323,4968
1324,1031
1324,1204
1324,4546
1325,2493
1327,1037
1328,852
1328,3719
1329,3934
1330,820
1332,366
1334,355
1335,1231
1336,3289
1337,1531
1337,2040
1338,78
1338,368
1340,646
1340,1228
1340,1342
1343,328
1343,1231
1343,1245
1343,2038
1343,2124
1345,1126
1345,2455
1345,3849
1349,756
1349,1603
1349,2359
1351,1531
1351,1960
1351,3536
1351,4017
1354,4638
1355,234
1357,640
1357,1200
1358,191
1359,2819
1359,4752
1360,3934
1362,658
1362,2190
1362,3917
1364,2921
1365,640
1365,1284
1365,1853
1365,3135
1365,3206
1366,2090
1368,1342
1369,385
1371,485
1371,1960
1372,933
1373,1874
1373,2044
1374,69
1374,956
1374,1809
1374,2738
1376,69
1376,253
1376,2354
1376,3801
1380,1575
1380,2354
1382,1876
1384,107
1385,271
1385,554
1385,1028
1385,3809
1385,4320
1385,4490
1385,4561
1385,4839
1387,328
1387,1689
1387,2657
1389,833
1389,1938
1390,3863
1392,380
1394,7
1394,50
1394,145
1394,245
1394,317
1394,531
1394,542
1394,666
1394,843
1394,900
1394,1002
1394,1451
1394,1520
1394,1723
1394,1752
1394,1851
1394,1896
1394,1949
1394,1960
1394,2866
1394,2929
1394,3134
1394,3181
1394,3452
1394,3800
1394,3887
1394,4066
1394,4507
1394,4512
1395,48
1395,2400
1399,1216
1399,2730
1400,45
1401,761
1402,3975
1407,23
1407,4593
1408,1571
1409,78
1409,1342
1410,141
1411,579
1411,3093
1412,370
1412,1213
1412,3114
1413,330
1413,4235
1414,640
1414,727
1414,4560
1418,3887
1420,58
1422,56
1425,822
1427,23
1427,145
1427,309
1427,394
1427,2143
1427,2343
1427,2639
1427,2820
1427,2904
1427,4053
1427,4725
1428,169
1428,1876
1428,4530
1430,78
1430,1356
1430,3198
1430,4116
1430,4579
1433,4218
1435,3829
1436,373
1436,391
1436,1391
1436,3840
1436,4153
1437,4573
1438,143
1438,1579
1438,2063
1438,4142
1439,405
1440,202
1440,841
1440,3947
1442,849
1443,302
1443,990
1443,4400
1443,4551
1445,405
1445,1591
1447,693
1449,3569
1451,852
1451,2104
1452,50
1452,1159
1452,1694
1452,1826
1452,1914
1452,2129
1452,3308
1452,3756
1452,4250
1452,4973
1453,160
1453,2018
1454,688
1456,58
1456,212
1456,266
1456,398
1456,538
1456,779
1456,985
1456,1265
1456,1554
1456,2090
1456,2237
1456,2764
1456,2872
1456,3459
1458,1112
1461,78
1461,1205
1461,3278
1463,1107
1470,3658
1470,4281
1471,365
1472,1201
1472,2469
1473,1062
1473,2857
1473,3573
1473,4633
1474,7
1474,2289
1474,2761
1474,3361
1475,869
1475,1455
1475,2836
1475,3140
1476,473
1476,1023
1476,1175
1476,2122
1476,3886
1477,24
1478,1648
1479,3317
1481,78
1481,1290
1481,4237
1483,125
1483,163
1483,2024
1484,53
1484,147
1484,328
1484,626
1484,1291
1484,1308
1484,1320
1484,2622
1484,2708
1484,3712
1484,3800
1484,4014
1484,4153
1484,4598
1484,4857
1484,4878
1486,2700
1486,4646
1487,424
1487,941
1487,2155
1488,1092
1489,4978
1490,1992
1490,2780
1491,2902
1491,4480
1492,1451
1492,2997
1494,346
1494,552
1494,1968
1494,4323
1494,4638
1495,3179
1496,1048
1498,1240
1499,131
1499,863
1499,2509
1499,3835
1501,266
1501,799
1501,3635
1502,81
1503,26
1503,269
1503,279
1503,346
1503,352
1503,382
1503,984
1503,1064
1503,1530
1503,2017
1503,2427
1503,2561
1503,2780
1503,3049
1503,3908
1503,4224
1504,31
1504,331
1504,653
1504,744
1504,1279
1504,2547
1504,3139
1504,3704
1504,4019
1504,4370
1504,4420
1504,4795
1506,225
1506,1794
1508,1131
1508,2128
1508,3296
1509,69
1509,158
1509,291
1509,1306
1509,1748
1509,1893
1509,2604
1509,2872
1509,2899
1509,4301
1511,59
1511,1648
1512,1601
1512,2124
1512,2286
1512,2783
1512,2813
1512,2907
1512,3109
1512,3321
1514,1507
1514,4834
1515,3371
1515,4330
1517,229
1517,452
1517,2030
1517,3550
1518,346
1518,854
1518,1219
1523,2515
1524,4529
1525,2258
1527,4070
1528,548
1528,4507
1529,1112
1532,2112
1533,20
1533,2697
1533,3834
1534,1960
1534,2453
1534,3965
1535,2872
1535,2942
1535,3347
1535,3744
1536,1497
1536,1668
1536,3800
1537,45
1537,387
1537,1205
1537,1551
1537,1574
1537,4571
1537,4878
1538,1898
1539,3608
1541,58
1541,1139
1541,3099
1541,4935
1543,634
1543,798
1543,1064
1543,1474
1543,1604
1543,1906
1543,2452
1543,3741
1544,125
1544,2090
1547,78
1547,3798
1548,1959
1548,2200
1548,2780
1548,4783
1550,337
1552,2049
1553,2194
1556,449
1556,524
1556,618
1556,693
1556,1866
1556,2083
1556,2449
1556,3823
1556,4614
1558,1742
1558,2276
1558,3161
1558,3442
1558,4532
1562,145
1562,3965
1564,451
1565,452
1565,658
1565,673
1565,868
1565,2119
1565,2260
1566,1034
1572,55
1572,753
1576,718
1576,1380
1577,2979
1577,4537
1578,58
1578,212
1579,407
1581,3706
1583,727
1585,424
1585,1963
1585,2114
1585,3463
1585,4255
1585,4331
1587,868
1588,63
1588,366
1588,913
1588,934
1588,1205
1588,1218
1588,1960
1588,2124
1588,2725
1588,3596
1588,3689
1589,331
1590,2436
1590,2455
1590,3584
1590,3887
1590,4901
1592,301
1592,785
1592,1319
1592,2948
1592,4102
1594,30
1594,143
1594,695
1594,1201
1594,2409
1594,2700
1594,2753
1594,3047
1594,3318
1594,4610
1594,4645
1595,3343
1596,491
1600,24
1602,995
1602,2608
1605,1284
1606,718
1606,2419
1608,1794
1608,2780
1608,3107
1610,1769
1610,3627
1611,941
1611,2473
1614,1095
1615,3058
1616,1594
1616,2328
1617,753
1617,2051
1617,3893
1617,4159
1618,2732
1618,3472
1618,4359
1619,56
1619,145
1619,565
1619,620
1619,994
1619,2797
1619,3090
1619,3543
1619,3843
1619,4458
1620,225
1620,700
1621,293
1624,141
1624,473
1624,1231
1624,1450
1624,2350
1624,4949
1626,704
1626,3638
1627,1127
1628,330
1628,1391
1628,1610
1628,2851
1628,3181
1628,3291
1628,3800
1628,3837
1628,3943
1628,4301
1628,4530
1628,4750
1629,1252
1629,2544
1630,2119
1631,397
1631,857
1631,1443
1631,1876
1631,2685
1631,3249
1631,3945
1631,3959
1631,4007
1632,376
1632,700
1632,731
1632,1028
1632,1063
1632,1613
1632,1971
1632,2488
1632,2499
1632,2925
1632,2972
1632,3176
1632,3372
1632,3566
1632,3886
1632,4010
1632,4448
1632,4483
1635,1320
1635,3201
1636,78
1638,813
1638,1664
1639,1679
1639,3443
1639,4197
1640,58
1640,70
1640,268
1640,407
1640,431
1640,449
1640,455
1640,984
1640,1129
1640,1191
1640,1279
1640,1372
1640,1653
1640,2119
1640,2207
1640,2254
1640,2519
1640,2767
1640,2899
1640,2914
1640,3003
1640,3087
1640,3284
1640,4237
1640,4289
1642,1096
1642,1306
1642,1527
1642,2493
1644,1867
1644,2892
1644,2957
1644,3558
1644,3886
1646,1528
1647,54
1647,376
1647,527
1647,1555
1647,1804
1647,2361
1647,2598
1648,699
1648,1096
1648,2290
1648,2516
1649,952
1649,4929
1651,738
1651,2290
1651,4130
1657,4643
1658,1004
1660,261
1660,605
1661,1040
1662,1530
1662,3487
1662,3489
1662,4014
1663,163
1663,3313
1663,4483
1664,58
1665,995
1666,2103
1666,3953
1667,511
1670,1188
1670,1379
1670,2211
1671,2222
1671,3390
1671,4237
1672,1111
1675,132
1675,1963
1676,1127
1677,696
1677,1451
1678,69
1678,174
1678,3916
1680,3381
1682,1007
1683,3841
1684,2008
1684,3606
1685,578
1686,2328
1688,56
1689,658
1692,1778
1692,1843
1693,593
1697,29
1697,404
1697,1004
1697,1029
1697,2427
1697,2515
1697,2634
1697,2980
1697,4699
1698,4917
1699,1245
1699,1427
1699,1500
1699,3237
1699,3546
1699,4878
1701,949
1701,2890
1701,4079
1701,4452
1701,4896
1702,2431
1703,174
1704,997
1704,3545
1706,223
1709,1681
1709,4752
1711,4320
1712,3100
1714,76
1714,558
1714,1070
1714,2207
1714,3314
1714,4440
1715,728
1715,1466
1716,1090
1716,1843
1716,2878
1716,3235
1718,1557
1718,2660
1720,886
1721,3291
1721,4756
1724,50
1725,1926
1725,3236
1725,4667
1727,763
1727,1060
1727,3182
1727,4219
1729,302
1730,1855
1730,3953
1732,1668
1733,617
1733,1004
1734,1489
1734,1531
1735,145
1735,2467
1736,3468
1736,3635
1737,1592
1738,988
1738,3477
1738,4070
1739,1485
1739,2026
1739,2248
1739,2287
1739,3211
1740,3658
1741,248
1741,1652
1741,2064
1741,3468
1743,2379
1744,4633
1745,2460
1749,593
1752,202
1752,1071
1754,24
1754,58
1755,397
1755,2260
1755,3851
1755,4728
1758,473
1760,1397
1761,116
1761,1149
1761,2691
1762,3934
1762,4280
1766,626
1767,1204
1767,2288
1768,3209
1770,114
1770,425
1770,1070
1770,1987
1770,2881
1770,4137
1771,4545
1773,960
1774,557
1775,78
1776,1451
1779,196
1780,3975
1782,674
1782,1876
1784,3011
1789,419
1789,2228
1789,2940
1790,1423
1791,1427
1792,370
1792,397
1792,1305
1792,3817
1797,999
1798,1
1798,522
1798,942
1798,1423
1798,3325
1800,737
1800,1258
1800,2254
1800,4310
1801,2204
1801,3278
1801,3398
1802,4117
1803,4014
1805,4724
1806,213
1806,368
1806,1217
1806,1279
1806,1968
1806,2137
1806,2405
1806,3667
1806,4053
1806,4466
1808,3344
1808,4483
1812,563
1812,605
1812,1816
1812,3800
1812,3953
1812,4342
1812,4350
1815,232
1815,382
1815,1653
1815,2773
1815,3218
1815,3242
1815,3530
1816,2767
1816,4310
1817,1876
1818,1571
1818,1653
1818,1895
1818,2079
1818,3176
1818,3272
1818,4198
1819,315
1819,361
1819,370
1819,721
1819,1978
1819,3468
1819,3530
1819,3901
1822,900
1822,1960
1823,1202
1825,1423
1827,20
1827,58
1827,78
1827,145
1827,163
1827,229
1827,413
1827,674
1827,972
1827,1468
1827,1485
1827,1574
1827,1883
1827,1884
1827,1903
1827,2125
1827,2697
1827,2786
1827,3204
1827,3335
1827,3477
1827,3634
1827,3687
1827,3881
1827,4100
1827,4344
1827,4966
1830,1978
1831,1569
1832,1681
1838,1500
1843,753
1847,1445
1847,2192
1847,4066
1848,3800
1849,269
1849,366
1849,2904
1849,4809
1852,171
1852,293
1857,3351
1857,4521
1858,1358
1858,1947
1859,3984
1859,4544
1860,173
1860,755
1860,872
1860,1370
1861,4019
1862,3242
1863,104
1863,1527
1864,1204
1864,1210
1864,1466
1864,1936
1864,2065
1864,2090
1864,2424
1864,2700
1864,3217
1864,3664
1864,4076
1868,3317
1869,1081
1869,2278
1869,4970
1870,259
1870,1098
1870,2724
1870,4245
1871,1206
1871,1876
1871,2899
1871,4315
1872,347
1872,828
1872,953
1872,1342
1872,3201
1873,1811
1873,4264
1873,4691
1874,3953
1875,2460
1876,1027
1876,1060
1876,1527
1877,941
1877,1209
1877,4278
1878,119
1882,528
1882,1153
1882,2710
1882,2869
1882,2966
1882,3892
1885,748
1886,3047
1886,4988
1887,48
1887,2839
1889,4005
1891,2530
1894,704
1894,2090
1896,1337
1896,3091
1897,3469
1898,3991
1898,4169
1900,454
1903,4764
1904,1526
1904,3135
1904,4858
1907,450
1907,1657
1907,3152
1908,2127
1909,2204
1910,71
1910,2416
1910,4320
1910,4837
1910,4991
1912,167
1912,1204
1912,2790
1912,4810
1916,517
1916,4643
1921,2174
1923,196
1923,522
1924,428
1924,502
1924,966
1924,3343
1925,931
1926,3965
1927,24
1927,31
1927,50
1927,147
1927,217
1927,225
1927,239
1927,552
1927,558
1927,854
1927,914
1927,970
1927,1367
1927,2007
1927,2031
1927,2048
1927,2119
1927,2361
1927,2385
1927,2490
1927,3249
1927,3813
1927,3836
1927,3956
1927,4020
1927,4116
1927,4236
1927,4384
1927,4556
1929,4576
1930,42
1930,2912
1932,3176
1935,56
1935,326
1935,499
1935,997
1935,2066
1935,2185
1935,2328
1935,3191
1935,3289
1940,1342
1941,1197
1943,78
1943,2074
1943,3381
1944,934
1944,3156
1944,3186
1946,132
1946,1557
1946,2799
1946,4456
1950,964
1951,753
1953,1668
1953,2536
1953,2937
1953,3038
1953,3209
1954,174
1954,4108
1954,4526
1955,451
1956,461
1956,619
1956,1154
1956,1930
1956,2051
1956,3011
1956,3182
1956,4141
1960,557
1962,1450
1962,3318
1962,4438
1964,4917
1965,2207
1966,380
1966,727
1966,816
1966,2155
1966,2956
1966,3077
1967,526
1967,1981
1967,4978
1969,20
1969,331
1969,428
1969,456
1969,1652
1969,2732
1969,3321
1969,3361
1969,3416
1969,3684
1969,4346
1972,1468
1974,56
1974,1527
1974,1968
1975,589
1975,1085
1975,3160
1979,3175
1980,903
1980,2419
1980,4638
1985,334
1985,1594
1985,4270
1986,500
1987,1197
1988,684
1988,3602
1990,1064
1991,55
1992,164
1992,202
1992,233
1992,285
1992,286
1992,482
1992,676
1992,847
1992,1551
1992,1630
1992,1843
1992,1876
1992,2836
1992,2868
1992,3209
1992,3371
1992,4169
1992,4473
1992,4836
1994,988
1997,127
1998,225
1998,463
1998,1083
1998,1140
1998,1245
1998,1845
1998,1968
1998,2738
1998,3625
1998,3886
1998,3908
1998,3971
1998,4598
1998,4748
2001,2070
2002,1214
2002,3282
2003,4878
2005,90
2005,237
2005,297
2005,609
2005,921
2005,1067
2005,2070
2008,4641
2009,52
2009,78
2009,93
2009,163
2009,191
2009,593
2009,603
2009,658
2009,717
2009,1894
2009,1978
2009,3934
2011,47
2011,271
2011,392
2011,414
2011,821
2011,1268
2011,1960
2011,2924
2011,3244
2011,3467
2011,3573
2011,3731
2011,4011
2011,4633
2011,4770
2012,355
2013,527
2015,174
2015,501
2015,3934
2017,472
2017,1268
2017,1654
2017,2049
2017,2119
2017,4560
2020,565
2022,2228
2023,205
2023,2430
2025,239
2025,297
2025,527
2025,552
2025,727
2025,988
2025,2154
2025,2476
2025,3095
2025,3216
2025,3290
2025,3297
2025,4726
2027,496
2027,872
2027,3308
2028,3532
2031,2803
2031,3874
2032,2184
2032,3179
2032,4959
2033,1201
2036,4438
2039,50
2039,658
2039,2043
2039,2070
2041,888
2042,2210
2042,3035
2042,3182
2042,4393
2046,239
2046,623
2046,1759
2046,2070
2046,2115
2046,2816
2046,3772
2046,4529
2046,4727
2047,20
2047,1112
2047,1305
2047,1339
2047,3381
2048,58
2048,132
2048,145
2048,330
2048,389
2048,1083
2048,1204
2048,1311
2048,1668
2048,2455
2048,3418
2048,3934
2048,4076
2048,4218
2049,1015
2049,2371
2050,1615
2051,24
2051,391
2051,646
2051,2124
2051,3608
2053,2649
2053,3057
2055,4913
2056,172
2057,196
2057,3808
2059,725
2060,1445
2060,1466
2060,1931
2061,163
2061,4150
2062,2644
2067,882
2067,1218
2067,2839
2068,2371
2068,4309
2070,4980
2073,58
2073,1090
2073,1876
2073,3273
2073,3307
2074,1002
2075,3530
2075,3934
2076,3849
2078,987
2078,3309
2080,513
2082,1403
2083,652
2083,817
2083,2522
2083,4001
2085,376
2085,2024
2085,4360
2087,1018
2088,1279
2089,58
2089,2077
2089,2337
2091,69
2091,3090
2092,1594
2094,3140
2096,328
2096,1938
2097,470
2097,589
2097,1574
2097,2328
2097,3800
2098,4014
2099,499
2099,1752
2106,1843
2107,16
2107,691
2107,797
2107,1064
2107,1590
2107,2927
2108,4005
2110,3209
2110,3530
2110,4178
2110,4794
2111,330
2111,2470
2114,543
2116,145
2116,384
2116,444
2116,1445
2116,1913
2116,2020
2116,2132
2116,3501
2116,4882
2118,279
2118,601
2118,1406
2118,3886
2120,301
2120,1070
2121,141
2124,1202
2124,2114
2124,2896
2126,58
2126,4560
2129,4843
2130,2281
2130,2608
2133,1231
2134,167
2134,3601
2135,167
2136,1799
2138,538
2138,1633
2139,441
2139,2685
2140,1403
2147,187
2147,234
2148,753
2148,1056
2148,1162
2148,1245
2148,1442
2148,3176
2148,4407
2148,4634
2149,331
2149,953
2150,239
2150,1415
2150,1551
2150,1814
2150,3599
2151,4040
2156,4712
2157,389
2157,1279
2159,1714
2160,490
2160,751
2160,1779
2160,1968
2160,4109
2160,4310
2162,284
2163,246
2163,4387
2164,602
2164,4135
2165,1866
2167,409
2167,3782
2167,3823
2169,48
2169,196
2169,266
2169,373
2169,427
2169,696
2169,727
2169,939
2169,994
2169,1300
2169,1449
2169,1489
2169,1888
2169,1980
2169,2652
2169,2767
2169,2957
2169,3256
2169,4383
2169,4557
2170,104
2170,262
2170,1465
2170,1466
2170,1968
2170,3052
2170,4195
2171,217
2171,543
2171,1043
2171,2960
2171,3363
2171,3403
2171,4070
2172,346
2173,4066
2174,173
2174,269
2174,4316
2175,768
2175,804
2175,1551
2175,3176
2177,934
2177,4643
2178,392
2178,766
2178,952
2178,1695
2178,3349
2178,3609
2180,2652
2181,1153
2184,55
2184,330
2184,2767
2184,3292
2184,3991
2184,4483
2191,330
2191,524
2191,2549
2193,1
2194,756
2195,2774
2195,4646
2196,271
2196,2143
2197,78
2197,2193
2197,4005
2198,1431
2198,2266
2199,196
2199,2207
2199,3982
2203,114
2203,3553
2203,4646
2205,1021
2205,1112
2205,1819
2206,501
2206,776
2206,892
2207,1442
2208,570
2209,1234
2211,1284
2211,2250
2211,3142
2211,3429
2211,3708
2213,2860
2215,48
2215,2972
2216,407
2216,1594
2217,888
2217,1481
2217,3309
2217,3613
2219,161
2219,621
2219,1320
2219,4689
2220,453
2220,496
2220,1201
2220,1775
2222,2199
2224,1771
2224,2124
2229,1148
2231,2031
2232,1996
2232,3276
2234,20
2235,2010
2236,659
2236,1560
2236,1583
2236,2708
2236,2851
2236,3442
2237,4702
2238,693
2239,872
2242,2280
2243,4993
2244,2780
2244,4897
2247,252
2247,721
2249,3140
2250,1442
2250,4534
2254,451
2254,2182
2256,1999
2258,4320
2259,199
2259,834
2261,81
2261,305
2261,683
2261,1140
2261,1284
2261,1306
2261,1896
2261,3442
2261,3472
2261,4560
2262,50
2262,2515
2263,1876
2264,3249
2268,239
2270,1714
2271,699
2273,137
2273,175
2273,411
2273,3564
2273,3842
2273,4483
2274,107
2279,217
2279,280
2281,326
2281,1406
2282,727
2282,3078
2283,1058
2283,1443
2283,2732
2284,321
2284,1245
2286,1303
2287,509
2287,691
2289,450
2289,1200
2289,1961
2289,3466
2291,988
2291,1048
2291,4705
2292,273
2297,1010
2297,3201
2298,93
2299,1201
2301,863
2304,1023
2306,4150
2306,4619
2307,4507
2308,197
2308,319
2309,45
2309,3070
2312,163
2312,643
2313,3823
2314,1030
2314,1554
2314,3845
2314,4141
2315,1424
2315,1842
2315,2503
2317,81
2319,856
2319,902
2319,4072
2319,4576
2320,366
2320,1083
2320,1279
2320,4343
2320,4438
2321,169
2321,1451
2321,1591
2321,2316
2322,1939
2325,924
2325,2963
2325,4470
2326,4076
2327,2405
2328,1048
2330,1759
2330,3975
2331,2125
2331,2177
2331,3299
2333,640
2333,867
2333,2125
2334,160
2334,933
2334,2839
2335,132
2335,731
2335,4835
2336,41
2336,1968
2338,2250
2338,3103
2340,4561
2341,4705
2342,1668
2347,526
2347,933
2347,1674
2347,4208
2348,1347
2350,170
2351,16
2351,717
2351,1204
2351,1432
2351,1690
2351,2356
2351,3569
2352,1534
2354,680
2354,2185
2354,2790
2355,239
2355,2772
2361,850
2361,2573
2362,4283
2362,4715
2364,4256
2365,71
2367,58
2367,2765
2368,1575
2369,234
2370,3971
2371,491
2372,2310
2373,1691
2373,4141
2374,1726
2374,3747
2375,231
2375,279
2375,872
2375,957
2375,1105
2375,1383
2375,1451
2375,1876
2375,2081
2375,2190
2375,2371
2375,2635
2375,2839
2375,4077
2375,4438
2377,1918
2378,2839
2378,4699
2379,162
2379,2469
2383,2344
2387,368
2387,1876
2387,2398
2388,1279
2388,1527
2388,1546
2388,2207
2388,4478
2389,646
2389,2832
2391,524
2391,3886
2392,197
2393,511
2395,1040
2395,1963
2395,2526
2396,303
2396,1070
2399,2872
2402,2260
2402,2709
2402,3841
2403,978
2403,4829
2404,993
2404,1575
2405,1643
2405,2232
2405,2329
2405,2839
2405,3011
2405,4842
2405,4850
2407,56
2407,1551
2407,2969
2407,4928
2408,35
2408,4149
2410,3442
2412,2266
2412,2841
2413,4076
2414,634
2414,4750
2415,1070
2417,766
2417,4218
2418,132
2418,1551
2420,1884
2422,56
2422,1785
2422,2293
2423,212
2423,615
2423,2843
2423,3770
2423,4521
2425,4650
2426,1402
2427,1657
2429,1341
2429,1968
2430,640
2431,2119
2431,2385
2431,3239
2432,659
2434,175
2434,3991
2435,1775
2437,385
2440,4781
2442,2730
2444,225
2444,297
2444,441
2444,471
2444,1545
2444,1592
2444,2371
2444,2411
2444,2879
2444,3209
2444,3887
2444,3932
2444,4318
2445,798
2446,263
2446,513
2446,1113
2446,1205
2446,2031
2446,2788
2446,4038
2448,1023
2448,2757
2449,284
2449,366
2449,934
2449,1306
2449,2326
2449,4146
2449,4186
2450,1070
2451,973
2451,1466
2451,2406
2451,2764
2451,3797
2451,4208
2454,98
2454,234
2454,1057
2454,1853
2454,3176
2454,3246
2454,3531
2454,3944
2454,4373
2454,4628
2454,4631
2454,4883
2456,1027
2457,293
2457,988
2457,1593
2457,2473
2458,4640
2459,3901
2461,2493
2461,4870
2462,2872
2463,368
2463,3994
2463,4578
2464,170
2464,933
2464,1048
2464,3966
2468,1853
2469,557
2471,2521
2472,796
2472,1397
2472,2465
2474,107
2475,70
2477,389
2479,1468
2480,994
2481,2024
2482,225
2483,524
2483,1043
2483,3800
2483,3849
2483,4150
2483,4291
2483,4529
2487,990
2487,2932
2489,2549
2490,55
2494,173
2494,382
2494,1180
2494,1204
2494,2281
2494,3472
2494,3955
2494,4551
2495,3443
2495,4523
2496,727
2497,941
2498,2119
2500,662
2502,4019
2504,3429
2504,4863
2505,565
2505,2452
2506,2232
2508,53
2508,2573
2510,997
2510,2780
2511,444
2511,966
2511,4380
2516,248
2517,593
2517,2740
2518,2260
2518,3777
2520,4744
2522,1023
2522,2222
2524,1326
2524,2288
2524,3287
2524,3456
2526,325
2528,305
2528,3259
2529,1497
2529,3934
2535,952
2535,1876
2535,3043
2535,3176
2535,3905
2537,248
2537,3064
2538,908
2538,2123
2538,3635
2538,3935
2539,2661
2539,2790
2540,4318
2541,4081
2542,257
2542,664
2543,1592
2543,2093
2543,4348
2544,427
2545,116
2546,2515
2546,2647
2549,107
2549,532
2549,2268
2552,389
2552,2035
2552,2700
2554,453
2554,2092
2554,4565
2557,719
2557,2119
2558,4756
2560,1554
2560,4509
2562,1071
2564,4310
2567,1201
2570,4560
2577,2120
2577,4288
2578,2927
2578,4996
2579,1879
2579,2438
2579,2862
2579,2899
2579,4878
2581,1763
2582,478
2582,813
2582,1060
2582,2254
2582,2704
2582,3290
2582,3345
2582,3832
2582,4288
2582,4301
2582,4980
2583,205
2584,2188
2586,2957
2588,4913
2589,303
2589,4788
2592,279
2593,3156
2594,286
2594,3359
2595,24
2595,975
2595,1778
2595,2317
2595,2401
2595,3476
2595,3706
2595,4345
2595,4692
2595,4945
2596,1050
2596,1968
2597,1462
2599,1568
2600,1081
2601,793
2601,2384
2602,1451
2604,2296
2605,557
2607,4076
2607,4728
2609,3596
2615,315
2615,911
2615,1557
2615,4179
2615,4762
2616,804
2616,2852
2618,333
2620,1763
2623,1657
2624,1279
2624,1347
2624,3663
2625,4009
2625,4103
2625,4317
2627,1
2627,55
2627,56
2627,239
2627,441
2627,1234
2627,1358
2627,1450
2627,1707
2627,1911
2627,1960
2627,2074
2627,2283
2627,3061
2627,3139
2627,4691
2629,95
2629,2311
2629,2799
2630,1105
2631,376
2632,1206
2633,2040
2633,3302
2633,3737
2636,659
2636,2729
2636,3405
2637,171
2637,1279
2638,2317
2638,3849
2639,58
2639,2223
2639,3121
2639,3611
2639,4664
2640,3237
2640,3740
2640,4654
2642,3496
2643,1216
2643,2241
2643,3349
2645,1204
2646,3764
2648,994
2649,749
2649,1696
2649,4464
2651,2622
2652,107
2652,1917
2653,12
2653,422
2653,591
2653,1059
2653,1111
2653,1147
2653,2909
2653,3863
2653,4484
2654,337
2654,1933
2656,404
2656,532
2656,1023
2656,1431
2656,1867
2656,4593
2658,4993
2662,116
2662,202
2662,471
2662,3003
2662,4327
2663,1978
2663,3986
2663,4557
2664,53
2665,941
2666,1500
2667,81
2667,108
2667,3047
2669,1619
2669,2051
2669,2199
2672,1260
2672,2780
2673,1312
2673,3800
2673,4959
2675,52
2675,69
2675,706
2675,1622
2675,3236
2675,4036
2676,2190
2677,2652
2677,4669
2677,4786
2678,1464
2680,69
2680,2386
2681,1752
2686,995
2686,3903
2686,4361
2687,727
2687,1274
2687,1515
2687,1968
2687,3496
2687,3641
2688,409
2688,1204
2689,239
2689,468
2689,552
2689,1015
2689,2361
2689,2587
2689,3514
2690,174
2690,528
2692,1214
2692,2638
2693,20
2695,2271
2696,4487
2698,132
2698,287
2698,468
2698,673
2698,764
2698,1320
2698,1914
2698,1931
2698,1987
2698,3904
2698,4098
2699,330
2701,254
2702,104
2703,1736
2706,3359
2706,4922
2707,1279
2711,35
2711,264
2711,634
2711,684
2711,852
2711,1004
2711,1074
2711,1398
2711,1531
2711,4081
2711,4414
2711,4427
2711,4920
2712,703
2712,721
2712,1048
2712,2460
2712,3031
2712,3173
2712,3275
2712,4127
2712,4427
2713,776
2714,1216
2715,266
2715,668
2715,1268
2715,1279
2715,1383
2715,1451
2715,1462
2715,1489
2715,1573
2715,1948
2715,2194
2715,2305
2715,3450
2715,4713
2716,3606
2716,4830
2717,2022
2718,1918
2722,1880
2722,2638
2723,2119
2725,396
2725,952
2725,3716
2726,1497
2727,2846
2727,2872
2731,171
2731,1574
2732,1
2733,2129
2733,3593
2734,1200
2734,1451
2739,921
2739,1097
2739,1551
2742,1785
2742,3805
2743,997
2744,780
2745,1126
2748,664
2748,1199
2748,1565
2748,2311
2748,2839
2748,2925
2750,195
2750,1670
2752,362
2752,1795
2752,2959
2752,4298
2752,4557
2752,4847
2754,4705
2755,2697
2756,1834
2756,4110
2756,4371
2759,501
2759,2655
2761,427
2761,513
2761,1300
2762,1459
2764,3953
2766,2660
2767,1179
2767,2781
2768,42
2768,145
2768,196
2768,1279
2768,2563
2768,3792
2768,4657
2769,246
2769,3652
2770,761
2770,851
2770,1201
2770,3901
2771,737
2771,880
2771,3236
2776,3965
2777,15
2777,1067
2779,921
2779,2780
2782,615
2784,2254
2784,2880
2786,136
2786,147
2786,239
2786,691
2786,996
2786,1279
2786,1896
2786,1919
2786,3008
2786,3176
2786,3449
2786,3795
2786,4047
2786,4646
2787,1844
2787,2855
2789,1475
2790,2123
2791,659
2791,1973
2792,2764
2793,2090
2793,2286
2793,2985
2793,3222
2793,4826
2794,394
2794,1010
2795,3623
2796,102
2796,565
2796,1659
2796,2872
2800,423
2801,558
2803,1154
2806,755
2806,1370
2806,1568
2806,2473
2806,3596
2807,2419
2807,3085
2808,718
2809,1568
2810,404
2810,2287
2810,2839
2811,3173
2811,3499
2814,4878
2815,526
2815,2054
2815,3280
2817,2953
2817,4291
2818,4830
2823,868
2824,1981
2827,35
2828,1397
2828,1857
2828,4880
2829,56
2829,1449
2831,1279
2834,1406
2835,50
2835,100
2835,266
2835,934
2835,1234
2835,2872
2837,261
2837,770
2837,820
2837,1526
2837,1527
2837,1594
2837,1751
2837,2062
2837,3258
2837,3602
2837,3809
2837,3870
2837,4778
2840,1872
2842,2789
2845,116
2845,265
2845,634
2845,3400
2845,3454
2846,4310
2847,1331
2848,2836
2848,3052
2848,3872
2849,1154
2850,2685
2851,4598
2853,1090
2856,1740
2858,2705
2859,2358
2860,76
2862,76
2864,56
2865,815
2868,35
2868,78
2868,966
2868,995
2868,1048
2868,4466
2869,268
2869,407
2869,634
2869,1004
2869,1059
2869,1428
2869,2530
2869,2767
2869,2982
2869,3176
2869,3209
2869,3725
2869,3909
2869,4144
2869,4180
2869,4288
2869,4318
2869,4505
2869,4615
2870,107
2870,3777
2871,167
2871,2384
2874,145
2875,400
2875,552
2875,641
2876,1286
2876,1888
2877,804
2880,2825
2883,601
2883,1048
2883,1927
2883,2328
2883,2957
2883,3965
2883,4572
2885,4456
2886,751
2886,1681
2887,880
2887,1045
2887,2268
2887,2287
2887,3230
2887,3629
2887,4006
2890,452
2890,453
2890,470
2890,552
2891,197
2891,3529
2892,269
2892,496
2892,913
2894,1206
2894,1227
2895,1811
2895,4836
2897,994
2897,3236
2901,380
2901,910
2901,997
2901,1083
2901,1841
2901,2145
2901,2851
2901,2918
2901,3168
2901,3886
2901,4593
2902,1708
2903,50
2903,721
2903,1163
2903,1179
2903,1922
2908,3644
2910,3058
2911,2328
2913,1689
2913,2860
2914,53
2914,1625
2914,1999
2914,2357
2915,1559
2916,2764
2917,58
2919,694
2919,988
2919,1071
2919,1299
2919,2371
2920,239
2921,3975
2922,4548
2923,1148
2925,1112
2925,1391
2925,3658
2925,4779
2930,2660
2932,4480
2933,2561
2934,1333
2935,4561
2936,717
2936,1139
2939,158
2939,2020
2942,145
2942,579
2942,900
2942,933
2942,1752
2942,2732
2942,3242
2943,1132
2943,3215
2943,3471
2945,317
2947,20
2947,1060
2947,1928
2951,1968
2951,2100
2958,1162
2961,1648
2962,271
2963,1775
2963,2049
2963,3782
2963,4027
2963,4493
2964,838
2964,4301
2965,2344
2965,4066
2967,2757
2970,213
2970,2063
2970,3788
2971,2883
2971,4081
2971,4438
2974,522
2974,3298
2975,2064
2975,4480
2976,940
2976,1987
2976,2095
2976,2737
2976,2767
2976,3073
2976,3237
2976,3999
2976,4116
2976,4136
2980,823
2981,1434
2981,2785
2981,3108
2981,3542
2981,4091
2983,777
2983,870
2983,956
2983,1131
2983,1527
2983,1660
2983,2361
2983,2555
2984,2371
2987,2968
2987,3645
2988,1055
2989,1258
2989,4237
2992,3494
2996,1452
2996,4318
2999,35
2999,36
2999,52
2999,56
2999,78
2999,170
2999,325
2999,389
2999,691
2999,704
2999,1090
2999,1188
2999,1197
2999,1632
2999,1970
2999,2049
2999,2136
2999,2254
2999,2860
2999,3313
2999,3458
2999,3662
2999,3879
2999,4466
2999,4993
3000,4076
3001,161
3001,263
3001,370
3001,1007
3001,1959
3001,2674
3001,4169
3001,4376
3005,3472
3006,496
3006,2901
3007,3623
3008,726
3009,1064
3011,2401
3012,637
3012,3091
3014,4560
3015,1064
3015,3309
3015,4703
3017,309
3017,3010
3018,524
3018,3424
3018,4855
3019,2064
3020,70
3020,1048
3021,2966
3022,1485
3022,3846
3023,2411
3023,4540
3026,902
3027,1559
3027,3358
3029,2079
3032,728
3032,1030
3032,1056
3032,1291
3032,1660
3032,2310
3032,3268
3032,4129
3033,2588
3034,56
3034,2872
3035,1571
3037,1268
3042,3143
3044,1527
3045,2710
3046,330
3046,3703
3048,3477
3049,816
3049,890
3049,3596
3050,2258
3050,3028
3051,1240
3053,98
3055,2119
3055,2799
3056,3231
3057,2652
3058,1057
3058,4205
3059,665
3060,69
3060,1876
3060,3886
3061,921
3061,3124
3062,291
3062,511
3062,1087
3062,2386
3062,2523
3062,2708
3062,3767
3062,4768
3068,921
3069,2872
3071,1522
3071,1956
3071,2998
3072,95
3074,173
3077,20
3077,55
3077,67
3077,78
3077,118
3077,251
3077,271
3077,273
3077,711
3077,1197
3077,1202
3077,1388
3077,1493
3077,1898
3077,2035
3077,2566
3077,2612
3077,2780
3077,3236
3077,3316
3077,3443
3077,3506
3077,3566
3077,3762
3077,4557
3077,4598
3077,4633
3077,4646
3077,4655
3081,4878
3082,2516
3083,23
3083,3191
3084,117
3084,212
3084,564
3084,1140
3084,2252
3084,3237
3084,3360
3084,3706
3084,3800
3084,3920
3084,4878
3084,4898
3085,259
3087,1074
3088,4153
3089,48
3090,205
3092,3359
3094,114
3097,1752
3098,2608
3101,2694
3105,526
3105,2211
3106,202
3108,265
3108,496
3108,502
3108,604
3108,856
3108,893
3108,1833
3108,1876
3108,2399
3108,2872
3108,3058
3108,3133
3108,3477
3108,4429
3108,4705
3109,2764
3109,2884
3111,55
3111,191
3111,279
3111,349
3111,473
3111,934
3111,1500
3111,1748
3111,2905
3112,893
3112,2764
3112,4085
3112,4331
3113,4978
3114,2530
3114,3605
3115,3337
3116,225
3116,2201
3117,2898
3118,3361
3124,3075
3124,3317
3125,20
3125,161
3125,1291
3125,1451
3125,3139
3125,3270
3126,2064
3126,4229
3128,3711
3129,23
3129,239
3130,1064
3130,4705
3131,249
3134,1288
3134,3139
3136,4438
3138,2112
3139,389
3141,4310
3144,2826
3145,797
3145,3948
3147,1206
3149,196
3150,987
3151,1968
3152,385
3152,4738
3153,527
3153,744
3153,3429
3155,761
3155,3588
3157,1383
3159,4076
3162,2438
3163,3826
3164,4863
3169,1449
3174,1536
3175,2397
3176,766
3177,684
3178,621
3182,245
3183,640
3183,4836
3184,20
3185,1497
3187,58
3187,291
3187,1467
3188,570
3189,997
3190,2785
3190,3140
3190,4224
3191,453
3191,1087
3192,2899
3193,3268
3194,3319
3195,695
3195,1931
3196,619
3197,651
3197,1640
3197,1736
3198,444
3199,913
3199,2044
3199,4838
3201,309
3203,2434
3205,35
3205,4028
3206,2119
3209,880
3209,2148
3209,3579
3209,3772
3210,55
3210,1052
3210,1070
3210,2844
3211,2069
3211,2872
3211,3698
3213,78
3213,640
3213,3953
3213,4220
3213,4551
3214,1139
3214,2268
3214,4878
3218,3230
3223,12
3223,274
3223,997
3223,3956
3225,816
3225,844
3225,886
3225,1434
3225,2455
3225,2638
3225,3349
3225,4913
3227,4005
3230,1968
3233,1104
3234,200
3238,513
3238,1127
3240,215
3240,330
3241,1138
3241,2077
3241,2781
3241,3653
3241,4150
3241,4879
3242,325
3242,4112
3244,61
3244,634
3244,966
3244,986
3244,1938
3246,743
3246,833
3246,1383
3246,1648
3246,1778
3246,2638
3246,3824
3246,3918
3247,4040
3248,725
3250,163
3250,219
3250,578
3250,673
3250,1573
3250,2792
3250,2805
3250,3144
3250,4157
3253,622
3253,3779
3254,2071
3255,4795
3257,266
3257,2973
3258,173
3260,2548
3260,2957
3260,3207
3260,3281
3260,3371
3260,4611
3261,2736
3261,3732
3261,4843
3262,2083
3263,801
3265,4108
3266,1996
3268,2072
3269,3794
3271,362
3274,2781
3277,2328
3278,1568
3282,229
3284,4298
3285,62
3288,3772
3288,4320
3289,3696
3293,481
3293,3348
3294,4857
3300,69
3301,4756
3303,197
3304,2186
3304,4557
3305,1542
3308,334
3310,1736
3311,376
3312,2020
3315,1527
3317,4788
3318,1148
3319,61
3319,392
3319,447
3319,568
3319,593
3319,779
3319,970
3319,997
3319,1018
3319,2161
3319,2366
3319,3137
3319,3318
3319,4661
3320,269
3322,2269
3322,4856
3323,3018
3325,1674
3326,330
3326,4588
3327,2697
3328,520
3328,755
3329,1746
3330,1876
3331,173
3332,1375
3333,4475
3334,2814
3335,4169
3336,755
3337,4066
3338,196
3338,801
3338,4402
3338,4776
3339,442
3339,1012
3339,2371
3339,2906
3339,3408
3339,4593
3340,330
3340,1794
3340,4076
3340,4141
3341,1449
3342,48
3342,202
3342,305
3342,2328
3342,2869
3346,20
3347,1113
3347,1580
3349,409
3349,1204
3349,1279
3349,1568
3349,3538
3349,3841
3349,4035
3349,4067
3349,4077
3350,565
3350,3568
3352,1834
3353,2277
3354,2371
3355,271
3355,697
3355,2470
3355,2484
3355,2812
3355,2971
3355,3100
3355,3170
3355,4349
3355,4638
3356,4250
3357,1466
3361,70
3361,1753
3361,2450
3361,3020
3361,3574
3361,3900
3362,1828
3362,3965
3363,934
3363,3139
3363,4076
3364,4301
3366,380
3366,579
3366,3970
3367,193
3368,1127
3368,3745
3369,3168
3371,1
3371,1497
3372,557
3372,1866
3372,1884
3372,2332
3372,3445
3373,673
3375,673
3377,170
3378,389
3379,503
3379,4530
3380,56
3380,337
3380,668
3380,1268
3381,1551
3382,1179
3382,1279
3383,3477
3384,20
3384,1083
3384,1489
3384,1568
3384,1781
3384,1876
3384,2049
3384,2361
3384,3321
3384,3434
3384,4707
3385,2781
3386,920
3386,1126
3386,4633
3387,1325
3387,1361
3388,330
3389,2219
3391,163
3392,45
3392,191
3392,997
3392,1127
3392,1231
3392,3549
3393,997
3393,3158
3394,1876
3396,706
3397,1045
3397,3170
3399,78
3399,1231
3402,842
3404,3514
3404,3887
3404,4374
3406,70
3407,302
3407,452
3407,1352
3407,1375
3407,2119
3407,2207
3407,3768
3407,4071
3407,4074
3409,69
3409,1875
3410,2565
3412,241
3412,777
3412,1474
3412,2839
3412,4736
3413,640
3417,175
3419,3252
3421,365
3421,703
3421,4557
3423,792
3423,1883
3423,1949
3423,2928
3425,513
3426,167
3426,1489
3426,3981
3428,734
3428,1249
3428,3052
3428,3566
3432,1299
3434,1279
3436,1105
3437,4380
3439,685
3440,1326
3441,2
3441,1048
3441,1094
3442,3091
3442,4317
3444,3496
3446,1159
3447,766
3448,76
3448,264
3453,2466
3459,531
3461,2114
3462,515
3464,1840
3465,2709
3467,69
3467,420
3467,2825
3467,4781
3469,50
3469,3991
3473,349
3473,1876
3474,279
3475,1557
3475,3345
3477,24
3477,40
3477,86
3477,1968
3477,2766
3479,4862
3480,565
3481,24
3481,76
3481,78
3481,132
3481,165
3481,263
3481,305
3481,552
3481,558
3481,751
3481,797
3481,1466
3481,1719
3481,1786
3481,1874
3481,1933
3481,2070
3481,2371
3481,2535
3481,2684
3481,4002
3481,4067
3481,4098
3481,4773
3481,4826
3483,1987
3484,50
3486,2373
3486,4051
3486,4641
3488,3417
3490,76
3490,2135
3493,1219
3494,1103
3495,517
3497,902
3497,3863
3497,4480
3500,882
3500,3999
3501,997
3502,2064
3503,543
3504,1104
3504,4420
3505,4169
3507,132
3509,262
3510,725
3511,1931
3512,1286
3512,3289
3514,20
3514,118
3514,359
3514,1950
3514,2344
3514,2978
3514,3623
3514,3635
3514,4185
3515,1956
3515,4327
3516,3608
3516,3837
3517,4480
3520,1107
3520,4491
3520,4809
3521,4028
3523,3953
3524,1213
3524,2077
3524,3803
3526,3574
3527,2295
3528,2987
3528,3922
3528,3937
3529,2390
3529,4894
3532,4529
3533,1568
3534,71
3534,721
3534,733
3534,3975
3535,1201
3536,302
3536,400
3536,1231
3536,1526
3536,2775
3537,3934
3538,237
3538,640
3538,668
3538,1549
3538,2105
3538,2310
3538,3002
3538,3299
3538,3501
3538,4643
3539,4501
3544,501
3544,2004
3544,2647
3544,4315
3546,834
3549,239
3549,1201
3549,1405
3549,1450
3549,1876
3549,2069
3549,2100
3549,3182
3549,3206
3549,3906
3551,3573
3552,2879
3553,147
3553,3613
3553,4943
3556,704
3556,4255
3557,107
3557,769
3557,869
3557,924
3557,1042
3557,1098
3557,1258
3557,1299
3557,1821
3557,1826
3557,1960
3557,2697
3557,2732
3557,3091
3557,3822
3557,4560
3557,4566
3558,2606
3559,4913
3560,362
3560,864
3560,1140
3560,2697
3560,2767
3560,2839
3560,3207
3560,3245
3560,3565
3563,1019
3566,69
3566,311
3566,1059
3566,3176
3566,3826
3570,1127
3572,2278
3572,4969
3573,1451
3577,2222
3578,593
3579,56
3579,857
3579,3411
3580,3922
3581,552
3581,956
3582,3228
3583,1092
3585,309
3589,953
3590,2921
3591,1279
3591,1594
3592,23
3592,1287
3592,3139
3592,3173
3592,3939
3592,4869
3594,1197
3600,231
3600,941
3600,1306
3600,1451
3600,1557
3601,2758
3601,3040
3601,3168
3603,2535
3605,366
3608,543
3608,3752
3611,456
3611,1586
3611,2147
3611,3047
3611,4222
3614,20
3614,239
3614,266
3614,521
3614,1118
3614,4261
3615,4327
3617,1210
3619,419
3621,1778
3622,1752
3623,3201
3624,58
3624,1996
3626,95
3631,23
3631,463
3631,949
3631,1648
3631,2562
3631,3800
3631,4408
3631,4560
3631,4993
3632,148
3633,2275
3635,1497
3635,1510
3635,3953
3638,50
3639,806
3639,2286
3639,3845
3642,2276
3642,2760
3643,2847
3646,3182
3647,376
3649,2269
3650,266
3650,2212
3652,3061
3654,1178
3654,1415
3657,4466
3660,297
3660,1058
3660,2202
3661,4501
3662,158
3662,418
3662,552
3662,1397
3662,1968
3662,3415
3662,4483
3665,3602
3666,766
3666,1669
3666,3849
3668,3627
3671,1799
3672,2193
3674,2046
3674,3686
3675,3849
3675,4981
3677,2535
3677,4908
3678,668
3678,3236
3678,4576
3678,4594
3679,3020
3680,69
3680,4006
3681,3478
3681,3602
3682,1591
3682,4691
3683,708
3683,801
3683,1363
3683,4732
3683,4984
3685,307
3686,20
3686,717
3686,761
3686,934
3686,4876
3690,309
3690,1999
3690,4320
3690,4656
3691,1846
3692,23
3692,56
3692,1722
3692,2279
3692,2780
3692,2941
3692,3272
3693,3359
3696,1687
3697,662
3697,4356
3697,4450
3698,3328
3698,3831
3700,63
3700,3826
3705,340
3705,843
3705,957
3705,1291
3705,1405
3705,1507
3705,2899
3705,3837
3705,4116
3706,147
3706,4948
3708,4705
3709,368
3710,1179
3710,2485
3710,3931
3711,3360
3713,389
3714,1819
3714,2204
3715,2549
3717,257
3717,370
3717,997
3717,1096
3717,1794
3717,1796
3717,1931
3717,2957
3717,3586
3717,4444
3718,20
3720,674
3720,3349
3723,634
3724,1876
3726,1550
3726,4061
3726,4999
3727,3134
3728,708
3729,2470
3729,4005
3733,70
3734,1466
3735,1258
3735,1785
3735,2311
3735,4288
3736,2515
3738,784
3742,2443
3742,3825
3746,785
3747,1559
3749,4310
3751,422
3753,2193
3757,4913
3758,2767
3759,330
3760,2661
3760,4878
3761,552
3761,2381
3761,2954
3763,1326
3763,2612
3764,2328
3764,4325
3766,58
3769,2006
3769,3675
3769,4315
3771,949
3772,2207
3772,3492
3772,3596
3772,4867
3773,58
3775,55
3775,1839
3775,4096
3776,3319
3778,3309
3780,52
3780,727
3780,2303
3780,2447
3780,3901
3780,4351
3781,4276
3784,580
3784,609
3786,593
3787,3395
3788,125
3788,317
3788,568
3788,1752
3788,2253
3788,2569
3788,2947
3788,4513
3789,385
3789,634
3791,355
3793,1213
3794,1582
3796,2535
3800,2371
3802,55
3802,77
3802,330
3802,513
3802,928
3802,1918
3802,2219
3802,3070
3803,3152
3803,3288
3804,20
3804,154
3804,630
3804,1687
3804,3172
3805,58
3805,4006
3806,205
3807,104
3807,160
3807,223
3807,1290
3807,1905
3807,1971
3808,1551
3810,3849
3811,196
3811,706
3811,1118
3811,2851
3812,474
3812,4231
3814,872
3816,3181
3817,196
3817,4250
3818,503
3819,238
3819,3181
3819,3846
3820,55
3820,3562
3821,1379
3825,621
3826,2892
3827,196
3827,1874
3828,1064
3830,1980
3830,2176
3834,2095
3836,680
3837,3158
3837,3965
3839,804
3840,3181
3840,3808
3843,1772
3844,3800
3845,56
3845,3047
3845,4538
3846,2636
3847,2700
3848,225
3849,984
3852,78
3852,1131
3852,1562
3852,2207
3852,3653
3852,3854
3852,4561
3852,4646
3856,95
3856,132
3856,330
3856,659
3856,2029
3856,2101
3856,2207
3856,2628
3856,2767
3856,3545
3857,1528
3859,2154
3861,473
3862,309
3864,121
3864,892
3864,1935
3866,1968
3867,3843
3868,3119
3872,107
3872,109
3872,145
3872,549
3872,570
3872,1984
3872,2515
3872,2732
3872,4507
3873,2064
3875,673
3875,784
3875,4741
3876,170
3877,658
3878,4537
3880,1402
3880,4115
3882,4046
3883,271
3883,1048
3884,2732
3886,330
3886,695
3886,1089
3886,3800
3888,70
3888,1132
3888,4598
3890,2276
3891,370
3895,532
3896,920
3896,4282
3897,593
3900,1531
3903,640
3905,855
3906,1015
3907,453
3907,3140
3907,4141
3911,1197
3912,624
3913,1856
3914,417
3914,3295
3915,2207
3916,1460
3916,2354
3918,78
3918,89
3918,609
3918,772
3918,1004
3918,2705
3918,4301
3918,4539
3918,4878
3921,1540
3922,471
3923,76
3923,1040
3923,1752
3924,1
3924,145
3924,1201
3924,2064
3924,3135
3924,3708
3925,2839
3926,2879
3926,3595
3927,2112
3928,362
3929,112
3929,453
3929,1127
3929,1179
3929,1573
3929,2542
3929,2994
3929,3024
3929,3597
3929,3743
3929,4283
3929,4480
3929,4862
3930,4645
3933,1313
3935,280
3936,1668
3938,53
3938,4775
3940,339
3941,4023
3942,3267
3943,114
3943,1662
3943,4557
3944,2457
3946,223
3946,291
3946,1266
3946,1906
3946,2097
3946,2201
3946,3180
3946,4480
3950,265
3951,1659
3953,407
3953,2799
3953,4222
3954,1516
3955,2694
3955,2883
3956,4237
3958,163
3958,473
3958,2191
3958,4711
3960,3777
3961,161
3963,4438
3964,3271
3965,3065
3967,563
3969,1397
3971,1856
3971,3090
3973,305
3973,797
3973,1938
3973,2973
3976,346
3976,2839
3978,303
3978,564
3978,1449
3978,2872
3979,229
3980,120
3980,4447
3984,2004
3986,2636
3987,223
3987,2441
3988,1132
3989,303
3989,784
3989,3371
3990,3343
3993,1485
3994,759
3994,1023
3994,3635
3994,3750
3995,2258
3996,160
3996,212
3996,266
3996,1308
3996,1378
3996,1999
3996,2041
3996,2739
3996,2839
3996,3139
3996,3800
3996,3868
3996,4086
3996,4659
3996,4878
3997,424
3998,3558
3999,886
3999,3279
4000,500
4000,555
4000,1127
4000,2649
4000,3976
4000,4046
4000,4513
4003,846
4004,3486
4005,213
4006,4483
4008,1326
4012,161
4013,2199
4014,1594
4015,29
4015,48
4015,196
4015,225
4015,236
4015,263
4015,378
4015,463
4015,528
4015,658
4015,888
4015,1007
4015,1025
4015,1375
4015,1466
4015,1631
4015,1656
4015,1726
4015,1794
4015,1899
4015,2090
4015,2114
4015,2123
4015,2351
4015,2533
4015,2575
4015,2719
4015,2979
4015,2990
4015,3226
4015,3414
4015,3788
4015,4409
4015,4606
4015,4690
4019,4150
4020,195
4020,792
4020,1111
4020,3181
4022,423
4022,482
4022,570
4022,2046
4022,2057
4022,4752
4024,4438
4025,2363
4025,4583
4026,1370
4026,3370
4026,3932
4026,4589
4028,4438
4029,196
4029,241
4029,309
4029,325
4029,373
4029,461
4029,532
4029,706
4029,718
4029,828
4029,1018
4029,1027
4029,1084
4029,1219
4029,1231
4029,1468
4029,1726
4029,2222
4029,2350
4029,2821
4029,3201
4029,3400
4029,3981
4029,4606
4029,4680
4033,526
4034,1960
4035,1604
4035,2131
4035,4166
4035,4318
4037,1670
4038,2287
4039,490
4039,1763
4039,3167
4041,279
4042,4878
4043,425
4045,4643
4049,392
4050,779
4051,779
4052,3772
4053,4688
4054,1127
4054,2370
4056,114
4056,4795
4057,107
4057,143
4057,362
4057,1177
4057,1397
4057,1446
4057,1459
4057,1466
4057,1591
4057,1650
4057,1839
4057,2742
4057,2846
4057,2884
4057,3671
4057,3845
4059,662
4059,2764
4059,4588
4062,69
4063,1018
4064,3201
4064,3849
4064,3919
4064,4691
4064,4878
4065,4288
4066,834
4073,247
4073,700
4073,1025
4073,4217
4075,76
4075,995
4078,353
4078,1048
4078,2949
4082,114
4084,333
4085,407
4085,2899
4086,3947
4087,1526
4088,1637
4088,4606
4089,1019
4090,4646
4091,173
4091,941
4091,1103
4091,1109
4091,1253
4091,1641
4091,1858
4091,2632
4091,2790
4091,3140
4091,4652
4091,4660
4092,1493
4093,49
4093,81
4093,116
4093,202
4093,213
4093,457
4093,579
4093,616
4093,727
4093,815
4093,1551
4093,1552
4093,1641
4093,1796
4093,2207
4093,2295
4093,2637
4093,2712
4093,2899
4093,3608
4093,3935
4093,4598
4093,4859
4094,3567
4096,204
4097,1968
4098,452
4101,631
4101,4936
4103,3767
4104,452
4105,4237
4108,235
4108,330
4108,879
4108,3454
4111,1819
4113,132
4117,453
4118,1842
4121,196
4122,12
4122,161
4122,195
4122,261
4122,1831
4122,1894
4122,4420
4123,3886
4125,115
4125,418
4126,4105
4127,2222
4127,2549
4127,2559
4127,4754
4127,4980
4128,4756
4131,4691
4133,2084
4134,70
4134,706
4134,4471
4137,690
4137,1396
4137,2626
4137,4098
4142,132
4142,215
4142,385
4142,531
4142,1231
4142,1325
4142,1348
4142,1927
4142,2058
4142,2084
4142,2103
4142,2206
4142,2251
4142,2293
4142,3845
4142,4152
4142,4167
4142,4244
4142,4560
4142,4606
4143,70
4143,763
4143,784
4143,1370
4143,1449
4143,4643
4149,355
4149,1350
4150,1481
4150,2568
4151,120
4151,1406
4151,2349
4151,3805
4151,3887
4154,1081
4155,1939
4156,239
4156,4878
4158,425
4160,12
4160,953
4160,2441
4160,3575
4161,24
4162,1112
4163,2792
4164,1815
4168,4878
4170,2931
4171,1045
4171,3934
4171,4688
4172,1604
4173,2129
4174,751
4176,997
4177,1451
4181,251
4182,1926
4182,2732
4184,972
4184,1736
4184,4490
4184,4780
4185,254
4185,1645
4187,1843
4189,1397
4190,578
4190,1451
4191,3656
4192,69
4193,2839
4193,3237
4193,4150
4194,696
4196,107
4196,720
4197,56
4197,176
4197,382
4197,414
4197,3886
4197,4483
4197,4895
4199,1119
4200,1213
4202,196
4202,2211
4202,3313
4202,3850
4202,4529
4203,2185
4203,2276
4204,725
4206,3886
4209,599
4211,20
4212,112
4213,1071
4214,842
4215,196
4215,744
4215,1045
4215,1809
4215,1829
4215,2457
4215,2652
4215,2879
4215,3409
4215,3558
4217,1019
4218,1048
4218,2287
4218,3706
4221,2316
4223,36
4223,169
4223,1898
4223,3764
4223,4980
4225,4119
4226,1796
4227,1574
4228,565
4228,4567
4229,2439
4230,565
4231,570
4231,1968
4232,1164
4232,4960
4234,2084
4236,921
4237,952
4237,2034
4237,4127
4238,53
4238,1270
4238,3252
4238,4759
4239,1025
4241,1
4241,4699
4242,333
4245,303
4245,1055
4245,2634
4245,3854
4246,3719
4247,71
4247,473
4247,872
4247,890
4247,4927
4248,2361
4249,81
4249,151
4249,888
4249,4512
4250,2825
4251,451
4251,662
4251,3175
4251,3242
4251,3870
4253,3443
4255,2351
4256,1968
4257,4633
4258,2142
4258,2774
4258,2872
4259,1070
4260,370
4260,908
4260,935
4260,1200
4260,2679
4260,2993
4260,3800
4260,3903
4260,4595
4262,700
4263,4224
4264,12
4264,293
4264,832
4265,266
4266,2767
4267,2428
4269,750
4272,1668
4272,3135
4275,2051
4277,50
4278,2421
4278,4150
4279,657
4279,768
4279,1231
4283,1927
4284,776
4285,2124
4287,1258
4290,2254
4291,1966
4292,78
4294,4352
4294,4641
4295,3975
4296,1286
4297,319
4303,4076
4304,171
4304,462
4304,3837
4305,3967
4306,822
4307,53
4308,259
4310,1
4310,4525
4313,1007
4314,1279
4316,93
4316,1650
4316,2058
4318,3482
4319,1918
4320,4266
4321,330
4322,1443
4324,261
4326,16
4326,20
4326,316
4326,330
4326,380
4326,392
4326,450
4326,640
4326,753
4326,946
4326,990
4326,1118
4326,1331
4326,1397
4326,1451
4326,1700
4326,2070
4326,2188
4326,2207
4326,3086
4326,3175
4326,3276
4326,3317
4326,3443
4326,3477
4326,3730
4326,3843
4326,3874
4326,3934
4326,4192
4326,4530
4326,4606
4326,4760
4326,4946
4326,4996
4327,146
4327,551
4327,3339
4328,2851
4329,681
4331,2786
4332,36
4333,1884
4334,526
4334,1002
4336,298
4337,828
4339,1968
4339,2041
4339,4823
4340,257
4345,868
4345,2189
4345,3065
4346,2746
4347,482
4347,1968
4349,552
4349,1551
4349,2089
4349,3388
4349,4548
4353,303
4353,4729
4354,4930
4355,238
4355,274
4355,1162
4355,1451
4355,1695
4355,2523
4355,2973
4355,4140
4355,4582
4357,813
4358,1268
4358,1367
4362,1178
4363,2077
4364,3235
4365,4529
4367,997
4367,1445
4367,1931
4367,3808
4368,120
4368,3800
4370,2598
4375,2650
4377,2031
4378,762
4379,994
4379,1604
4381,3843
4382,4301
4383,1403
4385,56
4386,2719
4388,3813
4390,1705
4392,158
4394,2526
4395,4060
4396,3863
4397,2872
4398,2370
4399,2884
4400,69
4400,1469
4400,1612
4400,2683
4400,2863
4400,3013
4400,3460
4400,3965
4401,3232
4403,2959
4404,1132
4404,1201
4405,93
4405,3628
4405,3706
4405,4229
4405,4501
4408,114
4410,1769
4410,4785
4410,4811
4411,3886
4412,611
4412,1442
4415,622
4415,4671
4416,262
4417,3970
4418,263
4418,1005
4418,2185
4419,2189
4420,706
4421,441
4421,3324
4421,4066
4422,3133
4423,1442
4424,3965
4425,359
4425,419
4425,676
4425,721
4425,965
4425,1084
4425,3673
4425,3762
4425,3886
4425,4080
4425,4623
4425,4878
4426,1219
4428,2101
4430,2
4430,2358
4430,3845
4430,3861
4430,4120
4430,4318
4430,4959
4432,1497
4435,4323
4436,1648
4437,3324
4438,409
4439,1119
4439,3788
4442,41
4442,1527
4446,3321
4447,45
4447,1588
4447,1879
4447,2193
4451,528
4453,2268
4454,3201
4454,4598
4455,583
4456,307
4456,1262
4456,1342
4456,2020
4456,4830
4459,3731
4460,402
4460,3395
4460,3587
4460,4508
4465,2016
4465,2998
4467,920
4469,196
4469,4473
4470,151
4470,941
4470,3879
4472,4420
4472,4598
4476,1987
4477,755
4479,3093
4480,2328
4481,420
4482,1968
4485,337
4486,2839
4488,56
4488,725
4488,2177
4488,2359
4488,3306
4488,3536
4491,1983
4492,107
4494,81
4494,309
4494,1500
4494,2135
4494,2177
4494,3376
4494,4646
4496,1341
4497,4539
4497,4923
4498,468
4499,3018
4500,2211
4501,197
4501,593
4502,1603
4503,727
4503,2354
4504,1205
4506,1112
4507,1406
4508,3317
4510,4250
4511,1375
4513,565
4513,769
4513,2029
4513,2674
4513,4093
4515,2588
4517,155
4517,359
4517,370
4517,675
4517,750
4517,1107
4517,1331
4517,1755
4517,2081
4517,2339
4517,3237
4517,3337
4517,3556
4517,3765
4517,3800
4517,3824
4517,3886
4517,3900
4517,4063
4517,4066
4517,4165
4518,325
4518,583
4518,1393
4518,1603
4518,2251
4518,2786
4518,3002
4518,3119
4518,4772
4520,378
4522,2211
4524,24
4524,2455
4527,570
4528,1201
4529,1599
4531,1736
4531,1875
4531,2443
4533,815
4536,3556
4537,55
4537,2758
4539,1652
4541,1231
4542,268
4543,3114
4545,56
4547,205
4548,658
4549,3500
4552,169
4553,4293
4555,966
4556,225
4557,1963
4558,2419
4559,95
4560,425
4560,2278
4562,3904
4564,1785
4564,2405
4568,3469
4569,3935
4573,3317
4574,114
4575,4507
4576,1931
4577,48
4577,50
4577,58
4577,116
4577,145
4577,659
4577,1177
4577,1648
4577,1652
4577,2313
4577,2685
4577,2845
4577,3855
4577,4069
4580,171
4580,654
4580,2228
4580,3443
4581,696
4581,1060
4583,297
4583,538
4584,721
4584,1111
4584,1268
4584,2574
4584,3996
4584,4412
4585,2899
4586,4005
4587,164
4587,210
4587,1127
4587,1380
4587,3025
4587,3041
4587,3324
4587,3975
4587,4066
4587,4475
4589,1622
4589,1662
4589,2697
4589,4032
4590,55
4590,69
4590,100
4590,1995
4590,2971
4590,4066
4590,4463
4592,1208
4596,284
4597,1481
4598,1060
4599,56
4599,2767
4603,2684
4604,390
4605,1949
4606,59
4606,283
4606,1872
4606,2955
4607,704
4607,3832
4608,1531
4612,4913
4613,1740
4618,4483
4620,117
4621,833
4621,2685
4621,4690
4622,370
4625,196
4626,1920
4627,4098
4629,796
4629,2199
4630,2786
4630,3225
4630,3558
4632,303
4633,20
4633,376
4633,471
4633,481
4633,694
4633,728
4633,1234
4633,2188
4633,2655
4633,2854
4633,3176
4633,3242
4633,3604
4633,3800
4633,3920
4633,3975
4633,4508
4633,4744
4635,1874
4637,2741
4638,634
4639,870
4639,3090
4639,3228
4639,3242
4639,4310
4641,3573
4642,3800
4644,711
4644,4023
4644,4076
4645,158
4645,502
4645,1481
4645,1756
4645,3849
4646,927
4647,2371
4648,269
4649,3414
4651,1397
4651,1927
4653,385
4655,164
4655,249
4655,491
4655,2534
4655,2839
4655,2971
4655,3011
4655,3096
4655,3099
4655,3237
4655,3620
4658,4483
4660,373
4662,4098
4664,1796
4668,1233
4668,2380
4670,1526
4672,247
4672,2227
4673,1234
4674,872
4674,2371
4674,4614
4675,78
4676,325
4676,4282
4677,993
4677,2186
4678,1028
4679,3965
4680,175
4681,695
4683,1640
4683,2288
4686,465
4687,3913
4690,863
4690,1284
4690,1879
4690,3688
4690,3853
4690,4706
4691,3076
4691,4249
4694,4490
4695,3075
4695,3824
4696,920
4700,1939
4704,3627
4705,2370
4705,2749
4705,3669
4708,1107
4709,4636
4709,4934
4710,115
4710,361
4710,528
4710,583
4710,668
4710,1231
4710,1406
4710,1796
4710,3994
4710,4281
4711,1397
4711,2133
4712,451
4714,3140
4716,384
4718,637
4719,301
4719,415
4719,880
4719,1201
4719,2649
4719,3104
4719,3684
4719,3841
4719,4249
4720,4544
4721,4318
4722,902
4724,4438
4730,263
4731,1816
4734,400
4735,3414
4737,41
4737,239
4737,309
4737,315
4737,913
4737,1358
4737,2102
4737,3991
4737,4456
4739,583
4739,1815
4740,12
4740,3442
4740,3934
4742,66
4742,187
4742,243
4742,519
4742,852
4742,1148
4742,1168
4742,1231
4742,2226
4742,2778
4742,4483
4742,4646
4742,4878
4743,266
4743,376
4743,820
4743,4066
4743,4413
4744,257
4745,1902
4747,4124
4749,1896
4751,806
4751,4957
4753,1028
4754,1127
4755,1380
4756,2177
4758,109
4758,1231
4761,3887
4763,2079
4765,3172
4767,1867
4767,3706
4769,1213
4769,1771
4769,4074
4771,1466
4771,1561
4774,127
4774,958
4774,1213
4774,2216
4774,4224
4774,4851
4776,3434
4777,568
4777,1775
4777,2170
4777,4086
4779,3518
4781,1520
4782,1111
4782,1231
4782,1449
4784,2839
4786,50
4786,444
4786,1657
4786,2071
4786,3745
4786,3837
4786,4742
4786,4913
4789,491
4789,1466
4789,2957
4789,3934
4789,4895
4790,23
4791,225
4792,1632
4793,119
4793,756
4793,900
4793,1662
4793,4489
4794,2767
4795,355
4797,2186
4798,353
4798,3182
4799,2380
4800,1228
4803,1095
4804,55
4805,2287
4806,368
4807,4208
4808,167
4808,1927
4813,1001
4814,1968
4815,663
4815,3965
4816,796
4816,941
4816,4857
4817,3508
4818,986
4819,23
4819,1723
4819,2049
4820,1560
4822,3031
4825,4005
4826,285
4827,409
4828,524
4831,1876
4833,1279
4835,370
4835,589
4835,1786
4835,2742
4835,3395
4835,3550
4835,4210
4836,3302
4837,232
4837,456
4837,2310
4837,3800
4838,987
4840,1212
4840,1528
4840,2892
4840,3947
4841,29
4841,284
4841,531
4841,904
4841,1344
4841,2957
4841,3120
4841,3513
4841,3902
4841,4132
4843,58
4843,81
4843,1067
4843,1648
4843,4310
4845,4066
4846,1896
4848,87
4853,2
4853,12
4853,3967
4853,4646
4854,2286
4857,362
4859,708
4859,4466
4860,3874
4861,1492
4862,2881
4864,465
4865,1469
4865,2879
4866,2708
4868,280
4868,2279
4869,54
4869,234
4869,708
4869,1048
4869,2100
4869,2654
4870,4774
4871,1918
4872,910
4874,20
4875,20
4877,1231
4881,1469
4881,1819
4883,2114
4884,4310
4885,2493
4886,389
4888,131
4889,513
4891,376
4891,4288
4892,370
4892,2484
4892,4447
4893,4117
4894,2246
4899,1527
4900,246
4903,868
4904,1172
4906,253
4906,872
4906,2511
4906,4237
4907,984
4910,1662
4910,4250
4911,1459
4912,1554
4913,162
4914,4452
4915,1624
4915,2767
4915,4853
4915,4975
4917,70
4918,1894
4919,605
4921,4556
4922,1866
4922,2947
4924,50
4925,1405
4925,4529
4928,2621
4930,127
4931,2861
4932,3477
4933,2287
4934,26
4934,69
4934,262
4935,196
4937,3596
4937,4491
4938,365
4939,170
4941,229
4942,145
4942,879
4942,1214
4942,1908
4944,3982
4946,1019
4948,112
4948,389
4948,842
4948,1404
4948,1876
4948,3283
4948,3706
4948,3772
4948,3901
4948,3977
4948,4551
4948,4638
4950,1659
4951,966
4951,1380
4952,1231
4953,1008
4954,3421
4956,997
4956,2232
4958,4401
4962,176
4962,546
4963,70
4963,223
4963,303
4963,463
4963,614
4963,1311
4963,2494
4963,2884
4963,4593
4964,1960
4967,3623
4967,4076
4971,271
4971,4503
4972,2516
4974,1
4974,52
4974,69
4974,108
4974,366
4974,442
4974,859
4974,902
4974,1448
4974,1603
4974,1834
4974,1960
4974,2466
4974,3452
4974,3800
4974,3920
4974,4310
4976,297
4979,223
4980,330
4983,50
4983,1466
4983,1763
4986,4691
4987,1004
4990,2371
4992,1023
4994,4800
4995,100
4995,1397
4995,2789
4995,4076
4996,3176
4997,580
