src,dst
0,1
0,332
0,3833
4,498
4,2437
4,3466
5,1583
8,4757
9,85
9,761
9,1679
9,2481
9,4670
10,2141
10,3072
10,4270
10,4931
11,4716
12,349
12,1037
12,1142
12,1837
12,2650
12,3885
12,4712
14,1582
14,2900
14,4123
14,4995
15,4207
17,139
17,1109
17,2558
17,4940
17,4949
18,3531
19,185
19,1246
19,2553
19,2782
19,2912
19,3021
19,4072
20,416
20,535
22,1547
24,740
24,1223
24,1332
24,1687
24,2960
24,3516
25,201
25,886
25,1351
25,1432
25,3387
25,3704
25,3864
25,4465
25,4614
26,69
26,174
26,2579
26,2869
28,95
28,1164
28,1534
28,2029
28,2730
28,3290
28,3395
29,3704
33,1795
34,93
34,2897
37,116
37,267
37,952
37,1061
37,1161
37,1930
37,1992
37,2617
37,2650
37,3719
37,3738
37,4385
40,550
44,312
44,396
44,433
44,1258
50,607
51,976
51,1429
51,2886
51,3362
51,3785
51,4219
51,4804
52,172
52,210
52,380
52,498
52,642
52,648
52,851
52,1044
52,1192
52,1644
52,2090
52,2665
52,3796
52,4084
52,4173
52,4185
52,4822
52,4923
57,513
57,680
57,699
57,1100
57,1383
57,1554
57,3003
57,3608
57,4251
59,169
59,359
59,500
59,775
59,1011
59,1071
59,2609
59,2955
59,3086
59,3751
59,4269
59,4701
59,4977
61,109
61,2174
61,3918
62,7
62,216
62,891
62,2056
62,3082
64,2785
64,3334
65,2624
65,4175
67,384
67,4929
68,503
68,2709
68,3423
69,270
69,474
69,2135
69,4796
69,4830
70,1405
70,1647
70,3119
71,2378
71,4871
73,1952
73,4794
74,2909
74,3169
75,1142
75,2648
75,3285
75,3981
75,4902
76,550
76,1868
77,4622
79,21
79,417
79,1087
79,1449
79,1453
79,1487
79,4485
80,1315
80,3751
80,4525
80,4627
81,350
81,2582
81,4432
84,622
84,2086
84,4759
86,3928
86,4037
88,4504
91,944
91,999
91,2912
91,3330
91,4219
92,109
92,320
92,649
92,3725
92,3795
92,4305
92,4442
93,1203
93,1571
93,1888
93,4504
93,4927
94,648
94,3479
96,228
96,1546
96,3491
96,3780
96,4018
100,2599
101,1905
101,2199
101,4670
104,703
104,1093
105,915
105,1383
108,126
108,239
108,599
108,1317
108,1440
108,1503
108,2210
108,3645
110,1883
110,3095
110,3103
110,4599
111,556
111,1201
111,1288
111,1431
111,1443
111,1628
111,1762
111,1784
111,2000
111,2544
111,3925
111,4171
111,4445
112,737
112,1766
112,2897
113,4894
116,1342
117,206
117,3173
117,3456
117,3899
118,39
118,587
118,812
118,2071
118,2539
119,214
119,1707
121,1468
121,4485
122,177
122,221
122,800
122,1939
124,472
124,3704
125,607
125,907
125,1186
125,4184
129,1270
129,3446
129,4025
129,4143
134,385
134,556
135,2204
135,3015
135,4502
136,9
136,1299
137,201
137,1603
137,1929
137,2194
137,2514
138,1012
138,1909
138,2054
138,3934
138,4132
139,233
139,332
139,896
139,4126
144,140
144,484
144,710
144,1707
144,4371
144,4504
145,3955
145,4311
147,492
148,114
148,904
148,2489
148,3498
148,3941
149,97
149,249
149,1064
149,1174
149,3946
149,4894
150,7
150,292
150,2184
150,4429
152,331
152,673
152,839
152,1687
152,1895
152,3918
152,4090
152,4958
153,943
155,2706
155,3018
156,403
156,1633
156,2785
157,4151
158,424
158,574
158,1215
158,1916
158,3164
158,4502
159,1656
160,556
163,2912
164,2314
165,330
165,3008
166,1277
166,3022
167,2260
167,3128
168,749
168,2176
168,2250
168,2433
168,2509
168,3938
170,264
171,3434
173,6
173,39
173,356
173,665
173,1143
173,1362
173,2691
173,3045
173,3468
173,3478
173,3814
173,4754
176,269
176,915
176,4015
178,93
180,21
180,712
180,920
180,1320
180,1997
180,2419
180,3616
181,3501
181,4011
182,753
182,4030
183,494
183,559
183,1521
183,1738
183,1746
183,3747
184,1078
184,1554
184,3177
184,4550
184,4984
187,1305
188,460
188,805
188,1074
188,1645
188,2361
188,2825
188,3286
188,3815
189,746
192,273
192,704
192,1845
192,2383
192,2565
192,3144
193,1735
194,1480
194,1554
194,2325
196,765
196,2647
196,3386
196,4160
196,4607
197,1963
197,2999
199,2647
199,4746
200,3998
201,47
201,536
201,1288
201,1408
201,1595
201,1768
201,2320
201,3297
201,3456
201,4814
201,4884
202,2627
202,4915
203,2815
203,3615
203,4808
204,2312
204,2394
204,2598
207,205
207,264
207,2106
207,4291
209,71
209,4592
212,60
213,917
213,1764
213,4677
216,375
216,1465
216,3705
217,146
217,649
217,876
217,2576
217,2719
217,2821
217,2982
217,4115
217,4361
219,3416
222,619
222,658
222,772
222,3948
222,4463
224,1603
225,1360
227,275
227,427
227,2909
227,4126
228,2915
229,893
230,115
230,622
235,1
235,333
235,1424
235,1891
235,2751
235,4629
236,806
237,220
237,1838
237,2596
237,2606
238,130
238,791
238,1468
240,1081
240,2068
240,3738
240,4701
242,556
242,1137
243,109
243,945
244,1111
244,1531
244,2074
244,2415
244,3064
244,3155
244,4538
244,4619
245,917
245,3111
247,3795
250,405
250,789
250,858
250,1621
250,1925
250,4492
250,4751
251,3173
251,3196
251,3821
251,4281
251,4729
251,4860
252,738
253,106
253,675
253,1107
253,1253
253,1276
253,1851
253,2231
253,2600
253,2842
253,3604
253,4972
254,214
255,16
255,308
255,795
255,840
255,918
255,1189
255,1479
255,3169
255,4239
255,4588
257,162
257,627
257,776
257,999
257,1927
257,2891
258,2650
259,35
259,977
263,720
263,783
263,798
263,814
263,919
263,1266
263,1466
263,1675
263,1775
263,2732
263,3573
263,4615
263,4945
264,4025
265,3043
265,3563
265,4318
266,1350
268,1365
268,1751
268,2307
268,3918
272,846
272,1347
272,1579
272,3461
272,3472
272,4998
274,11
274,333
274,358
274,503
274,567
274,1779
274,2496
274,3228
274,3796
276,2650
276,3267
278,1861
281,3436
282,2025
284,1406
285,735
285,1246
285,1553
285,1842
285,3097
285,4082
285,4321
285,4659
289,172
290,175
290,953
290,2749
290,4920
294,142
294,214
294,1951
294,3631
294,3892
295,1035
296,239
296,3100
296,3753
297,758
297,969
297,4361
298,961
298,1103
298,1670
298,1958
298,2331
298,2385
298,3498
298,3847
298,4814
298,4823
300,48
300,471
300,901
300,1895
300,2425
300,2734
302,69
302,1151
302,3588
303,216
303,559
303,897
303,1163
304,206
305,74
306,2698
306,4092
306,4601
310,1841
310,1925
310,2795
310,2950
314,620
315,1
315,481
315,1043
315,1105
315,1439
315,2237
315,2626
316,1674
318,103
318,1704
319,571
319,1388
321,1343
321,1364
321,1990
322,390
322,1696
322,1759
322,2467
322,2643
322,2704
322,3248
322,4456
322,4919
325,1053
325,1280
325,1342
325,1665
327,526
327,556
327,2276
327,3969
327,4160
336,177
336,3120
336,3272
338,901
338,1235
338,1266
338,1747
339,1071
339,1656
342,1299
342,4464
344,1707
344,4147
344,4476
345,4290
345,4829
346,27
346,4296
351,312
354,2100
354,2826
354,3659
355,286
357,340
357,379
357,480
357,680
357,1504
357,1881
357,2301
357,2659
357,2699
357,2875
357,2929
357,3784
357,4004
360,1291
361,726
361,809
361,1102
361,1639
361,1650
361,2039
361,2515
362,916
362,1465
362,1681
362,2019
362,2352
362,3470
364,329
364,1381
364,2215
364,3001
364,4025
366,760
366,2039
366,2558
366,3440
366,4748
367,132
368,48
368,80
368,651
368,1059
368,1076
368,1462
373,599
373,2101
373,2226
373,3072
373,3487
373,3707
374,390
377,1689
377,2070
378,587
378,616
378,686
378,1195
378,1875
378,2190
378,2369
378,2830
378,3049
378,3421
378,3591
378,4761
378,4901
382,2275
382,3687
383,115
383,1129
387,333
388,177
388,1024
388,2994
389,358
391,4077
392,488
393,97
393,341
393,683
393,1155
393,1284
393,2108
393,2314
393,2595
393,4264
393,4373
394,1299
394,3736
395,149
395,2713
400,105
400,162
400,235
400,1498
400,2048
400,2851
402,3954
402,4234
403,1347
403,1835
403,2007
403,4056
408,915
408,3451
409,2743
410,289
410,371
410,548
410,848
410,1662
410,2106
411,239
411,314
411,1400
411,1585
411,3185
411,3799
411,4368
412,4126
412,4815
413,1084
413,2380
414,269
414,331
414,582
414,743
414,754
414,2294
414,2388
414,2508
414,3950
414,4478
414,4574
416,288
416,853
416,1472
416,1711
416,1988
416,2088
416,2254
416,2974
416,3267
416,3354
418,1598
418,3534
422,2936
422,2946
422,3795
422,4528
423,1747
423,4952
425,87
425,943
425,4149
426,219
429,216
434,1036
434,3689
434,4406
435,142
437,2661
440,198
440,1967
440,2635
440,2748
440,4360
443,3118
446,1953
446,2309
447,2039
448,115
448,1778
448,2936
450,1156
450,1918
450,3194
450,3563
451,3148
451,4347
451,4409
453,4729
454,607
454,746
454,3097
454,3587
454,3608
457,444
457,1002
457,2604
457,3090
458,473
458,2645
458,3414
459,776
459,4368
461,48
461,589
461,1441
461,3277
462,340
466,931
466,967
466,2837
467,936
467,1227
467,1758
467,2629
467,4605
468,1707
468,3584
468,3724
469,998
470,97
470,566
471,2360
472,246
472,260
472,343
472,560
472,3450
477,1198
477,1625
477,2033
477,2116
477,3546
478,335
479,4655
486,4808
487,620
487,977
488,634
490,712
490,935
490,1155
490,2431
491,151
491,283
492,333
495,3030
496,405
497,1587
497,3154
497,3702
499,525
499,926
499,1072
499,1243
499,1767
499,1873
499,1935
499,2112
499,2229
499,2493
499,2753
499,3209
499,3211
499,3708
499,3733
501,330
502,4030
504,123
504,1554
505,97
505,658
505,854
505,2462
505,4932
506,1684
506,4063
507,1146
508,783
508,2359
508,3720
509,324
509,1253
509,2270
510,332
510,430
512,1761
512,2566
512,3122
512,3322
512,3516
512,4126
512,4690
515,49
515,388
515,1945
515,4302
517,170
517,724
517,831
517,1156
517,1463
517,1667
517,2933
517,3747
517,3890
518,1336
518,3259
521,3848
522,1192
522,4158
522,4622
522,4930
523,419
523,1500
523,2104
523,2275
523,3762
523,4445
524,1967
529,703
529,4167
533,401
533,2661
534,2078
534,3555
537,1980
537,2868
537,3375
538,140
540,846
540,1587
540,2209
540,2677
541,1493
541,1531
541,2025
541,2759
541,3499
541,4561
544,2459
544,3164
544,4840
545,618
545,1887
545,3795
549,456
549,2634
550,1319
550,2202
550,3001
550,3702
553,170
554,115
554,301
554,531
554,582
554,835
554,920
555,847
555,2012
555,2532
555,2661
555,2870
557,630
557,1402
558,287
558,1582
559,744
559,1572
562,2402
562,2876
562,4901
563,215
564,16
565,886
566,1584
568,3814
568,4114
569,473
569,2640
569,3908
570,844
570,1163
570,1181
570,2363
570,2772
572,911
572,2336
572,4940
573,179
573,2599
573,3302
573,3429
573,4305
576,878
576,4391
576,4490
577,1795
578,469
578,630
579,35
579,679
579,843
579,1076
579,1830
579,1871
579,1940
579,2642
579,2734
581,666
581,815
583,862
583,1057
583,1952
583,3675
584,605
584,934
584,1347
584,1695
584,1845
584,2498
584,3660
586,1145
588,69
590,1049
590,2449
592,298
592,2639
593,590
593,899
593,1682
593,4892
594,765
595,3112
595,4827
596,519
600,2054
602,331
602,1570
602,2790
603,2440
603,2571
603,3372
603,4637
603,4867
604,97
604,230
604,2840
604,3638
608,105
608,764
608,868
610,1244
610,3373
611,21
612,489
617,810
617,3618
620,678
620,1229
621,399
621,1477
621,2275
621,3318
621,3516
621,4122
623,6
625,1266
625,2429
631,1668
631,3676
638,658
638,971
638,2590
638,2628
638,2634
638,3284
638,3300
638,4017
638,4507
638,4847
639,1184
639,3383
639,3532
639,3887
639,4112
640,1554
641,432
641,4747
643,376
643,3664
644,762
644,1066
644,1243
644,3698
644,3984
644,4413
644,4502
646,1024
650,87
650,1261
650,1688
652,280
652,697
652,1144
652,1720
652,2685
653,186
654,1913
654,2413
655,358
661,1866
661,4658
662,695
662,917
663,115
664,1322
664,3558
664,3729
664,4854
665,1040
665,2903
667,746
667,797
669,21
669,1873
669,3129
669,3689
671,220
671,2549
671,2724
671,3445
671,3849
671,4651
671,4673
671,4899
674,632
674,2338
674,3485
674,3889
674,4664
676,516
677,219
677,1378
677,2588
677,2650
677,3932
682,519
682,630
682,1258
682,1346
682,2722
682,4846
684,556
685,2779
685,3393
685,3801
687,1342
688,620
692,246
692,3722
693,492
693,717
693,4250
696,1433
698,2840
698,4016
701,681
705,1342
705,2516
706,471
708,4175
709,953
709,1554
709,4884
710,280
711,277
711,905
711,1155
713,1199
713,2022
713,2298
713,2469
713,2599
713,4521
714,1372
714,2263
714,3639
715,4305
716,241
717,392
717,556
717,2019
718,582
718,597
718,680
718,1531
722,3549
723,193
723,2574
723,3124
727,659
728,2025
731,639
732,314
732,1910
732,3512
732,3531
733,3363
733,4179
734,169
734,1707
734,2662
735,997
735,3853
736,622
736,4612
736,4936
737,905
737,4741
738,1395
738,1876
738,3448
738,3503
739,2584
739,2891
741,42
741,179
741,430
741,670
741,858
741,1258
741,3482
741,4544
741,4581
742,583
742,3866
743,97
743,191
743,430
743,1852
743,2716
750,494
752,1818
757,1364
757,4246
757,4740
759,341
759,3691
763,71
763,1714
763,1904
769,286
769,1580
769,1706
769,3016
769,4190
769,4579
770,1845
771,793
771,1762
771,1945
771,2319
771,3363
771,3565
773,737
774,1489
776,271
776,1287
776,1657
776,3699
776,4088
777,3
777,1026
777,1058
777,1612
777,2653
777,4442
777,4747
779,498
779,1642
779,3534
779,4285
780,712
781,220
781,1107
781,1382
781,3295
781,3702
781,3793
782,576
785,1
786,605
786,4278
789,4259
792,1411
792,1557
792,2335
792,3036
792,3100
792,3881
796,2039
799,1725
799,2107
799,3923
800,761
800,1063
800,3722
801,260
801,3649
801,3970
802,277
802,918
802,4174
802,4300
802,4764
803,482
804,83
804,945
804,3441
804,3875
806,396
808,333
810,844
811,432
811,1352
811,1732
811,2725
811,4583
813,3220
817,328
817,2366
820,1465
820,1554
820,2650
820,3736
821,910
821,4989
822,320
824,3119
825,286
825,1392
825,4736
827,4126
828,574
828,1071
828,2124
828,3742
828,4039
829,2107
829,4300
829,4782
830,1764
830,4098
831,170
831,4516
832,132
832,1912
833,97
833,314
833,340
833,614
833,2658
834,2074
834,3516
834,3607
836,2093
836,2187
836,2925
836,4327
837,1168
837,4244
837,4817
838,1062
838,2461
838,2493
838,3191
838,4265
841,320
841,1070
841,1556
841,2990
841,4247
841,4540
842,69
843,2440
844,430
847,347
847,1217
852,1531
852,1561
852,3314
858,114
858,337
858,1079
858,1855
858,3215
858,3246
858,3275
858,4130
858,4895
859,3704
859,4261
863,1342
863,1367
863,1400
863,1595
863,1701
863,3650
863,4826
863,4857
864,2073
864,3633
865,4369
866,127
866,917
866,1602
866,1772
869,1440
870,71
871,143
871,3617
871,3764
874,482
874,1847
874,2306
874,2881
874,2975
874,3454
874,3599
874,4030
874,4286
875,317
875,3456
876,2524
877,1554
879,120
883,3247
884,858
885,286
885,2590
886,1713
886,3510
887,123
887,376
887,1147
887,1229
887,1293
887,1434
887,1577
887,3581
888,123
888,1326
888,1336
888,3284
888,4028
888,4774
889,1037
889,1294
889,1637
889,1835
889,2593
889,2640
890,730
891,1225
891,1952
891,3984
891,4769
893,880
893,1922
893,2341
894,4253
898,767
900,1136
900,3984
902,2065
906,702
907,50
907,491
907,532
907,614
907,823
907,1368
907,2201
907,3097
907,3302
907,3382
907,3597
908,2712
909,1076
909,1470
909,2456
912,365
912,2160
912,2957
912,3228
912,3434
912,4312
913,329
914,730
914,1200
915,725
915,2097
915,2185
915,3693
916,116
916,2274
920,27
920,141
920,353
920,2312
920,3100
922,4622
923,495
923,1048
923,1593
923,1849
923,2604
923,4100
923,4101
923,4485
927,4994
928,384
928,1483
928,1970
930,2602
931,6
931,724
931,1239
931,1648
931,4038
931,4757
932,140
932,4013
933,1855
937,480
937,968
937,1068
937,2308
937,2704
937,3475
937,3658
937,3910
937,4104
938,1
938,1032
938,1683
939,2122
939,2982
942,154
942,3795
946,465
946,639
946,3143
948,69
948,2098
949,343
949,614
950,406
950,1135
950,1377
950,1593
950,2351
950,2522
950,3197
950,3241
950,3904
950,4696
951,169
951,226
951,2829
954,27
957,1353
957,2167
957,3367
957,4160
958,1714
958,1975
959,149
960,324
962,1437
962,1735
963,381
963,547
963,1865
963,2578
963,2902
963,4307
963,4772
964,142
964,3539
965,1191
965,1470
966,405
970,1966
970,4910
974,420
976,514
976,1411
979,2275
980,3117
980,3821
980,4070
981,47
981,1928
981,2787
981,4777
982,3196
983,210
984,197
984,372
984,398
984,1112
984,1191
984,1548
984,1953
984,2242
984,2403
984,3137
984,3377
985,3035
985,3558
987,493
987,606
987,1286
987,1791
987,1877
987,3156
987,3197
989,396
990,1953
991,1671
991,1845
991,2096
991,2196
991,2601
991,2840
991,4906
993,3430
995,1239
995,1748
995,1851
999,882
1000,2897
1000,4883
1001,392
1003,2449
1005,3122
1007,4504
1008,1791
1008,3075
1008,4504
1009,498
1009,1523
1010,392
1010,464
1010,776
1010,1102
1010,1665
1010,3918
1010,4115
1010,4253
1010,4649
1013,334
1013,515
1013,519
1013,2065
1015,140
1015,161
1015,3916
1015,4642
1016,798
1017,861
1018,317
1018,455
1018,482
1018,1433
1018,1497
1018,1708
1018,3105
1018,3179
1018,3631
1018,4670
1019,668
1019,1323
1019,2709
1019,4221
1019,4358
1019,4608
1020,1166
1020,4126
1022,4926
1023,239
1025,2454
1025,4193
1027,433
1027,1652
1027,2518
1027,4139
1029,485
1030,2183
1030,2844
1030,3128
1031,2
1031,78
1031,601
1031,1178
1031,1990
1031,3365
1031,4118
1033,3587
1039,220
1046,935
1047,3416
1050,1958
1050,3184
1050,3759
1050,4670
1052,1336
1052,2614
1052,3129
1052,3278
1052,3798
1054,7
1054,1425
1055,1315
1055,4772
1056,4505
1060,3108
1060,3921
1060,4352
1060,4984
1065,622
1066,205
1067,917
1067,3034
1067,3207
1067,4775
1069,2054
1069,3033
1072,944
1072,2234
1072,3999
1072,4578
1075,3173
1076,63
1076,546
1076,1083
1076,1844
1076,2142
1076,2632
1076,3391
1078,2546
1080,190
1081,3375
1086,1456
1086,3624
1088,660
1090,365
1090,725
1091,1307
1091,1496
1091,3996
1091,4814
1092,169
1092,1709
1092,2065
1093,292
1093,2759
1094,1305
1095,1036
1096,216
1096,4032
1097,4387
1097,4698
1098,1037
1099,4642
1100,455
1101,3022
1103,31
1103,2529
1103,3395
1104,740
1106,87
1113,6
1113,1733
1114,3795
1115,2962
1115,3394
1116,340
1116,901
1116,2282
1117,211
1117,1755
1117,1964
1117,2222
1117,2650
1117,4753
1117,4778
1119,530
1119,1568
1119,1653
1120,1053
1120,1216
1120,1342
1120,1384
1120,1542
1120,3276
1121,272
1125,115
1126,131
1126,301
1126,495
1126,850
1126,1171
1126,1636
1126,4631
1127,755
1127,1277
1127,4725
1130,396
1130,3524
1132,441
1132,2024
1133,43
1133,220
1133,516
1133,1064
1133,2575
1133,2788
1134,2767
1138,7
1139,1002
1139,1258
1139,2334
1139,3011
1141,818
1145,1961
1145,4814
1148,911
1148,1695
1148,2189
1148,2457
1150,223
1152,7
1152,1185
1153,4025
1154,456
1154,1447
1154,1875
1154,2834
1154,3737
1154,3766
1155,1084
1155,1255
1157,279
1158,207
1158,219
1158,1238
1158,1244
1158,1855
1158,2711
1158,4057
1159,668
1159,2086
1159,2100
1159,4563
1160,629
1160,2522
1168,4930
1170,2897
1173,860
1175,975
1176,78
1178,4849
1179,90
1179,1300
1181,668
1181,3948
1181,4494
1181,4901
1182,649
1182,999
1182,1376
1182,1745
1182,2704
1182,3269
1183,1773
1183,2238
1183,2449
1190,1228
1190,3720
1190,4923
1193,2640
1193,4290
1194,622
1195,4297
1196,1
1202,619
1204,2060
1206,4926
1207,376
1207,1167
1207,4305
1208,58
1209,1068
1210,1037
1210,3222
1210,3877
1211,3022
1212,2314
1213,406
1214,151
1216,45
1216,4907
1218,1131
1219,595
1219,614
1219,695
1219,3780
1220,253
1220,2815
1221,1735
1222,3375
1222,4741
1226,235
1227,1317
1229,280
1230,1063
1230,1790
1232,2599
1233,725
1233,2986
1234,324
1234,999
1234,2937
1234,4425
1234,4513
1234,4584
1236,185
1236,3543
1240,1068
1242,2161
1242,2550
1242,3417
1245,2413
1246,35
1246,293
1246,530
1246,670
1246,1340
1246,1892
1246,2065
1246,2297
1246,2616
1246,3219
1246,3593
1246,4216
1246,4695
1248,1036
1248,4126
1251,2050
1251,2469
1251,4005
1252,97
1252,1433
1252,3404
1257,1495
1257,1532
1257,1673
1257,2522
1257,4741
1258,3009
1258,3631
1263,554
1263,707
1263,872
1263,3549
1265,381
1265,575
1268,2602
1271,765
1271,1537
1271,2521
1271,3578
1271,3830
1272,1253
1273,2851
1274,2774
1274,3528
1275,606
1275,1040
1275,3174
1279,1256
1279,1299
1279,3074
1281,307
1281,695
1282,2815
1284,2153
1284,2751
1286,4301
1289,4550
1290,680
1290,1589
1291,2656
1295,214
1295,2046
1295,4200
1297,556
1298,1036
1298,2094
1298,2648
1301,2547
1301,3702
1305,2576
1309,539
1309,1014
1309,2416
1309,4810
1310,4538
1311,1349
1311,3018
1311,3497
1311,4737
1312,4537
1312,4681
1314,1069
1315,445
1315,1568
1315,2435
1315,3558
1315,4340
1315,4368
1316,1268
1316,3331
1318,711
1318,971
1318,1817
1318,2671
1318,3520
1318,4148
1324,220
1324,1885
1325,27
1325,4294
1326,469
1327,4819
1328,330
1328,1414
1328,2181
1328,3131
1328,3813
1328,3958
1328,4178
1328,4433
1328,4577
1329,190
1330,1186
1330,2329
1330,3127
1330,4504
1333,2201
1333,2380
1334,730
1335,39
1335,861
1335,953
1335,1086
1335,1375
1335,2266
1335,2688
1335,3094
1335,3195
1335,3233
1335,3239
1335,4743
1337,1562
1337,3795
1338,214
1339,430
1339,476
1340,154
1340,807
1340,867
1340,1409
1340,1727
1340,2967
1340,3562
1340,3958
1340,4901
1341,127
1341,4806
1346,3979
1350,139
1350,1164
1350,1967
1350,2893
1350,4706
1354,286
1354,518
1354,4450
1355,1051
1356,2909
1357,1628
1358,648
1358,2512
1359,330
1359,1895
1359,3281
1359,4642
1360,1352
1360,1541
1360,2157
1366,1063
1367,190
1367,747
1368,288
1368,2882
1369,379
1369,607
1369,3534
1370,1388
1371,50
1371,401
1374,372
1379,764
1379,1465
1379,2716
1379,3956
1380,83
1380,3173
1385,97
1385,2834
1385,4384
1386,396
1386,994
1386,1712
1386,4693
1387,711
1387,1458
1387,2209
1388,686
1388,1243
1388,2084
1389,1156
1392,1655
1393,474
1393,580
1393,2141
1393,2161
1393,2339
1393,4163
1394,299
1394,4780
1395,1809
1395,2225
1395,2817
1395,2879
1396,2368
1396,3850
1396,3918
1397,2599
1399,1821
1399,3918
1404,471
1404,790
1404,2083
1404,2468
1404,2499
1404,4381
1406,465
1406,725
1406,2200
1406,2870
1407,977
1408,1034
1408,1351
1412,283
1412,1110
1412,2275
1412,3068
1413,2030
1413,3122
1416,712
1417,673
1417,3065
1420,2751
1420,2999
1420,4380
1421,2166
1421,2650
1422,2312
1423,197
1423,4768
1426,147
1427,485
1427,1978
1427,2337
1427,3217
1427,3867
1427,4879
1428,836
1430,651
1433,550
1433,1656
1433,2113
1433,2138
1433,3453
1434,161
1436,2795
1441,4876
1442,114
1442,261
1442,3386
1442,3527
1445,2650
1448,1226
1449,3493
1450,1226
1451,3352
1453,3638
1454,1231
1454,2689
1454,3704
1454,3760
1454,4504
1457,1261
1460,7
1461,206
1463,1090
1464,1162
1464,1869
1464,2262
1468,1014
1468,4363
1469,1224
1471,4650
1473,4032
1474,1071
1475,1049
1476,1226
1478,99
1478,4305
1478,4414
1482,30
1482,279
1482,485
1482,1229
1482,2895
1482,3627
1482,4744
1484,309
1484,550
1484,4176
1485,2818
1486,2548
1486,3468
1486,3757
1487,3516
1489,2822
1489,4207
1489,4524
1490,2853
1490,4160
1491,1609
1491,4025
1492,130
1492,543
1492,598
1492,895
1492,1201
1492,1538
1492,2062
1492,4654
1494,2661
1495,56
1495,230
1495,647
1495,848
1495,1108
1495,1304
1495,3702
1495,4843
1499,2552
1501,140
1502,455
1502,926
1502,2746
1502,3534
1504,1153
1504,1267
1504,1296
1504,1548
1504,1692
1504,2534
1504,3733
1506,444
1506,646
1506,915
1506,1072
1506,1853
1506,2738
1506,3531
1506,3886
1507,63
1507,2072
1507,2563
1507,4625
1509,1392
1509,4473
1510,2165
1510,4439
1511,175
1511,2564
1511,3100
1511,3795
1512,153
1512,530
1512,978
1512,2038
1512,2438
1512,2501
1513,590
1515,670
1515,2129
1515,4400
1516,216
1516,455
1516,3066
1517,1044
1517,1049
1517,1572
1517,1850
1517,2505
1517,2511
1517,3891
1517,3959
1517,4025
1517,4089
1518,1756
1518,3537
1519,1266
1519,2265
1520,920
1521,278
1521,766
1524,4089
1524,4538
1525,287
1525,807
1526,807
1527,198
1527,1820
1528,1382
1529,10
1530,269
1530,1036
1530,3361
1530,4030
1533,206
1533,3252
1535,333
1537,493
1537,2109
1539,53
1541,60
1541,556
1541,812
1541,1403
1541,1435
1541,2408
1541,3474
1541,3851
1543,730
1543,3425
1544,794
1545,239
1549,2275
1551,4259
1552,275
1552,311
1552,2308
1552,2531
1552,2827
1552,3874
1553,2065
1554,658
1555,1990
1555,4457
1558,1441
1558,1452
1558,2588
1558,3178
1559,3536
1560,4305
1564,1288
1564,2564
1564,2778
1564,3726
1565,1470
1565,1714
1566,1886
1566,3120
1566,3397
1567,428
1567,463
1567,1418
1567,3193
1572,1774
1573,2
1573,4099
1574,3147
1574,3197
1574,3713
1575,127
1575,1372
1578,848
1578,918
1579,43
1579,206
1579,1638
1579,1674
1581,4943
1583,1419
1583,2831
1586,1246
1588,2500
1588,3722
1588,3823
1591,2559
1591,4267
1591,4376
1592,85
1592,2708
1592,4054
1594,614
1595,1943
1595,2564
1596,1364
1596,3039
1596,3467
1599,2795
1600,74
1600,2408
1600,4565
1601,205
1601,1281
1602,3235
1604,1284
1604,2107
1606,102
1606,1077
1606,1402
1606,4011
1607,311
1607,996
1607,2373
1607,2586
1607,3172
1607,3438
1607,3963
1610,3148
1611,1803
1611,4175
1611,4227
1611,4370
1611,4613
1612,3703
1613,4401
1614,2392
1614,3795
1615,35
1616,214
1616,1072
1616,2209
1616,4167
1617,166
1617,286
1618,48
1618,2220
1618,3329
1618,4486
1620,97
1622,2815
1623,2206
1626,1156
1627,756
1627,1312
1627,1687
1627,1960
1627,2256
1627,2562
1627,3218
1627,3265
1627,3381
1627,3666
1629,2853
1630,977
1631,1111
1631,2475
1632,822
1632,2139
1634,1336
1634,3541
1635,550
1635,619
1635,2884
1635,3967
1640,3594
1640,3761
1641,313
1641,436
1641,830
1641,899
1641,999
1641,1793
1641,1797
1641,2350
1641,2421
1641,2510
1641,3305
1641,3680
1641,3850
1641,4950
1643,1718
1651,622
1655,1492
1656,1302
1656,3452
1658,783
1659,161
1659,906
1659,2941
1660,499
1660,1712
1663,1140
1663,3503
1663,4383
1664,39
1664,2937
1666,241
1666,2381
1666,2795
1672,4317
1676,921
1676,2047
1676,4496
1677,971
1678,371
1680,4265
1682,2205
1682,4136
1684,766
1685,773
1686,1330
1687,1264
1690,241
1690,3510
1690,4580
1691,214
1693,575
1693,615
1696,1482
1697,1266
1697,2371
1697,4684
1698,691
1698,798
1699,287
1700,248
1700,441
1700,881
1700,1128
1700,2486
1700,2559
1700,3810
1700,4083
1700,4408
1702,301
1702,1266
1702,2014
1702,4571
1702,4656
1703,2009
1703,3530
1703,3971
1703,4655
1703,4844
1705,220
1710,214
1710,1988
1716,607
1716,1521
1716,2628
1716,3965
1717,2336
1717,2926
1718,1401
1720,1531
1720,1799
1721,139
1721,3983
1722,272
1723,2336
1726,849
1729,880
1730,1903
1730,4248
1734,2728
1735,246
1736,6
1739,1184
1739,1305
1739,3135
1740,166
1740,849
1741,1425
1742,624
1742,1429
1742,3761
1743,1198
1743,2735
1744,3103
1747,78
1749,1317
1749,2262
1750,11
1752,2678
1752,3302
1757,1400
1760,482
1763,542
1765,666
1765,3876
1765,4607
1765,4758
1765,4788
1769,920
1769,1024
1774,21
1774,1040
1776,312
1776,377
1776,2899
1777,1414
1777,1845
1777,2098
1777,2235
1777,3644
1777,3723
1777,4102
1778,4198
1781,469
1781,2528
1781,2742
1783,1184
1785,261
1786,54
1786,221
1786,359
1786,857
1786,1886
1786,2484
1786,2880
1786,3197
1786,3534
1786,3825
1786,3859
1786,4152
1786,4153
1786,4168
1786,4517
1786,4593
1787,737
1789,493
1790,764
1792,309
1794,400
1795,78
1795,214
1795,645
1795,1162
1795,1303
1795,1624
1795,1814
1795,1842
1795,2494
1795,2687
1795,4392
1798,630
1798,1045
1798,1281
1800,103
1801,1548
1802,940
1802,2057
1802,3712
1803,78
1804,1103
1805,2636
1805,3565
1806,452
1807,329
1807,1947
1807,2180
1808,419
1808,503
1808,883
1811,1131
1811,1600
1811,2522
1811,3652
1811,4317
1811,4359
1812,964
1812,2775
1812,3352
1812,3583
1812,4446
1812,4505
1812,4679
1813,1532
1815,4485
1818,582
1821,1845
1821,4398
1822,582
1822,1042
1822,1243
1823,2449
1824,1110
1825,706
1826,3953
1827,1
1827,340
1827,2375
1827,2823
1827,4368
1829,651
1831,1
1832,1465
1833,466
1834,1709
1834,2745
1836,488
1836,3274
1838,4730
1839,830
1840,392
1843,1657
1846,622
1848,1542
1848,2556
1848,4719
1854,11
1854,132
1854,924
1854,4576
1856,1186
1857,1246
1857,1441
1857,1845
1857,1998
1857,4421
1858,1512
1859,2689
1859,4485
1860,1402
1860,3166
1862,1352
1862,2931
1863,2969
1864,1571
1864,2737
1866,1553
1866,3114
1866,3981
1867,1771
1872,292
1874,552
1878,591
1878,1944
1878,3129
1878,3998
1879,3599
1881,2100
1882,1228
1882,2503
1884,1603
1886,1347
1889,21
1891,1845
1891,3245
1893,1040
1894,3036
1896,283
1897,1110
1898,1709
1899,7
1899,4522
1900,1701
1902,2406
1902,2957
1906,687
1908,343
1908,1281
1908,2791
1913,7
1913,2237
1913,2733
1913,4538
1914,935
1914,1849
1915,1762
1915,1911
1916,341
1916,1308
1916,3014
1916,3048
1916,3980
1916,4116
1916,4474
1917,2669
1917,4534
1919,162
1920,310
1920,1519
1920,3084
1920,4020
1921,1137
1923,531
1923,956
1924,334
1926,2558
1929,3796
1931,840
1932,2647
1932,4909
1933,3751
1934,1349
1934,2906
1936,103
1936,2100
1937,1377
1937,2889
1938,3032
1941,63
1941,244
1942,11
1943,82
1946,312
1947,90
1947,2957
1948,1621
1948,2855
1949,499
1949,941
1949,1602
1949,2079
1949,3845
1949,4214
1950,405
1952,35
1953,681
1954,105
1954,3514
1955,269
1955,288
1955,1508
1956,1713
1957,632
1957,773
1957,1035
1959,1398
1959,1595
1962,1248
1962,3332
1962,4254
1965,703
1966,2590
1966,3795
1969,952
1971,115
1971,2907
1972,2969
1973,1595
1973,4055
1974,1547
1976,476
1977,953
1977,4484
1979,3466
1979,4259
1981,646
1981,3796
1981,4755
1983,1392
1983,1967
1983,2850
1984,3795
1985,161
1985,2463
1986,433
1986,3635
1987,857
1987,2239
1987,2646
1988,700
1989,552
1989,2623
1989,3936
1991,392
1993,4126
1994,1873
1996,1967
1998,1649
1998,2414
2002,1927
2004,2182
2004,3881
2005,620
2005,1269
2006,515
2006,1256
2007,591
2008,4926
2009,201
2010,310
2010,2299
2011,846
2015,1845
2015,3495
2016,4705
2018,140
2021,485
2022,1331
2023,1522
2024,765
2025,4483
2026,131
2026,2314
2028,773
2028,2650
2031,476
2032,2650
2032,2687
2034,905
2037,1281
2041,791
2042,133
2043,1557
2044,3103
2045,4670
2046,2421
2046,3426
2046,3465
2046,3768
2046,4649
2048,1197
2048,1767
2048,4000
2048,4530
2049,3638
2051,853
2053,1873
2054,2599
2055,465
2057,143
2057,687
2057,822
2057,1110
2057,1256
2057,1737
2057,2003
2057,2900
2057,3103
2057,3516
2057,3546
2057,4005
2057,4483
2057,4526
2057,4729
2057,4861
2057,4877
2063,1953
2064,172
2065,154
2065,166
2065,218
2065,406
2065,605
2065,1177
2065,2108
2065,2840
2065,3134
2065,3236
2065,4219
2065,4345
2065,4374
2065,4441
2065,4655
2066,471
2066,4813
2067,119
2067,482
2069,2703
2069,3987
2073,940
2073,4271
2076,166
2076,1880
2076,3252
2076,4425
2080,2061
2085,853
2089,3535
2089,4504
2091,2925
2092,381
2096,239
2096,1344
2096,1354
2096,1540
2096,2313
2096,3091
2096,3542
2096,4700
2096,4926
2100,647
2100,751
2100,992
2100,2455
2100,4065
2100,4515
2102,571
2103,2870
2106,656
2106,1004
2106,1250
2107,74
2107,1256
2107,3288
2107,3812
2107,4877
2110,729
2110,4037
2111,1192
2111,4436
2113,3250
2114,216
2114,3133
2115,172
2115,2012
2115,3101
2118,1106
2118,3264
2119,3148
2119,3811
2119,4217
2119,4559
2121,2487
2121,4042
2121,4367
2122,1597
2123,498
2125,289
2128,69
2130,1709
2131,140
2131,3862
2132,1024
2134,826
2136,1929
2136,3751
2136,3945
2137,1254
2139,866
2140,1066
2143,1402
2143,2603
2144,47
2145,1082
2145,1796
2146,1927
2146,2497
2150,334
2150,4865
2151,566
2152,286
2152,3109
2153,2213
2154,1299
2155,4032
2156,1487
2158,97
2161,343
2161,678
2161,1274
2161,4851
2163,424
2163,4678
2168,668
2168,4395
2169,1
2169,239
2169,261
2169,371
2169,401
2169,498
2169,660
2169,766
2169,903
2169,962
2169,1226
2169,1264
2169,1459
2169,2052
2169,2300
2169,2540
2169,2755
2169,2930
2169,4281
2169,4485
2169,4634
2169,4670
2170,1198
2170,3508
2171,605
2171,4728
2172,35
2172,585
2172,1306
2172,2730
2172,4086
2173,4158
2174,659
2174,988
2174,3121
2177,2046
2177,2613
2177,2976
2178,219
2179,269
2180,1169
2180,3398
2183,130
2183,547
2186,2059
2188,1865
2191,279
2192,1458
2193,762
2193,4497
2194,198
2194,816
2195,1751
2198,2982
2201,161
2201,4007
2201,4547
2203,1036
2203,2374
2203,3170
2203,3570
2203,4444
2204,370
2204,1146
2204,2590
2204,4670
2206,471
2206,4204
2207,1604
2208,119
2208,208
2208,519
2211,1344
2211,2387
2212,405
2212,840
2212,1390
2212,4166
2214,193
2217,3363
2218,4259
2218,4671
2221,343
2221,4786
2222,1149
2223,988
2223,2803
2227,127
2227,2502
2227,3434
2227,4113
2227,4458
2228,3549
2230,12
2230,214
2230,2795
2230,3163
2231,729
2231,1107
2231,1313
2232,439
2232,735
2232,768
2232,1336
2232,2261
2232,3826
2233,1043
2236,620
2236,3832
2236,4320
2237,339
2237,637
2237,3027
2240,3463
2243,4901
2244,1852
2244,2973
2245,3978
2248,1544
2250,793
2250,3596
2251,1377
2252,1842
2252,4313
2253,1026
2255,6
2257,1662
2258,917
2259,607
2263,293
2263,4490
2264,46
2264,1205
2264,1249
2264,1935
2264,2087
2264,2133
2264,2970
2267,3456
2268,686
2268,4451
2268,4628
2269,372
2271,483
2271,730
2271,1982
2271,2220
2271,2291
2271,3968
2272,27
2273,3022
2276,1302
2277,703
2277,910
2277,2160
2277,3575
2277,4087
2278,3
2278,69
2278,363
2278,406
2278,873
2278,3516
2278,4110
2278,4312
2279,659
2280,3511
2281,812
2282,293
2282,817
2282,2928
2283,534
2284,234
2284,1347
2285,2039
2286,690
2287,115
2287,1229
2287,3077
2288,1111
2289,614
2290,220
2290,2197
2290,2303
2292,377
2292,405
2293,286
2295,3100
2296,2213
2302,703
2302,2117
2302,2445
2304,1628
2305,460
2305,1595
2305,4187
2307,261
2310,404
2310,686
2310,735
2310,4142
2311,4401
2315,1036
2316,917
2317,964
2317,2513
2317,2673
2317,3142
2318,288
2321,4830
2322,270
2322,753
2323,1349
2324,4659
2326,1595
2327,2100
2327,2435
2328,63
2328,343
2328,629
2328,4596
2330,371
2332,47
2333,886
2339,161
2339,1866
2340,69
2343,3617
2344,2581
2344,3042
2346,1226
2346,1244
2346,3683
2346,4640
2347,401
2347,4161
2349,740
2353,1657
2353,3746
2353,3894
2354,2704
2354,2807
2355,797
2355,4816
2356,286
2356,1342
2356,3580
2356,3731
2356,3755
2358,277
2361,1254
2362,873
2363,48
2363,3577
2365,83
2365,2803
2370,331
2376,1226
2377,2730
2379,270
2379,1019
2382,2052
2382,2701
2382,4270
2386,666
2386,819
2386,3403
2388,2135
2388,2558
2389,1336
2389,2887
2390,1225
2391,851
2391,2525
2391,2576
2391,4440
2393,269
2395,1472
2395,4043
2396,21
2396,2891
2397,3008
2399,3197
2400,2851
2401,2068
2407,2126
2407,3728
2408,3674
2408,3795
2409,1892
2410,699
2412,356
2412,4177
2413,4940
2417,672
2417,1188
2418,271
2418,1268
2418,1845
2418,2644
2418,3468
2418,3510
2418,3958
2418,4522
2418,4941
2420,397
2420,845
2421,1590
2422,1107
2424,69
2426,3197
2427,293
2428,1312
2430,3946
2434,844
2434,2758
2434,3751
2436,430
2439,3036
2439,4437
2440,4011
2440,4598
2441,1163
2442,2001
2443,48
2443,2714
2443,3548
2444,494
2446,1040
2447,4368
2448,3112
2449,1579
2450,3638
2451,1585
2451,1886
2451,4382
2453,3325
2453,4075
2454,1845
2458,32
2458,1738
2460,1302
2464,223
2464,498
2465,3984
2465,4490
2466,901
2470,700
2471,1266
2471,3104
2471,3721
2472,971
2472,3481
2472,3651
2473,633
2474,1967
2475,4406
2476,220
2477,74
2478,2461
2478,3149
2479,1791
2482,1940
2485,690
2485,724
2485,3036
2485,3240
2486,99
2486,246
2486,376
2486,381
2486,880
2486,1149
2486,1263
2486,1291
2486,1637
2486,1909
2486,2405
2486,2721
2486,2919
2486,3223
2486,4069
2486,4255
2487,1342
2487,2162
2487,3311
2487,3575
2488,4588
2490,1689
2491,115
2491,3539
2491,4575
2492,13
2492,646
2492,721
2492,1281
2492,1398
2492,1455
2492,2757
2492,4031
2492,4536
2493,1186
2495,3072
2504,127
2504,4677
2505,406
2506,3795
2507,2329
2513,1347
2515,432
2515,3132
2515,4980
2517,2743
2519,2389
2523,1912
2524,1918
2527,556
2530,3510
2533,1278
2535,920
2535,3358
2536,635
2536,920
2536,3129
2543,1885
2545,840
2548,1446
2548,1870
2548,2704
2548,4777
2549,2127
2549,4546
2551,471
2552,452
2552,1433
2552,1828
2552,1845
2552,3486
2554,2505
2555,216
2560,273
2560,4203
2561,267
2561,2957
2562,9
2562,1770
2562,2040
2564,1790
2567,127
2568,2185
2568,3242
2569,1620
2569,4232
2570,853
2571,4442
2572,800
2573,83
2573,1909
2573,3436
2576,768
2576,2661
2578,2184
2580,1522
2582,552
2583,4537
2585,1372
2587,216
2587,442
2587,3831
2589,527
2589,3988
2591,3563
2591,4610
2592,330
2592,449
2592,4828
2594,1731
2597,648
2597,2254
2597,2686
2602,215
2602,527
2602,849
2602,2061
2602,3060
2602,3310
2602,3817
2602,4670
2602,4917
2602,4976
2605,99
2605,1608
2605,1668
2605,2995
2607,460
2608,2571
2611,1336
2611,2749
2611,3458
2612,97
2615,1381
2616,1467
2618,931
2619,1180
2620,3511
2621,4269
2622,106
2625,48
2625,1707
2625,3080
2629,1172
2629,2657
2631,1437
2632,127
2632,198
2632,256
2632,702
2632,806
2632,1110
2632,1345
2632,1536
2632,2087
2632,3878
2632,4449
2633,1347
2635,968
2638,807
2638,2668
2641,343
2642,940
2645,793
2645,851
2645,2693
2645,3656
2649,3875
2649,4104
2651,1367
2651,2025
2652,2762
2652,4244
2652,4833
2654,1074
2654,1266
2654,1537
2654,2849
2654,3136
2654,3878
2654,4572
2655,1909
2657,1028
2657,1391
2660,721
2663,482
2664,4271
2666,556
2667,11
2667,4555
2669,622
2669,3576
2670,1277
2670,2761
2670,4478
2672,415
2674,953
2676,433
2676,1811
2676,3702
2676,4485
2679,4270
2680,4450
2681,293
2682,177
2683,1748
2684,3542
2684,3811
2690,3966
2690,4607
2692,209
2692,4191
2694,571
2694,3089
2694,3858
2694,4259
2695,3488
2695,3743
2695,3840
2696,97
2696,438
2696,1363
2696,1695
2696,2247
2696,2348
2696,2520
2696,3059
2696,3200
2697,2373
2697,3958
2700,2957
2700,4538
2705,16
2705,4035
2707,365
2708,1999
2708,2359
2708,3018
2708,3164
2710,4025
2710,4342
2710,4767
2712,63
2712,3010
2712,4923
2712,4965
2713,1321
2713,1514
2713,2403
2715,519
2717,1847
2718,133
2718,267
2718,314
2718,386
2718,925
2718,1249
2718,1703
2718,2261
2718,2602
2718,2646
2718,3026
2718,3325
2718,3636
2718,4011
2718,4307
2718,4934
2720,559
2726,657
2726,823
2726,1292
2726,4975
2728,1045
2729,2313
2730,2556
2731,433
2735,1082
2735,1262
2735,1753
2735,2015
2735,3457
2736,519
2739,356
2740,4387
2740,4766
2741,99
2741,4730
2741,4766
2742,3496
2744,161
2746,89
2749,1780
2752,2661
2754,2238
2756,72
2756,415
2756,857
2756,1016
2756,2971
2760,3631
2763,1037
2764,3036
2765,166
2766,2314
2767,216
2767,1122
2767,4427
2768,1605
2769,170
2770,42
2770,114
2771,511
2772,606
2773,2457
2773,4781
2776,607
2776,2481
2776,4600
2777,1639
2780,1600
2783,312
2783,3579
2784,4631
2785,746
2789,1
2792,2003
2793,1435
2794,386
2794,968
2794,1465
2794,3583
2794,4396
2794,4404
2795,482
2796,4142
2797,381
2798,3103
2799,63
2799,1247
2799,1392
2799,1481
2799,2781
2800,2919
2802,1988
2802,4893
2804,853
2805,367
2806,660
2808,109
2808,3019
2809,1186
2809,1435
2809,2824
2810,433
2811,3
2812,761
2812,905
2813,1708
2814,2661
2816,1071
2818,1522
2819,370
2820,3998
2822,2366
2822,3318
2828,2825
2832,4642
2836,489
2836,1095
2836,1999
2836,2689
2836,3655
2836,4641
2838,542
2839,442
2839,1076
2839,1563
2839,4672
2839,4730
2841,1928
2843,4032
2845,48
2846,201
2847,1424
2848,2314
2851,1429
2852,27
2852,1167
2856,2668
2856,3502
2858,6
2858,87
2858,421
2858,1317
2858,1646
2858,1719
2859,2830
2860,3516
2861,430
2861,768
2862,21
2862,115
2863,1463
2864,214
2864,3025
2864,4282
2865,1087
2865,3671
2866,2708
2866,4016
2867,1701
2867,2249
2867,2552
2867,2630
2867,3343
2867,3492
2867,3612
2872,1197
2873,2910
2875,2835
2877,2398
2878,239
2882,2112
2882,2219
2882,2926
2882,4238
2882,4521
2883,571
2885,241
2886,2480
2888,127
2888,2100
2888,3752
2888,4743
2890,3549
2891,585
2892,2704
2894,220
2895,3181
2898,1024
2898,4136
2904,3534
2908,1256
2909,798
2911,97
2911,2993
2912,169
2913,39
2914,1249
2916,3481
2919,4816
2920,996
2920,1465
2920,3261
2920,4519
2921,614
2922,1441
2923,172
2923,627
2923,633
2923,858
2924,1437
2925,431
2925,614
2925,694
2925,895
2925,1444
2925,1890
2925,2027
2925,2159
2925,4186
2925,4401
2925,4671
2929,71
2929,855
2929,977
2929,2025
2929,2060
2929,2432
2929,4366
2929,4531
2929,4925
2932,2643
2934,845
2934,1357
2934,4875
2934,4970
2935,390
2937,1587
2938,634
2939,817
2940,3263
2940,4271
2942,151
2943,2260
2945,2454
2945,4109
2945,4353
2947,2701
2948,1522
2951,1638
2952,944
2952,4368
2952,4424
2954,3032
2954,3930
2956,2060
2958,1060
2958,3516
2958,4169
2961,1817
2962,1512
2963,4877
2964,348
2964,907
2966,1024
2967,4126
2969,53
2969,471
2969,493
2969,1264
2969,1728
2969,2275
2969,4309
2972,3250
2978,1582
2978,2782
2979,3393
2980,347
2982,3482
2983,1673
2984,3549
2985,1403
2987,405
2987,858
2987,2723
2987,2901
2988,85
2992,261
2992,3991
2992,4438
2993,1302
2993,1657
2993,2093
2993,4243
2994,1845
2994,2896
2996,1947
2996,3457
2997,546
2997,2967
2997,3168
2998,1531
2998,4389
3000,2991
3002,4307
3004,1870
3005,4175
3007,2879
3007,3865
3008,1439
3013,1693
3014,216
3014,476
3014,666
3014,1865
3014,3366
3017,1522
3018,1388
3018,4873
3020,6
3023,794
3023,1355
3023,3032
3023,3439
3023,4365
3024,1895
3024,4108
3028,730
3028,3228
3029,2314
3031,632
3032,711
3036,1788
3037,1876
3038,492
3040,1554
3041,571
3041,1441
3042,1401
3044,993
3044,2919
3046,3704
3047,2161
3048,1123
3048,2854
3048,3848
3048,4150
3050,712
3050,4253
3052,2957
3053,746
3053,3741
3054,3415
3055,3197
3057,320
3057,3560
3058,976
3061,7
3062,483
3062,3051
3063,405
3064,330
3064,3008
3067,1439
3069,3266
3069,3516
3070,356
3071,1855
3072,21
3073,813
3075,1118
3076,426
3078,256
3080,507
3080,2675
3081,899
3085,35
3087,911
3088,120
3088,4380
3091,3036
3092,725
3093,185
3093,4300
3096,1036
3097,1865
3098,60
3100,332
3100,1180
3100,2099
3100,3240
3100,3383
3106,4729
3107,590
3109,1713
3110,2371
3112,851
3112,2282
3113,2148
3115,2515
3115,3754
3116,3738
3117,2871
3117,3396
3118,3792
3118,4126
3119,2599
3125,851
3125,3008
3125,4397
3125,4826
3126,208
3126,3547
3126,3954
3126,4955
3130,169
3130,4589
3134,1694
3134,2105
3134,3145
3138,320
3139,292
3139,4388
3140,1021
3140,3347
3140,3447
3141,2320
3144,1156
3144,3343
3144,3552
3146,3795
3146,4415
3148,749
3150,2345
3151,2957
3153,3922
3156,340
3156,4898
3157,2498
3158,63
3159,1068
3159,3318
3160,2647
3162,3208
3162,4442
3165,1253
3165,4453
3166,551
3167,2339
3169,172
3169,329
3169,787
3169,1638
3169,1670
3169,1754
3169,3051
3169,4626
3171,4189
3171,4471
3175,1837
3176,239
3176,4832
3176,4904
3180,1790
3182,95
3182,3549
3187,16
3187,3253
3187,3872
3187,4199
3187,4528
3188,2275
3189,235
3190,2571
3192,314
3196,2120
3198,1201
3199,354
3199,636
3199,947
3199,1243
3201,1286
3201,2159
3202,1443
3203,845
3204,1482
3205,2388
3206,1779
3210,3170
3211,856
3211,3123
3212,2449
3213,4442
3213,4516
3214,153
3216,1303
3220,2133
3221,365
3223,127
3223,311
3223,601
3223,840
3223,1608
3223,1927
3223,2727
3223,2833
3223,3144
3223,3424
3223,3735
3223,4231
3223,4292
3223,4501
3223,4520
3224,1345
3225,2514
3226,280
3226,4979
3227,3091
3227,4818
3227,4984
3228,139
3228,456
3228,1740
3229,329
3229,2099
3230,3036
3231,1438
3231,4942
3232,2000
3234,651
3238,1683
3243,333
3243,1035
3243,1186
3243,2886
3243,3282
3243,4882
3244,493
3244,3433
3245,4728
3250,1293
3251,648
3251,4911
3252,21
3252,55
3252,476
3252,1163
3252,2224
3254,390
3255,658
3256,1767
3256,4192
3257,3958
3258,31
3260,4601
3262,695
3262,2164
3265,3019
3268,3509
3268,3776
3270,1522
3270,2442
3270,3747
3270,3926
3270,4872
3271,58
3271,214
3271,289
3271,609
3271,1109
3271,1283
3271,2036
3271,3745
3271,4773
3273,288
3278,151
3278,352
3278,1239
3278,1260
3278,1877
3278,2637
3278,2702
3278,2944
3278,3128
3278,3777
3278,3878
3278,4504
3278,4553
3279,2486
3280,3549
3283,1733
3287,3039
3288,4316
3289,1522
3289,2141
3289,3787
3292,2300
3293,681
3296,1542
3298,3908
3301,476
3302,690
3303,87
3303,4760
3304,1
3304,2054
3306,269
3307,4401
3308,1167
3308,3555
3309,2314
3312,4901
3313,139
3314,1404
3314,4390
3314,4958
3315,1342
3317,2039
3318,63
3319,681
3319,3730
3321,146
3321,1437
3321,1714
3321,2197
3321,2216
3321,3183
3321,4727
3322,216
3322,528
3322,2927
3322,2989
3322,3390
3322,3863
3323,1895
3324,396
3325,4209
3326,1779
3326,2384
3326,4670
3327,198
3328,1159
3333,1041
3335,1105
3336,1078
3337,3083
3337,4787
3338,4141
3338,4304
3339,164
3340,90
3340,3828
3341,847
3344,3112
3344,4335
3345,2733
3346,340
3346,929
3346,4516
3347,428
3348,67
3350,2185
3351,1735
3353,78
3353,126
3353,1907
3353,3791
3353,4417
3355,1377
3355,2275
3356,2061
3357,3086
3359,666
3359,857
3359,1073
3360,2025
3363,607
3363,3601
3363,4308
3364,582
3364,2650
3368,71
3369,3616
3370,3732
3370,3984
3370,4062
3370,4341
3370,4515
3371,576
3374,1692
3374,3606
3376,2335
3376,4279
3378,2270
3378,2918
3379,585
3380,3881
3381,1756
3385,561
3388,3032
3393,1470
3397,383
3397,1073
3399,1648
3400,1239
3401,4894
3402,590
3405,128
3406,2850
3407,4011
3408,483
3409,271
3410,333
3411,3173
3412,1760
3413,2982
3415,415
3416,2962
3418,846
3419,534
3419,4591
3420,500
3422,214
3427,4622
3428,2602
3431,32
3432,877
3434,995
3435,2474
3437,2882
3441,2577
3442,271
3443,1344
3444,2556
3449,3958
3454,778
3454,845
3454,2840
3455,433
3455,4014
3456,1918
3459,1353
3460,3122
3462,3194
3463,4406
3464,481
3464,4315
3468,1155
3468,1654
3468,2148
3469,405
3471,773
3471,4241
3472,1041
3472,1278
3472,1381
3472,1481
3472,2750
3473,2815
3475,16
3475,791
3475,1149
3475,1241
3477,1227
3480,551
3480,1506
3480,1619
3480,2059
3480,2147
3480,2149
3480,2965
3480,3086
3480,3983
3480,4913
3481,607
3483,286
3483,1273
3483,3912
3484,277
3488,1225
3489,1163
3490,3041
3491,857
3494,3208
3504,851
3505,646
3505,3759
3506,665
3506,2061
3507,3702
3509,1472
3509,3906
3511,607
3513,2003
3513,3545
3513,3767
3515,98
3515,160
3515,575
3515,3156
3515,3905
3515,4111
3515,4207
3515,4621
3515,4644
3517,700
3518,3010
3519,6
3519,1780
3520,318
3520,613
3520,1038
3520,1082
3520,1401
3520,2541
3520,2815
3521,4122
3522,221
3522,2537
3523,730
3526,4622
3527,765
3529,542
3529,711
3529,1782
3529,2256
3529,4127
3533,614
3533,3820
3536,442
3536,4137
3536,4914
3538,2903
3539,2905
3540,214
3543,1438
3545,1819
3548,3103
3549,1155
3549,4147
3550,433
3550,840
3550,1909
3553,2191
3554,791
3556,3434
3557,601
3557,4687
3557,4823
3558,2059
3559,455
3561,216
3561,1243
3561,3031
3564,807
3564,4745
3566,2742
3568,3222
3569,1187
3571,1053
3574,1135
3574,1274
3574,1940
3574,3014
3574,3909
3574,4361
3574,4998
3575,432
3575,1140
3575,3117
3575,3433
3575,4269
3577,2874
3579,1382
3582,4244
3584,190
3584,3942
3585,115
3589,353
3589,1760
3589,2126
3589,2689
3589,2809
3589,3077
3589,4401
3590,1689
3592,2501
3595,4677
3597,1888
3598,1738
3599,793
3599,1111
3600,83
3600,1398
3600,4276
3602,214
3603,1438
3603,4595
3605,1909
3609,4316
3610,2206
3611,3451
3613,277
3614,3549
3619,3010
3620,539
3620,1068
3620,1184
3620,2012
3621,2912
3622,2552
3622,3783
3623,1043
3625,4126
3626,3022
3628,444
3629,4248
3630,3898
3630,4622
3632,1122
3633,198
3633,311
3633,826
3633,915
3633,2801
3633,2959
3633,3103
3633,3252
3633,3895
3634,2557
3634,2570
3637,356
3637,2081
3638,3274
3639,4339
3639,4442
3641,1040
3642,795
3643,1718
3646,1845
3647,1483
3648,3137
3654,2074
3654,3608
3657,848
3657,961
3657,1110
3658,323
3658,604
3658,1592
3658,2284
3658,3952
3658,4154
3661,2889
3662,3561
3662,4853
3663,27
3665,309
3665,511
3668,895
3668,1647
3669,566
3669,1847
3669,2767
3669,4461
3670,2969
3670,4726
3671,1107
3672,3363
3673,3575
3676,72
3676,186
3676,279
3676,1670
3676,2452
3676,4202
3676,4496
3676,4994
3677,1793
3678,3631
3679,4022
3682,3128
3682,4543
3684,812
3685,3095
3685,4264
3686,3173
3688,917
3690,2314
3691,3386
3692,2294
3694,69
3695,2531
3696,977
3696,1968
3697,2099
3698,4096
3700,3933
3701,622
3702,2017
3702,2404
3702,4502
3702,4923
3705,4506
3706,3253
3709,969
3710,500
3711,3137
3713,2073
3714,730
3716,689
3717,3123
3718,1895
3722,2960
3724,1355
3727,2383
3730,3867
3734,2320
3739,783
3740,3624
3744,1035
3744,1266
3744,2718
3744,3544
3744,4044
3744,4070
3748,1842
3749,589
3750,607
3756,4317
3756,4882
3758,2657
3758,3819
3758,3943
3763,1036
3763,3855
3765,3173
3766,4426
3767,190
3767,1021
3767,4968
3769,3576
3770,376
3770,1540
3770,2968
3771,773
3772,2574
3773,103
3774,3689
3775,3718
3778,2917
3779,1281
3782,1
3784,343
3786,1174
3786,3927
3789,2243
3790,3732
3794,1647
3797,1341
3800,1264
3802,2029
3804,4528
3805,4504
3806,1038
3809,1465
3810,1006
3810,1438
3810,2040
3810,3563
3816,2534
3818,1049
3822,354
3822,571
3822,4165
3824,523
3827,1784
3829,1305
3830,211
3834,2201
3835,2636
3836,3833
3837,1999
3837,3006
3838,3738
3839,2974
3841,450
3842,4175
3843,3504
3844,3083
3846,3434
3851,634
3852,184
3854,1034
3856,3021
3857,2206
3859,39
3859,142
3859,211
3859,221
3859,788
3859,943
3859,1522
3859,1554
3859,2246
3859,2442
3859,2629
3859,2712
3859,4381
3859,4679
3860,1733
3861,99
3861,1673
3861,2162
3862,3572
3864,3149
3868,332
3868,2416
3869,2165
3870,1496
3871,119
3875,1689
3876,123
3876,3006
3876,3500
3879,161
3880,3072
3882,2870
3883,1465
3884,3331
3884,4836
3888,1988
3889,214
3893,21
3894,179
3894,291
3894,334
3894,1156
3896,627
3897,597
3901,4814
3902,724
3903,195
3903,216
3903,594
3903,973
3903,1550
3903,1689
3903,2224
3903,2526
3903,3099
3903,3653
3903,3781
3903,3803
3907,712
3911,4307
3911,4386
3913,1111
3913,3957
3914,4401
3915,1619
3915,4172
3917,2087
3919,289
3920,4387
3922,42
3924,1747
3926,280
3926,680
3929,3015
3931,3331
3933,3426
3935,2457
3937,648
3939,695
3940,3795
3946,3831
3947,1024
3948,2905
3949,3022
3949,4871
3951,817
3951,1155
3953,1040
3953,2077
3954,1083
3956,420
3956,2073
3956,3728
3956,4973
3960,895
3961,2650
3962,1662
3964,1273
3964,4431
3966,3148
3967,3338
3968,1237
3968,2082
3968,2463
3972,1644
3972,4889
3973,223
3973,552
3973,1273
3973,1748
3974,3079
3974,3966
3975,127
3976,216
3976,2364
3977,3481
3978,639
3985,740
3985,4489
3986,3653
3987,773
3989,3795
3992,1888
3993,764
3994,256
3994,2025
3994,2264
3994,2345
3994,4034
3994,4206
3997,123
3999,36
3999,48
3999,1855
3999,4210
3999,4587
4001,1988
4002,2640
4003,286
4008,3010
4009,2314
4010,2449
4011,1875
4012,2991
4016,38
4016,324
4016,372
4016,449
4016,1605
4016,1711
4016,2857
4016,3389
4016,3586
4016,4344
4016,4369
4016,4878
4021,72
4021,745
4022,1898
4024,2509
4027,767
4027,1467
4027,4257
4029,1603
4029,4921
4033,935
4033,2554
4033,3022
4036,1589
4036,4557
4037,1892
4037,4554
4038,2949
4039,3294
4039,4670
4040,1342
4040,4326
4041,391
4045,1355
4046,605
4047,3821
4048,1372
4048,2823
4049,3086
4050,3233
4051,2068
4052,514
4053,4854
4058,1748
4059,1249
4060,3855
4061,1317
4063,340
4064,140
4064,3482
4066,279
4066,4579
4067,2840
4068,2849
4073,999
4074,1224
4076,231
4076,651
4076,1187
4076,4348
4077,4450
4078,39
4078,1589
4079,911
4080,695
4081,2835
4084,356
4084,553
4084,639
4084,681
4084,1425
4084,1569
4084,1661
4084,1700
4084,1851
4084,2282
4084,2953
4084,4601
4085,220
4092,1901
4093,778
4094,372
4094,689
4094,2174
4095,1021
4097,751
4098,41
4098,2020
4103,2493
4105,2909
4106,849
4112,433
4112,3746
4117,4011
4119,1239
4119,3248
4120,849
4121,2275
4122,2909
4123,2364
4123,4071
4124,2661
4125,2689
4126,897
4128,1269
4128,2468
4128,3363
4129,1411
4131,48
4133,1922
4134,880
4134,4428
4135,3704
4136,16
4138,3680
4140,2522
4144,3984
4145,857
4146,3152
4150,63
4150,2398
4150,3640
4151,971
4155,2364
4156,849
4157,326
4158,335
4158,1285
4158,1771
4158,2542
4158,3233
4159,1243
4162,1761
4164,1725
4170,2576
4173,1711
4173,2747
4175,566
4176,74
4180,3531
4180,4808
4180,4905
4181,1347
4182,2423
4183,246
4186,1492
4186,3102
4188,1344
4188,1402
4188,3299
4188,4502
4189,649
4194,4998
4195,1384
4196,43
4196,2610
4196,3026
4196,4556
4197,9
4201,3112
4203,2241
4205,1253
4205,4535
4206,379
4206,1396
4206,1738
4207,1505
4208,695
4211,2936
4212,1381
4213,3088
4215,3391
4218,253
4218,915
4218,1172
4218,1259
4218,2579
4218,2891
4218,3982
4219,1638
4219,3900
4219,4946
4220,2065
4222,2704
4223,63
4224,768
4225,3349
4226,3943
4227,1579
4228,1909
4229,1952
4229,4838
4230,2599
4233,1140
4235,607
4236,1004
4237,1967
4238,1873
4238,3549
4240,43
4242,952
4245,3250
4247,614
4247,1669
4247,2786
4247,4957
4249,2899
4251,994
4251,3966
4252,657
4253,1995
4258,2174
4258,4394
4259,3979
4260,642
4262,857
4263,2073
4266,4369
4268,3382
4271,1647
4271,4916
4272,1044
4273,3558
4274,390
4275,246
4277,1258
4277,2981
4280,3722
4283,1554
4283,1656
4283,3036
4284,12
4284,326
4284,1085
4284,1156
4284,4723
4287,221
4287,4709
4288,2421
4289,1845
4290,146
4293,1226
4295,3549
4298,483
4299,1673
4300,311
4300,445
4300,482
4300,615
4300,740
4300,1724
4300,2095
4302,3320
4302,3808
4302,4248
4303,2688
4304,3237
4305,3848
4306,381
4309,374
4309,1281
4309,2910
4310,1014
4311,4677
4314,4206
4315,3
4315,390
4315,892
4315,1381
4315,1810
4315,3715
4315,4026
4319,2650
4322,1243
4323,1415
4323,1425
4323,3567
4323,3788
4324,886
4325,1
4328,353
4329,4026
4330,1692
4330,4334
4331,1110
4332,620
4333,1766
4336,665
4337,3855
4338,1547
4338,4646
4339,520
4343,561
4343,632
4345,3636
4346,3425
4348,1779
4349,999
4350,943
4351,1888
4354,439
4354,1488
4354,3873
4355,1156
4356,3648
4357,4305
4362,3242
4364,670
4369,2
4369,232
4369,280
4369,1172
4369,1305
4369,1373
4369,1411
4369,2275
4369,2367
4369,2571
4369,2991
4369,3056
4369,3091
4369,3525
4369,4467
4369,4958
4372,3727
4375,2588
4376,986
4376,1779
4376,1978
4376,2483
4376,3316
4376,3342
4376,3990
4376,4269
4376,4793
4377,3127
4378,4108
4383,2584
4387,762
4393,379
4399,766
4400,3103
4402,87
4403,1247
4405,1089
4406,384
4407,651
4410,717
4411,6
4414,670
4416,3044
4418,3624
4419,703
4420,1110
4422,1967
4423,369
4423,2423
4423,4450
4425,614
4430,526
4430,678
4430,1305
4430,4023
4430,4465
4433,1411
4434,1174
4435,1482
4435,2013
4435,3529
4438,256
4439,1
4439,748
4439,756
4441,883
4441,3702
4443,1036
4447,3277
4448,2060
4452,702
4454,1188
4454,3363
4455,3482
4459,2725
4460,4382
4462,2275
4464,262
4466,2650
4468,3699
4469,69
4470,860
4470,4622
4472,921
4475,239
4477,2468
4479,1004
4479,3384
4480,858
4481,646
4482,1163
4483,2647
4485,287
4485,703
4485,4784
4487,931
4488,11
4490,1748
4490,2538
4491,1958
4493,4649
4495,1438
4498,3263
4498,4569
4499,4425
4500,4103
4503,1816
4503,2973
4503,3012
4503,3033
4503,4160
4508,1225
4508,3767
4509,753
4510,2989
4510,3161
4511,4502
4512,2912
4514,712
4516,2889
4518,784
4518,1262
4523,67
4526,4248
4527,3487
4529,857
4532,2124
4532,4682
4533,695
4537,4994
4538,2065
4539,2438
4539,2917
4539,4091
4540,206
4540,665
4540,1791
4540,2572
4541,1342
4541,1728
4542,1246
4545,4655
4546,1254
4546,2342
4546,4107
4546,4379
4548,78
4549,3091
4551,2879
4552,3143
4554,4019
4558,376
4560,3504
4562,85
4564,128
4566,3617
4567,482
4568,729
4568,3617
4568,3681
4570,3898
4573,4448
4582,3554
4585,4421
4586,4147
4588,115
4588,534
4594,66
4594,4798
4597,4019
4601,407
4601,972
4601,1224
4601,1540
4602,4307
4603,730
4604,1657
4606,476
4609,1918
4609,2750
4610,1967
4611,634
4612,895
4612,2602
4614,128
4616,58
4616,3807
4616,4412
4616,4642
4617,1966
4618,2628
4618,4555
4619,1395
4619,1715
4619,3249
4619,3958
4620,248
4623,1441
4624,754
4628,1875
4628,4006
4629,1646
4630,1880
4632,2133
4633,4142
4635,317
4636,457
4638,48
4639,1187
4643,3988
4645,2815
4647,4227
4648,1
4650,39
4650,4982
4651,2175
4652,4126
4653,2375
4655,2498
4657,2314
4659,719
4660,1720
4661,198
4662,917
4663,1638
4663,3152
4665,3103
4666,1053
4667,1441
4668,2206
4669,926
4669,2311
4674,686
4675,3563
4676,272
4676,2360
4677,4381
4680,2126
4683,2661
4685,1376
4686,699
4688,3746
4689,216
4689,4771
4691,1336
4692,97
4693,4396
4694,3127
4695,252
4695,2411
4697,3714
4699,2372
4702,3330
4703,1037
4704,1037
4707,3594
4708,2461
4710,2225
4711,1180
4714,3757
4715,219
4717,214
4718,2747
4720,4369
4721,3704
4722,4368
4723,3349
4724,1512
4724,1855
4724,2058
4724,2372
4724,3667
4724,3995
4725,1438
4728,4679
4729,988
4729,3083
4729,3455
4730,1032
4731,1409
4732,2357
4733,220
4734,4030
4735,354
4738,1665
4739,107
4739,1246
4741,746
4743,812
4743,1576
4743,1731
4743,2202
4747,4713
4749,318
4750,860
4752,32
4753,975
4753,1419
4753,2751
4753,3944
4753,4705
4753,4742
4754,299
4754,2588
4754,4886
4756,840
4756,943
4762,817
4763,1692
4765,1885
4770,500
4771,1093
4776,858
4776,917
4776,4256
4777,3122
4779,143
4781,1410
4781,2035
4783,36
4785,4137
4789,2339
4790,3667
4791,3241
4791,3727
4792,63
4795,556
4797,1998
4798,1165
4799,3653
4800,2374
4801,1656
4802,153
4803,931
4805,4926
4807,2751
4809,69
4811,4590
4812,3155
4817,3926
4819,1036
4820,4502
4821,2025
4822,2743
4824,1167
4825,4915
4826,99
4826,3291
4827,4405
4829,626
4830,1883
4831,264
4832,172
4833,2264
4834,4788
4835,1978
4837,23
4837,153
4837,211
4837,475
4837,678
4837,1641
4837,2357
4837,4400
4839,2891
4841,4219
4842,4450
4845,2457
4846,132
4846,1847
4848,2537
4848,3170
4848,3311
4848,3763
4850,267
4852,2559
4854,3563
4855,69
4856,657
4858,530
4859,246
4862,4601
4863,3318
4864,244
4866,4175
4868,1261
4869,3760
4870,4808
4874,2738
4876,1574
4876,3186
4876,3551
4879,3476
4879,4270
4880,2098
4881,2404
4882,917
4883,475
4885,680
4887,1375
4888,2896
4890,556
4890,4590
4891,3001
4894,3117
4895,765
4896,2882
4897,2826
4900,1536
4901,1131
4901,3009
4903,3252
4905,2471
4908,2423
4912,1953
4915,3529
4917,1063
4918,883
4922,1392
4924,406
4926,648
4928,3981
4929,2515
4931,3876
4933,1727
4935,4497
4937,1656
4938,1063
4939,648
4940,1424
4943,4270
4944,2986
4945,426
4945,624
4945,628
4945,703
4945,756
4945,818
4945,1348
4945,1361
4945,2977
4945,4368
4947,3352
4948,2537
4950,115
4950,860
4950,2075
4951,4998
4953,172
4954,232
4956,3285
4956,3392
4959,4877
4960,556
4961,66
4961,2269
4961,4305
4961,4361
4962,3516
4963,3236
4964,4656
4966,2919
4967,2909
4969,2486
4969,4043
4971,955
4971,1163
4971,1305
4974,22
4974,2909
4978,4826
4980,956
4981,1895
4982,1124
4983,552
4984,880
4985,670
4986,1816
4987,1621
4988,48
4990,1754
4991,953
4992,4942
4993,1110
4994,2503
4996,1876
4997,4445
4998,1652
4999,4615
