src,dst
0,1
0,5
0,549
0,1817
4,18
4,105
4,613
4,618
4,2112
4,2416
4,2685
4,3416
4,3748
4,4174
5,1716
5,1844
5,2389
5,4609
7,719
7,751
7,1926
7,3262
8,473
8,1542
8,1946
8,3181
8,3192
8,3566
8,3853
9,525
9,1499
9,2219
9,2929
9,3780
9,3958
9,4677
10,3330
12,1180
12,1362
15,260
15,2577
16,77
16,325
16,962
16,1616
16,3330
16,3446
17,3213
17,4731
20,1607
20,2574
20,3717
21,58
21,136
21,274
21,282
21,306
21,362
21,469
21,919
21,1336
21,1478
21,1529
21,2468
21,2613
21,2771
21,2876
21,3652
21,3955
22,97
22,318
22,557
22,4157
23,714
30,3650
30,3717
31,897
31,1719
31,1728
31,2027
31,3637
31,4695
32,965
32,3329
32,4011
33,1533
33,1637
33,2699
35,411
35,1571
35,2790
35,3713
36,1901
36,3552
38,51
38,326
38,1546
38,2455
39,107
39,405
39,482
39,521
39,778
39,847
39,1777
39,2281
39,2765
39,2923
39,4123
39,4653
39,4841
40,418
40,765
40,1159
41,87
43,53
43,182
43,695
43,783
43,1593
43,2034
43,4527
48,29
48,1204
49,539
50,265
54,47
54,3096
56,47
58,3984
61,2020
61,2730
61,3643
64,26
64,218
64,688
64,821
64,1264
64,1339
64,2159
64,3670
64,3966
64,4996
69,2341
70,14
71,2875
73,2110
74,1484
74,3055
74,4015
78,2627
81,77
84,737
84,828
84,1209
85,1127
85,1350
85,2011
86,4643
88,305
88,2594
89,2440
89,4293
91,310
91,1687
91,3709
91,4173
92,141
92,436
92,1487
92,2031
92,4497
94,96
94,489
94,1238
94,1751
94,2295
94,3898
94,3937
94,4137
94,4644
96,214
98,1906
98,4467
100,539
102,68
103,190
103,3827
103,4521
104,1430
106,2650
109,218
112,385
112,1210
112,2641
112,3504
112,3933
112,4855
113,606
113,1739
113,2233
113,3963
113,4613
115,132
115,1327
115,2627
115,3022
115,3384
115,4583
115,4925
117,2172
117,2341
117,3525
117,4643
118,538
118,2729
119,891
119,1194
119,3658
120,110
120,1002
120,1257
120,1615
120,1763
120,2636
120,2717
120,3656
121,2639
124,87
124,173
124,447
124,1824
124,3686
124,4371
125,207
125,1063
125,1789
125,3226
125,3720
125,3774
125,4367
125,4681
126,1106
127,76
127,2512
128,478
128,564
128,1618
128,2270
128,2379
130,759
130,1627
130,3759
131,935
133,1212
133,4608
133,4747
134,4361
135,3863
137,2974
138,29
138,1289
138,1498
138,1633
138,3115
142,782
142,2661
142,4278
143,2056
143,4049
144,1440
146,551
146,818
146,2583
146,3239
146,3537
146,3561
146,4463
147,5
148,421
148,468
148,741
148,874
148,898
148,976
148,2586
148,2623
148,3052
148,4022
149,998
149,1771
149,2762
149,3709
151,287
151,1251
151,1390
151,1427
151,2245
151,2374
151,3197
151,3331
152,63
153,95
153,255
153,320
153,433
153,717
153,720
153,1057
153,1151
153,1428
153,1642
153,1865
153,2054
153,2365
153,2376
153,2388
153,2885
153,3681
153,4467
153,4476
153,4890
154,166
154,312
154,4189
156,390
156,931
157,300
157,1185
157,2521
157,3133
160,192
160,4325
161,3181
162,455
162,3651
163,47
163,1603
164,1674
164,2073
165,29
168,2190
168,3539
169,831
169,868
170,605
174,72
175,710
175,2778
175,4439
180,1664
182,261
182,1284
182,1731
182,2036
182,2240
182,4064
184,492
184,1218
184,3933
186,988
186,4780
187,785
187,2055
187,2421
187,2627
189,1250
189,1259
190,1309
190,2377
190,2917
191,62
191,472
191,732
191,1315
191,1990
191,2226
191,2556
191,2568
191,2915
191,3208
191,3545
191,4363
194,519
194,632
194,2118
194,2472
194,4467
195,438
197,2774
198,268
198,615
198,3529
199,735
199,896
199,1224
200,1459
200,2021
201,176
202,4865
204,2776
205,675
206,675
206,1140
206,4271
206,4649
206,4768
209,2998
209,4506
213,2957
214,370
214,569
214,1221
214,1412
214,1775
214,2996
214,3216
214,4599
217,366
217,2145
217,2381
218,3373
218,4652
226,128
226,1282
226,4175
226,4761
229,47
229,4831
230,3297
231,654
231,705
231,1850
231,2610
233,3027
234,1332
235,566
235,611
235,1636
235,1996
235,3301
235,3517
235,3799
235,4434
235,4570
235,4579
236,2110
236,2799
237,721
237,3929
238,2036
239,3827
240,425
240,485
240,617
240,896
240,2945
240,3196
241,4376
242,3200
243,3763
243,4625
246,4494
247,1437
247,1622
247,3941
247,4488
247,4801
251,1673
252,788
252,1027
252,1597
252,3145
254,4320
256,765
256,939
256,4831
257,382
257,428
257,1190
258,1096
259,464
259,637
259,796
259,3100
259,3367
259,3831
259,4567
262,4010
264,196
264,4308
266,265
266,1363
266,1591
266,2639
273,218
273,3095
275,520
275,672
275,964
275,1292
275,2693
275,3056
275,3098
275,4562
275,4620
276,1401
279,1131
279,1665
280,1450
280,1613
280,1925
280,2734
280,3049
280,3854
281,124
288,727
288,1993
288,2481
288,2906
288,2949
288,3102
289,427
289,1362
289,1503
291,1820
291,2775
291,4245
292,795
292,1955
292,2173
292,2763
292,4169
292,4238
292,4632
293,511
293,1617
293,1684
293,2460
293,3395
294,883
294,1171
294,1768
294,2248
294,3210
294,3319
297,123
298,791
298,4474
299,2676
301,62
302,417
302,4467
304,3769
304,3929
306,1330
306,4262
306,4486
311,557
311,1090
313,896
313,3802
314,533
314,3827
315,539
315,813
315,947
315,1377
315,4664
316,49
316,181
316,1306
316,2597
317,3482
317,4455
319,2423
320,44
321,2775
322,1959
323,2
323,1168
324,25
324,72
324,1679
324,3109
324,4459
328,922
329,539
329,2549
330,2805
330,3526
331,123
331,3782
331,4350
333,677
333,1044
333,1885
333,3230
333,3369
334,539
334,4935
337,277
339,3876
340,969
340,1885
340,3760
342,815
342,1243
342,4020
342,4166
344,635
344,647
344,4551
344,4845
345,3717
346,815
346,1493
346,3077
346,3304
348,2085
350,218
351,3656
352,4844
352,4895
353,3114
353,3486
353,3553
354,4291
355,200
355,975
355,1068
355,1453
355,1649
355,4980
357,3498
357,4214
358,171
358,508
358,3898
360,29
360,645
360,839
360,2513
360,3044
360,4343
364,360
364,1455
364,2656
364,4496
366,2594
367,675
368,221
368,1696
368,3485
373,1346
373,3864
376,2960
377,378
377,4070
378,2775
380,589
380,3457
380,3864
380,4331
382,101
382,1580
382,4050
383,4467
385,412
387,940
388,3030
388,3174
390,530
390,1613
390,2999
391,838
391,2742
391,3561
391,3894
392,268
392,2067
393,4359
394,455
394,1276
394,2008
394,2480
394,2891
394,4664
395,1491
395,2960
396,2062
397,2976
397,3119
398,306
399,2396
399,2622
400,370
401,770
401,1562
401,2540
401,2756
401,4422
401,4548
402,159
402,629
402,2268
403,393
403,4791
404,4595
406,4926
407,121
409,926
409,3347
409,4170
410,625
413,359
413,1612
413,2686
414,1064
414,1493
414,1697
415,4094
415,4474
419,573
419,780
419,1088
419,2252
419,2884
419,3155
419,4593
419,4946
420,1530
420,1837
420,2349
422,917
423,200
423,495
423,4410
424,4516
426,1732
426,2158
426,2539
426,4456
427,387
429,3067
430,1339
432,2775
432,4448
434,3330
435,95
435,1699
435,2415
435,3202
438,3469
439,1375
439,2713
439,3656
441,4780
442,438
442,3159
445,3787
445,3887
448,3764
449,1446
450,4632
452,150
452,467
452,484
452,1596
453,1392
454,422
456,620
456,1578
457,983
457,1728
457,2005
458,225
458,889
459,192
460,245
460,3789
465,4593
466,517
466,534
466,913
466,1527
468,1174
468,1745
468,3592
468,4720
471,67
474,4844
475,575
475,2438
475,2907
475,3583
477,983
479,4325
480,1235
480,1578
480,2099
480,2770
480,2820
481,2439
481,3381
486,2023
487,3446
488,47
490,92
490,3294
491,1866
491,2996
493,265
494,3038
494,4046
498,785
498,2627
499,1119
501,1203
502,200
502,584
502,847
502,1048
502,2211
502,4002
502,4252
502,4437
502,4491
503,29
503,979
503,2079
503,2564
504,1772
504,3212
504,3231
504,3478
504,3593
504,3945
504,4053
504,4442
505,494
505,1797
505,2629
507,290
507,4700
509,1134
510,1079
510,4291
511,347
513,14
513,1565
518,2025
518,3176
518,4379
518,4391
518,4815
520,4041
521,4101
522,220
522,1919
522,4274
524,600
524,802
524,1905
524,2061
524,3240
524,3514
524,3575
524,4491
525,1054
526,370
526,662
526,1976
526,2775
526,2928
527,467
527,2291
527,2721
528,13
528,3127
528,4000
528,4469
532,2438
532,4668
535,45
535,2631
535,3451
535,4031
537,210
541,3613
543,4220
544,4026
545,557
548,906
548,1127
548,4767
550,141
550,290
550,1979
550,4665
552,1531
552,4368
554,223
554,508
554,1525
556,13
558,2649
559,3763
560,2085
565,1106
565,1336
565,2048
566,1407
566,2625
567,250
567,3857
570,34
570,4918
572,3643
574,725
574,1359
574,2301
574,3978
574,4904
576,25
577,72
577,277
577,1281
577,4862
577,4898
580,366
582,499
582,1147
582,2793
582,4523
585,172
585,742
585,1188
585,1262
585,4671
587,18
588,26
588,786
588,3933
588,4960
590,596
590,753
591,549
593,1332
593,4174
594,3929
595,370
596,2802
596,4845
597,370
597,936
597,2049
597,3041
597,4519
599,538
599,1831
599,1912
599,2153
599,2624
599,4780
601,889
601,2217
601,3409
601,4477
601,4744
602,60
602,1751
602,1880
603,657
604,1675
604,3616
607,260
607,843
614,844
614,1128
614,1417
614,3820
616,666
621,3579
621,4022
621,4057
622,495
622,1231
622,3794
622,4152
624,482
624,1708
624,2360
626,812
626,1735
626,2296
626,3631
626,4315
626,4532
630,99
631,327
631,3974
634,312
634,2934
635,613
635,1314
635,3028
635,4798
638,495
639,928
639,1902
640,222
640,883
640,1047
640,1473
640,3549
641,636
641,644
641,3599
641,4122
641,4259
641,4683
642,896
642,2334
643,1127
643,1870
646,3155
649,1322
649,1995
649,2536
650,139
651,2039
651,2552
651,3759
651,4332
651,4787
651,4990
652,678
654,996
654,2359
655,615
655,4161
657,1700
657,2635
659,830
659,4329
660,1485
660,2507
661,1592
664,92
664,221
664,817
664,897
664,1391
664,1431
664,1513
664,4280
664,4827
665,2352
667,3307
667,4291
669,718
669,3809
670,366
670,1225
670,1692
670,1704
673,1762
674,743
674,1758
674,2960
679,4865
680,34
680,1995
684,72
684,3259
685,724
685,1493
685,1774
686,820
686,997
686,1127
686,1986
686,4478
687,1278
689,183
689,1140
692,3374
693,1401
694,317
694,982
694,1021
694,2014
694,3998
694,4990
696,737
696,3095
697,377
697,469
698,218
700,1438
700,1728
700,1929
701,1216
701,1526
701,2547
702,2996
702,4685
703,4454
704,925
706,724
708,2195
708,3181
709,242
709,676
709,1125
709,4249
711,2227
711,2764
712,905
712,1077
712,2528
712,4049
714,682
714,2147
714,3402
714,4161
715,470
715,4941
716,129
717,586
717,1978
719,520
719,1364
722,92
722,4897
723,1519
723,1578
725,1245
726,3864
728,1886
728,3620
728,4291
729,1859
729,3244
729,3266
729,3610
729,3708
730,740
730,2909
730,3186
730,3853
733,6
734,1518
734,2463
734,3337
736,369
736,2501
736,2958
736,3346
736,4950
737,295
737,628
737,860
737,2052
737,2890
737,2963
738,572
738,1295
738,2661
744,1208
745,566
745,1309
747,1267
747,1578
747,1759
747,2081
747,3157
748,327
749,382
750,2921
756,3138
757,320
758,467
760,163
760,1938
761,2500
761,2641
762,436
762,4450
764,364
764,3349
765,1405
765,4359
768,276
769,483
771,59
773,277
773,2083
773,3354
775,589
775,866
775,3286
779,136
781,489
781,1750
787,3756
789,1661
789,2205
789,3334
789,3811
789,3972
790,1031
790,3340
792,290
792,4414
793,1106
793,1307
793,1514
793,4194
794,438
794,1737
799,65
799,145
799,1073
799,1306
799,1395
799,2026
799,2612
799,2990
799,3136
799,3635
799,4181
800,780
801,2518
801,3398
805,155
805,916
805,1561
806,492
806,2204
808,1086
808,2650
809,455
810,4656
813,176
813,3437
814,1293
818,1536
818,2308
818,2398
818,4170
818,4900
819,1038
819,2397
819,3048
822,2831
823,2266
823,3114
823,4292
825,72
827,286
827,1694
827,1749
827,1779
827,2143
829,1656
833,1004
833,1514
833,3793
834,884
834,1374
834,2436
835,173
835,1183
836,746
836,1149
836,4042
837,210
845,3560
848,371
848,1229
849,1332
849,2783
850,2196
851,1398
851,2308
852,841
852,938
854,2374
854,2459
854,2759
854,2865
854,4180
854,4680
854,4954
854,4973
856,3803
857,3365
859,557
862,935
862,4599
865,228
867,2684
868,101
868,1155
868,1304
869,218
869,3643
871,816
871,3365
871,3843
873,1515
873,4179
873,4812
875,2445
875,3207
876,53
876,1018
876,3142
879,3584
880,3803
882,606
882,1275
882,1308
882,3767
885,4599
887,777
887,1724
887,4277
889,53
889,1984
889,2483
889,2701
889,3484
889,4034
890,4516
893,14
893,4573
893,4698
894,79
894,277
894,2654
894,3709
895,386
896,42
896,1994
896,2034
896,2913
896,3760
898,1007
898,1354
898,1413
898,1656
898,1870
898,1871
898,2975
898,3145
898,3302
898,4976
899,1437
899,3609
900,4291
901,218
901,3296
904,13
904,2542
904,4135
907,2332
907,2474
907,4578
907,4888
908,652
908,1424
908,1809
908,2543
908,4982
910,1612
910,2500
910,4444
911,43
911,444
911,826
911,1548
911,1806
911,2317
911,3980
912,4161
913,54
913,1023
913,4825
914,188
915,405
915,2925
916,557
918,375
918,884
918,1120
918,2035
918,2355
918,2614
923,3582
924,1203
924,1537
924,2500
924,3007
927,2627
929,188
930,3628
930,4491
931,2564
931,2603
931,3873
931,4176
931,4840
932,2960
933,500
933,1100
933,3717
933,4068
934,1281
934,2572
934,2907
934,4054
934,4387
934,4667
939,1548
941,1518
942,1146
942,4990
943,950
943,2960
944,500
944,663
944,2633
945,3322
946,14
946,3971
947,3516
948,985
948,1511
948,2215
948,2503
948,2663
948,3656
949,2379
949,3960
951,998
952,2238
952,2387
952,3417
952,4396
953,387
954,1534
954,3877
956,579
957,2199
959,2143
959,2875
959,3411
961,1390
967,200
967,3567
967,3685
967,3970
968,47
968,1203
968,3371
968,4117
970,4844
972,883
972,1141
972,1988
973,195
974,2627
974,4780
976,2438
980,47
980,1647
980,2667
980,4250
981,332
981,1378
986,2834
987,221
987,4013
989,1737
990,1253
990,3256
991,2611
993,1296
993,1537
993,2391
993,2626
993,2861
993,3158
993,3446
993,4831
994,4815
996,455
999,2033
999,2486
999,2599
999,3249
999,3475
999,3757
999,4023
1000,765
1000,3281
1001,2259
1003,639
1005,1982
1005,2440
1007,37
1007,290
1007,1962
1007,2813
1007,4140
1007,4455
1009,618
1010,457
1010,2304
1011,2925
1012,87
1012,3602
1012,4903
1013,219
1013,4832
1014,1514
1014,3248
1014,3953
1014,4372
1015,719
1016,57
1016,2815
1016,4817
1017,1504
1017,3372
1020,3858
1020,4933
1022,628
1024,878
1026,1080
1026,1170
1026,2438
1026,2661
1026,4435
1028,906
1028,1274
1028,1421
1028,3132
1028,3813
1028,4003
1028,4616
1029,218
1029,1067
1030,735
1031,1537
1031,1721
1031,2137
1031,2879
1031,3010
1031,3460
1031,3569
1032,389
1032,2927
1032,3093
1032,4830
1032,4981
1034,3430
1035,82
1035,925
1036,707
1039,1501
1040,372
1040,666
1040,3424
1041,294
1041,1504
1041,2954
1043,124
1043,3220
1045,480
1045,1381
1045,4719
1046,122
1046,1921
1046,4927
1049,114
1050,883
1051,3422
1052,1044
1052,1543
1052,2833
1052,3376
1055,846
1055,2808
1055,4562
1055,4713
1056,68
1056,2113
1056,2967
1056,3322
1056,3914
1056,4319
1058,1646
1060,68
1060,83
1060,232
1060,282
1060,2077
1060,4851
1061,382
1062,2772
1066,218
1066,1369
1066,4302
1069,327
1069,2267
1069,3163
1070,1039
1072,1673
1072,1974
1074,2564
1074,4816
1075,514
1076,947
1076,1430
1076,2382
1078,1526
1078,2018
1078,2170
1081,542
1081,1875
1081,3059
1081,4500
1082,569
1082,2708
1082,3045
1082,3274
1083,913
1083,2141
1083,3616
1084,5
1084,1637
1084,2548
1084,3389
1084,3464
1084,3612
1084,4021
1084,4990
1085,1569
1085,2466
1085,2824
1085,3445
1086,4956
1089,2901
1089,4261
1091,1088
1092,619
1093,494
1093,1674
1093,1998
1093,3207
1093,4541
1093,4601
1093,4678
1093,4848
1094,619
1095,327
1095,1903
1095,4613
1097,855
1098,514
1099,838
1101,2262
1101,2745
1101,4325
1102,1019
1103,3240
1107,1670
1107,3325
1109,210
1109,437
1109,568
1109,1108
1109,1608
1109,1899
1109,2688
1109,3617
1109,3669
1109,3692
1109,4124
1109,4600
1109,4967
1111,815
1112,277
1113,77
1114,1122
1114,2789
1115,571
1115,2757
1115,3323
1117,2789
1117,3270
1121,185
1121,1841
1123,1067
1123,1893
1123,2276
1123,4290
1124,1339
1126,1044
1126,2657
1126,3297
1126,3741
1132,4844
1134,249
1134,1356
1134,2438
1137,600
1137,1539
1137,2250
1142,557
1143,269
1143,1125
1143,1495
1143,2331
1143,3400
1143,3573
1144,418
1144,3806
1145,2400
1145,4831
1148,1958
1148,2887
1148,3224
1148,4359
1157,713
1158,3145
1159,1106
1159,2847
1160,58
1160,2235
1160,4445
1161,778
1161,1718
1162,2804
1162,4320
1165,1071
1166,4467
1166,4645
1169,754
1172,1387
1176,586
1176,4466
1177,1967
1177,3489
1178,1172
1179,175
1179,349
1179,4037
1179,4407
1179,4467
1179,4911
1179,4940
1181,1172
1182,381
1184,3291
1186,23
1186,1907
1186,4729
1189,326
1189,763
1189,3815
1189,3929
1191,166
1193,55
1193,4381
1194,1993
1195,824
1196,172
1196,2857
1197,1203
1198,1268
1198,4123
1198,4317
1199,2698
1201,417
1202,141
1205,530
1205,2404
1206,4958
1207,1163
1210,425
1210,2336
1210,2564
1211,47
1211,140
1211,1200
1211,1420
1211,2478
1211,3036
1211,3130
1211,4261
1211,4964
1213,1082
1214,782
1214,1399
1214,1746
1215,3764
1217,2439
1218,14
1223,1100
1230,68
1232,1044
1232,1437
1232,2834
1233,962
1233,4460
1234,4291
1237,853
1239,218
1241,739
1241,1257
1241,2191
1241,2935
1241,3105
1241,3511
1242,652
1244,557
1244,1293
1244,1619
1246,772
1246,2674
1246,4225
1246,4785
1247,682
1247,2257
1247,3903
1248,480
1250,1645
1252,1551
1252,3615
1254,1796
1254,3374
1256,4693
1258,369
1260,842
1260,1726
1263,1695
1263,1772
1264,894
1265,114
1265,2144
1266,1645
1266,3369
1268,912
1268,3433
1269,114
1271,57
1271,3896
1272,2083
1272,3761
1273,1023
1273,3025
1273,4183
1277,982
1278,1345
1278,2053
1278,2138
1278,2606
1278,2727
1278,3662
1278,4318
1280,109
1280,3654
1283,4831
1285,53
1285,59
1285,267
1285,604
1285,841
1285,1227
1285,1673
1285,2045
1286,978
1286,3215
1288,707
1288,1630
1288,1765
1288,2280
1290,742
1290,2748
1290,3707
1291,4544
1291,4552
1293,218
1293,546
1293,1783
1293,4416
1293,4555
1297,4675
1298,751
1298,1516
1298,1976
1298,3954
1299,3321
1299,4488
1300,1316
1300,1394
1300,2939
1301,6
1302,47
1302,1736
1303,992
1305,171
1310,896
1311,34
1312,2085
1318,1210
1320,1954
1320,2970
1320,3615
1321,675
1323,284
1324,92
1326,1425
1326,3751
1326,4036
1326,4123
1326,4264
1326,4493
1326,4525
1329,45
1331,2810
1332,2772
1333,2265
1333,3715
1334,26
1334,2912
1338,1371
1338,4361
1342,4363
1343,3086
1343,4133
1343,4329
1344,76
1346,2272
1347,99
1347,290
1347,711
1347,1838
1347,4221
1347,4438
1349,4448
1352,2875
1353,3831
1355,3425
1355,3678
1355,4311
1355,4566
1359,97
1360,1684
1360,3050
1361,1077
1362,520
1362,2214
1362,3386
1362,3749
1362,4577
1365,3297
1366,2500
1368,3496
1369,770
1373,598
1376,910
1377,656
1378,374
1378,1374
1379,42
1384,4123
1385,42
1385,2722
1386,2996
1388,25
1388,2588
1388,3982
1389,63
1392,2399
1393,1448
1393,3181
1393,3935
1394,3929
1396,272
1396,332
1396,440
1396,812
1396,872
1396,3199
1396,3792
1398,1059
1398,1281
1398,1406
1400,92
1401,278
1401,303
1402,3800
1403,3656
1404,4554
1405,1629
1405,3344
1405,3426
1406,652
1406,3126
1408,625
1409,4278
1410,13
1411,92
1414,170
1416,1134
1416,2169
1419,396
1419,4431
1422,114
1422,1476
1422,3523
1423,2056
1424,739
1424,922
1424,1440
1425,278
1425,4306
1429,192
1429,2972
1433,656
1434,171
1434,4204
1435,3191
1441,1457
1441,4857
1443,95
1445,1317
1446,1992
1446,2523
1446,3211
1446,3877
1446,4693
1447,2050
1447,2100
1447,2873
1447,2900
1448,1153
1448,1236
1448,2387
1448,4326
1449,44
1451,200
1451,695
1451,1458
1451,1769
1451,2443
1451,2993
1453,210
1454,3930
1456,1991
1458,196
1458,1788
1458,4811
1460,938
1464,2549
1465,1140
1465,2521
1465,4191
1466,390
1466,2646
1466,4274
1468,1185
1469,4831
1470,1953
1471,245
1471,983
1471,1505
1471,1532
1471,4650
1472,13
1472,1975
1474,881
1474,1437
1474,1868
1474,3428
1477,167
1479,2577
1480,623
1480,883
1480,1096
1480,1133
1480,1566
1480,2157
1480,4576
1480,4783
1481,3018
1481,3866
1481,3919
1482,482
1482,3823
1486,1317
1488,566
1489,1960
1489,2085
1489,3008
1491,921
1491,1222
1491,1755
1492,1141
1492,2263
1493,18
1493,67
1493,2322
1493,3907
1494,3027
1496,4023
1497,410
1497,2130
1497,3121
1502,1500
1506,1437
1507,196
1507,2126
1507,4010
1509,1397
1510,1761
1510,1894
1510,2399
1510,3588
1512,572
1514,80
1515,3656
1517,1578
1519,224
1519,2398
1519,3097
1520,470
1520,628
1520,1581
1520,1879
1520,3095
1520,3522
1521,1216
1521,3663
1521,3691
1521,3822
1523,282
1524,1035
1526,1578
1528,3297
1528,3844
1535,336
1537,1004
1537,1440
1540,3929
1541,4506
1544,221
1546,46
1546,1583
1549,1314
1549,2047
1549,3314
1549,4638
1550,1557
1550,2004
1550,2352
1550,2507
1551,627
1551,843
1551,1135
1551,3180
1552,539
1554,3454
1554,4154
1555,276
1555,3956
1556,370
1556,2449
1565,483
1567,390
1567,1944
1567,3043
1567,3087
1568,4902
1570,1010
1570,2328
1572,269
1572,2647
1572,2898
1572,3004
1573,3773
1573,4695
1574,494
1575,374
1575,1748
1575,4338
1577,950
1579,940
1582,3178
1582,3615
1584,306
1584,1585
1586,600
1587,1350
1587,3399
1588,90
1589,539
1590,2403
1590,3070
1590,4552
1594,1684
1594,4491
1595,26
1598,1038
1599,661
1599,4287
1601,653
1604,1487
1606,1200
1606,2940
1607,162
1607,408
1607,516
1607,543
1607,682
1607,2596
1607,3037
1607,3174
1607,3358
1607,4038
1607,4063
1607,4114
1607,4605
1609,2438
1609,3715
1610,363
1611,753
1614,3235
1621,1043
1623,1043
1623,4749
1624,72
1624,284
1624,1974
1624,2618
1629,1592
1629,2011
1629,2544
1629,3581
1631,543
1634,652
1635,714
1636,183
1636,1003
1638,817
1639,188
1640,1632
1643,870
1643,906
1643,3179
1643,3543
1643,3830
1646,2306
1648,3717
1650,211
1652,486
1652,811
1652,2084
1652,2095
1652,2825
1653,76
1653,3975
1654,3433
1655,2361
1655,2366
1655,2379
1655,2511
1656,1106
1657,1141
1658,1641
1658,2551
1660,4161
1662,1391
1663,1463
1663,2662
1663,4291
1663,4426
1664,904
1664,1743
1664,3027
1665,2627
1665,4257
1666,1208
1667,389
1667,1208
1669,43
1669,1544
1669,3397
1669,3736
1670,1399
1671,1439
1672,1087
1673,4161
1676,484
1676,755
1676,788
1676,4408
1677,2438
1678,1673
1681,681
1681,1729
1683,998
1686,3069
1686,4599
1688,2549
1689,482
1690,72
1690,892
1690,909
1690,4016
1690,4053
1692,363
1692,804
1692,3785
1693,707
1693,2883
1698,177
1698,2434
1700,2108
1700,2936
1700,3057
1700,3310
1700,4559
1700,4586
1700,4968
1701,1377
1701,1759
1702,338
1702,553
1702,840
1705,958
1706,3067
1707,47
1707,4901
1709,1019
1710,457
1710,2237
1711,1618
1712,925
1712,1656
1713,438
1713,2590
1714,1362
1714,3020
1714,3502
1717,14
1717,542
1717,1864
1718,653
1718,3564
1720,1318
1723,92
1724,1966
1724,2019
1724,4926
1725,525
1726,499
1726,865
1726,1240
1726,1367
1726,2343
1726,4156
1726,4232
1727,3787
1728,3881
1730,982
1730,3728
1733,423
1740,219
1741,377
1741,476
1741,2394
1742,3787
1744,1726
1744,3142
1747,817
1752,1108
1753,181
1754,2641
1763,2109
1763,2994
1763,4815
1764,3230
1765,1377
1766,1999
1767,975
1767,3586
1770,4291
1773,924
1775,47
1775,3988
1775,4222
1775,4482
1776,613
1776,2246
1777,903
1777,1065
1781,307
1781,903
1781,1426
1781,4335
1784,958
1785,1941
1785,3496
1786,1174
1789,2867
1790,2015
1790,2457
1791,865
1791,1920
1792,200
1793,103
1794,966
1794,2499
1795,1619
1798,2242
1799,1336
1800,514
1800,975
1800,1483
1800,1890
1801,618
1802,1100
1803,865
1803,4473
1804,45
1804,1238
1805,4990
1808,185
1810,868
1810,2105
1811,566
1812,59
1812,4889
1813,1779
1814,569
1814,982
1814,3232
1816,1746
1816,3997
1818,3801
1818,4235
1819,818
1819,2075
1819,2343
1821,336
1821,3805
1821,4123
1821,4846
1822,1071
1825,2611
1828,455
1828,4044
1830,382
1830,4116
1832,628
1833,1728
1833,2724
1835,2639
1839,941
1840,1077
1840,4385
1842,746
1842,2703
1842,2977
1843,4599
1844,451
1844,496
1844,3134
1845,1110
1846,2015
1847,2326
1848,99
1849,892
1849,4219
1851,915
1853,1529
1854,513
1854,1936
1857,804
1857,1620
1860,1227
1863,185
1863,1087
1863,3012
1867,2077
1867,4723
1869,47
1874,2309
1874,2328
1874,3060
1874,4803
1876,327
1877,72
1877,1834
1877,3509
1877,4058
1879,4682
1881,3150
1883,2398
1883,3568
1884,520
1887,4567
1888,2029
1888,3678
1889,841
1889,2838
1891,4256
1895,1452
1896,43
1896,4662
1897,114
1897,1957
1897,2259
1897,3687
1897,4072
1898,76
1898,1367
1898,1605
1898,3182
1900,2564
1908,2056
1910,1762
1911,2011
1916,2627
1917,839
1917,3763
1918,219
1918,2584
1919,2114
1922,786
1922,4742
1923,3168
1923,3772
1927,1228
1927,1267
1927,2040
1927,4680
1931,1027
1931,1219
1931,1452
1931,1602
1931,1892
1931,2616
1931,2880
1931,4780
1934,633
1935,63
1936,1906
1936,3499
1939,47
1939,238
1939,3001
1939,3443
1940,1529
1940,3733
1940,3900
1942,1274
1942,4088
1943,2937
1943,4815
1945,483
1945,4535
1948,817
1949,3911
1949,3950
1949,4681
1951,97
1951,1680
1951,1933
1951,2469
1952,557
1952,4074
1953,1782
1961,1430
1963,1442
1963,3664
1964,1977
1964,2440
1965,3067
1967,3756
1968,3610
1969,883
1970,4771
1971,4815
1972,34
1972,3221
1973,4902
1978,1762
1980,1768
1980,2669
1980,4418
1981,45
1981,1345
1981,3528
1983,628
1983,4019
1985,557
1985,1989
1985,4063
1985,4311
1986,75
1986,506
1987,41
1987,2671
1987,3191
1987,3256
1987,4234
1987,4336
1990,1628
1990,4007
1991,2742
1992,1019
1992,1444
1992,1856
1992,2550
1992,3308
1993,343
1993,2671
1997,1287
2000,618
2001,3694
2001,4089
2002,221
2002,2134
2002,2351
2002,4072
2002,4327
2003,2378
2003,3513
2007,619
2008,2527
2009,188
2010,2992
2012,25
2015,2264
2015,2627
2015,2948
2016,418
2016,1757
2021,746
2021,2397
2021,3764
2022,455
2024,815
2024,3441
2027,636
2027,2553
2027,3661
2028,327
2028,2599
2030,218
2032,1391
2032,3636
2035,218
2035,539
2035,1530
2037,988
2037,2800
2038,652
2038,3129
2042,4235
2043,783
2044,563
2044,2795
2044,3604
2044,3783
2044,3814
2045,797
2045,963
2051,3811
2056,362
2056,3776
2057,2959
2057,4054
2058,200
2059,1194
2060,788
2060,4915
2062,5
2063,924
2065,2611
2065,3154
2065,4401
2066,141
2068,66
2068,4842
2070,3756
2071,1870
2074,1391
2074,2604
2075,327
2075,1226
2076,1106
2078,433
2080,1859
2082,62
2082,2509
2087,1317
2087,3527
2088,982
2089,390
2089,3504
2090,1118
2090,3680
2090,3990
2091,3853
2093,3202
2093,3465
2094,329
2096,637
2096,3459
2097,66
2098,2507
2098,2609
2098,2870
2098,4439
2101,1476
2102,1354
2103,14
2107,209
2109,3626
2109,4077
2110,1392
2111,82
2115,1430
2115,3671
2116,1988
2116,2013
2117,2549
2119,1083
2119,3777
2120,533
2120,982
2121,290
2121,3447
2121,3591
2122,1067
2123,290
2123,2212
2124,3067
2125,284
2129,2496
2131,1325
2131,4047
2132,37
2133,3297
2134,4120
2135,1778
2135,1975
2135,2298
2136,3199
2139,46
2139,159
2139,215
2139,253
2139,1746
2139,1787
2139,2877
2139,3798
2139,3865
2139,4554
2139,4721
2139,4815
2140,3929
2142,1106
2142,4647
2146,387
2146,2239
2147,416
2149,2632
2149,3297
2149,4296
2150,3560
2150,4207
2152,3656
2154,714
2154,2385
2154,3647
2155,2672
2156,1976
2160,2575
2160,3682
2160,4404
2160,4899
2161,933
2161,2530
2162,540
2163,619
2163,1650
2163,1878
2164,1327
2165,2775
2166,611
2166,3912
2166,3916
2166,4242
2167,777
2168,4291
2171,1525
2174,1544
2174,2471
2174,2807
2174,4104
2174,4711
2175,1088
2176,1674
2176,3886
2176,4863
2177,1152
2178,2190
2178,4187
2179,3322
2180,1416
2181,3446
2183,1514
2184,300
2185,4990
2186,1218
2188,2141
2189,1348
2189,3800
2192,2650
2193,2026
2194,455
2194,2520
2194,2755
2196,754
2196,2832
2197,13
2197,2357
2197,2413
2197,4589
2198,467
2199,2699
2200,3027
2201,443
2202,60
2203,2330
2203,3067
2206,3853
2207,1228
2208,124
2208,2128
2209,1337
2210,1345
2213,19
2213,95
2213,608
2213,902
2213,1210
2213,2241
2213,2316
2213,3328
2218,27
2218,114
2218,210
2218,1037
2218,2017
2218,2379
2218,2518
2218,3080
2218,4089
2219,3385
2220,1954
2220,4328
2221,671
2222,45
2222,4875
2223,2199
2225,327
2225,1220
2225,4683
2228,2723
2228,3680
2229,1270
2230,1919
2231,93
2232,536
2234,562
2234,1430
2236,444
2236,470
2237,3872
2243,797
2243,4233
2244,2275
2244,3272
2244,3942
2247,366
2247,1722
2247,1761
2247,3786
2249,2062
2249,3458
2251,1362
2251,4357
2252,1478
2252,2695
2253,129
2253,438
2253,1695
2254,1208
2254,2532
2255,1112
2256,124
2256,3018
2258,1723
2260,3560
2261,2500
2269,155
2269,2693
2269,4388
2271,494
2273,4278
2274,3078
2275,1152
2276,341
2277,1401
2278,1596
2279,1649
2279,3418
2282,139
2283,2352
2284,3454
2285,1358
2285,3057
2286,688
2287,617
2287,2110
2287,3729
2288,2249
2289,992
2290,1436
2292,2235
2294,139
2294,2259
2294,2991
2296,3917
2299,703
2299,3111
2300,652
2300,1179
2301,766
2301,1386
2302,290
2303,533
2304,1235
2305,541
2306,2084
2307,611
2310,1508
2311,2112
2312,1190
2314,1152
2315,1380
2317,4223
2317,4267
2318,2233
2321,542
2323,4291
2324,2190
2324,2872
2325,1716
2327,958
2329,2023
2333,533
2335,976
2337,167
2338,1768
2338,3151
2339,3433
2339,4771
2340,4047
2342,3184
2344,529
2344,2041
2347,1047
2348,3540
2348,4844
2349,1760
2350,617
2353,463
2353,629
2353,4164
2354,1322
2356,4438
2358,444
2358,2969
2362,1047
2363,1180
2363,1789
2363,2402
2367,1251
2368,37
2369,1903
2370,2438
2371,579
2372,67
2373,533
2380,2439
2382,116
2382,4268
2383,425
2384,656
2384,1476
2386,3122
2386,4449
2386,4815
2388,703
2391,422
2391,3352
2391,4269
2392,1380
2392,4172
2392,4730
2393,3851
2396,1899
2399,683
2399,4161
2405,1437
2406,2081
2408,1991
2409,1914
2410,921
2411,366
2414,4278
2414,4415
2417,244
2418,841
2419,343
2420,50
2420,161
2420,440
2420,1336
2420,3587
2420,3639
2422,2153
2423,80
2423,656
2423,2740
2423,3329
2423,3725
2423,4237
2423,4299
2425,4287
2426,1309
2427,2190
2428,343
2428,1522
2428,3525
2429,51
2430,219
2430,467
2430,690
2430,703
2431,372
2432,72
2432,77
2432,2670
2435,37
2435,4199
2437,2
2437,29
2437,2040
2437,4279
2437,4843
2439,3552
2440,19
2440,921
2440,4256
2440,4537
2441,381
2444,3202
2445,3591
2446,1083
2447,1518
2448,1135
2450,444
2451,2442
2451,3255
2451,3282
2453,1772
2453,3040
2454,2064
2456,2241
2458,2645
2461,3245
2461,4291
2462,1789
2464,2881
2464,3510
2465,731
2465,3032
2467,1042
2470,531
2473,815
2475,2241
2476,1459
2479,1906
2482,539
2482,2870
2484,2472
2485,1903
2488,4291
2489,1991
2489,3382
2489,3392
2489,4184
2490,713
2490,767
2490,813
2490,816
2490,2888
2490,2966
2490,3546
2490,4307
2491,371
2491,515
2491,3312
2492,1317
2493,1336
2493,2827
2494,224
2494,541
2494,636
2494,1629
2494,1685
2494,2690
2495,4209
2495,4386
2495,4599
2496,1356
2497,42
2497,2834
2498,218
2501,1139
2503,3642
2503,4997
2504,1768
2506,724
2510,3297
2514,43
2515,652
2517,611
2519,2235
2524,1772
2525,97
2525,4159
2526,3202
2529,2480
2529,4092
2531,1208
2531,3198
2533,335
2533,428
2534,1274
2535,4438
2536,244
2537,101
2537,4502
2538,772
2538,3533
2538,4562
2539,776
2541,3051
2541,3933
2544,4096
2546,268
2549,1761
2554,2212
2555,2528
2557,2627
2558,542
2558,4008
2559,1357
2560,647
2561,1641
2562,390
2563,2979
2565,1998
2569,908
2571,1928
2571,3217
2573,4516
2575,2085
2576,637
2577,2259
2577,2789
2577,3333
2578,118
2578,4697
2579,1684
2579,2187
2579,3501
2580,443
2580,3311
2580,4354
2581,884
2582,1673
2583,196
2583,512
2583,1287
2583,1357
2583,2346
2583,3268
2583,4611
2587,1571
2587,3506
2589,2233
2591,1852
2591,2627
2592,1141
2593,1083
2593,2442
2593,4066
2593,4361
2593,4482
2594,159
2595,4189
2598,2481
2601,1390
2604,244
2604,3838
2605,183
2607,1514
2609,60
2611,1722
2613,111
2613,2064
2613,2736
2615,553
2616,3317
2617,145
2619,1362
2620,1649
2621,2982
2622,1308
2622,2563
2627,167
2627,612
2627,2379
2627,4969
2629,1387
2629,2749
2634,1528
2637,1418
2638,1348
2640,1043
2640,4188
2640,4714
2641,2672
2641,3203
2641,3407
2642,1899
2642,2714
2642,4939
2643,2187
2643,3143
2644,553
2644,4504
2645,377
2645,2932
2647,500
2647,604
2648,4122
2648,4853
2650,433
2651,883
2651,4850
2652,4844
2653,557
2653,3818
2654,220
2655,1548
2658,93
2658,1156
2658,3561
2659,2611
2660,2055
2665,896
2669,2401
2669,3273
2673,221
2673,645
2675,896
2677,1906
2679,2083
2679,2785
2680,2321
2680,4526
2680,4810
2681,2259
2682,1380
2683,1235
2683,4539
2684,2974
2687,1436
2687,2241
2689,418
2691,96
2692,2481
2694,2590
2696,1748
2697,894
2697,2148
2697,2190
2698,1544
2700,4256
2702,282
2704,842
2704,3841
2705,1958
2706,3057
2707,1789
2708,3819
2709,3770
2709,4902
2710,864
2710,3329
2710,3762
2711,92
2715,707
2715,1493
2716,693
2716,842
2716,2564
2716,3977
2718,28
2718,1667
2720,978
2725,1585
2726,952
2726,1560
2728,2663
2729,1164
2731,783
2732,3652
2733,3323
2733,3933
2735,495
2737,192
2737,4893
2738,1227
2739,80
2739,3468
2739,3519
2741,47
2741,308
2743,798
2744,1380
2747,4438
2749,1418
2750,2046
2751,3085
2752,1319
2753,1318
2753,3876
2754,910
2754,4627
2755,1138
2758,1684
2760,1255
2761,843
2765,495
2765,2719
2765,3906
2765,4270
2766,216
2766,1576
2766,2293
2767,1697
2770,995
2770,1750
2770,2216
2770,2600
2770,3606
2772,2566
2772,3213
2774,1208
2775,2108
2775,2864
2776,600
2776,4341
2777,2272
2779,2008
2779,3408
2780,3582
2780,3596
2781,3207
2784,831
2786,2023
2787,1809
2787,4360
2788,4681
2790,2977
2791,444
2791,531
2792,2466
2796,1270
2796,3035
2796,4514
2797,753
2797,1823
2798,2374
2801,4438
2803,444
2806,3354
2806,4313
2809,928
2810,3329
2812,2567
2814,27
2814,618
2816,2714
2816,3061
2818,1548
2819,2213
2821,135
2821,1410
2822,2598
2823,2549
2825,4865
2826,34
2826,3138
2826,3356
2828,1067
2829,2235
2829,2973
2830,1236
2835,455
2835,4604
2836,2056
2839,2974
2839,3181
2840,2277
2840,3446
2842,1391
2843,1850
2844,209
2845,13
2845,2044
2845,3141
2846,93
2846,3419
2849,443
2849,2992
2850,1439
2851,37
2851,3473
2851,4883
2852,2503
2853,4503
2854,568
2856,1565
2856,3548
2858,1359
2858,3891
2858,4073
2859,80
2860,4170
2862,2077
2863,218
2863,2695
2863,3423
2863,4646
2866,34
2868,349
2868,3267
2869,3880
2871,4870
2874,1746
2877,192
2878,578
2879,63
2879,200
2879,2886
2881,1649
2882,1748
2886,1467
2886,4045
2887,381
2887,3940
2889,843
2889,3884
2892,1533
2893,34
2893,2086
2894,2772
2895,543
2896,104
2897,486
2900,1957
2902,3126
2902,4962
2903,2522
2904,158
2904,754
2904,1618
2904,2092
2904,3179
2904,4160
2905,1928
2908,2676
2910,2326
2910,2394
2911,469
2911,3074
2913,3
2914,2110
2916,1620
2917,3932
2918,3297
2918,3526
2919,79
2920,110
2920,111
2920,171
2920,203
2920,785
2920,1351
2920,3677
2920,3768
2920,4090
2921,2341
2922,34
2924,1218
2924,3049
2924,3481
2929,1125
2930,97
2931,2628
2933,77
2938,1615
2941,326
2942,2983
2942,3755
2942,3850
2942,4475
2943,551
2946,1440
2947,14
2950,2500
2950,4084
2951,899
2951,4487
2952,840
2956,618
2957,303
2957,484
2957,2953
2961,1724
2962,483
2964,80
2964,2508
2964,3236
2968,3723
2968,4562
2971,4280
2976,598
2976,783
2978,523
2978,2602
2980,3643
2982,72
2982,666
2984,396
2985,2500
2986,775
2986,4991
2987,960
2988,2044
2989,123
2992,1932
2992,3611
2992,3991
2995,1140
2997,4516
3000,4503
3003,1174
3005,4189
3006,1229
3006,3706
3008,2611
3009,4815
3011,1578
3011,3374
3013,42
3013,3645
3014,14
3015,731
3015,3817
3016,1612
3017,1699
3019,6
3019,3172
3021,2316
3021,3563
3024,349
3026,1766
3027,183
3029,2564
3031,817
3033,2996
3034,663
3034,2398
3038,4376
3039,42
3042,925
3043,2522
3043,4389
3046,210
3048,390
3049,555
3049,592
3049,992
3049,1490
3049,1641
3049,1762
3049,3446
3053,3501
3054,2627
3055,2775
3057,1779
3061,691
3062,652
3063,2925
3063,3442
3064,2604
3065,633
3065,1703
3066,3536
3067,2110
3068,1358
3068,4571
3068,4833
3071,778
3071,4693
3071,4786
3072,937
3072,3058
3073,2970
3075,210
3075,1950
3075,4533
3076,1906
3078,2717
3078,3882
3079,2627
3081,1558
3081,2035
3082,891
3083,2937
3083,3306
3083,4125
3084,372
3085,43
3088,669
3088,3862
3088,4091
3089,747
3089,3152
3091,1719
3092,2586
3094,2564
3094,4443
3094,4727
3099,924
3101,1495
3101,4337
3103,1675
3104,494
3104,4726
3106,1491
3107,461
3107,529
3107,798
3107,1118
3107,1317
3107,2678
3108,648
3108,1341
3108,1350
3108,4743
3110,2055
3111,66
3112,3764
3114,105
3116,1903
3117,2250
3118,2965
3119,13
3120,2522
3121,172
3121,283
3121,2926
3123,2085
3124,798
3125,3060
3125,4509
3128,1208
3131,335
3137,661
3139,3179
3140,688
3143,553
3143,2072
3143,4489
3144,3155
3146,2019
3147,1402
3148,1125
3149,2867
3150,278
3150,3491
3153,1210
3156,2259
3156,3623
3157,724
3157,4885
3161,2762
3161,3271
3162,824
3164,1751
3165,361
3165,484
3165,771
3165,2332
3166,405
3167,3213
3169,375
3170,370
3171,855
3173,929
3175,1267
3176,955
3176,1932
3177,145
3181,2676
3183,1462
3185,1203
3185,3260
3187,1100
3187,4224
3187,4518
3188,2309
3189,267
3190,598
3193,2960
3194,774
3194,1772
3195,3330
3201,3643
3201,4871
3202,3678
3205,3228
3205,4359
3206,586
3209,1629
3209,4167
3210,90
3211,2236
3213,3375
3213,3698
3213,3881
3213,4333
3214,4883
3217,2375
3218,2663
3218,4419
3219,296
3219,4185
3222,3929
3223,610
3223,3825
3225,2187
3227,909
3229,4189
3232,1335
3233,2211
3234,865
3237,2262
3238,2044
3241,940
3241,4835
3242,2641
3243,3256
3245,628
3246,3476
3246,4926
3247,4613
3250,1501
3251,171
3251,4507
3251,4602
3252,1739
3253,13
3253,2744
3253,2944
3253,3728
3253,3952
3254,59
3257,224
3258,1578
3259,72
3261,2831
3264,863
3269,1772
3275,170
3277,90
3277,145
3277,666
3277,1255
3277,2602
3277,3747
3278,1387
3279,2016
3280,455
3283,1308
3284,1726
3285,731
3287,2062
3288,2346
3289,735
3290,4488
3292,4347
3292,4933
3293,536
3293,3216
3295,11
3295,2712
3295,2782
3298,2235
3299,1323
3301,557
3301,1129
3303,2996
3305,3929
3309,2224
3313,139
3313,4563
3315,2085
3316,2935
3316,3535
3318,538
3318,1035
3319,4406
3319,4857
3320,1134
3324,431
3325,851
3326,150
3328,108
3328,114
3328,188
3328,248
3328,270
3328,322
3328,579
3328,1105
3328,1415
3328,1873
3328,2407
3328,2502
3328,2775
3328,3864
3328,3889
3328,3946
3330,1462
3331,2075
3332,4599
3335,2326
3336,1278
3336,3565
3337,1174
3338,2460
3339,618
3341,379
3342,913
3343,2684
3347,3655
3348,1190
3350,3067
3351,707
3353,896
3355,362
3357,1155
3359,1386
3360,37
3360,1580
3360,3916
3360,4285
3361,2249
3362,578
3362,2345
3362,2390
3362,3058
3362,4095
3363,2556
3363,3833
3364,161
3364,185
3366,937
3368,200
3368,2246
3368,3760
3370,284
3373,4795
3373,4820
3377,43
3378,2486
3379,1763
3380,2693
3383,2549
3383,4330
3387,4526
3388,57
3390,3756
3391,2034
3393,963
3394,331
3396,1912
3397,1139
3397,3704
3398,2321
3398,2567
3398,2664
3401,984
3401,3881
3403,77
3403,495
3403,2242
3404,1140
3405,1087
3406,844
3410,438
3412,96
3412,4028
3412,4795
3412,4861
3413,2820
3414,2199
3415,971
3420,536
3421,2684
3422,628
3429,703
3429,4930
3430,136
3430,1322
3430,3466
3431,347
3432,140
3434,746
3434,4352
3435,306
3436,2293
3438,2078
3439,2990
3440,122
3442,28
3442,1033
3442,1559
3444,3002
3445,4291
3448,540
3448,1308
3449,1047
3449,3666
3450,1139
3451,538
3451,990
3451,1261
3451,2433
3451,3615
3452,3263
3453,1071
3453,4107
3454,578
3455,2190
3456,2391
3461,2641
3462,1578
3463,847
3467,2671
3470,1772
3471,2627
3472,1548
3474,326
3477,788
3479,114
3480,2008
3483,4503
3487,1548
3488,1152
3488,3559
3488,4109
3490,1498
3492,1200
3493,2549
3494,4468
3494,4831
3495,225
3496,470
3497,994
3498,1886
3498,3515
3498,4081
3500,703
3500,1924
3503,1612
3505,2759
3507,1235
3508,707
3510,250
3510,486
3512,1294
3512,1957
3512,3614
3512,3861
3518,838
3520,3582
3521,2901
3524,1914
3526,2500
3526,4955
3529,224
3529,4550
3530,2459
3530,2508
3531,462
3531,619
3532,2077
3534,699
3534,3389
3536,1993
3536,4581
3538,1696
3540,4260
3541,2647
3542,34
3544,42
3547,860
3552,2237
3554,1649
3555,306
3555,4288
3555,4994
3556,4361
3558,2549
3558,3678
3560,53
3561,2676
3562,641
3566,966
3566,4766
3570,4453
3570,4919
3571,2110
3572,3504
3573,581
3574,1190
3576,915
3577,714
3577,4149
3577,4197
3577,4356
3577,4447
3578,1495
3580,3222
3582,558
3584,49
3585,1378
3588,2006
3589,3384
3590,484
3594,4848
3595,3181
3597,3058
3598,863
3598,4912
3600,740
3600,1679
3600,1826
3601,2031
3601,4564
3603,433
3605,2016
3606,3244
3607,3422
3608,2377
3610,1495
3616,3856
3618,3087
3621,25
3622,171
3624,1038
3625,683
3627,1761
3627,2627
3629,295
3629,721
3630,628
3631,1738
3632,1451
3633,1659
3633,1766
3634,3513
3638,2870
3640,1886
3641,1172
3644,2072
3646,260
3646,3744
3646,4353
3648,950
3649,3270
3650,1564
3653,1984
3653,4560
3657,1548
3659,4241
3659,4329
3660,2717
3662,208
3662,278
3665,1722
3667,14
3668,4506
3672,977
3673,1809
3674,221
3675,1504
3676,1921
3679,2046
3679,2481
3679,4916
3683,815
3684,183
3687,4394
3688,647
3689,1219
3690,1538
3693,444
3696,2440
3697,1210
3699,200
3699,4966
3701,1039
3702,101
3702,2746
3703,2030
3705,2459
3705,4837
3707,384
3708,1383
3708,3695
3708,4778
3710,2508
3710,4457
3711,4567
3712,1140
3714,3309
3716,3090
3716,4022
3717,3682
3718,1734
3718,3291
3718,3433
3718,4723
3719,3616
3721,1192
3721,2313
3721,2452
3721,3502
3722,929
3724,4921
3727,1089
3730,3398
3731,2328
3732,4448
3735,832
3737,1722
3738,4693
3739,1096
3740,1134
3742,2641
3745,3454
3746,1907
3746,3811
3750,489
3752,1042
3752,1332
3752,3107
3753,1442
3754,578
3754,4079
3756,802
3758,1390
3763,543
3763,1981
3763,2320
3763,3047
3763,3446
3763,3586
3765,3755
3765,4987
3766,606
3771,3504
3772,1622
3773,1319
3773,1829
3773,3427
3775,2
3779,1516
3781,124
3781,4361
3784,1685
3787,3182
3788,122
3788,390
3788,854
3788,1110
3789,3557
3789,3619
3790,2923
3790,4475
3791,1439
3793,104
3795,444
3796,143
3797,363
3801,1759
3803,484
3804,1284
3805,783
3805,1614
3807,3976
3809,541
3810,539
3812,2041
3816,42
3819,610
3820,3057
3821,26
3824,4310
3826,3656
3827,177
3827,268
3828,1370
3828,2973
3828,4067
3829,1898
3829,2385
3829,2794
3829,2955
3831,1562
3831,4255
3832,1578
3834,369
3835,296
3836,800
3837,3424
3839,843
3840,575
3842,1042
3842,4213
3845,277
3846,2960
3847,96
3848,2714
3850,1902
3851,181
3852,947
3852,4314
3853,2034
3855,4474
3859,1345
3860,3256
3867,1537
3869,1330
3869,4631
3870,4997
3871,28
3874,23
3875,295
3876,747
3878,2880
3879,3002
3879,4648
3880,2631
3881,897
3883,2242
3885,1077
3888,2663
3890,181
3891,2965
3893,874
3895,628
3897,105
3899,176
3900,369
3900,1397
3900,2630
3900,4553
3901,1615
3902,2734
3904,188
3905,2626
3908,2627
3909,2974
3909,4126
3910,2676
3910,4069
3913,3291
3915,1152
3915,1442
3916,183
3916,365
3916,731
3916,978
3916,1008
3916,2364
3916,2848
3916,4933
3918,557
3920,2522
3921,1560
3923,2886
3924,3678
3925,3281
3926,1372
3926,4205
3927,628
3927,3526
3928,196
3930,1508
3930,2183
3931,1294
3933,3067
3934,2046
3934,4806
3936,2861
3938,1647
3939,2650
3943,615
3943,4085
3943,4358
3943,4972
3944,1243
3947,3587
3948,27
3949,3097
3951,3416
3957,4411
3959,4683
3961,4554
3962,72
3964,1629
3967,619
3968,1440
3969,4262
3969,4565
3969,4808
3972,1270
3972,1348
3972,1760
3972,3597
3973,1027
3976,2745
3979,780
3979,1682
3979,3265
3981,682
3983,676
3983,1382
3983,1855
3985,1152
3986,3446
3987,3199
3989,1493
3989,4097
3989,4777
3992,997
3993,263
3994,1156
3995,1553
3995,4377
3995,4492
3996,798
3999,3552
4001,1002
4001,4545
4002,2855
4002,4701
4004,3050
4004,4417
4005,52
4006,1878
4009,1067
4012,615
4014,3678
4014,4017
4018,913
4024,285
4025,3097
4026,894
4027,3127
4029,4017
4030,1294
4033,42
4035,628
4035,1462
4038,807
4038,1882
4039,1790
4040,2199
4043,1861
4046,179
4046,4168
4047,3270
4048,3569
4049,4007
4050,2259
4051,3946
4052,218
4054,3010
4056,3496
4057,193
4057,752
4057,771
4057,853
4059,1894
4060,925
4061,1350
4062,1641
4065,3376
4071,1451
4076,4023
4078,803
4078,3065
4080,4747
4082,1439
4082,3764
4082,4520
4082,4580
4083,4291
4086,2477
4086,3400
4087,2567
4093,1838
4095,960
4095,1185
4099,446
4100,512
4103,436
4105,1332
4105,4351
4106,589
4108,2556
4110,2598
4111,583
4111,2990
4111,4626
4112,2440
4113,975
4115,1332
4118,3327
4119,2224
4121,2960
4122,2570
4122,4758
4123,2549
4123,4170
4127,4693
4128,96
4129,436
4129,4258
4130,896
4131,1493
4131,4162
4132,821
4133,3225
4134,387
4134,431
4134,1858
4134,1928
4134,4186
4134,4705
4136,139
4138,224
4139,4990
4141,2627
4143,533
4144,200
4145,3311
4146,405
4147,681
4147,1228
4147,4298
4148,1432
4148,1760
4148,2837
4148,3726
4150,703
4151,1699
4153,2045
4155,171
4155,3922
4158,2293
4163,592
4165,2717
4166,4189
4171,290
4172,72
4172,309
4172,861
4172,1437
4172,1715
4172,2190
4172,2424
4172,4689
4177,1957
4178,4990
4180,4958
4182,58
4189,863
4189,878
4189,3135
4189,3833
4189,4508
4189,4877
4190,2423
4192,2710
4192,4709
4193,2627
4194,1947
4195,533
4195,4710
4195,4796
4196,72
4198,4631
4199,4075
4200,2426
4200,4870
4201,2627
4202,1543
4203,1134
4206,863
4208,431
4210,3540
4211,4170
4212,3725
4215,950
4216,1208
4217,2064
4218,192
4220,24
4220,1600
4220,1807
4220,3160
4220,4451
4220,4887
4226,2880
4227,530
4228,1004
4229,1106
4230,1152
4231,557
4234,858
4236,1154
4239,3178
4240,703
4240,1909
4243,1528
4244,3917
4246,2656
4247,1790
4248,3681
4251,57
4251,185
4251,382
4253,3207
4254,200
4256,25
4256,1337
4256,2016
4256,4098
4258,2505
4262,3070
4263,547
4263,1979
4265,3643
4266,4209
4272,2699
4273,945
4275,960
4275,4453
4276,1202
4278,1500
4278,1578
4278,2487
4278,2811
4278,2841
4278,3965
4280,1782
4281,2553
4282,2586
4283,72
4284,1735
4286,57
4289,671
4289,1544
4289,2326
4289,2960
4289,3025
4291,3877
4294,29
4294,4907
4295,2341
4297,536
4300,42
4301,364
4303,2940
4303,4547
4304,195
4304,1187
4304,2654
4304,3113
4304,3216
4304,4032
4304,4759
4305,4322
4307,1136
4309,29
4310,196
4312,332
4312,561
4312,4485
4315,296
4315,824
4315,4934
4316,855
4320,3709
4321,542
4322,3715
4323,1437
4324,467
4325,4036
4333,1651
4333,1668
4333,2199
4333,2628
4333,4452
4334,97
4339,657
4340,539
4340,4672
4341,52
4341,263
4341,971
4341,1025
4341,2981
4342,2110
4344,553
4345,2481
4346,878
4348,1061
4349,3468
4355,95
4359,1372
4361,1220
4362,3619
4364,2693
4365,3358
4366,2641
4368,1644
4368,3643
4369,68
4370,390
4373,1168
4374,2649
4375,356
4375,841
4375,2106
4375,2112
4376,1440
4376,4024
4377,958
4378,2069
4379,1130
4379,1152
4379,1991
4380,645
4380,4703
4382,4467
4383,2190
4384,3929
4385,386
4385,777
4385,784
4385,1815
4385,2293
4385,2773
4385,3849
4385,4805
4387,4844
4390,1562
4390,1762
4390,1850
4390,1862
4390,3184
4392,263
4393,1827
4394,41
4394,497
4394,3929
4394,4706
4395,4291
4396,53
4397,4095
4398,3230
4398,3327
4399,4107
4400,3561
4402,3105
4403,1249
4403,1664
4403,1872
4409,1975
4411,4933
4412,57
4413,3091
4420,3971
4421,4758
4423,3561
4424,4161
4424,4831
4425,647
4427,386
4427,4614
4428,59
4429,282
4430,155
4430,2297
4430,2319
4430,2831
4430,2925
4430,4235
4432,1047
4433,200
4436,2838
4439,780
4440,1779
4441,2775
4442,210
4442,1691
4446,2148
4448,1313
4455,2151
4456,1861
4458,2907
4461,920
4462,4031
4464,170
4464,1152
4464,2127
4465,707
4468,1566
4470,865
4471,4311
4472,1580
4474,2
4474,2917
4479,990
4480,1647
4481,1599
4483,1728
4484,1542
4485,379
4485,977
4490,2316
4491,1279
4491,1766
4494,1173
4494,3720
4495,2316
4497,1913
4498,3069
4499,1926
4501,2100
4502,3263
4503,171
4505,123
4506,124
4510,3984
4510,4869
4511,3857
4512,2388
4513,4926
4514,3276
4514,3295
4514,3700
4515,2276
4516,1203
4517,4463
4521,96
4522,2334
4523,1937
4523,4405
4524,356
4524,3345
4526,566
4528,4549
4528,4831
4529,3504
4530,143
4530,4142
4531,26
4531,4813
4532,4278
4534,2265
4534,4989
4536,557
4538,1459
4540,438
4542,3539
4543,2019
4546,4107
4546,4635
4548,150
4552,1345
4556,780
4556,4942
4557,3142
4558,4161
4559,26
4559,615
4559,888
4559,3513
4561,841
4561,3492
4563,4643
4569,3207
4572,778
4573,3983
4574,842
4575,4506
4577,2104
4582,3454
4584,4476
4585,546
4587,1478
4590,2992
4591,1838
4592,436
4593,816
4594,1216
4595,4503
4596,1067
4597,1332
4598,3877
4603,67
4603,468
4603,3892
4606,2609
4607,95
4607,1930
4610,1620
4611,4235
4612,1560
4613,172
4615,2508
4615,4815
4617,2811
4618,3010
4619,618
4619,4099
4621,4902
4622,1135
4623,1227
4624,150
4624,1625
4624,2395
4624,4260
4628,4290
4629,3067
4630,530
4631,1071
4632,4280
4633,846
4633,1096
4633,3743
4634,3891
4636,6
4636,178
4636,215
4636,390
4636,877
4636,1827
4636,2213
4636,3023
4637,578
4639,4156
4640,3142
4641,1390
4642,362
4644,3550
4648,295
4651,3616
4652,34
4652,271
4652,1104
4652,1915
4652,2079
4652,2491
4652,4588
4654,2084
4655,2344
4656,3787
4657,1581
4658,3546
4659,589
4660,1914
4660,2069
4660,2769
4660,2899
4660,3204
4660,3341
4660,3924
4660,4535
4661,1350
4663,3806
4664,2710
4666,3876
4669,633
4670,440
4673,1620
4674,920
4674,1904
4675,2775
4676,2596
4679,1007
4679,4738
4684,1318
4686,155
4687,1501
4688,2690
4690,3211
4691,4209
4692,110
4694,2563
4694,4681
4695,4123
4696,98
4696,3531
4699,894
4699,1154
4702,1150
4702,1974
4702,2666
4704,1243
4705,101
4705,269
4705,1139
4705,1756
4705,1780
4705,3808
4707,2804
4708,975
4712,669
4715,4173
4716,3537
4717,1452
4718,1625
4722,1006
4722,3824
4722,4824
4723,3102
4724,3067
4725,1861
4728,1039
4728,1257
4732,2379
4733,4326
4734,1815
4734,4764
4735,2048
4736,1110
4736,4920
4737,977
4739,327
4740,2472
4741,1772
4745,77
4746,3854
4747,881
4747,4102
4751,2678
4752,55
4752,2031
4753,2084
4754,1141
4755,14
4756,124
4757,677
4758,200
4758,1461
4758,3300
4760,1323
4760,1656
4761,282
4761,1147
4762,1174
4763,2730
4765,2472
4769,1149
4769,4782
4770,1765
4771,3433
4772,159
4773,2011
4774,221
4775,727
4775,1545
4775,2046
4775,2516
4775,4761
4776,1228
4779,707
4781,3797
4784,425
4784,1163
4784,2011
4788,3876
4789,2438
4790,578
4792,2684
4793,2708
4794,500
4797,932
4799,3466
4800,1750
4802,4815
4804,578
4804,4750
4804,4864
4807,2513
4809,1620
4814,45
4817,1538
4817,4055
4817,4748
4818,815
4819,3078
4821,1957
4823,652
4823,886
4823,1216
4826,3216
4827,1328
4828,62
4828,280
4828,920
4828,2224
4828,2872
4828,4448
4828,4505
4828,4568
4829,4298
4831,2817
4832,658
4834,320
4836,3611
4838,2772
4839,2045
4840,109
4840,3551
4844,1571
4846,3211
4847,1674
4849,1269
4849,1372
4849,4822
4852,1790
4854,1110
4856,1596
4856,1626
4858,3181
4859,2813
4860,575
4866,2064
4867,1087
4868,4017
4870,1340
4872,4146
4873,2075
4874,3946
4876,557
4878,3946
4879,2518
4880,2264
4881,4664
4882,1318
4884,4142
4886,4161
4891,2960
4892,1139
4894,4516
4896,1581
4898,1923
4899,2768
4899,3868
4902,905
4905,1894
4906,4091
4908,1478
4909,2048
4910,1235
4913,1578
4914,6
4915,60
4915,124
4915,832
4915,1172
4915,1956
4915,4492
4917,215
4917,4984
4921,1152
4922,3181
4923,92
4924,732
4928,838
4929,250
4930,286
4930,668
4930,1053
4930,2668
4931,1766
4932,4526
4933,1203
4936,1067
4937,322
4938,1119
4941,3027
4943,3911
4944,928
4945,2663
4946,1175
4946,1547
4947,724
4948,2331
4949,618
4951,1991
4952,3446
4953,2684
4957,958
4959,1410
4961,4123
4962,1116
4963,3537
4964,2917
4965,414
4966,227
4966,558
4966,3734
4969,212
4970,1649
4971,1991
4974,99
4974,925
4974,1563
4974,1836
4974,2412
4974,4245
4975,4855
4976,776
4976,1475
4976,2182
4976,2545
4976,2585
4976,2608
4977,2759
4978,2272
4979,1922
4983,3772
4985,609
4985,855
4985,1580
4985,3778
4986,1779
4987,958
4987,1632
4988,4099
4989,803
4989,1167
4992,2259
4993,2936
4995,4350
4997,3502
4998,1974
4999,96
