src,dst
0,1
0,180
0,3208
3,168
3,901
4,545
4,788
4,1076
4,1897
4,1992
4,2469
4,3150
4,3552
4,4644
4,4943
6,528
6,979
6,1505
6,2961
6,3841
11,539
11,1529
11,2566
11,3398
12,59
14,11
14,142
14,150
14,1253
14,1571
14,1666
14,2074
15,10
15,704
15,1073
15,1344
15,4248
16,145
16,517
16,659
16,2368
17,467
17,506
17,544
17,1310
17,2688
17,3049
17,4676
17,4913
18,404
18,2807
19,491
19,1689
19,2468
19,3055
19,3184
19,3550
19,4316
20,1173
20,1312
21,4717
22,129
22,171
22,328
22,615
22,753
22,826
22,971
22,1388
22,1601
22,2411
22,3354
22,3556
22,3646
23,451
23,875
23,999
23,1249
23,1266
23,1358
23,1546
23,1726
23,2376
23,2907
23,2945
23,3413
23,4067
25,1432
25,2800
25,3572
26,243
26,2171
29,3926
30,210
30,600
30,1853
30,3866
31,3239
33,283
33,1211
33,1329
34,831
36,777
36,915
36,917
36,1015
36,1562
36,2376
36,2415
36,3773
39,3188
40,1401
41,208
41,887
41,1822
41,1827
41,1884
41,2173
41,2923
42,128
42,145
42,512
42,617
42,657
42,791
42,990
42,1207
42,2268
42,2691
42,2911
42,3319
42,3618
43,2822
43,2860
43,4722
46,513
46,2023
46,2429
46,3036
46,3467
46,3785
46,3852
46,4125
46,4925
48,77
48,240
48,2235
48,3872
48,4110
48,4117
50,127
50,424
50,441
50,845
50,905
50,1441
50,1704
50,1901
50,2786
50,2913
50,3556
50,4467
50,4562
50,4657
50,4840
52,3552
56,161
56,3106
57,1099
59,3072
59,4272
61,75
61,1427
61,2636
61,2648
61,3069
61,3302
61,4085
63,645
63,4468
65,314
65,360
65,375
65,376
65,1445
65,1778
65,1905
65,3414
65,3496
65,4273
67,627
67,3425
68,1035
68,1173
68,1550
68,2431
68,2586
68,4928
69,75
69,124
69,393
69,790
69,1872
69,2546
69,2558
69,3172
69,3319
69,3420
69,3990
69,4236
69,4326
69,4546
70,648
70,1342
70,2996
71,47
71,97
71,154
71,636
71,1137
71,2078
71,4081
73,136
73,1070
74,3735
76,1641
76,2786
76,2956
78,561
78,2819
78,3854
79,4223
79,4368
82,181
82,3737
84,704
84,1128
84,1954
87,522
87,964
88,3881
90,1045
90,1120
90,4223
90,4438
93,676
93,3241
93,3898
96,3801
96,4510
96,4928
99,1025
99,1703
99,4343
100,600
100,772
100,1527
102,1124
102,1503
102,1518
105,1000
105,2498
105,3233
105,3824
106,1607
106,3224
106,3916
106,4584
107,393
107,413
107,624
107,1173
107,1817
107,3569
107,3619
108,156
108,550
108,3359
112,409
112,602
112,3577
112,3697
115,1305
115,1667
115,2553
115,4153
115,4174
116,3270
117,4178
118,3990
119,7
119,124
119,1065
119,3060
119,4040
120,1320
121,218
121,249
121,627
121,1329
121,2683
122,276
123,83
125,252
125,2052
126,70
126,243
126,753
126,1605
126,2883
126,3147
126,3548
126,3555
126,4356
126,4693
126,4712
130,41
130,152
130,267
130,330
130,997
130,1438
130,2626
130,3527
130,4082
130,4258
132,322
132,2632
132,4008
132,4442
132,4978
133,641
133,964
133,1070
133,1873
133,2483
133,3132
133,3240
133,3734
133,4485
133,4683
133,4986
135,125
135,375
135,1219
135,1273
135,1286
135,1628
135,2084
135,4136
135,4223
139,4237
140,2510
140,2851
141,1598
141,1873
141,3663
141,4503
143,1760
143,1801
143,2078
143,3551
143,3552
143,4455
143,4683
147,427
147,681
147,947
147,1789
147,1941
147,2454
147,2493
147,2840
147,3323
147,3996
147,4289
147,4683
148,3781
148,4146
149,8
149,35
149,409
149,528
149,634
149,1141
149,1317
149,2640
149,3401
149,4608
150,1590
151,111
151,140
151,2650
155,377
155,1733
155,2599
155,3894
157,831
157,870
157,1512
157,3881
158,1479
159,429
159,2086
159,3961
161,676
161,2096
161,4254
162,175
162,304
162,607
162,3363
162,3400
163,266
164,4817
165,229
165,657
165,792
165,1127
165,1160
165,1846
165,2115
165,3735
165,3753
165,4105
165,4442
165,4686
170,2785
170,4549
173,3023
174,66
174,371
174,1713
174,4217
178,127
178,721
178,734
178,4103
183,361
183,514
183,777
183,859
183,1279
183,2775
183,3137
183,3889
183,4762
183,4928
184,76
184,616
184,774
184,3840
185,820
185,4742
185,4934
186,4098
187,2806
187,3494
189,884
189,2206
189,3405
189,4683
191,2356
192,2795
193,1306
193,2493
193,2597
194,1666
197,311
197,2296
197,4986
198,156
198,200
199,982
199,1055
199,1545
199,4423
199,4616
199,4636
199,4702
201,1482
201,1873
201,1937
201,2175
201,3167
201,3770
202,8
202,2395
202,4011
203,4272
203,4447
204,598
204,861
204,2086
204,2158
205,713
205,1424
205,1670
205,2122
205,3225
205,3266
205,3488
205,4164
205,4902
207,2874
208,163
209,1035
209,2020
209,2795
209,4887
211,924
211,1801
211,2556
211,3872
211,4493
212,1744
212,3141
213,1336
213,1347
213,2855
213,3136
214,83
214,292
214,749
214,3229
214,3872
215,7
219,130
219,138
219,200
219,221
219,336
219,402
219,544
219,624
219,661
219,940
219,975
219,1030
219,1067
219,1079
219,1251
219,1275
219,1783
219,3032
219,3579
219,3669
219,3698
219,3828
219,4050
219,4147
219,4295
219,4486
221,630
222,242
223,265
227,231
227,1441
227,1508
227,3735
227,3769
227,4085
227,4781
230,124
230,1750
230,4657
235,337
235,878
235,1046
235,1940
235,2003
235,3145
235,4239
237,76
237,3081
239,10
239,297
239,1215
239,1408
239,1447
239,1645
239,2391
239,2533
239,2558
239,2668
239,3393
239,4233
240,660
240,1257
240,1563
240,2130
240,3142
240,4212
240,4241
244,878
244,1484
244,2041
246,169
246,650
246,938
246,2559
246,2699
253,893
253,1158
253,3021
254,1207
254,1648
254,1706
254,2021
254,2510
254,3251
254,4601
254,4702
256,413
256,1355
256,1435
256,1881
258,4497
259,2307
260,124
260,311
260,449
260,613
260,1271
260,1695
260,4585
261,76
261,236
261,824
261,920
261,1087
261,1359
261,1476
261,2633
261,3289
261,3961
262,358
262,1509
263,1942
263,4391
264,101
264,311
265,470
265,547
265,767
265,831
265,1744
265,2286
265,3080
266,114
266,344
266,534
266,552
266,749
266,857
266,1585
266,1710
266,2146
266,2507
266,3567
266,4325
268,2098
268,2650
269,1404
270,2739
273,173
273,175
273,502
273,614
273,637
273,1383
273,1630
273,2090
273,2269
273,2275
273,2920
273,3671
274,2028
274,3159
274,4814
274,4986
276,101
276,642
276,1494
276,1521
276,1565
276,2023
277,4789
279,252
279,718
279,1390
279,2064
279,2860
279,3795
279,4676
279,4862
282,4870
284,3801
286,424
286,886
286,1383
286,1991
286,2887
286,3390
288,1070
289,487
289,648
289,692
289,779
289,1197
289,1722
289,2001
289,2032
289,2357
289,2687
289,3067
289,4223
290,3527
290,4353
291,59
291,2973
292,715
292,814
292,2542
293,137
293,2864
293,3703
295,698
295,1045
295,1120
295,1278
295,1885
295,2258
295,2630
295,2800
295,4390
297,1140
297,1701
297,1760
297,3982
298,475
298,2907
298,4131
298,4543
299,260
299,4353
300,47
300,1800
300,4994
301,831
301,2352
302,588
302,3692
305,1224
305,2556
305,2564
305,2618
305,2640
305,3145
305,3331
305,3801
305,4592
307,2556
315,767
316,704
316,1572
316,2804
316,3035
316,3336
316,3752
317,820
317,1992
317,2243
317,2424
317,2874
318,501
318,1766
318,2043
318,4906
319,3319
320,658
320,770
320,1525
321,180
321,642
321,769
321,4098
323,294
323,347
323,455
323,598
323,716
323,1825
323,1882
323,2949
323,3319
323,3871
323,4283
323,4904
323,4932
324,2
324,2691
325,113
325,190
325,1061
325,1203
325,2268
325,2272
325,2650
325,3299
325,4624
326,1224
326,1405
326,2421
327,1242
327,3888
327,4958
329,3131
332,7
332,287
332,393
332,485
332,903
332,1558
332,2188
332,2498
332,2664
332,3200
332,3987
332,4371
332,4405
332,4850
333,88
334,222
334,800
334,977
334,1523
334,2388
334,2485
334,4488
334,4644
338,27
338,182
338,814
338,1004
338,1010
338,1760
338,2443
338,2783
338,4149
338,4436
338,4674
339,10
339,241
339,563
339,2743
339,2791
340,138
343,144
343,4347
345,462
345,2678
345,2924
346,1310
346,3088
346,4353
349,152
350,2872
350,3298
350,3413
351,241
351,1195
351,1421
351,4257
352,2003
352,2168
352,2790
353,2691
355,1410
355,2272
357,124
362,10
362,955
363,4982
366,562
366,1602
366,2255
367,257
367,421
367,455
367,485
367,649
367,913
367,920
367,1017
367,1531
367,1741
367,1766
367,2655
367,3423
368,729
368,922
368,1429
368,3139
368,3788
369,191
369,1128
369,2257
369,2806
369,3564
370,1481
370,2183
373,734
373,3872
377,5
378,127
378,266
378,667
378,2351
378,3144
379,2005
379,3009
379,3188
380,322
380,782
380,3719
381,1407
381,2905
383,175
386,806
386,2292
387,234
387,413
387,1475
387,1666
387,2078
387,2390
387,2683
387,3035
387,4087
387,4808
388,150
388,171
388,545
388,3529
388,4379
390,2114
390,2628
390,3493
390,4353
391,64
391,1344
395,161
395,881
395,1431
395,1852
395,2071
395,4104
395,4369
395,4982
396,1501
396,1717
396,1749
396,1946
396,2323
396,2656
396,2824
396,3128
396,3716
396,3928
396,4683
397,335
398,230
398,827
398,831
398,1427
398,1789
398,2248
398,2316
398,4050
398,4602
398,4615
398,4798
398,4817
400,1114
400,4539
401,4526
406,1021
406,1481
406,1776
406,2245
406,2933
406,4821
407,1312
409,72
409,439
413,2640
415,1265
415,4898
416,5
416,779
416,1068
417,2164
417,2476
418,257
418,704
418,743
418,2050
418,3727
419,550
420,704
422,1046
422,1070
422,2419
423,436
423,600
423,766
423,858
423,1056
423,3856
425,827
425,2335
425,2476
425,4642
426,176
426,2282
427,153
427,528
427,1153
427,1654
427,2044
427,2283
427,4076
427,4120
427,4235
432,650
435,271
438,568
438,4953
442,1371
443,2790
443,3810
444,1377
444,1602
444,1636
444,1663
444,1956
445,47
445,192
445,987
445,1078
445,2046
445,2889
446,2553
446,3073
446,3710
446,3752
446,4999
447,125
449,4814
450,285
450,1418
450,1569
450,2272
450,4643
450,4815
453,1554
457,731
457,880
457,1744
457,2142
457,2330
457,3465
457,4928
458,4622
459,59
462,3144
465,4612
466,37
466,393
466,877
466,965
466,3276
466,4248
468,263
468,2217
468,3935
469,2720
469,2749
469,4088
469,4098
469,4140
471,365
471,414
471,1405
471,1915
471,2779
471,4493
471,4527
473,3469
476,512
477,1961
477,4608
479,85
479,152
479,2159
479,2326
480,220
481,4539
482,613
482,4066
483,3698
486,241
486,2454
486,3893
487,1879
487,3022
488,4011
488,4170
489,1982
489,2018
489,3315
490,10
490,668
490,763
490,870
490,920
490,1019
490,3024
490,3084
490,4564
493,220
493,4189
493,4469
494,26
496,19
496,137
496,138
496,869
496,1240
496,3364
496,4880
497,2794
497,3319
498,224
498,523
498,627
498,693
498,730
498,826
498,1311
498,1372
498,1595
498,2515
498,2618
498,3231
498,3259
498,3582
498,4184
498,4195
499,540
499,1546
499,1844
499,4526
500,4856
501,4045
503,54
503,4616
504,2313
504,2690
504,3203
504,3697
505,310
505,1470
505,2232
505,2796
505,4122
505,4550
507,1382
507,2006
507,2768
507,4098
508,1035
509,1066
509,1487
509,1590
510,458
510,588
510,4129
510,4657
513,2733
515,251
515,1023
516,633
516,2792
516,2962
519,283
519,2490
519,3676
520,600
520,2755
520,3128
520,3302
522,1897
524,178
524,266
524,1639
524,2708
524,2907
524,4678
526,2023
527,809
527,1760
527,3323
527,3495
529,1090
529,1116
529,4616
530,354
530,606
530,799
530,3883
532,703
532,836
532,2370
532,3016
532,3641
532,4683
532,4958
535,1481
535,2094
535,2197
535,2729
535,2937
535,2998
535,3349
535,3459
535,3872
535,3894
535,4090
535,4348
536,4369
541,1756
543,276
543,4075
546,312
549,3475
551,238
553,399
554,2038
554,4141
555,1973
556,700
556,4683
558,4469
560,1766
564,4139
564,4933
566,125
567,392
567,668
567,2919
569,247
569,528
571,247
571,533
571,1182
571,3000
572,304
572,617
572,4150
574,228
574,431
575,55
575,1532
575,2628
575,2650
575,2685
576,2354
576,2476
576,4353
577,263
577,717
579,24
579,601
579,729
579,747
579,2078
579,4479
581,154
581,267
581,756
582,1204
583,287
584,433
584,3983
585,413
585,1650
585,3008
585,3274
585,3511
585,3752
585,4508
585,4796
586,51
586,83
586,2013
586,2534
586,2647
586,3334
586,3400
586,3975
586,4807
587,196
589,150
589,699
589,831
590,1157
590,1672
590,3983
592,402
593,1667
593,1966
593,2604
595,640
595,1522
595,2860
595,2994
595,4207
597,602
597,3356
599,171
599,294
599,492
599,1224
599,1662
599,1760
599,1996
599,3782
600,1045
600,1900
600,2476
600,4746
600,4817
600,4973
603,783
603,1192
603,2072
603,2143
603,2271
603,2673
603,2805
603,3013
603,3640
603,3709
604,3639
604,4090
605,356
605,1580
605,1707
605,1740
605,1935
605,2054
605,2917
605,4559
606,818
606,2760
606,3163
606,3318
606,3838
609,64
609,2214
611,2785
611,3725
612,248
612,562
612,1148
612,1462
612,1722
612,4142
619,255
619,539
619,621
619,1621
619,2141
619,3107
619,3381
619,3425
619,4411
619,4420
620,2084
620,2640
620,2709
620,3599
622,175
622,573
622,979
622,2836
626,824
626,1112
626,2683
628,406
628,448
628,1038
628,1691
628,2105
630,238
631,4678
638,356
638,764
638,950
638,1467
638,2570
638,4579
642,4296
644,1487
644,4306
647,248
647,756
647,2219
647,2380
647,2604
647,4079
649,2957
651,699
651,1112
651,1254
651,1976
651,2369
651,2409
651,2532
651,3517
651,3750
652,1046
652,1103
653,1189
653,2650
655,1302
655,2126
655,2973
656,573
656,924
656,1641
656,2763
660,2163
660,3586
662,1259
662,3801
663,405
663,1701
663,2624
663,3872
665,229
666,175
668,173
668,1057
668,2246
669,1070
671,38
671,446
671,1005
671,1045
671,1341
671,1481
671,1760
671,1775
671,1814
671,1922
671,3202
672,514
672,784
672,2398
672,3344
672,3360
672,4251
673,142
673,646
673,2893
673,3017
673,3972
673,4036
675,2740
677,1464
679,49
679,3214
679,4223
680,1119
680,3458
685,863
685,1240
685,2065
685,2368
685,3160
686,335
686,2175
687,109
687,312
687,910
687,1171
687,2077
687,4446
689,7
689,171
689,1579
689,1974
689,2086
689,2236
689,2682
689,3409
689,4007
690,573
690,1595
690,1843
690,2057
690,4683
695,2579
695,3484
696,11
696,688
696,4199
697,393
697,2158
697,3118
697,3304
697,3712
697,4669
697,4801
697,4867
701,2069
701,2675
701,4127
701,4761
702,1377
702,4981
703,4327
705,1064
705,1265
705,3263
706,77
707,4702
708,698
708,836
708,2403
708,3872
709,176
709,645
709,747
709,1581
709,2731
709,2754
709,3854
709,3949
709,4858
711,2189
719,137
719,356
719,703
719,725
719,870
719,1264
720,55
720,150
720,2493
720,3864
720,3865
722,377
722,841
722,1200
722,1453
722,2080
726,5
726,3952
727,171
735,4622
738,399
738,1103
738,1346
738,3653
740,3400
741,101
742,1590
742,3740
742,3858
743,10
743,739
743,4644
745,1965
745,2815
745,3071
745,3486
745,4137
745,4245
745,4487
745,4986
748,76
748,1105
748,2241
748,3319
748,3801
751,1961
751,2267
751,2603
751,4488
752,2368
754,2334
754,2640
755,111
755,1027
755,2292
755,2786
755,4683
757,91
757,492
757,573
757,831
757,924
757,1228
757,1924
757,2040
757,2697
757,2709
757,3450
757,3478
757,3579
758,131
758,2991
758,4864
759,394
760,4608
761,3041
761,3179
761,3380
761,4469
761,4852
765,1393
765,2089
765,2285
765,2388
765,2611
765,2770
765,2836
765,4279
768,3386
769,2780
772,4526
773,37
773,1259
773,2682
773,3302
774,521
775,784
776,1188
776,3237
776,4889
778,161
778,1628
778,2173
780,2785
780,3961
781,327
781,1499
781,4794
782,4227
784,2586
785,11
785,1336
785,1741
785,2241
789,4126
789,4812
790,4584
793,356
793,4263
796,4477
797,1517
797,1628
797,2269
801,608
801,1675
801,2553
802,573
802,911
802,1881
802,4928
804,1516
804,4644
805,2109
805,4422
808,1164
808,1762
808,3423
808,3720
808,4271
808,4996
811,3961
815,3142
815,3469
817,2493
817,2746
817,2795
817,2995
817,3542
817,4895
819,356
819,375
819,565
819,762
819,866
819,1307
819,2872
819,3205
821,172
821,893
821,4257
822,1766
824,1739
825,113
825,1873
825,2099
825,4311
826,176
826,608
826,1673
826,1766
826,3767
826,4894
827,3400
828,1209
828,2003
828,4457
828,4750
832,140
832,296
832,1278
832,1508
832,3071
832,3488
834,3561
834,3765
838,4313
839,433
843,448
843,537
843,1132
843,2498
843,2973
846,252
846,1551
846,2386
846,2541
847,248
847,4505
847,4524
848,341
848,978
849,525
849,2616
849,3277
850,249
850,1077
850,1732
850,1994
850,3193
853,172
854,1723
855,104
855,1175
855,1282
855,1723
855,2692
855,4199
855,4469
856,4404
856,4644
860,528
860,4788
861,130
861,356
861,3880
861,4993
863,309
865,177
865,377
865,2664
865,3612
867,104
867,678
867,710
867,2596
868,281
871,1426
871,3952
871,4026
874,312
874,483
876,111
879,1134
879,1503
879,2690
879,2737
879,3673
885,2854
888,375
888,2860
889,573
889,1462
889,4411
890,271
890,580
890,2377
890,2893
890,3204
890,3418
890,3846
892,3934
895,914
895,1085
896,2160
896,2965
897,2717
897,3767
897,3971
898,124
899,1916
899,3229
900,559
900,1410
900,3123
900,3403
901,171
901,1092
901,1698
901,2638
901,2687
901,3449
901,3980
902,1621
904,746
906,241
908,1044
908,1663
908,3845
908,4781
909,4493
910,2738
912,3872
914,292
914,704
914,1025
914,2101
914,2310
914,3010
914,3809
914,4384
916,1496
916,2476
918,3053
918,3306
918,4151
919,547
919,922
919,984
919,2194
919,2630
919,2699
919,2900
923,878
925,2634
925,3858
926,629
927,2197
928,2583
928,2586
928,4278
931,171
931,1045
931,2163
931,4781
932,76
932,178
932,191
932,823
932,3117
932,3229
932,3289
932,3514
933,1055
933,4680
934,818
939,1987
939,3171
941,4573
942,831
943,713
943,2628
943,3493
944,449
944,988
949,4943
950,2273
950,4543
951,2354
952,2090
954,4384
955,142
955,238
955,313
955,413
955,807
955,824
955,3985
955,4764
956,4509
957,10
957,3079
959,169
960,3142
960,4317
961,1941
961,3014
961,3869
962,4527
963,283
963,531
963,2008
963,2680
963,2737
963,2990
963,4231
963,4611
966,2739
967,1123
967,1989
967,4898
968,200
968,2324
968,2588
969,645
969,3928
974,613
974,1133
974,4317
976,1544
976,4135
979,842
979,1225
979,4845
980,1657
980,3620
981,1427
981,4353
983,7
983,1358
985,1248
985,1516
985,4203
990,2486
992,150
992,191
992,1456
992,2366
993,169
993,3953
995,547
995,1128
996,523
998,1930
998,3816
998,4836
1001,481
1001,1930
1002,4442
1003,309
1006,1291
1006,1691
1006,3560
1006,3869
1006,4223
1007,737
1007,1460
1007,2506
1007,2556
1007,4303
1007,4526
1009,1151
1009,2395
1012,374
1012,2510
1013,3400
1014,55
1014,272
1014,1948
1014,2587
1014,3522
1016,633
1016,884
1016,929
1016,972
1020,271
1020,1217
1020,1492
1020,3925
1020,4086
1024,281
1026,312
1026,411
1026,522
1026,770
1026,1042
1026,1102
1026,1211
1026,1713
1026,2607
1033,1084
1033,1907
1033,2875
1033,3700
1033,3905
1035,311
1036,358
1037,2039
1037,2550
1037,2707
1037,2710
1037,4169
1039,2664
1039,3431
1041,309
1041,3626
1041,3955
1043,171
1043,1156
1043,1873
1044,864
1044,1375
1044,3515
1045,987
1045,1781
1046,37
1046,126
1046,177
1046,197
1046,547
1046,573
1046,613
1046,685
1046,1875
1046,1974
1046,2042
1046,2196
1046,2504
1046,2577
1046,3625
1046,4010
1046,4392
1047,249
1047,523
1047,1657
1047,2916
1047,3455
1048,2078
1048,2292
1048,3960
1049,0
1049,4138
1049,4141
1049,4454
1049,4671
1050,271
1050,392
1050,1293
1052,7
1052,1731
1052,2619
1052,2803
1052,2905
1052,3490
1053,882
1053,1533
1053,1567
1053,1614
1053,2125
1053,4161
1054,33
1054,89
1054,182
1054,195
1054,260
1054,428
1054,454
1054,525
1054,528
1054,782
1054,826
1054,830
1054,831
1054,847
1054,872
1054,1172
1054,1504
1054,1511
1054,1587
1054,1710
1054,2575
1054,2757
1054,2845
1054,2860
1054,2889
1054,2899
1054,3319
1054,3336
1054,3374
1054,3541
1054,3783
1054,3801
1054,4203
1054,4644
1055,1658
1057,433
1057,1256
1057,2868
1057,4066
1057,4083
1057,4930
1058,55
1058,1391
1058,2090
1058,2454
1058,2879
1058,4304
1059,573
1060,10
1062,129
1062,1203
1062,1314
1062,1346
1062,2473
1062,4158
1062,4442
1062,4890
1063,85
1063,1101
1063,2580
1063,3189
1063,4675
1063,4846
1064,331
1064,683
1064,831
1064,1431
1064,3983
1064,4286
1065,851
1065,4432
1065,4754
1067,3906
1069,538
1069,947
1069,2078
1074,1678
1074,2030
1075,125
1075,168
1075,2361
1075,2606
1075,3589
1075,3655
1077,3547
1080,1032
1080,1173
1080,2168
1080,4466
1081,528
1082,588
1082,2112
1082,2129
1084,271
1084,648
1084,4943
1086,764
1089,53
1089,4734
1091,413
1091,2511
1093,60
1093,955
1093,1180
1093,1251
1093,1646
1093,1654
1093,3069
1093,3967
1093,4340
1093,4360
1095,4319
1096,1313
1096,1696
1096,1895
1096,2046
1096,4461
1097,522
1098,344
1098,1659
1099,3469
1100,10
1100,3571
1103,668
1104,10
1105,1992
1106,2707
1107,1470
1107,2125
1108,474
1108,2350
1109,2003
1110,118
1110,642
1110,1751
1110,2709
1110,4696
1111,1083
1113,723
1113,3876
1113,4468
1113,4877
1114,608
1114,884
1114,1969
1114,3990
1118,903
1118,4223
1119,182
1119,375
1121,495
1121,3116
1129,1265
1129,1600
1129,3547
1130,231
1131,2465
1131,2586
1131,3131
1132,2790
1134,152
1134,1722
1136,545
1136,3089
1136,3306
1137,1228
1137,1423
1139,2035
1139,4986
1141,723
1141,734
1141,1196
1141,3269
1141,4633
1141,4911
1143,499
1146,207
1146,2590
1148,602
1149,271
1149,1273
1150,1122
1150,1265
1152,1137
1152,3483
1152,4043
1155,703
1155,2617
1155,3165
1159,2409
1160,312
1160,1312
1161,639
1162,862
1162,1998
1162,2682
1163,664
1163,1978
1163,4928
1165,192
1165,238
1165,481
1165,1910
1166,788
1166,1508
1166,1533
1166,4653
1166,4698
1167,1173
1168,1084
1169,1472
1169,1687
1169,1977
1169,2706
1170,4958
1173,1203
1173,1812
1173,2068
1173,3370
1173,4483
1174,2618
1175,382
1175,1890
1175,2498
1175,3275
1175,3834
1176,410
1176,857
1177,125
1178,999
1178,4779
1179,243
1179,2131
1179,2438
1180,254
1180,331
1180,623
1180,632
1180,1307
1180,2613
1180,2707
1181,7
1181,1928
1184,588
1184,1700
1186,1004
1186,1219
1187,975
1191,172
1191,2212
1193,1868
1194,1239
1194,1648
1194,4047
1199,1346
1200,1213
1200,4493
1202,249
1202,1470
1204,83
1204,2360
1204,2368
1206,4913
1207,462
1207,1898
1210,27
1210,588
1210,1812
1210,2213
1210,3266
1210,4608
1212,374
1212,923
1213,1596
1213,4713
1218,127
1218,1613
1218,1864
1219,32
1219,241
1219,455
1219,795
1219,870
1219,946
1219,1008
1219,1083
1219,1151
1219,1382
1219,1484
1219,1595
1219,1657
1219,1766
1219,2315
1219,2556
1219,2843
1219,3179
1219,3347
1219,3439
1219,3542
1219,3572
1219,4407
1219,4415
1219,4526
1219,4642
1219,4683
1219,4729
1220,385
1220,405
1220,1132
1220,1204
1220,3872
1220,4493
1221,864
1223,178
1223,1234
1223,2664
1223,2943
1226,405
1226,1128
1226,1736
1226,3424
1226,4430
1227,405
1227,1785
1227,4593
1230,2684
1231,240
1231,1605
1232,449
1233,247
1233,348
1233,1259
1234,1254
1234,4886
1235,894
1235,2753
1236,126
1236,547
1236,3784
1236,4411
1237,2354
1237,2804
1238,2197
1243,243
1243,312
1245,1264
1245,1513
1245,4688
1246,847
1246,1947
1246,2295
1247,1562
1247,4900
1247,4950
1252,1048
1253,1760
1255,2768
1255,4910
1258,4082
1260,3193
1261,646
1262,3801
1263,341
1263,538
1263,1445
1263,1481
1263,1866
1263,3132
1263,4863
1263,4866
1265,947
1265,2463
1265,2618
1265,3056
1267,297
1267,4937
1270,884
1270,1669
1270,2621
1276,249
1276,348
1276,452
1276,534
1276,568
1276,678
1276,1175
1276,1453
1276,2774
1276,4710
1277,924
1277,4842
1280,13
1280,617
1280,703
1280,1875
1280,2618
1280,3165
1280,3302
1280,4556
1281,4329
1283,971
1283,4545
1284,678
1285,522
1285,737
1285,2346
1286,557
1286,1239
1286,2628
1286,3541
1288,240
1288,322
1288,534
1288,600
1290,335
1290,4110
1290,4461
1290,4502
1291,2435
1291,4757
1292,1462
1292,2790
1294,349
1294,411
1294,636
1294,658
1294,699
1294,1070
1294,1088
1294,1119
1294,1287
1294,1498
1294,1669
1294,1876
1294,1969
1294,2303
1294,2517
1294,2665
1294,3149
1294,3284
1294,4223
1294,4985
1295,210
1295,790
1295,1910
1296,403
1298,89
1298,272
1298,810
1298,1555
1298,2030
1298,2368
1299,1134
1304,150
1304,1046
1307,393
1307,674
1308,99
1309,1572
1313,1857
1315,2395
1315,3416
1316,585
1316,1228
1316,2650
1318,1326
1318,3916
1319,1124
1319,1941
1319,3867
1322,142
1322,4477
1322,4569
1323,3801
1325,987
1327,1508
1327,2498
1328,111
1328,192
1328,389
1328,704
1328,2664
1328,3087
1328,4172
1329,2395
1330,1679
1330,2032
1330,2331
1331,1313
1331,4588
1332,334
1333,2650
1334,3142
1334,4037
1334,4482
1335,5
1335,358
1335,3249
1338,460
1338,1936
1338,2417
1338,2461
1339,4141
1340,413
1340,1249
1343,1879
1343,2664
1344,528
1344,1112
1344,2257
1344,3961
1345,62
1345,1480
1346,704
1346,2194
1347,545
1347,2107
1347,2446
1348,657
1350,512
1351,2292
1352,512
1352,2289
1352,2333
1353,37
1353,580
1353,1205
1353,1766
1353,2786
1353,3193
1353,3836
1353,4660
1354,129
1354,2405
1354,2777
1354,3259
1354,3425
1354,4223
1357,2499
1360,125
1360,364
1360,2458
1361,1320
1361,3987
1363,1377
1364,1070
1365,2664
1366,2078
1366,2513
1367,2046
1368,45
1368,3047
1368,4225
1368,4523
1370,1357
1370,3447
1373,260
1376,252
1377,356
1377,1569
1377,4574
1378,27
1378,3070
1379,101
1383,698
1383,2293
1383,2591
1383,3185
1384,2996
1385,4608
1386,517
1386,3814
1386,4828
1387,228
1387,1023
1387,1699
1387,2919
1389,241
1389,1760
1389,2387
1394,5
1394,10
1394,814
1395,125
1396,862
1396,891
1396,2258
1398,27
1398,66
1398,83
1398,427
1398,2820
1398,3201
1399,2690
1400,530
1400,4948
1401,8
1401,1903
1401,4360
1402,242
1403,824
1403,1505
1403,3966
1405,4951
1406,1090
1406,1336
1407,2476
1408,1689
1408,1938
1408,3390
1409,1770
1409,2492
1409,4702
1411,26
1411,613
1411,3527
1411,3818
1411,4333
1412,142
1413,1215
1414,175
1414,2468
1414,3689
1415,2054
1419,4523
1420,1903
1422,3735
1422,4067
1425,4493
1428,4622
1430,557
1430,2361
1432,1030
1432,1840
1432,4493
1433,4082
1434,461
1434,735
1434,1484
1434,3343
1436,824
1437,2921
1437,3237
1437,4662
1438,511
1438,2136
1438,3929
1440,1953
1442,1126
1442,1939
1443,1180
1444,2006
1446,29
1446,88
1446,449
1446,1200
1446,2951
1449,2640
1450,312
1452,990
1457,66
1457,682
1457,1128
1457,1461
1457,3377
1457,3444
1457,4072
1458,1503
1459,259
1459,1850
1459,2618
1462,2735
1463,200
1463,3946
1465,238
1465,600
1465,1671
1466,3023
1466,3124
1468,3319
1469,1648
1469,1937
1470,4274
1470,4313
1471,1066
1471,2510
1471,2553
1473,1095
1474,2342
1474,4041
1474,4257
1474,4537
1477,2018
1478,3735
1481,2682
1482,53
1482,1416
1483,4215
1484,3987
1486,657
1488,2003
1489,710
1489,4453
1491,520
1493,3588
1493,3646
1493,4353
1495,533
1495,1000
1495,3046
1495,3709
1495,3790
1497,545
1498,1770
1502,114
1503,1346
1505,1038
1506,2060
1506,2608
1507,1362
1507,2495
1509,172
1509,2079
1509,2892
1509,3997
1510,3302
1510,3405
1512,894
1513,111
1514,840
1514,1598
1519,55
1520,1736
1520,4477
1522,4353
1524,481
1525,53
1526,862
1526,3191
1526,4843
1528,160
1528,389
1528,1077
1528,1577
1528,2354
1528,2931
1529,88
1529,1516
1529,3746
1529,3878
1530,75
1530,1622
1530,4835
1534,1190
1535,1065
1536,19
1536,2664
1538,94
1538,1553
1539,306
1539,562
1540,442
1540,674
1540,1722
1540,2145
1541,232
1541,358
1541,1747
1542,3491
1543,3588
1546,2739
1547,356
1547,1412
1548,338
1548,421
1548,2996
1548,3947
1548,4495
1548,4732
1552,632
1552,3296
1554,1455
1554,4144
1554,4626
1556,688
1557,639
1557,2141
1557,2464
1557,4678
1558,2285
1559,988
1559,1321
1559,2388
1559,2932
1559,4276
1559,4814
1560,28
1560,38
1560,168
1560,525
1560,710
1560,750
1560,1214
1560,1655
1560,3773
1561,1678
1562,1057
1562,2332
1563,111
1563,342
1563,385
1563,484
1563,682
1563,1824
1563,2935
1564,1891
1566,770
1568,1516
1573,413
1573,474
1573,697
1573,1801
1573,2884
1573,3721
1575,2650
1576,1723
1578,181
1578,1337
1579,55
1579,495
1579,688
1579,746
1579,4817
1582,172
1584,2804
1584,3788
1586,328
1587,4176
1588,3132
1589,240
1590,568
1590,4442
1591,1128
1591,1234
1591,1973
1591,4541
1591,4984
1592,38
1592,712
1592,721
1592,2290
1592,3337
1592,3453
1593,159
1593,3576
1593,4190
1594,162
1595,2860
1595,3379
1596,831
1596,882
1596,2059
1596,2535
1596,3555
1596,4721
1597,59
1597,101
1597,433
1597,1909
1597,2854
1598,4008
1602,2786
1603,657
1603,1787
1603,2304
1603,2400
1603,2601
1603,3612
1603,4958
1604,111
1606,8
1606,1643
1607,528
1608,179
1608,820
1609,1201
1610,384
1610,864
1610,2664
1611,275
1612,338
1612,2500
1612,3461
1612,4998
1615,1760
1616,2388
1617,348
1617,1256
1617,2272
1617,4705
1619,474
1620,150
1620,831
1620,2310
1620,3141
1620,3194
1623,737
1626,795
1626,2561
1626,3443
1626,4596
1629,1456
1629,4615
1631,114
1632,724
1632,2231
1633,1393
1634,3145
1635,166
1635,831
1637,10
1637,958
1637,2239
1638,9
1638,2120
1638,4782
1639,1198
1639,4037
1640,446
1640,2080
1642,75
1644,820
1647,2588
1649,2090
1651,955
1651,4068
1653,152
1653,1254
1653,1870
1653,2502
1653,2890
1660,3541
1660,3790
1660,4442
1660,4490
1661,573
1661,4590
1663,2518
1663,3419
1664,153
1665,1678
1674,146
1674,550
1674,2118
1675,4917
1676,242
1676,568
1677,790
1677,4995
1678,109
1678,2232
1680,827
1681,440
1682,688
1683,1077
1685,814
1685,1271
1685,2673
1686,359
1688,4469
1689,692
1690,240
1690,252
1690,1269
1690,1508
1692,4411
1693,1225
1693,2640
1694,1173
1695,1055
1696,7
1696,1030
1696,3872
1697,89
1697,840
1702,3916
1705,141
1705,732
1708,632
1708,1070
1711,1886
1711,2664
1712,946
1712,2163
1712,2336
1714,3709
1714,3799
1714,4634
1714,4986
1715,903
1715,1317
1715,4182
1716,24
1718,1498
1718,2638
1718,4041
1719,613
1720,1043
1720,1484
1721,823
1721,2179
1721,2556
1723,956
1723,1265
1723,4702
1724,964
1724,4950
1725,1691
1728,393
1730,953
1734,266
1735,1627
1735,2874
1738,1507
1738,4896
1739,1312
1739,1955
1740,713
1740,4755
1743,2874
1743,3863
1748,374
1748,3872
1752,4676
1753,3327
1753,4219
1754,64
1754,1032
1754,1383
1754,4235
1754,4767
1756,645
1757,1504
1758,633
1759,746
1762,2192
1762,2966
1762,3610
1762,4362
1763,762
1763,2623
1763,3038
1764,4913
1765,2217
1765,3510
1765,4711
1766,795
1766,1657
1767,335
1768,2197
1771,1196
1771,2150
1776,245
1778,1022
1778,3541
1779,961
1780,3018
1782,1264
1784,2630
1784,2859
1784,4109
1786,779
1786,1980
1787,4156
1788,1508
1788,2279
1790,713
1790,2683
1790,4874
1791,140
1792,101
1792,531
1792,3004
1794,840
1795,1306
1797,218
1797,2046
1798,971
1798,1761
1798,2087
1799,2
1800,96
1802,1038
1802,2454
1803,64
1803,85
1803,361
1803,478
1803,534
1803,905
1803,1055
1803,1076
1803,1144
1803,1208
1803,1388
1803,1553
1803,2003
1803,2023
1803,2086
1803,2310
1803,2340
1803,2600
1803,2823
1803,4242
1803,4848
1804,175
1805,964
1805,3131
1807,2145
1807,4098
1808,1815
1808,2081
1808,2640
1808,4393
1808,4647
1809,2739
1810,4608
1810,4940
1811,2430
1811,3076
1813,236
1813,4390
1816,1722
1818,266
1818,1595
1819,200
1819,1533
1821,2078
1823,1427
1823,2269
1826,1794
1829,160
1829,3238
1830,495
1830,616
1830,1310
1831,177
1831,405
1831,678
1831,1490
1831,2192
1831,2430
1831,3930
1831,3960
1831,4445
1832,3302
1833,645
1833,2078
1834,698
1835,635
1837,1760
1837,2739
1838,4187
1839,1201
1839,2395
1839,4617
1841,1726
1842,826
1842,989
1842,1147
1842,4986
1847,1065
1848,550
1850,99
1850,678
1850,2359
1850,4337
1851,138
1851,1073
1854,449
1855,1464
1859,557
1860,37
1860,4683
1861,125
1863,3283
1868,405
1868,827
1868,3802
1870,571
1870,627
1870,1599
1870,2874
1870,3568
1872,678
1872,2090
1872,2157
1873,251
1874,964
1875,124
1877,1992
1877,4574
1878,414
1878,971
1882,3916
1888,3131
1891,3299
1892,712
1893,1511
1893,2639
1894,704
1896,1405
1896,3237
1896,3425
1898,140
1898,3741
1902,588
1905,4644
1906,1463
1907,66
1907,636
1907,4878
1908,710
1908,1756
1908,2458
1908,4113
1909,10
1909,216
1909,228
1909,794
1909,3187
1911,568
1912,3294
1913,824
1914,1401
1915,18
1917,191
1918,703
1918,4882
1919,539
1919,1144
1919,4171
1920,1544
1921,35
1921,142
1924,1023
1925,248
1925,616
1925,1889
1925,2569
1925,2771
1925,3099
1925,4652
1926,1865
1927,565
1927,2777
1930,1044
1931,86
1931,573
1931,3425
1934,1070
1934,2804
1934,3256
1934,4067
1936,547
1936,859
1936,1466
1936,1500
1936,1737
1936,1749
1936,2445
1936,2882
1936,4488
1943,683
1945,97
1945,255
1945,2172
1949,936
1950,424
1950,710
1950,2113
1950,4032
1950,4765
1950,4829
1951,251
1952,646
1954,2632
1957,1511
1960,260
1960,3490
1962,172
1962,1435
1962,1590
1962,1615
1962,2360
1962,3351
1962,4626
1963,38
1963,3013
1964,2003
1964,2498
1967,340
1967,1857
1967,3544
1968,760
1968,1646
1968,3298
1970,2413
1970,4496
1971,1881
1972,175
1972,859
1975,1698
1979,4263
1981,66
1981,613
1981,791
1981,4622
1983,393
1984,243
1985,3223
1985,3542
1986,182
1986,234
1986,613
1986,851
1986,4013
1986,4500
1986,4747
1988,142
1988,2111
1988,4082
1988,4882
1990,372
1990,2287
1990,3635
1990,4177
1993,2663
1993,4928
1995,1953
1997,729
1998,220
1998,1000
1998,1035
1998,1460
1998,3361
2001,2476
2001,2608
2001,4410
2002,770
2003,518
2004,312
2007,3069
2009,38
2009,704
2010,762
2010,1018
2010,1300
2010,1563
2011,176
2012,451
2014,433
2015,2707
2015,2739
2015,4789
2016,2473
2016,2691
2017,260
2017,2568
2018,338
2019,1766
2019,3647
2019,4905
2021,1701
2021,2090
2021,3381
2021,4292
2023,24
2024,3983
2025,3900
2025,4774
2026,616
2026,4201
2026,4300
2027,66
2027,243
2027,739
2027,1628
2029,113
2029,1031
2032,530
2032,2057
2033,169
2034,2550
2036,172
2036,2711
2036,3961
2036,4526
2037,600
2039,360
2039,3884
2042,782
2043,75
2043,618
2043,1595
2043,2771
2043,3277
2043,3436
2045,880
2045,3522
2047,1204
2048,63
2049,2737
2051,2682
2053,315
2053,1717
2055,304
2055,1704
2056,878
2058,1646
2058,2468
2061,1038
2062,1863
2066,304
2067,632
2067,3336
2069,347
2069,4493
2069,4869
2070,1035
2073,1630
2073,3336
2075,4275
2075,4986
2078,1532
2078,2589
2080,920
2080,1598
2080,2180
2082,1590
2082,4812
2084,413
2085,248
2086,2032
2086,2090
2092,1498
2093,1134
2094,2785
2096,831
2097,1135
2097,2926
2097,4882
2099,2650
2099,4514
2100,322
2100,684
2100,947
2100,4089
2102,884
2103,1025
2104,2860
2108,600
2108,1628
2108,2168
2108,3301
2108,3627
2110,870
2114,2968
2116,153
2116,2249
2117,257
2117,1150
2117,3237
2118,2292
2119,144
2119,389
2119,408
2119,410
2119,463
2119,713
2119,733
2119,1476
2119,1745
2119,1777
2119,2664
2119,2688
2119,3242
2119,3294
2119,3581
2119,3977
2121,831
2123,5
2123,1740
2124,2359
2124,4990
2125,1028
2125,2474
2127,4082
2128,953
2131,1793
2132,275
2132,3767
2134,3299
2137,1211
2137,2301
2138,2135
2139,3145
2140,1128
2140,2292
2146,3612
2147,915
2148,176
2148,1371
2151,4369
2152,152
2152,989
2153,2354
2154,3797
2154,4592
2155,271
2157,3990
2160,1710
2161,1983
2162,710
2163,624
2163,4353
2166,780
2167,1625
2167,3302
2167,4180
2167,4676
2168,610
2168,991
2168,2339
2168,3714
2169,657
2169,1025
2170,442
2170,565
2174,762
2174,3094
2174,3613
2174,4819
2175,3179
2175,3801
2176,4683
2177,1197
2178,4306
2181,1476
2182,121
2182,1461
2182,2324
2182,2774
2183,2542
2183,3471
2184,1508
2184,2370
2185,833
2185,975
2185,1369
2185,1487
2185,1553
2185,1823
2185,2014
2185,2234
2185,4143
2186,833
2187,2598
2187,2795
2187,4016
2188,1595
2188,3916
2189,3872
2190,847
2191,1070
2191,3338
2192,374
2192,2693
2194,406
2194,1030
2194,2354
2195,441
2195,2870
2195,2996
2197,1115
2197,2884
2197,2901
2198,1456
2198,1875
2199,2389
2203,100
2203,538
2203,1084
2204,1222
2205,89
2205,1375
2205,2384
2207,436
2208,3319
2208,3858
2210,2094
2211,1508
2215,4644
2217,1190
2218,831
2218,4323
2219,3229
2219,3556
2220,171
2221,297
2221,412
2221,845
2221,964
2221,3643
2221,3735
2221,4215
2222,241
2222,474
2222,533
2222,737
2222,864
2222,2106
2222,2476
2222,3735
2223,2138
2224,973
2224,1234
2224,2560
2225,1831
2225,3244
2227,872
2227,1713
2227,1862
2227,3104
2227,3704
2227,3944
2228,542
2228,4469
2229,1508
2230,2008
2233,658
2233,1357
2234,168
2234,2023
2234,2957
2234,3380
2236,163
2237,1536
2237,3542
2237,4730
2238,973
2240,831
2242,474
2242,2322
2242,2888
2242,3541
2244,388
2245,737
2246,249
2246,1769
2247,1310
2250,1019
2251,2579
2251,4612
2252,315
2252,1117
2252,2640
2252,2894
2252,3190
2253,226
2253,1140
2253,2959
2254,2640
2259,716
2260,394
2260,2126
2261,2562
2261,4644
2262,2376
2262,2495
2262,2556
2264,311
2265,864
2265,3927
2266,1866
2266,1939
2266,4268
2270,464
2270,1438
2274,37
2274,718
2274,2626
2276,3369
2277,2194
2278,1211
2278,4647
2279,3388
2280,5
2280,104
2281,4411
2284,2430
2284,3678
2284,4324
2285,280
2285,2996
2285,3217
2288,2200
2290,548
2290,2510
2290,2781
2290,3198
2290,4525
2291,528
2291,3219
2293,4269
2296,725
2296,1269
2297,1537
2298,114
2298,4388
2299,4360
2300,124
2300,459
2300,1011
2302,3087
2305,1954
2306,922
2309,1312
2310,2938
2311,1641
2311,3650
2312,2720
2312,3336
2312,4256
2314,2667
2314,3131
2317,717
2317,4519
2318,2832
2318,4272
2319,3302
2320,1761
2320,4516
2321,394
2325,1509
2327,2498
2328,124
2328,251
2328,3643
2328,4038
2329,1845
2330,1709
2333,813
2333,2745
2333,3654
2333,4150
2337,399
2337,1855
2337,2310
2338,824
2344,4469
2345,1825
2347,172
2349,4105
2351,1930
2354,1317
2355,544
2355,3091
2356,831
2357,4076
2360,1977
2361,1431
2361,3579
2361,4491
2362,2368
2363,2606
2363,3545
2363,4055
2365,1030
2365,4034
2367,85
2367,1119
2367,2530
2367,3546
2367,3988
2368,878
2369,3373
2371,1923
2371,4168
2372,511
2374,2681
2374,2790
2378,474
2378,2705
2378,4885
2379,374
2379,4540
2381,3612
2382,4113
2383,2354
2383,3240
2388,3107
2389,1630
2389,3236
2389,4054
2391,4278
2393,780
2396,188
2396,359
2396,900
2396,1549
2396,3872
2396,4074
2396,4381
2397,2041
2399,1438
2399,3751
2401,2804
2402,4780
2404,1242
2404,3125
2404,3765
2405,615
2406,1383
2407,1887
2407,3278
2407,3745
2408,518
2409,428
2410,2
2410,107
2410,1393
2410,3902
2412,2043
2414,565
2416,414
2416,4928
2418,835
2419,101
2419,676
2419,1125
2419,1979
2419,3626
2420,847
2420,4091
2422,924
2422,2330
2422,3079
2423,2519
2423,3139
2425,1590
2426,2848
2426,3285
2426,3872
2427,3302
2428,377
2430,304
2430,3976
2432,1303
2432,1871
2433,1427
2434,2683
2434,4083
2436,3948
2437,125
2437,4353
2438,271
2440,238
2440,2586
2440,3262
2441,3916
2442,172
2442,1253
2444,883
2444,3872
2447,2691
2447,3961
2448,678
2448,2274
2449,1144
2449,1487
2449,2553
2449,2919
2449,4702
2450,3013
2452,971
2452,1992
2452,4694
2453,150
2453,704
2453,3536
2455,2618
2455,2839
2456,826
2456,1356
2456,1841
2456,2368
2457,4219
2459,191
2460,4657
2462,4958
2464,4616
2466,2125
2468,2606
2469,2921
2469,4943
2470,138
2471,600
2472,4882
2476,2634
2478,924
2479,922
2480,111
2480,310
2480,1667
2482,1106
2488,1987
2489,2046
2491,4469
2494,1035
2494,3718
2496,4424
2499,873
2499,4733
2503,2248
2505,3987
2508,1056
2508,1498
2508,3220
2508,3253
2509,893
2512,1667
2514,3616
2516,7
2516,3266
2521,878
2521,4214
2523,191
2524,228
2524,4077
2526,2800
2526,3803
2527,3330
2527,3767
2528,2102
2529,1336
2530,1510
2530,3097
2531,2013
2531,4882
2533,2558
2533,3031
2533,3322
2536,433
2536,4217
2537,2122
2538,2506
2538,3959
2538,4818
2539,864
2540,4223
2543,973
2543,2973
2543,3324
2544,971
2545,4248
2547,697
2549,138
2549,3990
2551,639
2552,1760
2553,2778
2555,1916
2557,4155
2558,924
2558,986
2558,1135
2563,3934
2565,744
2565,780
2565,1034
2565,2171
2565,2835
2573,374
2573,2542
2573,3066
2573,3166
2573,3341
2576,2559
2578,4702
2579,405
2581,49
2581,271
2581,3090
2582,1044
2584,1595
2585,979
2586,835
2586,3649
2588,129
2588,150
2588,712
2588,831
2588,864
2588,994
2588,2627
2588,3411
2588,4097
2588,4641
2592,1453
2593,630
2593,2871
2593,3602
2594,64
2595,164
2595,252
2595,3808
2595,4626
2596,167
2596,392
2596,614
2596,1397
2596,2226
2596,3086
2602,1182
2605,1717
2606,250
2606,1772
2606,3290
2608,413
2608,732
2608,1084
2608,2973
2608,3193
2608,4425
2609,124
2609,1974
2609,4429
2610,767
2610,4512
2614,542
2614,1311
2614,3445
2615,4233
2616,405
2616,1453
2619,646
2619,1479
2624,852
2624,2842
2625,449
2628,2152
2629,27
2630,171
2630,816
2630,1272
2630,1999
2630,3221
2630,3973
2630,4008
2630,4246
2631,433
2631,3237
2634,1312
2635,1224
2635,3713
2636,62
2636,356
2636,3961
2637,1766
2641,140
2641,617
2641,955
2641,1205
2641,1414
2641,1730
2643,2568
2644,1310
2645,98
2645,747
2645,1144
2645,3188
2645,3192
2645,4350
2647,2493
2648,1314
2649,1630
2650,2189
2651,588
2651,762
2652,10
2652,1038
2652,1070
2652,2292
2652,3317
2652,3694
2653,613
2654,1881
2657,1224
2657,3005
2658,478
2659,38
2660,2078
2660,4493
2661,2127
2662,864
2665,545
2665,4673
2666,544
2669,3801
2670,1046
2670,1070
2670,2272
2670,2475
2671,831
2674,528
2674,1441
2674,4319
2674,4352
2674,4477
2674,4570
2676,63
2676,228
2676,379
2676,384
2676,442
2676,1417
2677,248
2677,309
2677,1980
2677,3263
2677,4002
2679,4477
2683,1025
2684,646
2686,3240
2686,4749
2687,312
2687,4052
2689,2477
2692,348
2693,3122
2693,4469
2694,668
2695,550
2696,2145
2700,1508
2701,1456
2702,4527
2703,1073
2706,3956
2707,172
2707,1065
2711,405
2711,2055
2712,3115
2712,3681
2713,1035
2716,413
2716,2795
2716,4367
2718,2196
2719,1648
2721,406
2721,4058
2721,4222
2722,661
2722,1391
2722,1866
2722,4872
2723,2852
2723,3872
2724,41
2724,668
2724,1349
2724,1656
2724,2973
2725,251
2725,2826
2726,1737
2726,2664
2726,2867
2728,2130
2728,3265
2730,630
2730,723
2732,1666
2734,77
2735,103
2735,125
2735,306
2735,406
2735,744
2735,824
2735,1019
2735,1448
2735,1563
2735,2031
2735,3333
2735,4471
2735,4913
2736,3709
2737,2672
2738,3240
2738,4116
2739,2618
2739,2630
2739,3921
2740,997
2741,4004
2742,1032
2743,2923
2744,413
2744,907
2744,1147
2744,3184
2744,3792
2747,113
2748,495
2748,2949
2751,309
2752,7
2753,1760
2753,3406
2756,150
2756,747
2756,2239
2756,2476
2756,3437
2758,136
2758,4888
2761,2628
2762,1349
2764,1866
2765,304
2765,2156
2766,1055
2767,4702
2769,598
2770,1865
2770,3916
2770,4987
2772,573
2772,1274
2772,1357
2772,2698
2772,3196
2772,3793
2773,210
2773,240
2773,407
2773,472
2773,1254
2773,2138
2773,3614
2773,4509
2774,782
2774,1196
2774,1858
2774,1966
2774,4743
2775,3736
2776,385
2776,710
2778,1040
2781,153
2781,437
2781,449
2781,483
2781,1481
2781,1545
2781,4673
2782,159
2782,166
2782,179
2782,791
2782,869
2782,893
2782,1696
2782,2209
2782,2248
2782,3805
2782,3862
2782,4844
2782,4936
2784,961
2786,2364
2787,1778
2787,4152
2788,894
2788,1517
2788,3737
2789,153
2789,263
2789,434
2789,613
2789,2464
2789,3452
2789,4358
2790,441
2790,1115
2790,2935
2792,3193
2793,3242
2795,681
2797,356
2798,101
2798,3237
2799,2804
2799,3597
2799,4724
2801,3319
2802,3184
2804,5
2804,142
2804,158
2804,280
2804,344
2804,345
2804,403
2804,728
2804,1582
2804,1931
2804,2109
2804,2272
2804,2788
2804,3175
2804,3872
2804,3934
2804,4205
2804,4259
2804,4327
2804,4387
2806,1922
2808,153
2808,2366
2809,356
2810,559
2811,451
2813,3302
2813,4581
2814,169
2816,621
2816,2364
2816,3615
2816,4127
2817,311
2817,3326
2818,657
2818,1955
2818,4856
2821,2000
2821,2785
2825,704
2827,1088
2827,1872
2827,2707
2827,4098
2827,4968
2828,125
2828,1580
2828,3767
2829,483
2830,3692
2831,1305
2832,216
2832,414
2833,1532
2834,2601
2837,3980
2838,713
2838,4344
2839,1856
2839,2606
2839,2771
2841,1175
2842,1320
2842,2661
2842,3745
2842,4527
2842,4762
2843,491
2843,4078
2844,263
2844,2354
2844,3292
2846,718
2847,659
2847,831
2849,4554
2850,167
2850,3240
2853,358
2853,1614
2853,3764
2854,935
2854,2640
2854,3872
2855,233
2855,1064
2855,3139
2855,3530
2856,763
2856,878
2856,1741
2857,2874
2858,2436
2859,35
2860,971
2860,3529
2861,1120
2862,2126
2863,1278
2863,1296
2863,4499
2865,2099
2866,1487
2868,2632
2869,85
2869,717
2870,4051
2873,2333
2874,124
2876,3541
2876,4727
2877,2090
2879,1742
2880,131
2881,585
2882,648
2882,762
2882,2352
2885,636
2886,913
2887,780
2887,1286
2887,2100
2887,2997
2890,385
2891,1253
2895,1556
2895,3280
2898,1760
2899,962
2899,3216
2900,4855
2902,241
2903,1652
2903,1831
2903,3069
2903,4543
2904,1671
2906,2611
2908,743
2909,1525
2909,3591
2910,4913
2911,10
2911,2477
2911,2647
2912,3013
2914,767
2914,1201
2914,1312
2914,4471
2914,4814
2915,2746
2917,1408
2918,4958
2921,3872
2922,2588
2923,2310
2925,4812
2927,4894
2928,331
2928,4221
2930,83
2930,238
2930,683
2930,712
2930,1441
2930,1882
2930,2491
2930,2567
2930,3881
2930,4471
2930,4584
2931,249
2931,2078
2931,3899
2935,882
2936,2125
2937,971
2939,1516
2939,2386
2940,313
2940,694
2940,743
2940,921
2940,1274
2940,2874
2940,3210
2940,3237
2940,4291
2941,0
2941,3468
2941,4229
2941,4353
2942,2795
2944,1731
2946,3961
2947,2791
2948,312
2950,308
2950,3872
2950,4631
2952,501
2952,1654
2953,1070
2953,3610
2954,1662
2955,2065
2955,2456
2955,3990
2956,38
2956,442
2956,937
2956,1627
2956,3872
2958,4053
2960,2682
2963,1480
2967,4327
2967,4841
2969,3299
2970,1346
2971,964
2972,2370
2974,1933
2974,3961
2975,1587
2978,236
2978,1321
2978,2165
2978,3317
2978,3930
2978,4616
2978,4683
2979,358
2980,1546
2980,4504
2981,2739
2983,1407
2983,3942
2983,4242
2984,1115
2984,1200
2985,1019
2987,2506
2987,3142
2989,483
2992,176
2992,523
2993,393
2994,2707
2995,4387
2996,2755
2998,190
2998,1667
2999,413
3001,4445
3002,870
3002,970
3002,1773
3003,2289
3006,1090
3007,245
3007,2257
3010,55
3011,95
3011,456
3011,2960
3011,4953
3012,2575
3015,3221
3019,2064
3020,1691
3025,3595
3026,600
3026,3855
3027,162
3027,1071
3027,4678
3028,63
3028,1346
3030,81
3030,306
3030,335
3030,602
3030,1546
3031,691
3033,495
3034,413
3038,8
3038,1587
3038,2102
3038,4442
3039,678
3040,287
3040,1445
3040,3100
3042,1132
3043,280
3044,2476
3045,2160
3047,1766
3048,741
3050,2200
3050,2779
3050,3307
3051,38
3052,210
3052,539
3052,3592
3054,688
3056,134
3056,2075
3056,2642
3057,3256
3058,2316
3059,260
3059,2511
3059,4942
3060,126
3060,3612
3060,4789
3061,56
3061,413
3061,1072
3061,2343
3061,4726
3062,905
3062,4859
3063,4477
3064,1496
3064,3777
3064,4855
3066,95
3066,335
3066,639
3066,2358
3066,2477
3066,2646
3068,840
3068,4851
3070,1297
3070,2394
3070,3466
3071,1213
3074,1321
3074,1349
3075,361
3075,922
3078,1344
3080,2637
3081,124
3082,7
3082,4764
3083,831
3083,4677
3084,1883
3085,1766
3092,2083
3092,3142
3095,3405
3095,3543
3095,4411
3096,1213
3098,3251
3102,1645
3103,545
3103,4773
3105,359
3108,704
3109,271
3110,2836
3111,831
3111,4523
3112,4223
3114,613
3114,4387
3115,37
3115,4935
3119,66
3120,688
3121,3021
3126,2183
3126,2385
3127,882
3130,3057
3131,2383
3133,3556
3134,4977
3135,101
3138,322
3140,1097
3143,4616
3146,4856
3148,130
3148,4525
3150,829
3150,884
3150,1185
3150,2368
3150,2432
3150,2976
3150,3294
3150,4564
3150,4977
3151,2030
3151,3735
3152,3079
3152,3951
3153,3058
3153,3504
3154,2079
3154,4469
3156,1112
3156,2188
3156,2620
3156,2640
3156,4704
3157,971
3157,1700
3157,3293
3158,2638
3161,1667
3161,2639
3161,4082
3162,1479
3162,4287
3164,176
3164,831
3164,3656
3165,178
3165,533
3167,424
3168,10
3170,971
3171,2078
3172,2532
3173,3686
3176,491
3177,191
3177,1244
3177,2606
3177,2664
3177,3282
3177,4115
3177,4613
3177,4860
3180,171
3181,1485
3181,2239
3181,2574
3181,3021
3181,4176
3182,354
3182,461
3182,936
3182,1431
3183,2572
3186,125
3195,296
3195,1095
3195,2618
3195,3801
3195,4990
3196,1946
3197,2316
3199,4863
3207,1427
3209,247
3210,698
3211,523
3212,2616
3212,4991
3213,2961
3215,1883
3218,1217
3222,2510
3223,4411
3226,3300
3226,3336
3227,1401
3227,2484
3228,920
3229,3198
3230,331
3230,1516
3232,3163
3232,4516
3234,1501
3235,622
3237,1965
3239,1134
3242,1274
3243,1211
3244,83
3244,263
3244,309
3244,616
3244,980
3244,1448
3244,1563
3244,2115
3244,2497
3244,2581
3244,2611
3244,3472
3244,3662
3244,3767
3244,3949
3244,4095
3244,4444
3244,4471
3245,1739
3245,2376
3246,1101
3247,3612
3248,263
3250,2175
3251,1042
3251,3851
3252,594
3254,41
3255,3541
3257,1696
3257,4931
3258,92
3258,228
3258,717
3258,882
3258,917
3258,989
3258,1216
3258,1451
3258,2091
3258,2664
3258,2859
3258,3565
3258,4828
3260,2579
3260,2795
3261,2063
3261,3219
3264,958
3266,4340
3267,3319
3267,3372
3270,3428
3270,3588
3271,176
3271,433
3271,617
3271,703
3271,3294
3272,4608
3273,2634
3279,1224
3281,3514
3286,1761
3287,4676
3288,3032
3289,818
3289,1320
3289,1525
3289,1544
3290,1320
3290,1760
3290,2364
3290,2556
3290,3909
3291,217
3291,787
3291,1031
3291,1204
3291,1377
3291,2622
3291,2691
3291,3310
3291,3403
3291,3643
3291,4943
3295,364
3295,826
3295,2520
3295,3040
3297,2196
3298,3723
3299,1727
3300,131
3300,315
3300,430
3300,2727
3300,2934
3300,3316
3300,3342
3300,4141
3300,4613
3300,4837
3302,3995
3303,3039
3305,835
3305,4186
3306,1320
3308,359
3308,1268
3309,1508
3309,1696
3311,1293
3312,2788
3313,356
3314,2683
3315,2628
3320,863
3321,2043
3321,4683
3322,26
3322,1592
3322,3877
3322,3976
3325,1302
3328,1887
3332,878
3335,191
3336,4554
3339,692
3339,3448
3340,51
3342,545
3342,683
3343,4676
3345,530
3345,3521
3346,964
3348,2664
3350,406
3350,4365
3352,232
3353,3229
3355,831
3355,4109
3357,4324
3357,4683
3358,880
3358,3319
3358,4335
3362,399
3364,341
3364,859
3364,1678
3364,1863
3364,2982
3365,827
3365,4092
3365,4452
3366,678
3366,3612
3367,600
3367,3556
3368,182
3371,113
3374,3155
3375,2464
3376,1346
3378,4683
3382,9
3382,150
3382,675
3383,2753
3384,2241
3385,1939
3385,3801
3387,2919
3389,238
3391,1438
3391,3532
3394,266
3395,4678
3396,220
3396,499
3396,600
3396,762
3396,795
3396,1126
3396,1228
3396,1440
3396,1444
3396,1570
3396,1760
3396,2501
3396,2664
3396,3134
3396,4075
3396,4450
3396,4566
3399,721
3400,2212
3400,4269
3402,520
3402,2826
3402,4422
3403,2668
3404,433
3407,217
3410,172
3411,1321
3412,2570
3413,2725
3415,2923
3417,1147
3417,4536
3420,5
3420,308
3420,771
3420,883
3420,1145
3420,1263
3420,1273
3420,1416
3420,1596
3420,2076
3420,2348
3420,2878
3420,3169
3420,4288
3420,4554
3420,4651
3421,1175
3422,3983
3425,2120
3426,137
3427,2532
3429,639
3429,1192
3430,2511
3431,837
3432,1224
3433,1346
3434,3872
3435,818
3437,2714
3438,704
3440,886
3441,2774
3444,3624
3446,41
3446,3689
3446,3762
3450,75
3450,312
3450,530
3450,618
3450,624
3450,1076
3450,1201
3450,1416
3450,1755
3450,2707
3450,2750
3450,2786
3450,3397
3450,3819
3450,4538
3451,1085
3454,312
3454,1721
3456,1577
3457,304
3457,2144
3457,4247
3457,4455
3457,4621
3460,2071
3462,449
3463,1760
3464,767
3465,216
3469,1070
3469,4525
3470,681
3473,64
3473,1481
3475,1046
3476,236
3476,2608
3476,3413
3476,3584
3476,4123
3477,2352
3479,266
3480,635
3481,645
3482,1435
3485,142
3485,3952
3485,4098
3485,4366
3485,4526
3487,248
3487,4909
3489,371
3491,4329
3492,627
3497,3916
3498,2458
3498,4941
3499,2239
3499,3577
3500,2050
3501,4958
3502,2775
3503,5
3505,403
3505,786
3505,1841
3505,2481
3506,1652
3506,1785
3507,2949
3508,356
3509,1342
3512,4402
3513,354
3516,2661
3516,4465
3518,1134
3518,1298
3518,4308
3519,2274
3520,523
3522,508
3523,1073
3523,2683
3523,4668
3523,4976
3524,2772
3525,3316
3527,795
3528,3752
3531,248
3531,3941
3533,1047
3534,47
3534,129
3534,226
3534,3277
3535,4702
3537,154
3538,600
3538,3141
3539,1217
3540,1124
3542,475
3543,403
3543,2988
3546,2525
3549,2919
3552,161
3553,2194
3554,37
3554,257
3554,565
3554,917
3554,930
3554,948
3554,1207
3554,1344
3554,1361
3554,1383
3554,2532
3554,2556
3554,3077
3554,3615
3554,3919
3554,4354
3557,2197
3558,2246
3559,1583
3561,2248
3562,83
3563,2395
3565,99
3565,109
3565,303
3565,1224
3565,4247
3566,922
3568,795
3568,1028
3568,1515
3568,4627
3568,4637
3572,1055
3573,2248
3574,1349
3575,2919
3578,704
3580,135
3580,4321
3581,4082
3581,4357
3583,104
3583,169
3583,224
3583,947
3583,1310
3583,2041
3583,3002
3583,3468
3583,3894
3585,4477
3587,704
3588,525
3588,4910
3589,1455
3590,1272
3593,229
3593,1147
3594,1668
3596,2874
3598,3136
3600,2014
3600,4584
3601,624
3601,4997
3602,358
3602,550
3602,1045
3602,2173
3602,2610
3603,358
3604,232
3605,2065
3606,3423
3608,53
3608,648
3608,3652
3611,271
3612,767
3615,864
3615,1000
3615,1114
3615,1887
3615,2907
3616,678
3616,1498
3616,1932
3617,232
3618,1980
3619,755
3620,2477
3622,238
3627,580
3628,1008
3629,1980
3630,2368
3631,602
3631,922
3632,730
3633,2354
3634,894
3637,377
3638,113
3638,137
3638,206
3638,243
3638,1027
3638,2245
3638,3178
3638,3299
3638,4353
3640,835
3640,1350
3640,1596
3640,1958
3640,4958
3641,2959
3642,4354
3644,495
3645,278
3645,2927
3648,2495
3654,2522
3654,3526
3654,4625
3654,4943
3656,171
3656,677
3656,4395
3657,154
3657,194
3657,1032
3657,1249
3657,1269
3657,1949
3657,2395
3657,4514
3657,4782
3658,2241
3659,1383
3659,2008
3660,1812
3661,3614
3663,920
3664,1899
3664,3801
3665,1863
3666,1713
3667,341
3667,1658
3667,2373
3667,2964
3668,2860
3670,1225
3674,3536
3679,657
3680,335
3680,643
3680,2670
3682,1713
3683,3557
3684,3536
3686,624
3687,3142
3687,3798
3688,166
3690,4011
3691,1723
3691,4752
3692,1222
3693,252
3695,356
3696,547
3696,2502
3699,2804
3701,947
3702,3193
3705,1544
3706,171
3706,4060
3707,4411
3708,1623
3711,2263
3714,1618
3714,3061
3717,3217
3722,1698
3724,2046
3725,89
3725,180
3725,259
3725,518
3725,1845
3725,3474
3726,1269
3728,1834
3729,2986
3729,4758
3730,4644
3731,377
3731,718
3731,1241
3731,1455
3731,1595
3731,1898
3731,2413
3731,2864
3731,3213
3731,3329
3731,4421
3731,4882
3733,3961
3734,1138
3734,3023
3735,85
3736,2341
3737,3347
3738,1507
3738,3233
3739,2275
3741,58
3741,4059
3742,127
3742,276
3742,394
3742,3607
3742,4328
3742,4608
3742,4614
3742,4826
3743,1175
3744,192
3747,4089
3748,1173
3749,2883
3750,3307
3752,629
3753,1349
3753,3672
3755,3363
3756,2682
3756,3872
3757,2370
3758,172
3758,411
3758,459
3758,831
3758,893
3758,2149
3758,2739
3758,2868
3758,3268
3758,3826
3759,236
3760,573
3761,2310
3763,113
3763,2046
3763,4702
3766,75
3766,236
3766,878
3768,3229
3770,1602
3771,1134
3772,4146
3774,95
3774,111
3774,322
3774,635
3774,816
3774,1051
3774,1472
3774,1731
3774,2003
3774,2550
3774,2875
3774,2929
3774,4261
3774,4313
3774,4891
3775,2639
3776,1203
3776,3794
3778,1544
3778,2929
3779,492
3779,601
3779,878
3779,1336
3779,2986
3779,3141
3779,3936
3779,4012
3780,345
3780,1217
3780,1249
3780,1346
3780,4608
3782,2896
3786,377
3786,1182
3786,1657
3786,2707
3786,2878
3786,3037
3789,1055
3789,1147
3789,4187
3791,552
3791,1508
3796,713
3796,907
3800,85
3800,1183
3800,1337
3800,1516
3804,2572
3806,154
3807,3150
3811,3357
3812,3543
3813,225
3814,232
3814,528
3814,831
3814,1229
3814,1250
3814,1252
3814,1342
3814,1923
3814,2263
3814,2907
3814,3113
3814,3319
3814,3697
3814,3901
3814,4064
3814,4403
3815,1627
3817,3023
3820,449
3820,2704
3821,2194
3822,2464
3823,1302
3825,1321
3827,1346
3829,448
3829,4708
3830,710
3830,4982
3831,4913
3832,1135
3833,4882
3835,191
3837,731
3838,547
3839,2586
3842,2271
3842,4690
3843,2511
3843,2794
3844,2454
3844,4971
3846,125
3846,4278
3847,924
3848,2271
3849,2630
3850,45
3850,1498
3850,1746
3850,2511
3850,2976
3850,4406
3853,109
3857,847
3859,153
3860,4584
3861,1070
3866,578
3866,907
3866,1627
3866,2772
3868,678
3868,2375
3870,704
3872,424
3873,153
3875,251
3875,1115
3879,63
3881,338
3881,945
3882,1545
3884,4479
3885,337
3886,955
3887,424
3890,1938
3891,221
3892,161
3894,251
3894,405
3894,434
3894,1624
3894,2066
3894,3556
3895,1974
3896,1349
3897,1820
3897,3881
3901,311
3903,240
3904,113
3904,153
3904,570
3904,1289
3904,1891
3904,3141
3904,4882
3905,4442
3907,947
3908,241
3910,1801
3911,1444
3912,2750
3913,4135
3914,2124
3915,1046
3917,2246
3918,3188
3920,791
3920,4408
3922,97
3923,1595
3924,1863
3925,2346
3925,2439
3929,625
3931,1023
3932,53
3933,393
3937,1481
3938,4702
3939,1622
3939,4872
3940,3032
3943,1667
3945,3428
3945,4616
3948,1095
3950,922
3952,2867
3954,180
3957,866
3958,1587
3959,654
3959,1105
3959,1742
3960,1344
3962,2753
3963,2002
3964,437
3964,2872
3965,1596
3968,703
3969,441
3973,2294
3974,1222
3974,2330
3974,2977
3974,4039
3976,565
3978,1481
3978,1865
3981,2255
3983,618
3984,3610
3986,1903
3989,3949
3990,2090
3991,2532
3993,1965
3993,3409
3994,4526
3995,1242
3998,1064
3999,3613
4000,2078
4001,59
4004,864
4004,1992
4004,4264
4005,125
4005,875
4005,1381
4005,3184
4005,3801
4006,1031
4007,563
4007,4222
4009,880
4010,2297
4010,3063
4011,780
4013,243
4013,920
4013,1154
4013,1392
4013,2897
4013,3992
4014,2041
4015,4626
4017,2279
4017,4702
4018,1439
4018,2957
4019,63
4020,1035
4021,2257
4022,2990
4023,35
4024,528
4024,973
4025,3876
4027,1621
4028,3727
4029,266
4030,971
4031,2691
4033,2647
4034,3872
4035,2248
4042,3344
4044,3024
4044,3113
4046,474
4048,1038
4049,973
4051,1868
4051,4423
4053,248
4056,2156
4057,547
4061,10
4062,1854
4063,873
4065,2996
4065,4857
4069,3767
4070,194
4070,297
4070,831
4070,2571
4070,3937
4071,1760
4073,3592
4078,2163
4080,182
4084,955
4084,3930
4086,3268
4089,516
4089,3392
4091,746
4091,1004
4091,3369
4094,1504
4096,1508
4098,3363
4099,545
4099,2739
4100,3554
4101,1922
4101,4092
4102,3314
4106,737
4107,124
4108,225
4108,2275
4108,2636
4108,4766
4111,692
4112,3299
4112,4241
4113,7
4113,76
4113,80
4113,140
4113,281
4113,372
4113,502
4113,827
4113,1018
4113,1144
4113,1188
4113,1249
4113,1904
4113,2467
4113,3368
4113,3916
4114,3229
4118,474
4119,700
4121,156
4124,85
4124,517
4124,3732
4124,4418
4127,2310
4128,1510
4130,1321
4131,522
4131,867
4131,1584
4131,1774
4131,2216
4131,3177
4131,3715
4132,878
4133,4526
4134,717
4134,835
4134,2568
4134,2690
4135,1076
4138,440
4138,704
4138,1668
4138,1722
4138,3623
4138,4050
4138,4210
4139,864
4139,4778
4141,2550
4142,842
4145,1849
4145,2409
4146,648
4148,3024
4154,85
4154,4416
4157,3132
4158,1018
4158,3621
4159,872
4160,1346
4162,935
4163,2122
4165,64
4165,196
4165,312
4165,410
4165,2548
4165,4854
4165,4960
4166,408
4166,736
4166,924
4166,989
4167,2628
4167,4663
4171,3408
4172,75
4172,247
4172,704
4172,831
4172,1828
4172,2308
4172,3916
4172,4003
4172,4469
4172,4768
4173,4178
4175,342
4178,2476
4179,2735
4181,878
4181,4711
4183,3697
4185,1778
4188,294
4188,2163
4188,4623
4189,2022
4189,2487
4191,341
4192,1142
4192,1234
4192,3961
4193,1635
4194,437
4196,4149
4197,953
4198,255
4198,431
4198,491
4198,782
4198,2550
4198,2618
4198,2907
4198,3455
4198,4856
4202,1747
4203,766
4203,1374
4203,1646
4203,2549
4203,4702
4204,88
4206,161
4206,911
4208,782
4208,1806
4208,4481
4209,1032
4209,1196
4211,2354
4213,4774
4215,4442
4216,29
4217,160
4217,1151
4217,3961
4218,146
4219,1191
4220,442
4224,697
4226,92
4226,522
4226,710
4226,1324
4226,2795
4226,4494
4228,1460
4228,2292
4230,1234
4230,1249
4232,2892
4234,734
4234,1030
4234,4223
4236,2130
4237,218
4238,501
4238,4525
4240,1494
4242,51
4242,713
4242,1941
4242,1966
4242,4571
4243,3881
4244,1481
4249,3734
4250,92
4251,1867
4252,92
4253,38
4253,85
4253,531
4253,1029
4253,2331
4255,2095
4255,4141
4256,3967
4260,269
4260,306
4260,483
4260,2086
4260,2201
4260,2301
4260,2392
4260,3087
4260,3193
4260,4573
4262,53
4262,4771
4262,4780
4264,4929
4265,3469
4265,4920
4266,864
4267,1831
4270,55
4272,2316
4272,2775
4275,64
4275,156
4275,356
4275,427
4275,1182
4275,1841
4275,1880
4275,4340
4275,4428
4277,3326
4278,723
4280,53
4281,2387
4282,172
4284,3344
4285,3445
4288,2715
4289,1031
4289,3685
4290,573
4290,812
4290,3277
4293,441
4293,1025
4293,1732
4294,53
4294,528
4294,2286
4294,3740
4296,3647
4297,700
4298,2579
4299,1180
4301,3556
4302,1563
4305,3171
4307,2636
4309,3442
4309,3794
4310,841
4312,884
4314,608
4314,782
4314,1407
4314,2083
4315,140
4315,171
4315,2146
4315,2256
4315,2395
4315,4543
4317,77
4318,806
4319,3698
4320,3327
4322,798
4322,3552
4325,857
4327,4928
4329,3437
4330,1863
4330,4534
4331,2
4331,128
4331,1867
4331,3060
4332,371
4332,1583
4332,3058
4334,1907
4336,2124
4337,1929
4338,51
4339,4702
4341,2664
4342,4324
4345,523
4345,4644
4346,678
4348,2131
4350,2373
4350,2612
4351,1766
4354,2860
4355,3343
4359,4247
4360,310
4361,2630
4363,2272
4364,10
4367,3298
4369,83
4369,4178
4370,4333
4372,1377
4373,2753
4374,2650
4375,441
4376,232
4377,269
4378,3581
4380,1508
4382,4117
4382,4947
4383,2227
4384,2751
4385,787
4386,1055
4387,1235
4389,67
4394,245
4394,1112
4396,3872
4397,124
4397,159
4397,460
4397,607
4397,979
4398,218
4399,263
4400,2942
4400,3174
4400,3280
4401,1190
4401,2454
4408,2759
4409,19
4412,2933
4413,251
4413,1907
4414,35
4417,2156
4419,1829
4423,1563
4426,2088
4427,3171
4431,3445
4433,2287
4434,4067
4435,2949
4437,240
4437,2650
4439,2539
4440,393
4441,35
4442,3961
4442,4872
4443,1180
4444,3754
4445,1652
4446,377
4447,2356
4448,704
4449,4882
4451,111
4455,2173
4456,236
4458,2921
4459,2511
4460,2770
4462,1094
4462,1128
4462,4554
4463,598
4464,439
4470,639
4471,3621
4472,1627
4473,266
4474,3676
4475,1019
4475,2127
4476,95
4477,4045
4478,1713
4479,3623
4480,382
4483,1010
4484,3564
4488,26
4488,1959
4488,2248
4488,2557
4489,3552
4492,110
4492,191
4492,232
4492,530
4492,591
4492,721
4492,1055
4492,2664
4492,2806
4492,4532
4497,2271
4498,8
4498,2160
4499,1883
4501,900
4502,1865
4506,2330
4507,2014
4511,357
4513,407
4514,433
4515,3894
4517,177
4518,596
4520,1083
4521,788
4521,2387
4521,4349
4522,3336
4528,3403
4528,4539
4529,1025
4530,841
4531,2973
4533,1103
4535,208
4541,878
4542,240
4544,240
4544,358
4544,2008
4547,670
4547,3872
4548,2691
4551,3977
4552,1201
4553,392
4553,3374
4554,2996
4555,1057
4556,915
4556,1190
4556,2124
4556,2498
4556,3018
4557,2786
4558,3599
4560,8
4561,703
4561,2451
4561,2872
4562,841
4563,4105
4564,2506
4565,1618
4567,1286
4568,979
4572,4928
4573,4543
4574,4212
4575,111
4575,831
4575,3386
4576,3319
4577,4199
4578,1675
4580,191
4582,294
4583,113
4584,1156
4586,2375
4586,2516
4587,3801
4589,898
4591,24
4591,275
4591,594
4591,914
4591,1944
4591,2193
4591,2973
4592,1966
4592,3675
4592,4645
4593,1760
4593,1770
4593,3742
4595,4477
4597,2078
4598,1132
4599,4537
4600,2115
4603,1885
4604,382
4605,2050
4605,2757
4606,464
4607,37
4608,428
4609,3398
4609,4969
4610,698
4610,914
4610,1273
4610,2274
4610,2554
4610,2977
4610,3101
4610,3787
4611,464
4611,3025
4615,495
4618,2682
4619,3373
4620,2294
4621,970
4624,1721
4626,3719
4628,44
4628,990
4629,1889
4629,4200
4630,358
4632,1383
4632,3979
4635,1173
4638,152
4639,1595
4640,1553
4644,114
4644,311
4644,1004
4644,1869
4644,2511
4644,2860
4644,3206
4644,3514
4644,4251
4644,4828
4645,596
4645,3820
4646,842
4648,310
4648,1729
4649,255
4650,1408
4652,1746
4654,1668
4655,633
4655,1928
4656,4471
4656,4809
4657,7
4657,844
4657,1872
4658,1173
4659,633
4659,699
4659,2353
4661,522
4664,180
4665,4471
4666,3129
4666,4683
4667,1507
4670,159
4672,2346
4679,3506
4681,168
4682,2006
4683,1873
4684,565
4685,3253
4687,688
4689,1427
4691,3169
4695,251
4696,1727
4699,3066
4700,4676
4701,1969
4702,598
4703,4423
4706,1018
4707,1598
4709,111
4714,803
4714,971
4715,2589
4716,124
4717,3069
4717,4629
4717,4863
4718,3296
4719,3304
4720,251
4721,878
4723,2391
4725,907
4725,2133
4725,4156
4725,4353
4726,1517
4726,2515
4726,2668
4728,877
4728,1855
4731,75
4734,1494
4735,1740
4736,3735
4737,1265
4738,4319
4739,4673
4740,1654
4741,1377
4742,681
4744,3221
4745,632
4748,557
4750,3323
4751,2920
4753,2088
4753,2739
4756,62
4757,1556
4759,137
4760,2618
4762,124
4763,242
4763,356
4763,393
4763,1684
4763,3499
4763,3651
4764,3916
4769,806
4770,101
4770,691
4770,3201
4772,4612
4774,3543
4775,280
4776,2000
4776,2701
4776,4055
4776,4685
4777,1740
4782,1486
4783,191
4784,4178
4784,4958
4785,124
4785,645
4786,2667
4787,513
4787,716
4790,3990
4791,483
4792,111
4793,1760
4795,2183
4797,2772
4799,2534
4800,3088
4802,3930
4803,864
4804,1077
4805,2867
4806,4500
4807,724
4807,2664
4810,3692
4811,75
4811,393
4811,4199
4811,4424
4811,4462
4812,3735
4813,2835
4816,1668
4820,59
4820,878
4820,1215
4820,1749
4820,1943
4820,2421
4820,2670
4820,3065
4820,3570
4820,4307
4822,311
4823,374
4824,4705
4825,2499
4827,3881
4828,3735
4830,243
4831,454
4832,4067
4833,1916
4834,266
4838,818
4839,1973
4841,1225
4842,771
4842,3640
4847,312
4847,830
4847,971
4847,2739
4847,4697
4849,602
4853,573
4853,4469
4854,3874
4856,2339
4859,136
4861,4190
4865,1134
4866,3146
4868,2558
4870,310
4871,3613
4872,2874
4873,762
4875,953
4876,171
4876,714
4878,54
4879,1171
4881,1228
4881,1855
4881,4692
4881,4884
4883,2664
4885,1259
4885,1293
4892,2421
4893,2650
4894,236
4894,525
4894,1703
4894,2812
4894,4571
4897,4079
4899,539
4900,862
4900,1375
4900,1836
4900,3636
4900,4093
4901,2951
4903,1044
4903,1301
4903,1476
4903,1569
4903,1796
4903,1965
4903,3093
4903,4017
4903,4594
4905,4227
4907,1866
4908,862
4908,2860
4911,3237
4911,3970
4912,2395
4914,114
4915,4212
4916,1251
4918,3802
4919,2330
4921,94
4921,285
4921,347
4921,1078
4921,1574
4921,2122
4921,2202
4921,2572
4921,2618
4921,3461
4921,4098
4921,4402
4922,4742
4923,4439
4924,4123
4926,0
4927,1928
4934,629
4938,406
4939,3975
4944,646
4945,161
4946,559
4949,3565
4952,75
4954,455
4955,1251
4956,1055
4957,2978
4958,1668
4959,1666
4961,2743
4962,2720
4963,437
4963,831
4964,365
4964,377
4964,878
4965,4527
4966,66
4967,7
4967,437
4967,976
4970,2634
4972,3336
4974,3145
4975,516
4975,1454
4977,2872
4979,717
4980,1025
4983,3021
4986,2124
4988,1887
4988,3609
4989,340
4989,2080
4989,3677
4989,3927
4992,831
4993,5
4993,1380
4993,3029
4993,3241
4993,4442
