src,dst
0,1
0,417
0,982
0,1512
0,1513
0,3127
0,4277
0,4553
1,501
1,1901
1,2083
3,622
3,4479
4,204
5,61
5,110
5,273
5,373
5,514
5,568
5,885
5,1084
5,3067
5,4090
5,4256
5,4993
6,1070
6,3967
8,382
8,739
8,952
8,1503
8,1561
8,1756
8,1851
8,1857
8,2036
8,3002
8,3046
8,3811
8,4159
8,4182
8,4768
10,780
10,1280
10,1900
10,4063
10,4748
12,2012
14,77
14,288
14,976
14,1037
14,1543
14,2756
14,3511
14,3911
15,622
15,1246
15,2405
15,2612
15,3612
16,1519
16,1562
16,1738
16,1853
16,1983
16,2229
16,2393
16,2771
16,3082
17,4767
18,185
18,209
18,349
18,1776
18,2026
18,3834
18,3998
18,4519
18,4575
19,7
19,225
19,367
19,770
19,2226
19,4172
19,4585
21,228
21,567
21,926
21,1850
21,2487
21,3159
21,3603
21,4986
22,289
22,630
22,1124
22,1944
22,3731
22,3955
22,4292
26,2
26,90
26,1272
26,1699
26,2656
26,2684
26,2835
26,2950
26,3756
26,4019
26,4604
26,4708
26,4710
26,4809
26,4859
26,4978
27,310
27,4936
28,1295
28,4421
30,259
34,29
34,917
34,1234
34,1914
34,3216
35,56
35,134
35,623
35,1468
35,1664
35,2380
35,2412
35,2551
35,2765
35,4476
35,4967
36,1119
37,65
37,212
37,280
37,650
37,711
37,964
37,1194
37,1199
37,1320
37,1392
37,1570
37,2509
37,3532
37,4232
37,4277
37,4436
39,3074
43,133
43,289
43,298
43,1371
43,2126
43,2867
43,4173
43,4406
43,4500
43,4559
45,399
45,990
45,3695
45,3802
45,4120
47,1191
47,2626
47,4263
48,99
48,968
48,1119
48,1349
48,1870
50,2325
50,2372
50,4079
51,394
51,446
51,640
51,2286
51,2297
51,2457
51,3230
51,4679
52,394
52,1679
52,2558
52,4654
53,56
54,453
54,1420
54,2023
54,2033
54,2835
54,2943
54,3211
55,7
55,24
55,431
55,721
55,2184
55,2494
58,1363
58,1905
58,2825
58,3661
58,4877
59,54
59,3004
62,247
62,427
62,1489
62,1568
62,2076
62,4383
62,4631
64,1119
64,1259
64,1869
64,4398
67,650
67,1677
67,2884
68,356
68,416
68,463
68,629
68,958
68,1164
68,1721
68,1825
68,1876
68,3267
68,4276
69,803
69,3459
70,229
70,575
70,846
70,849
70,850
70,898
70,1051
70,2014
70,2445
70,2835
70,2884
70,3187
70,3385
70,4398
71,82
71,425
71,721
71,859
71,1119
71,1766
71,3199
71,3319
72,3685
73,725
73,1637
73,1735
74,66
74,79
74,147
74,282
74,356
74,361
74,413
74,431
74,452
74,463
74,622
74,849
74,960
74,1149
74,1324
74,1331
74,1573
74,1695
74,1911
74,2338
74,2605
74,2616
74,2623
74,2664
74,2813
74,2935
74,3131
74,3257
74,3484
74,3550
74,3626
74,3668
74,3798
74,3935
74,3996
74,4034
74,4144
74,4275
74,4367
74,4557
74,4958
75,150
75,243
75,425
75,1248
75,1423
75,1925
75,2118
76,4886
78,7
78,80
78,1090
78,3727
78,4611
80,66
80,363
80,2983
80,3955
84,7
84,225
84,294
84,324
84,347
84,432
84,915
84,937
84,995
84,1825
84,2818
84,3161
84,3451
85,2499
86,548
86,3274
86,3651
87,8
87,20
87,294
87,1168
87,1199
87,1206
87,1756
87,2939
87,3286
87,3439
87,3586
87,4652
88,225
88,555
88,2980
89,268
89,722
89,1311
89,1866
89,2510
91,622
91,873
91,2762
91,2793
91,2984
91,3987
91,4295
91,4405
91,4969
93,567
94,9
94,119
94,250
94,496
94,986
94,1234
94,1712
94,1879
94,1905
94,2186
94,2372
94,3191
94,3511
94,3597
94,4310
96,463
96,3474
97,72
97,130
97,164
97,169
97,200
97,1052
97,1317
97,1381
97,1430
97,1473
97,1637
97,1803
97,3361
97,3511
97,4854
98,3833
99,707
104,2039
106,1176
106,1283
106,1799
106,2004
106,2397
106,2551
106,3515
106,4259
107,239
107,424
107,445
107,569
107,1023
107,1769
107,2175
107,2509
107,2749
107,4139
107,4402
108,1496
108,3701
108,4516
109,77
109,1600
109,1674
109,1822
109,4026
111,1028
111,1051
111,2910
111,2933
111,4633
112,3625
114,533
114,815
114,881
114,1395
114,2176
114,2286
114,2998
114,3233
114,3676
114,4389
114,4631
116,24
117,90
117,296
117,623
117,2121
117,3467
117,3787
117,4437
120,911
121,7
121,12
121,13
121,53
121,330
121,403
121,547
121,583
121,1205
121,1226
121,1848
121,2068
121,2251
121,2417
121,2502
121,2537
121,2812
121,4593
121,4851
122,221
122,1289
122,1857
122,3203
122,3392
122,4144
123,617
124,110
124,438
124,1238
124,2423
125,1020
126,2178
126,2699
126,4553
127,312
127,417
127,1124
127,1631
127,1773
127,2456
127,3234
127,3954
128,394
128,395
128,740
128,888
128,1346
128,2597
128,3300
128,3600
128,4090
129,2372
132,20
132,162
132,336
132,381
132,649
132,1117
132,1241
132,1352
132,2044
132,2825
132,2940
132,3355
132,3366
132,3805
132,3919
132,4848
134,98
134,751
134,763
134,837
134,1179
134,1636
134,2164
134,3496
135,1752
136,2852
136,3153
136,3955
138,137
138,2195
138,2332
141,1480
141,2089
141,3459
141,4476
143,979
143,3386
143,3626
144,3277
147,1980
148,1462
148,1494
148,1682
148,2333
148,2656
148,2830
148,3046
148,3970
148,4017
148,4886
151,77
151,198
151,336
151,2250
151,2540
151,2845
151,4648
152,3081
155,54
155,1260
155,1916
155,2295
155,3046
155,3131
155,3672
155,4454
155,4736
156,7
156,83
156,130
156,337
156,346
156,518
156,520
156,675
156,820
156,1066
156,1207
156,1679
156,2372
156,2495
156,3069
156,3075
156,3160
156,3356
156,3484
156,3575
156,4200
156,4271
156,4365
156,4368
156,4972
158,428
158,1077
158,3834
159,65
159,420
159,445
160,3979
161,42
161,98
161,1082
161,1277
163,307
163,418
163,434
163,507
163,1086
163,1218
163,1440
163,1759
163,2092
163,2914
163,3187
163,4077
163,4139
164,1850
164,1942
165,622
165,1595
165,2400
165,2685
165,4454
166,2785
167,290
167,1825
167,2715
167,3401
167,3586
167,3663
167,3811
168,2
168,848
168,934
168,1074
168,1529
168,1600
168,2577
168,2703
168,3278
168,3994
170,1057
170,1066
170,1512
170,1637
170,2041
170,3484
170,4466
170,4631
170,4633
170,4823
170,4958
171,102
171,485
171,1548
171,2796
173,53
173,385
173,721
173,1354
173,1477
173,2582
173,2910
173,4652
173,4677
174,941
174,2048
176,2112
178,208
178,1865
178,2408
179,130
179,686
179,2884
179,4015
181,1544
181,1866
181,3752
187,308
187,310
187,845
187,903
187,1215
187,3459
187,3595
187,4013
187,4039
187,4144
189,56
189,259
189,978
189,1823
189,4012
189,4805
190,346
190,653
190,2295
192,188
192,3529
192,3618
192,3715
193,4025
196,356
196,1820
196,1978
196,2004
196,3086
196,3101
196,3219
196,3254
196,3462
196,3608
196,3841
196,4080
196,4287
196,4326
196,4423
196,4848
197,1046
197,2044
197,2067
197,2842
199,1281
199,3104
199,3494
199,3626
200,1453
200,1605
200,1807
202,385
202,510
202,1172
202,1927
202,2830
202,2884
202,3671
204,395
204,464
204,1017
204,1664
204,2880
204,2929
204,3018
204,3144
205,225
205,1583
205,2613
206,208
206,650
206,1821
206,2295
206,2952
207,214
207,237
207,245
207,1268
207,1333
207,1458
207,2092
207,2120
207,3075
209,83
209,92
209,304
209,441
209,572
209,3739
209,3967
209,4144
209,4424
209,4525
209,4772
213,3277
214,140
214,2222
216,77
216,379
216,696
216,1020
216,1183
216,1831
216,2187
217,4140
218,1
220,2884
220,3457
220,3822
220,4089
223,690
223,2159
224,142
224,973
224,1849
224,2215
224,3510
224,3714
224,3797
224,4825
227,7
227,20
227,324
227,367
227,503
227,722
227,773
227,1054
227,1081
227,1184
227,1941
227,2085
227,2202
227,2358
227,2389
227,2418
227,2703
227,2809
227,3731
227,4019
227,4242
229,1514
230,532
230,1484
230,4631
230,4988
231,4
231,369
231,386
231,625
231,1050
231,1992
231,2794
231,3490
231,3726
231,4255
231,4372
231,4459
231,4879
232,56
232,590
232,729
232,1311
232,2988
235,687
235,1562
235,2142
235,2323
235,2635
235,2655
236,100
236,294
236,561
236,1119
236,2476
236,4520
238,1429
238,1933
238,2196
238,2677
238,4886
240,66
240,137
240,243
240,3511
241,130
241,138
241,200
241,428
241,563
241,942
241,1119
241,1308
241,1447
241,3242
241,3842
241,4039
241,4402
242,111
242,149
242,346
242,1317
242,1901
242,3429
244,3551
245,164
245,1512
245,1698
245,3546
245,4119
246,77
246,225
246,548
246,1445
248,7
251,112
251,974
251,1387
251,2753
251,2856
251,3731
251,4292
252,2884
252,3550
253,1230
255,1839
255,3748
256,65
256,110
256,393
256,897
256,1298
256,1882
256,4314
257,2372
258,367
260,42
260,1976
260,2405
261,463
261,1030
261,1683
261,2557
261,4454
262,424
262,4802
263,65
263,239
263,309
263,336
263,356
263,438
263,572
263,779
263,914
263,935
263,1628
263,1871
263,2384
263,2395
263,2628
263,2657
263,2856
263,3161
263,3813
263,3942
263,4592
266,282
266,1162
266,1184
266,1754
266,1991
266,2280
266,3686
266,4665
266,4886
267,88
267,112
267,353
267,367
267,571
267,914
267,1376
267,1863
267,2465
267,3707
267,4225
267,4855
269,1493
269,4631
270,12
270,72
270,100
270,208
270,395
270,411
270,711
270,807
270,965
270,1111
270,1225
270,1392
270,1561
270,1775
270,1803
270,1825
270,1956
270,2785
270,3153
270,3548
270,3652
270,3752
270,3874
271,222
271,325
271,604
271,652
271,1205
271,1531
271,2125
271,2805
272,142
272,222
272,357
272,1150
272,2065
272,2924
274,622
274,2831
275,417
275,674
275,1583
276,341
276,3335
277,1141
278,105
278,1933
278,3769
279,820
279,885
279,1382
279,1695
279,1718
279,1810
279,1900
279,2138
279,2159
279,2325
279,2823
279,2901
279,3091
279,3421
279,4090
279,4195
279,4449
280,310
281,105
281,1076
281,1205
281,2537
281,3905
281,4413
283,72
283,4116
284,401
284,4571
286,2118
286,2784
287,110
287,739
287,833
287,1002
287,1260
287,2613
287,2934
287,3402
287,4115
287,4150
287,4631
287,4948
292,215
292,288
292,329
292,743
292,1037
292,1416
292,1493
292,3025
292,3220
292,3586
292,3836
292,4503
295,3540
295,4501
297,973
297,3038
297,3234
297,3361
298,515
298,1650
298,2737
298,2981
299,77
300,957
300,1686
302,300
302,1119
302,1279
303,1457
303,1540
303,2159
305,234
305,1185
305,2118
305,2715
305,2807
305,3139
305,3659
306,3831
307,671
307,1658
307,1786
307,1853
307,2485
307,3259
307,3703
307,4672
310,552
311,424
311,485
311,608
311,1521
311,3004
311,4519
315,189
315,353
315,515
315,2734
315,4848
321,1512
322,31
322,72
322,84
322,1454
322,2930
322,3471
322,3484
322,4601
322,4942
323,555
326,2924
326,3708
328,7
328,11
328,95
328,209
328,506
328,559
328,622
328,1040
328,1072
328,1487
328,1664
328,1860
328,4083
328,4349
332,42
332,451
332,1006
332,1823
332,3922
332,4636
334,2737
334,2825
334,3831
334,4396
335,56
335,2936
335,3096
336,1750
339,247
339,1134
339,1734
339,2147
339,3803
339,4025
340,76
340,455
340,1184
340,2529
340,3010
340,4394
343,180
343,209
343,432
343,1317
343,1766
343,2880
343,4101
344,23
344,77
344,147
344,376
344,476
344,585
344,1272
344,1379
344,1708
344,2531
344,3014
344,3198
344,4266
344,4831
345,112
345,200
345,400
345,466
345,688
345,1512
345,1675
345,1928
345,2333
345,2716
345,2785
345,4906
346,1102
351,145
351,876
351,890
351,1654
351,1892
351,2181
351,2390
351,2572
351,2788
351,3314
351,3731
351,4133
351,4288
351,4631
351,4695
351,4762
352,729
352,1715
352,1768
352,2628
352,3139
354,432
354,499
354,1588
354,2023
354,2323
354,3748
354,3865
354,4968
355,766
358,166
359,39
359,258
359,957
359,1428
359,2138
359,2639
359,2995
359,3796
359,3927
359,4890
360,363
360,436
360,665
360,704
360,813
360,1283
360,1483
360,1997
360,2020
360,2121
360,3931
360,4625
362,66
362,413
362,1574
362,4514
362,4765
363,389
363,647
363,740
363,1119
363,1531
363,1736
363,2297
363,2654
363,3821
363,3881
366,231
368,200
368,899
368,2304
368,2924
368,3256
368,3718
368,4936
370,82
372,1991
373,290
373,538
374,23
374,800
375,110
375,394
375,1066
375,1119
375,1497
375,1527
375,2193
375,3638
375,3694
375,4021
375,4360
375,4397
375,4886
378,42
378,282
378,608
378,1708
378,2420
378,2822
378,3101
380,252
380,338
380,1583
380,2592
380,2730
380,3075
382,138
382,432
382,2707
382,3216
382,4102
383,2622
386,2728
386,3234
386,3925
387,147
387,159
387,196
387,435
387,871
387,4287
387,4904
393,2053
394,3304
396,516
396,622
396,638
396,1311
396,2736
396,3340
396,3576
396,4150
396,4958
397,25
398,1
398,169
398,314
398,361
398,527
398,553
398,566
398,650
398,883
398,2164
398,2764
398,2771
398,3029
398,4636
399,560
403,133
403,169
403,3695
404,389
404,441
404,559
404,1583
404,3550
404,4020
404,4527
405,373
405,1143
406,1520
406,2816
407,349
408,1987
408,2575
408,3908
409,141
409,234
409,3153
409,3622
409,3668
409,4761
410,394
410,672
412,2884
415,169
416,298
417,1263
418,3392
419,4751
420,13
420,417
420,567
422,1829
422,2033
422,2223
422,4719
423,2
423,349
423,465
423,634
423,1695
423,2144
423,2764
423,2981
423,3033
423,4225
423,4406
428,100
428,1872
428,2958
430,265
430,575
430,1701
431,4438
433,72
434,4986
437,147
437,623
437,1152
437,1527
437,2843
437,3021
437,3612
439,202
439,379
439,3511
439,3739
439,3927
439,4654
440,820
440,1628
442,100
442,218
442,389
442,548
442,563
442,625
442,636
442,689
442,783
442,1268
442,1331
442,1493
442,1679
442,1691
442,1912
442,2020
442,2254
442,2672
442,2689
442,3404
442,3731
442,3734
442,3908
442,3975
442,4098
442,4496
442,4631
442,4702
444,4839
446,413
446,2010
446,2048
447,180
447,721
447,1282
447,1915
447,2387
447,3066
447,4272
447,4971
448,660
448,1020
448,1567
448,1739
448,2729
448,3672
448,4056
448,4207
449,2374
449,2569
449,2729
450,1458
450,1602
450,3731
450,3760
451,767
451,1470
451,1695
451,3148
454,262
454,1569
454,4919
456,502
457,567
457,2765
457,3374
458,820
458,1538
458,1613
458,2020
458,4034
458,4454
458,4795
460,2884
461,110
461,711
461,2645
461,3571
462,105
462,152
462,910
462,1919
462,3404
462,3511
462,4287
463,65
463,478
463,1579
463,1814
463,2148
463,2540
463,3581
463,3813
463,4875
467,8
467,66
467,2092
467,2654
467,2928
468,4833
469,3581
471,211
471,282
471,394
471,538
471,1528
471,3363
471,3566
471,3663
471,3873
471,4201
471,4388
471,4660
472,325
472,2703
472,3975
472,4513
477,147
477,1544
477,2558
477,3705
477,3899
477,4555
477,4700
478,150
478,1243
478,1282
478,2540
478,2930
478,4391
478,4744
478,4755
480,169
480,188
480,282
480,327
481,142
481,432
481,716
481,1712
482,139
482,290
482,428
482,655
482,702
482,766
482,958
482,2506
482,4942
483,159
483,628
483,1098
483,1686
483,2507
483,3806
483,4326
483,4680
484,87
484,202
484,556
484,1739
484,1803
484,1841
484,2168
484,3271
488,737
488,782
488,1714
488,2540
489,239
489,247
489,417
489,735
489,833
489,1246
489,1573
489,1662
489,2197
489,2229
489,2942
489,2948
489,3180
489,3245
489,3938
489,4324
489,4501
489,4652
489,4942
489,4948
490,833
490,1081
490,2241
490,4038
491,54
491,76
491,100
491,174
491,325
491,2044
491,2242
491,3046
491,4144
492,1628
492,2222
492,3006
492,3617
492,4946
495,1005
495,3050
495,4948
497,1073
497,2968
497,3966
498,429
498,475
498,2002
498,3540
498,4143
498,4529
498,4941
499,428
499,1576
499,3618
500,1678
501,891
501,3661
501,3939
501,4074
502,2
502,83
502,367
502,501
502,768
502,898
502,1139
502,1343
502,1544
502,1795
502,1873
502,2025
502,2126
502,2626
502,2746
502,3026
502,3046
502,3192
502,3496
502,3730
502,3955
502,4201
502,4434
502,4883
503,139
503,233
503,474
503,580
503,674
503,1550
503,1594
503,1658
503,1706
503,1962
503,2076
503,2835
503,2984
503,3138
503,3348
503,4529
504,141
507,44
507,105
507,2796
507,3864
508,7
508,883
509,164
509,622
509,1150
509,1183
509,1337
509,1829
509,2048
509,2984
509,3001
509,3168
509,4065
509,4547
509,4575
509,4967
511,3046
512,501
513,389
513,1278
513,1302
513,3879
514,446
514,533
514,4202
514,4291
516,282
517,140
517,383
517,1238
517,3109
518,42
521,99
521,109
521,319
521,351
521,394
521,520
521,718
521,841
521,880
521,1343
521,1467
521,3392
521,4024
521,4762
522,99
522,3838
522,4850
524,175
524,385
524,1439
524,1486
524,1887
524,1912
524,1987
524,2299
524,3273
524,3394
524,3496
524,3753
524,4883
525,435
525,2744
525,3154
526,716
526,1440
526,1773
526,2654
528,138
528,3603
529,110
529,180
529,264
529,383
529,820
529,997
529,1057
529,1809
529,2736
529,3613
529,4308
529,4693
529,4848
531,1573
531,1866
531,2124
531,3709
531,3811
531,4747
534,385
535,1592
535,4942
536,553
536,997
536,1241
536,2203
536,3841
536,4879
537,2841
539,53
539,1324
539,1343
539,1839
539,2229
539,3204
539,3511
539,4596
539,4710
540,951
540,4266
540,4848
541,2048
542,92
542,2552
542,3088
543,408
543,466
543,1704
544,427
545,112
546,3193
546,3695
548,4482
550,412
550,548
550,843
550,1187
550,2023
550,2196
550,2952
551,413
551,651
551,838
551,1255
551,1328
551,1790
551,1995
551,2018
551,2832
553,1651
553,1787
553,2448
553,3442
553,3651
553,3877
553,4034
553,4273
553,4398
554,765
554,2373
554,4303
555,171
558,3101
560,1271
560,1459
560,1610
560,1714
560,2079
560,3009
560,3299
560,3389
562,385
562,2318
563,1360
564,4553
565,317
566,4058
574,4631
575,333
576,20
576,164
576,435
576,815
576,3722
576,3731
577,2736
578,137
578,675
578,1637
578,1909
578,4631
578,4689
579,1246
581,445
582,56
582,72
582,435
582,1045
582,2788
582,3175
582,3818
582,4748
587,989
587,1216
588,7
588,20
588,1827
588,2603
588,3290
588,4513
589,169
589,519
589,1119
589,1218
589,2344
589,3415
589,3892
589,3972
589,4055
589,4178
590,937
590,1066
591,60
591,61
591,141
591,330
591,519
591,876
591,2651
591,2900
591,3926
591,4958
592,25
592,1648
593,268
593,871
593,1624
593,4554
597,487
597,1255
597,1686
598,348
599,1819
599,3783
600,2157
600,2448
600,2557
600,4893
601,4850
603,7
603,169
603,3490
603,3492
603,3571
606,42
606,424
606,701
606,744
606,1295
606,2021
606,2562
606,2646
606,2697
606,2761
606,2830
606,3053
606,3343
606,3459
607,434
607,798
608,3556
608,3828
609,456
609,903
609,2176
610,389
610,3786
610,4638
610,4651
611,137
611,356
611,563
611,2936
611,3050
611,4947
613,421
613,2942
615,325
615,2405
615,3710
615,3835
616,2135
617,452
617,647
617,2232
620,590
620,650
620,2408
620,2429
620,3442
620,3994
620,4140
620,4783
622,119
622,138
622,394
622,523
622,4948
624,567
624,711
624,828
624,1512
624,1637
624,2912
627,336
627,1382
627,2023
627,2168
627,2537
627,4752
631,1786
632,1010
632,1360
632,4747
633,112
634,56
634,112
634,331
634,474
634,733
634,751
634,820
634,1042
634,1520
634,1675
634,1909
634,2562
634,2608
634,3619
634,3822
634,4025
634,4149
634,4850
636,1035
637,1178
637,1591
637,2513
637,2609
637,2706
637,3640
637,3919
641,7
641,1742
641,1952
641,2629
641,3031
641,3990
641,4633
642,239
642,766
642,1175
642,1216
642,1784
642,3552
642,3663
643,23
643,2953
644,2884
645,137
645,4394
646,1053
650,141
650,473
650,533
650,624
650,2262
650,4955
652,4619
652,4631
654,141
654,1346
655,88
655,3490
655,4785
656,3459
658,2960
658,4368
659,1439
659,3488
662,92
662,209
662,1053
662,1066
662,1269
662,1803
662,3230
662,3294
662,3850
662,4631
663,3651
664,2171
664,2509
664,3161
666,164
666,263
667,298
667,520
667,2622
668,625
668,1825
668,2784
668,2785
668,3776
669,1159
669,2002
670,931
670,1914
670,2715
670,2884
670,4160
671,25
671,392
671,573
671,2781
673,282
673,933
673,1660
676,689
676,745
676,767
676,1241
676,1416
676,1656
676,2373
676,2771
676,3502
676,3597
676,3731
677,2333
677,4406
678,1681
678,2613
678,2788
678,3532
681,4303
681,4655
682,52
683,3811
683,4696
684,394
685,3232
685,3612
686,3148
688,3311
691,66
691,892
691,1339
691,1646
691,1919
691,2072
691,4728
692,1675
692,3496
692,4387
693,99
693,280
693,1066
694,2654
694,3831
694,4324
695,4
695,470
695,866
695,2076
695,2406
695,2954
695,3043
695,3425
697,566
697,624
697,764
697,1531
697,1617
697,1785
697,1823
697,2589
697,2651
697,3091
697,4067
697,4648
698,445
699,3701
700,296
700,377
700,394
700,527
700,563
700,625
700,769
700,782
700,1243
700,1363
700,1809
700,2597
700,2776
700,2930
700,2943
700,3550
700,4144
700,4866
703,1177
703,3667
703,4631
705,424
705,711
705,1045
705,3090
706,1331
706,1462
708,298
708,347
708,957
708,3541
708,4322
710,264
710,317
710,381
710,3049
710,3242
712,2509
712,4649
713,184
713,1066
713,4299
715,559
715,1472
719,563
719,820
719,1273
719,1754
719,2819
719,3102
719,3227
719,3560
719,4464
720,1289
720,4423
722,205
723,171
723,239
723,1506
723,1768
723,2835
728,101
728,1993
728,3668
728,3762
728,4213
730,1093
730,4296
730,4984
731,393
731,1179
731,3176
734,4947
736,417
738,1246
738,1545
738,2397
738,2597
741,110
741,3145
741,4396
742,72
742,559
742,1272
742,1827
746,435
746,962
746,1963
746,2143
746,3742
746,4445
747,623
749,1875
750,250
750,1089
750,1265
750,1729
750,2458
750,4034
750,4113
752,1671
752,2454
752,3842
752,4670
753,413
753,716
753,1104
753,4603
754,38
755,428
755,962
755,1178
755,1497
755,1598
755,1684
755,1789
755,2836
755,3075
755,4087
755,4249
756,1
756,1565
756,1843
756,3104
757,1825
758,417
759,20
759,249
759,622
759,3284
759,4465
759,4983
761,2434
764,696
765,247
765,372
765,760
765,838
765,898
765,1235
765,2298
765,2931
765,3382
765,3651
769,110
769,157
769,766
769,1141
769,1206
769,1274
771,309
771,622
771,748
772,674
775,209
775,975
775,1377
776,231
776,2251
776,2792
779,12
779,435
779,1144
779,3046
779,3203
780,401
783,2509
784,247
784,1618
784,1858
785,293
786,157
786,575
786,859
786,4751
787,77
787,1289
787,2719
788,1379
788,4212
788,4337
789,67
789,950
789,2168
789,2715
789,3814
791,214
791,2932
791,3046
792,105
792,195
792,273
792,382
792,696
792,858
792,1404
792,2413
792,3862
793,4211
793,4848
794,1311
794,3603
794,4710
795,2
795,1493
795,3046
796,1205
796,1440
796,2251
796,2799
796,3735
797,656
797,1423
797,1494
797,3562
799,650
799,3036
799,3547
801,1561
801,1670
802,353
802,747
802,2841
802,4613
804,7
804,60
804,76
804,112
804,308
804,494
804,892
804,1002
804,1470
804,1664
804,1890
804,2376
804,2785
804,3005
804,3360
804,3742
804,4082
805,2
805,748
805,2092
808,964
808,4526
809,401
809,2062
810,2729
810,4747
810,4833
811,443
814,2168
814,2187
814,3652
815,427
815,2368
816,1119
816,1635
816,3295
816,4079
816,4371
817,899
818,13
818,65
818,1602
818,2397
819,740
819,779
819,1175
819,1821
819,2116
819,2232
819,3290
819,4459
821,4877
824,7
824,1732
824,1785
824,2666
824,2682
824,3699
824,4264
825,530
826,432
827,25
827,2537
829,7
829,100
829,317
829,2096
829,2765
829,2867
829,4648
831,112
831,425
831,1609
831,1899
831,2195
831,2405
831,3511
831,3790
831,3831
832,1753
832,3686
832,4359
835,548
835,2580
835,2762
835,4671
837,81
837,714
837,3561
837,4142
837,4995
840,474
840,1495
842,112
842,854
843,1226
844,66
844,1570
844,2781
847,200
847,952
847,4509
852,766
853,285
853,1128
853,1784
855,342
855,3610
856,53
856,164
856,314
856,367
856,1023
856,1068
856,1311
856,1628
856,2533
856,2895
856,4457
860,100
860,142
860,1003
860,2055
860,2118
860,3434
860,3798
860,4848
861,1392
861,4082
862,7
862,509
863,561
863,2816
864,602
865,2496
865,3634
865,3786
865,4135
868,196
868,3010
872,1786
872,2060
872,2789
872,3576
872,4570
875,1980
875,4171
877,425
882,1413
882,2952
884,7
884,604
884,1066
884,2029
884,2224
884,2657
884,3197
884,3961
884,3985
886,1315
886,4144
887,133
887,142
887,169
887,202
887,1902
887,2343
887,2610
887,2940
887,3385
887,3911
887,4501
889,2314
891,259
891,347
891,575
891,1705
891,2362
891,3379
891,3634
891,3663
891,3726
894,130
895,436
895,452
895,2040
895,3511
896,112
897,393
897,924
897,1818
897,2224
897,3356
897,4710
897,4833
900,3731
900,3870
901,1205
901,1752
901,1918
902,2590
902,3880
902,4262
904,72
904,4737
905,57
905,358
905,411
905,2015
905,3386
906,222
906,1399
907,265
907,280
908,110
908,656
908,2777
909,169
909,239
909,510
909,558
909,716
909,1392
909,1827
909,2504
909,3217
909,3599
909,4827
909,4883
909,4936
911,32
911,1439
912,347
912,917
912,1430
912,2984
912,4357
913,77
913,438
916,87
916,424
916,1472
916,1786
917,76
917,364
917,655
917,1125
917,1169
918,4710
919,585
919,1238
919,1553
919,1583
919,2443
919,4027
920,23
920,142
920,327
920,384
920,463
920,830
920,836
920,1129
920,4086
921,1074
922,2300
922,2622
923,3783
924,101
925,63
928,812
928,1825
928,2732
928,3831
929,1160
929,1305
929,2250
930,3284
931,4144
932,969
932,2952
932,3842
934,1639
936,3786
936,4867
937,434
937,591
937,674
937,1291
937,1647
937,2062
937,2402
937,2756
937,2897
937,3275
937,3914
937,4046
937,4631
937,4808
938,222
938,2925
938,3139
939,1933
940,186
940,2454
941,3813
945,83
946,112
947,2413
948,474
948,1175
949,650
949,815
949,1425
949,2449
949,4425
951,523
951,838
953,3884
954,40
954,137
954,711
954,1131
954,1178
954,1518
954,1767
954,1796
954,3586
955,321
955,394
955,676
955,2375
956,3595
956,4272
957,4877
959,294
959,1332
959,1825
959,2390
959,2675
959,3606
959,4089
961,424
961,2023
961,2884
962,100
962,285
962,463
962,991
962,1053
962,1752
962,1965
962,2510
962,2872
962,4840
963,233
967,888
969,559
970,1399
971,740
972,548
973,2386
973,2643
974,4159
977,4827
977,4848
980,837
980,1163
980,1618
980,1877
980,4566
981,4977
983,614
983,1857
983,2008
984,20
984,79
984,403
984,1595
984,2252
984,2308
984,2445
984,3006
984,3843
984,4144
984,4778
985,182
985,346
985,373
985,427
985,833
985,885
985,1108
985,1406
985,1477
985,1680
985,4827
985,4902
988,46
990,732
990,1189
990,1792
990,2300
991,320
992,139
992,1836
992,2584
992,3927
993,2654
994,808
994,1077
994,1386
994,2467
998,1130
998,3997
999,198
999,1561
999,1804
999,2147
999,3494
999,3955
1000,2067
1007,2136
1007,3959
1008,424
1008,960
1009,547
1009,815
1011,3831
1011,4363
1012,1107
1012,3356
1012,3760
1012,4144
1012,4164
1013,233
1014,1291
1014,3514
1015,65
1015,1526
1015,3038
1015,4585
1017,4
1017,1023
1017,1346
1017,1642
1017,2342
1017,2853
1018,1787
1019,4368
1020,333
1020,1255
1020,3192
1021,310
1021,621
1022,1101
1024,622
1024,838
1024,3526
1024,4226
1027,623
1027,2259
1027,3354
1027,4406
1027,4941
1028,532
1031,429
1033,20
1033,2737
1033,4943
1034,4028
1034,4553
1034,4614
1036,7
1036,320
1036,423
1036,2357
1036,2546
1036,2877
1038,215
1038,451
1038,1320
1038,1983
1041,3034
1043,137
1043,182
1043,943
1043,1119
1043,1440
1043,2360
1043,2417
1043,3009
1043,3539
1043,3672
1043,4527
1043,4798
1044,585
1044,2731
1046,2784
1046,3798
1048,3627
1057,203
1057,519
1057,2729
1057,3266
1057,4529
1057,4540
1057,4707
1058,180
1058,408
1058,1887
1058,2385
1058,3626
1058,3893
1058,4476
1059,813
1059,3599
1059,3604
1061,1229
1062,7
1063,436
1063,2587
1063,3693
1063,4747
1063,4748
1064,3392
1065,362
1067,159
1067,1247
1067,1979
1068,377
1068,874
1068,1371
1068,1782
1068,2475
1068,3284
1068,3289
1068,4223
1068,4652
1068,4977
1069,105
1069,2679
1074,202
1074,319
1074,500
1074,933
1074,1178
1074,1279
1074,1309
1074,1356
1074,1520
1074,2168
1074,2437
1074,2709
1074,2881
1074,3200
1074,3550
1074,4424
1074,4812
1074,4827
1078,650
1078,3069
1078,4454
1079,3354
1079,4089
1079,4710
1080,515
1083,2298
1087,2603
1087,2794
1087,3088
1087,3685
1088,4036
1089,87
1089,903
1089,1282
1089,1714
1089,1851
1089,2893
1089,3496
1089,4122
1089,4303
1090,98
1090,166
1090,394
1090,434
1090,855
1090,1136
1090,1172
1090,2183
1090,2624
1090,3296
1090,4501
1090,4640
1092,1119
1092,1570
1094,3490
1095,1637
1097,527
1097,711
1099,225
1099,2032
1099,3006
1099,3422
1099,3813
1100,567
1101,320
1101,563
1101,3761
1102,147
1102,169
1102,4303
1103,1593
1103,1681
1103,4604
1105,42
1105,839
1105,1503
1105,2092
1105,2233
1105,3386
1105,4848
1106,7
1106,1506
1106,4182
1106,4485
1107,138
1107,147
1107,554
1107,1150
1107,3650
1107,4402
1107,4970
1110,109
1110,1945
1114,1025
1114,4856
1115,1933
1115,3451
1116,196
1116,934
1116,3163
1116,4266
1117,1489
1117,1752
1117,4984
1119,4173
1120,420
1122,4341
1126,293
1128,346
1128,1205
1128,1313
1128,2013
1128,2737
1128,3044
1128,3290
1128,3455
1128,4848
1128,4945
1133,348
1133,1795
1135,2295
1135,3699
1137,434
1137,2124
1137,2362
1138,208
1138,559
1138,1268
1138,1664
1138,2297
1138,3991
1140,849
1142,3090
1146,575
1147,438
1151,385
1154,20
1155,3443
1156,78
1156,314
1156,937
1156,1131
1156,2280
1156,2783
1156,2785
1157,130
1157,4822
1158,130
1158,474
1158,1006
1158,1045
1158,2006
1158,2784
1158,4977
1161,60
1161,207
1161,1675
1161,2239
1163,4848
1166,247
1166,358
1166,364
1166,876
1166,1020
1166,1259
1166,1371
1166,1601
1166,1915
1166,2084
1166,3597
1167,2070
1167,4037
1167,4553
1168,145
1168,180
1168,516
1168,3742
1168,3936
1168,4552
1170,402
1170,3082
1170,4571
1172,83
1172,2007
1172,3866
1175,7
1184,2186
1185,1654
1186,1705
1186,3646
1186,3822
1186,4967
1188,77
1190,657
1190,3612
1192,103
1192,3413
1192,3496
1192,3663
1193,1583
1195,1004
1196,133
1197,382
1197,1364
1197,1919
1197,2800
1197,3385
1197,3695
1198,3646
1200,424
1200,455
1200,623
1202,1512
1202,1772
1202,2581
1203,520
1204,411
1204,1317
1204,1383
1204,1637
1204,2184
1204,2297
1207,812
1207,1583
1207,3651
1210,2454
1210,3755
1211,208
1211,1294
1211,1650
1211,1654
1211,3040
1211,3206
1211,3355
1211,4052
1212,548
1212,1066
1212,2371
1212,4414
1216,77
1219,77
1219,1695
1219,3090
1220,54
1220,175
1220,2718
1220,3344
1220,3757
1221,679
1221,1370
1221,2203
1221,3053
1223,4502
1227,981
1227,1180
1227,2017
1227,2841
1227,3125
1229,7
1229,555
1229,3411
1229,4553
1229,4628
1231,137
1231,871
1231,3632
1232,2358
1232,2877
1232,3678
1233,783
1234,432
1236,3874
1237,1462
1239,711
1239,815
1239,1205
1239,2415
1239,3567
1240,1520
1240,3290
1240,3316
1242,754
1244,1360
1244,1787
1244,3485
1244,3955
1245,937
1246,7
1246,1675
1249,268
1249,394
1249,640
1249,769
1249,3291
1249,4585
1250,1855
1251,2560
1251,2995
1252,974
1253,2229
1254,1452
1256,389
1256,1098
1256,1182
1256,3486
1257,429
1258,56
1258,282
1258,1709
1258,2285
1258,2410
1258,2571
1258,2796
1258,3023
1261,234
1261,3501
1262,1708
1262,2416
1262,2457
1263,2699
1264,265
1265,438
1265,3231
1266,655
1266,3388
1267,1346
1270,937
1270,3646
1270,3948
1272,499
1272,2870
1272,4261
1273,385
1273,766
1273,792
1273,1268
1273,2806
1273,3035
1275,4553
1284,1268
1284,3580
1285,941
1285,3636
1285,3739
1286,195
1286,2048
1286,3980
1286,4648
1287,2792
1287,3008
1287,3037
1287,3533
1288,294
1288,4411
1288,4523
1289,394
1289,1051
1289,1766
1289,2161
1289,2841
1290,1332
1290,1914
1293,319
1293,3090
1293,4422
1295,456
1296,868
1297,1583
1297,3798
1299,2654
1299,2724
1303,881
1303,1677
1303,3012
1304,580
1304,3138
1304,4266
1305,1657
1306,204
1306,668
1306,1686
1306,1880
1306,2041
1306,2059
1306,2085
1307,198
1311,2168
1312,500
1312,4271
1314,110
1314,924
1314,4008
1316,244
1316,1661
1316,2384
1318,655
1319,2
1321,105
1321,2405
1323,1766
1325,265
1325,2426
1325,3603
1325,3698
1325,4537
1327,2121
1328,293
1328,425
1328,2568
1328,2659
1328,2835
1328,3356
1328,4550
1329,3820
1329,4631
1330,394
1334,212
1334,3372
1335,385
1337,1279
1338,1052
1339,110
1339,2891
1339,4187
1340,169
1342,204
1344,239
1345,1456
1345,4271
1347,4423
1347,4435
1348,485
1350,432
1350,434
1350,446
1350,625
1350,1185
1350,1498
1350,2616
1350,3652
1350,3653
1350,4847
1351,7
1351,622
1351,1827
1351,2092
1351,2966
1352,2191
1352,2474
1353,29
1353,553
1353,1734
1353,1901
1353,3112
1354,459
1354,1254
1354,3069
1354,4084
1354,4263
1355,1884
1356,65
1356,66
1356,247
1356,2813
1356,3647
1357,150
1358,650
1359,294
1360,4631
1360,4946
1362,1153
1364,175
1364,218
1364,282
1364,621
1364,717
1364,820
1364,987
1364,1205
1364,2072
1364,3668
1364,3673
1364,4160
1366,7
1366,186
1366,252
1366,650
1367,66
1367,3620
1368,3146
1369,194
1371,1029
1371,1291
1371,1537
1371,1637
1372,365
1372,3703
1372,3825
1372,4079
1372,4851
1373,3626
1374,424
1375,893
1378,1205
1380,2233
1384,1825
1385,650
1385,3731
1387,783
1387,2862
1388,783
1388,1612
1388,3004
1388,4797
1390,215
1390,3090
1391,101
1391,1694
1391,2831
1393,7
1396,346
1397,596
1397,1141
1397,1573
1398,729
1398,879
1398,2017
1399,612
1399,1395
1399,1713
1399,1958
1399,2283
1399,2817
1400,66
1400,98
1400,1821
1400,2924
1401,881
1403,4396
1404,2729
1404,4094
1407,1171
1408,4
1408,48
1408,140
1408,320
1408,424
1408,557
1408,1356
1408,2372
1408,2539
1408,2586
1408,2855
1408,3232
1408,3670
1408,4771
1408,4935
1408,4958
1409,1311
1411,1138
1412,377
1412,2757
1412,4600
1414,486
1414,1592
1414,3686
1415,83
1415,1928
1415,4052
1415,4583
1417,1825
1417,1875
1417,4961
1418,2551
1419,575
1419,3739
1420,218
1420,643
1421,65
1421,142
1421,771
1422,711
1422,1051
1422,3065
1422,3603
1422,4032
1422,4175
1426,532
1426,602
1426,624
1426,4684
1426,4958
1427,841
1431,1255
1431,1754
1431,3538
1431,3731
1431,4516
1432,1825
1432,1847
1433,1225
1434,665
1434,1875
1434,3579
1434,3843
1434,4181
1435,3090
1435,4710
1436,112
1436,680
1436,1117
1436,1759
1436,2048
1436,3367
1436,3813
1437,475
1437,4368
1437,4398
1438,779
1438,4652
1438,4894
1439,1892
1441,2092
1441,2652
1442,871
1442,2940
1443,445
1443,1803
1443,1956
1443,2513
1443,3877
1443,3946
1443,3955
1446,721
1446,2459
1446,3271
1446,4245
1448,2046
1448,3159
1449,4010
1450,4833
1451,389
1451,421
1451,915
1451,1391
1451,3437
1451,3752
1451,3860
1451,4099
1451,4139
1451,4846
1452,2185
1456,515
1456,915
1456,4260
1457,1601
1457,1618
1457,1990
1457,2202
1457,4596
1460,1650
1461,137
1461,885
1463,4034
1464,1235
1466,591
1466,1068
1466,3443
1470,3046
1470,3073
1471,3395
1471,4585
1474,899
1475,12
1476,298
1476,559
1476,2858
1476,4835
1478,591
1479,530
1479,3686
1480,414
1480,596
1480,1686
1480,2215
1480,2334
1480,3891
1481,2647
1481,3277
1482,101
1485,655
1485,813
1490,429
1490,486
1490,1023
1490,2452
1491,383
1492,214
1492,219
1492,858
1492,4319
1497,7
1498,3621
1498,3813
1500,153
1500,4187
1501,1205
1502,1271
1502,3950
1504,46
1504,2168
1504,4092
1505,56
1505,1181
1505,4582
1505,4937
1507,2325
1509,1866
1509,2620
1509,3927
1510,1048
1510,1827
1510,4631
1512,1371
1516,650
1517,424
1518,3831
1518,4993
1519,3626
1520,4694
1522,1512
1523,833
1524,3586
1526,3003
1529,1718
1532,704
1533,2
1533,53
1533,122
1533,356
1533,463
1533,527
1533,650
1533,849
1533,1138
1533,1182
1533,1524
1533,1821
1533,2094
1533,2884
1533,3026
1533,3197
1533,3648
1534,38
1536,202
1536,288
1536,1201
1536,1583
1536,2492
1536,2952
1536,3739
1536,4007
1536,4341
1536,4512
1536,4942
1539,346
1541,1618
1541,3474
1542,839
1542,997
1542,1862
1542,3544
1544,4596
1546,2333
1547,4398
1548,3742
1549,90
1549,369
1549,1255
1549,1945
1549,3732
1549,4747
1550,265
1550,1218
1550,3581
1550,4702
1550,4785
1551,112
1552,1759
1552,4833
1554,778
1554,4039
1554,4095
1555,493
1555,622
1555,3967
1556,2770
1556,3498
1556,4731
1556,4754
1557,389
1557,1205
1557,3339
1557,3358
1557,3720
1557,4997
1558,188
1559,1172
1560,1752
1563,169
1565,112
1565,335
1565,1618
1565,1874
1565,2785
1565,4572
1566,1006
1566,1020
1566,1844
1566,3946
1566,4204
1566,4859
1566,4984
1570,364
1570,2085
1570,2497
1570,2622
1570,3046
1570,3604
1570,3607
1570,4027
1570,4262
1570,4405
1570,4883
1572,1119
1572,2536
1574,428
1574,595
1574,2063
1574,3403
1574,3601
1574,4232
1574,4465
1574,4710
1575,1388
1577,1159
1581,2960
1582,4883
1583,385
1584,3234
1585,424
1585,1913
1586,3230
1586,4834
1587,1618
1587,2032
1587,2469
1587,2788
1587,4690
1588,226
1588,1173
1588,3101
1589,7
1590,435
1590,4065
1593,24
1596,2784
1597,65
1597,711
1597,2121
1597,2695
1597,3165
1597,3176
1597,3603
1597,3648
1597,4065
1597,4825
1599,650
1606,2297
1607,1570
1607,1809
1607,1825
1607,2105
1607,3384
1607,4056
1607,4636
1608,373
1608,1406
1608,3550
1611,3550
1615,318
1615,648
1615,869
1615,1206
1615,2123
1615,3101
1615,3577
1615,3614
1615,4546
1619,60
1619,1205
1620,828
1620,1153
1620,1469
1620,2356
1620,2890
1621,147
1622,1057
1622,2820
1622,4749
1623,20
1623,679
1623,2000
1624,711
1625,725
1625,1430
1625,4476
1626,3764
1627,209
1627,978
1629,298
1629,3783
1630,159
1634,740
1634,3924
1635,428
1635,751
1635,4430
1638,485
1638,501
1638,1482
1638,1699
1638,1793
1638,1954
1638,3197
1638,3276
1638,3975
1639,383
1639,944
1639,1191
1639,1324
1639,1825
1639,2238
1639,2382
1639,2694
1639,3576
1639,3898
1639,3983
1639,4528
1639,4569
1640,2618
1641,624
1643,558
1643,2253
1644,198
1644,2325
1644,4848
1645,1583
1647,711
1647,2229
1647,2884
1649,976
1649,3464
1650,60
1651,2175
1651,4386
1652,2
1652,2706
1653,485
1653,729
1653,2233
1653,2402
1653,2412
1653,3712
1655,164
1657,20
1657,1346
1657,1812
1663,1588
1664,308
1665,625
1665,1686
1665,2022
1666,29
1666,171
1666,329
1666,346
1666,899
1666,917
1666,1578
1666,2373
1666,2551
1666,3304
1666,3594
1666,3739
1666,3903
1666,4592
1667,1927
1667,3138
1667,4748
1668,313
1668,1569
1668,1678
1668,2342
1668,4893
1669,371
1669,4631
1669,4841
1672,4553
1673,198
1675,112
1675,338
1675,1181
1676,4710
1683,312
1683,356
1683,2105
1683,2432
1683,3527
1683,4378
1686,308
1687,142
1687,1311
1687,2285
1688,716
1688,2672
1688,4483
1689,3955
1692,500
1692,590
1692,1098
1692,1215
1692,3483
1696,688
1696,2325
1696,2362
1700,1051
1700,2630
1700,4183
1702,1679
1703,444
1707,4
1707,319
1707,763
1707,820
1707,1150
1707,1313
1707,1389
1707,1544
1707,1865
1707,3902
1707,4350
1707,4750
1707,4850
1707,4897
1708,997
1710,3224
1710,3842
1711,1243
1711,4821
1714,1119
1714,1346
1714,1965
1717,1109
1717,2177
1719,646
1719,3158
1722,4631
1723,1857
1723,2426
1723,2501
1723,2975
1725,369
1725,1564
1725,4990
1726,98
1726,515
1726,626
1726,650
1726,732
1726,1179
1726,1214
1726,1847
1726,2078
1726,2640
1726,3183
1726,4025
1726,4110
1726,4381
1727,4600
1728,209
1728,2874
1730,2295
1730,3668
1731,2168
1733,1208
1733,1913
1733,3459
1733,4877
1735,82
1735,1382
1740,385
1740,4254
1741,1263
1741,2339
1741,2699
1741,2887
1743,188
1743,309
1743,622
1743,636
1743,2200
1743,3614
1743,4158
1743,4604
1743,4808
1744,1600
1744,3046
1744,3067
1745,133
1745,3885
1745,4389
1745,4564
1745,4883
1746,417
1746,4294
1746,4702
1747,3646
1748,52
1748,273
1748,385
1748,476
1748,527
1748,566
1748,1392
1748,1462
1748,1533
1748,1618
1748,1658
1748,2043
1748,2084
1748,2785
1748,2886
1748,3078
1748,3248
1748,3375
1748,3674
1748,3781
1748,4413
1749,1
1749,2905
1751,4248
1752,1053
1752,2030
1755,766
1756,171
1756,212
1756,476
1756,580
1756,1713
1756,2846
1756,4688
1760,874
1760,2699
1760,3760
1760,4446
1760,4592
1760,4702
1763,3869
1763,4162
1764,33
1764,77
1764,621
1765,1104
1768,1224
1768,2690
1768,3877
1770,474
1771,853
1771,941
1771,2187
1771,4636
1772,57
1772,622
1772,899
1772,2208
1772,2913
1772,4185
1774,385
1777,32
1777,1052
1777,3046
1777,4886
1778,1871
1779,709
1779,727
1779,1822
1779,1823
1779,2203
1779,3550
1780,214
1780,917
1780,1046
1780,1322
1780,4454
1781,401
1781,1583
1783,333
1783,1837
1787,769
1787,1213
1787,3069
1788,4886
1791,3266
1793,268
1793,3404
1794,417
1797,247
1798,12
1798,112
1798,188
1798,294
1798,373
1798,434
1798,1276
1798,1708
1798,1954
1798,2377
1798,2910
1798,3064
1798,3511
1798,3804
1798,3811
1798,4755
1799,2188
1800,320
1801,1708
1802,1459
1802,1980
1802,2103
1802,3531
1802,3911
1804,2537
1804,3717
1805,110
1805,494
1805,777
1805,1113
1805,2729
1805,3354
1805,3706
1806,4
1806,1382
1806,2498
1806,3564
1806,3964
1807,1259
1807,3211
1808,1241
1808,2481
1808,3921
1808,4341
1809,196
1809,1084
1809,1213
1809,2412
1810,1825
1811,4808
1813,3341
1813,4360
1813,4416
1815,169
1815,182
1816,60
1817,716
1823,154
1823,990
1825,2825
1825,4286
1826,1452
1828,7
1828,1168
1828,4490
1829,183
1829,2168
1829,3355
1830,2026
1830,2384
1832,231
1832,604
1832,2042
1832,2715
1832,3121
1833,208
1834,1
1834,4293
1835,2785
1838,308
1840,46
1840,356
1840,936
1840,3089
1840,3728
1840,4110
1840,4895
1842,952
1842,1148
1844,330
1845,140
1845,2082
1845,3470
1845,4111
1845,4767
1846,320
1846,3667
1850,23
1850,142
1850,3842
1852,1406
1854,1023
1855,1696
1856,348
1859,133
1862,1371
1862,2517
1862,3549
1862,4488
1865,101
1865,766
1865,1654
1865,3646
1865,3955
1867,1343
1868,2830
1871,63
1872,623
1872,1271
1872,1618
1872,2175
1872,3090
1875,298
1875,356
1875,443
1875,1104
1875,1213
1875,1341
1875,1501
1875,1675
1875,1990
1875,2437
1875,2499
1875,2980
1875,3662
1875,4439
1875,4458
1875,4471
1875,4864
1878,1486
1879,60
1879,102
1879,562
1879,704
1879,1405
1879,1850
1879,1968
1879,2188
1879,2201
1879,3669
1879,3739
1879,4879
1880,623
1881,367
1881,1070
1883,77
1883,2072
1884,247
1884,273
1884,514
1884,1583
1884,1752
1884,1839
1884,1937
1884,2924
1884,3365
1884,3392
1885,783
1885,1213
1885,3422
1886,1172
1888,2840
1888,4085
1889,3004
1892,222
1892,3975
1893,112
1893,402
1893,1003
1893,2408
1893,2428
1893,2488
1893,2648
1893,2769
1893,3967
1893,4283
1894,1762
1903,3058
1903,3646
1904,435
1904,1678
1904,1818
1904,3108
1904,3153
1905,625
1907,138
1908,2376
1908,4501
1909,364
1909,1512
1910,218
1910,234
1911,410
1913,618
1913,2127
1913,3188
1913,3268
1914,3114
1914,4986
1917,1526
1917,3356
1917,4498
1917,4601
1919,2707
1919,2901
1919,3699
1920,1331
1921,952
1922,1326
1922,4529
1923,1573
1924,815
1924,4553
1925,1935
1926,3454
1926,3731
1926,4118
1929,883
1930,960
1930,2848
1931,3739
1932,2119
1933,110
1933,376
1937,559
1937,1498
1937,2122
1937,2927
1937,4040
1938,13
1938,567
1938,1119
1938,1222
1938,2177
1938,2715
1938,2840
1938,3667
1938,4148
1938,4889
1939,87
1939,2801
1939,4986
1940,434
1940,2699
1941,661
1943,3386
1944,2084
1945,4370
1946,77
1946,4144
1947,435
1948,1218
1948,1724
1948,2540
1948,3876
1949,768
1949,874
1949,1767
1949,1858
1949,3061
1949,3410
1949,4652
1950,4883
1950,4975
1951,766
1953,61
1955,4943
1956,124
1956,1371
1956,3169
1957,247
1957,349
1957,4896
1959,325
1959,1113
1959,2914
1960,288
1960,2045
1960,3735
1960,4144
1961,533
1961,660
1961,4302
1964,4527
1966,373
1967,231
1967,3135
1967,3342
1967,4958
1970,3489
1971,820
1971,3160
1971,4449
1972,79
1973,721
1973,3469
1974,1543
1976,7
1976,348
1976,1759
1976,2198
1976,2237
1976,2715
1976,2785
1976,3054
1976,3616
1976,3884
1977,748
1980,4042
1981,100
1982,873
1982,973
1982,2182
1982,3090
1982,3259
1982,4374
1982,4800
1984,1360
1984,3842
1984,4529
1985,996
1985,2121
1985,2159
1985,2247
1985,4563
1986,4883
1988,4356
1988,4748
1989,1216
1990,4216
1991,4
1991,83
1991,679
1991,740
1991,893
1991,1424
1991,2021
1991,3392
1991,4576
1994,188
1994,501
1995,341
1995,635
1995,1023
1995,1205
1995,1277
1995,1439
1995,1565
1995,1664
1995,2349
1995,3550
1995,3595
1995,4631
1997,3270
1998,1570
1999,841
1999,4204
2003,420
2005,2023
2006,342
2006,2067
2009,312
2011,435
2011,2880
2011,3022
2016,3153
2016,3203
2017,1360
2019,619
2019,732
2019,1150
2021,874
2021,2693
2021,3388
2021,3813
2021,4326
2021,4848
2023,2237
2023,2295
2024,499
2024,1637
2027,424
2027,2128
2028,1752
2030,4592
2031,262
2031,2340
2032,2522
2034,105
2035,452
2035,4506
2035,4578
2036,740
2036,3139
2037,408
2037,1863
2038,455
2038,2300
2039,958
2039,3842
2040,100
2040,2419
2040,4243
2043,273
2043,1218
2044,2983
2047,2407
2047,3459
2048,3642
2048,3646
2049,4596
2050,113
2050,881
2050,2539
2050,2586
2051,66
2051,3651
2051,4985
2054,142
2054,660
2054,738
2054,975
2054,1001
2054,1235
2054,1465
2054,3496
2054,4209
2057,2871
2058,721
2058,3451
2061,1185
2061,1259
2066,2871
2066,4685
2069,1452
2071,3335
2072,12
2072,137
2072,470
2072,960
2072,1425
2073,383
2073,2106
2074,72
2075,2347
2075,3480
2075,3586
2076,191
2076,4747
2077,182
2077,2805
2077,3688
2077,4850
2080,254
2081,443
2081,711
2081,1704
2081,2361
2081,3899
2084,2914
2086,1391
2088,1911
2088,4813
2089,373
2089,655
2089,1898
2089,2370
2089,3430
2090,445
2092,53
2092,198
2093,424
2095,110
2095,1383
2095,1512
2095,1543
2095,2607
2095,4182
2097,7
2097,2112
2097,2642
2097,3255
2097,3419
2097,4600
2097,4984
2099,2431
2099,4719
2099,4982
2100,2033
2102,2159
2104,1150
2105,4
2105,53
2105,112
2105,575
2105,3643
2107,4848
2108,171
2108,183
2108,429
2108,690
2108,1679
2108,1913
2108,2286
2108,2693
2108,3268
2108,3550
2109,716
2109,1637
2109,4010
2109,4718
2110,54
2110,935
2110,1096
2110,1322
2110,1718
2110,3354
2110,4017
2110,4598
2110,4636
2111,432
2111,1113
2111,4258
2112,2273
2112,2737
2113,651
2113,3392
2114,769
2115,3234
2115,3488
2117,889
2117,2126
2117,4584
2121,13
2125,98
2127,195
2127,390
2127,427
2127,1462
2127,2880
2128,88
2128,3829
2129,2785
2130,2165
2131,3004
2132,1208
2132,4296
2134,1159
2134,2126
2134,3736
2136,169
2139,202
2140,401
2141,324
2141,2126
2145,1074
2146,87
2149,1066
2150,53
2151,3090
2153,7
2154,110
2155,3354
2156,773
2158,1159
2159,1678
2160,657
2160,3077
2161,1495
2161,2029
2162,180
2162,1752
2162,2813
2163,413
2163,1637
2163,1657
2163,1742
2163,3090
2163,4259
2163,4819
2165,247
2165,1049
2165,1153
2165,1827
2165,2087
2165,4428
2166,273
2167,622
2168,431
2168,4719
2170,1218
2173,2817
2174,150
2175,867
2175,1119
2175,4405
2177,114
2177,3278
2179,2424
2180,98
2180,1713
2181,1548
2185,1580
2189,99
2190,2596
2190,4026
2190,4631
2192,1527
2194,566
2194,650
2194,2892
2198,1696
2198,2944
2198,3403
2198,4494
2199,1074
2199,1570
2199,4144
2199,4801
2202,57
2202,252
2202,585
2202,1168
2202,4476
2204,1392
2205,1216
2205,2413
2205,3699
2206,453
2207,1090
2207,3053
2207,4886
2209,1119
2209,1179
2209,1405
2209,1571
2209,1714
2209,2830
2209,2975
2209,4330
2211,1503
2212,1311
2212,4608
2213,362
2214,1119
2214,1567
2216,180
2217,191
2217,3827
2218,48
2218,198
2218,656
2218,1066
2218,3290
2218,4026
2219,711
2220,690
2220,4296
2221,364
2221,757
2221,1718
2223,1228
2224,3646
2225,2315
2227,1263
2227,2165
2230,887
2230,2553
2231,744
2231,2799
2231,3080
2235,202
2235,531
2235,704
2235,892
2235,2035
2235,2880
2236,2398
2237,2841
2240,2798
2240,3784
2243,212
2243,978
2244,1718
2244,4334
2245,3764
2246,25
2246,2784
2246,4036
2248,3796
2249,839
2249,1185
2249,2354
2250,1205
2251,3858
2254,1543
2255,2112
2256,77
2257,1363
2258,218
2258,2830
2260,1150
2260,4877
2261,4808
2263,1956
2264,466
2264,1458
2264,4706
2265,893
2265,2933
2265,4779
2266,634
2267,3764
2267,3794
2267,4295
2268,186
2269,316
2270,3404
2271,1168
2271,4438
2272,835
2272,1260
2272,1704
2272,2674
2272,4566
2274,586
2275,1286
2275,1827
2276,1324
2276,3347
2276,3775
2278,346
2278,3603
2279,4633
2282,3997
2283,100
2283,196
2283,3749
2283,4973
2284,1590
2286,3673
2287,273
2288,2035
2290,853
2291,66
2291,1150
2291,2676
2292,194
2292,623
2292,1179
2292,1241
2292,1825
2292,2168
2292,2997
2292,3139
2292,3593
2292,3612
2292,3867
2292,4262
2292,4719
2293,264
2293,475
2294,3110
2294,4370
2294,4380
2295,2540
2296,79
2296,4667
2300,102
2301,20
2301,85
2301,338
2301,876
2301,996
2301,1066
2301,1119
2301,1499
2301,1616
2301,1829
2301,3284
2301,3691
2301,4530
2302,957
2303,381
2303,4721
2304,2189
2305,1224
2306,1139
2306,4648
2307,298
2307,431
2310,1104
2311,559
2311,619
2311,2041
2312,869
2312,2121
2313,169
2313,2319
2315,1512
2316,152
2317,263
2317,464
2317,958
2317,1624
2317,2128
2317,2817
2318,2209
2318,2300
2318,3224
2320,1699
2321,20
2321,66
2321,2285
2321,3254
2322,273
2323,413
2323,2193
2323,2845
2324,655
2324,754
2327,777
2327,2008
2329,112
2329,424
2329,476
2329,1382
2329,2073
2329,3927
2329,4722
2330,4986
2331,54
2331,701
2331,1143
2331,1892
2331,2135
2331,3079
2331,4058
2331,4322
2331,4324
2334,112
2334,280
2334,361
2334,815
2334,893
2334,899
2334,943
2334,1205
2334,1292
2334,1311
2334,1407
2334,1528
2334,1799
2334,2171
2334,2185
2334,4134
2334,4137
2334,4331
2334,4539
2335,2229
2336,138
2336,2715
2337,3531
2337,4881
2340,1571
2341,1588
2341,2247
2345,141
2345,3144
2345,4163
2345,4879
2346,3725
2348,413
2348,657
2348,2045
2348,4168
2350,1364
2350,4463
2352,1814
2353,711
2353,2489
2355,885
2359,349
2359,893
2359,3561
2361,429
2361,1520
2361,4899
2363,4
2363,937
2363,4781
2364,186
2364,288
2365,3392
2367,282
2367,1052
2367,3651
2369,3230
2369,3813
2372,56
2378,2867
2379,563
2379,4746
2379,4936
2380,1339
2380,4394
2381,4694
2383,937
2383,3728
2384,77
2384,3651
2388,1119
2391,4848
2392,66
2394,3639
2394,3651
2396,71
2396,3967
2397,188
2398,871
2401,119
2402,1452
2403,3641
2403,4631
2404,79
2404,1757
2404,3354
2405,114
2405,221
2405,341
2405,436
2405,547
2405,941
2405,1014
2405,2516
2405,3255
2405,3750
2407,100
2407,451
2408,2474
2408,3888
2409,1277
2409,2126
2409,2464
2411,3539
2418,1033
2418,1814
2418,2172
2418,3938
2420,1020
2421,3548
2422,2877
2424,560
2426,1685
2426,1865
2426,2416
2426,3138
2427,4652
2430,893
2431,1098
2433,4225
2434,3811
2435,2035
2438,20
2438,304
2438,2932
2439,1485
2439,2761
2440,301
2441,304
2444,215
2444,501
2444,1205
2446,2133
2447,848
2450,3191
2451,304
2451,395
2451,1410
2451,2613
2453,42
2453,424
2453,4459
2453,4617
2454,773
2454,3144
2455,510
2455,4961
2460,222
2460,1576
2460,2687
2460,2922
2460,4034
2462,119
2462,2239
2463,294
2463,1185
2463,2126
2463,2495
2463,2622
2466,1521
2466,2940
2466,4016
2466,4914
2468,225
2468,3390
2469,1259
2470,2413
2471,146
2471,434
2471,1128
2471,1234
2472,1218
2473,553
2473,3831
2474,2017
2475,264
2475,3695
2475,4862
2477,4803
2478,394
2478,1343
2478,1531
2479,431
2479,4088
2480,385
2480,1458
2482,3354
2482,3895
2482,4266
2483,61
2483,571
2483,1915
2483,2309
2483,2654
2483,3127
2483,3570
2486,4529
2488,154
2488,523
2488,966
2488,1177
2488,2152
2488,2784
2488,2982
2488,3050
2488,3234
2489,2405
2490,385
2490,1716
2490,3763
2491,425
2492,4891
2493,1311
2495,4368
2498,3164
2500,4820
2500,4942
2501,373
2503,1495
2503,4116
2505,944
2505,2161
2505,4266
2511,112
2511,250
2511,1159
2511,2008
2511,3202
2511,4065
2511,4514
2512,4808
2513,4
2513,72
2513,202
2513,390
2513,748
2513,1175
2513,1690
2513,1996
2513,2229
2513,2509
2513,2552
2513,2820
2513,4096
2513,4513
2513,4710
2515,4977
2516,3701
2517,353
2517,623
2517,1839
2517,2991
2517,3670
2517,4993
2518,1914
2519,77
2520,868
2521,4
2521,3539
2521,4853
2523,198
2523,530
2523,561
2523,808
2523,841
2523,1386
2523,1473
2523,1492
2523,3581
2524,119
2524,180
2524,188
2524,424
2524,655
2524,1169
2524,3330
2524,4090
2524,4110
2525,428
2526,1526
2527,3613
2528,66
2528,99
2528,914
2528,4184
2532,1364
2532,1485
2532,1936
2534,169
2534,1891
2535,1308
2538,434
2538,2126
2538,4527
2538,4588
2540,1163
2540,1766
2541,7
2542,20
2542,744
2542,834
2542,1047
2542,2295
2542,2637
2542,4803
2543,986
2544,744
2545,1150
2546,1112
2546,1150
2546,2628
2546,2729
2546,3104
2547,80
2547,3181
2548,1498
2549,2094
2550,2415
2550,3943
2550,4260
2551,533
2551,3195
2551,3652
2551,4043
2551,4577
2553,594
2553,3043
2554,1199
2555,2323
2556,1679
2557,431
2559,247
2561,2618
2563,57
2563,1020
2564,2288
2565,3082
2566,239
2566,650
2566,2019
2567,25
2567,137
2567,338
2567,425
2567,853
2567,968
2567,1224
2567,4827
2568,1117
2570,4
2570,3123
2571,72
2571,960
2573,3896
2573,4063
2574,414
2574,944
2574,2997
2576,100
2578,1057
2578,3846
2578,3946
2578,4348
2579,3932
2585,356
2588,80
2590,3284
2591,3747
2591,3813
2594,4232
2594,4307
2595,464
2595,640
2595,4171
2598,2776
2598,4303
2598,4692
2598,4734
2599,209
2600,259
2600,520
2601,3311
2602,1440
2602,4709
2603,1183
2604,1016
2604,4553
2606,100
2609,519
2611,137
2612,222
2612,1032
2612,1205
2612,3101
2612,4809
2614,853
2614,965
2614,3758
2614,4921
2615,169
2615,194
2615,1573
2615,1991
2615,2121
2615,2737
2615,2853
2615,3040
2615,3842
2615,4842
2617,505
2617,883
2617,1734
2617,2429
2617,3590
2617,3652
2617,4502
2618,259
2619,1588
2619,3739
2621,3523
2621,4035
2622,3668
2622,3952
2623,2616
2624,671
2624,4982
2625,2367
2625,2494
2625,3483
2626,23
2626,3555
2627,118
2627,159
2627,164
2627,314
2627,1625
2627,2075
2627,4692
2628,188
2631,377
2631,2338
2631,3153
2632,1255
2632,2410
2632,2484
2632,2895
2632,3811
2632,4107
2632,4934
2633,893
2634,391
2637,3386
2637,4298
2638,2332
2638,3122
2640,1185
2641,259
2641,1289
2641,1311
2641,1737
2641,2067
2641,2285
2641,3183
2641,4182
2642,445
2642,1544
2642,3780
2642,4130
2642,4790
2644,310
2648,2412
2649,201
2652,2784
2653,377
2654,133
2654,436
2654,497
2654,569
2654,648
2654,1932
2654,4516
2654,4692
2654,4816
2655,200
2655,296
2655,1082
2658,221
2658,4187
2660,4604
2661,622
2662,139
2662,2105
2664,836
2668,3831
2669,1962
2669,3496
2670,3952
2671,200
2672,2628
2673,237
2673,3341
2678,8
2680,9
2680,425
2680,2785
2680,2852
2680,3374
2680,3604
2680,4440
2681,414
2683,1119
2683,3234
2683,3877
2685,707
2686,2161
2688,259
2688,4291
2688,4796
2691,4928
2692,885
2696,2517
2698,4875
2700,2785
2701,559
2701,2755
2701,3004
2701,3211
2701,4020
2702,7
2702,436
2702,4059
2704,3191
2705,500
2708,2454
2708,3586
2710,373
2710,392
2710,3703
2711,2591
2712,846
2712,1823
2714,2048
2717,119
2717,515
2717,520
2717,563
2717,583
2717,1055
2717,2309
2717,3421
2717,4799
2717,4837
2718,2635
2720,1827
2721,351
2721,547
2722,3571
2723,92
2725,252
2725,1485
2725,3340
2726,711
2727,1541
2727,4644
2732,98
2733,815
2735,2325
2735,3476
2735,4169
2735,4272
2735,4558
2735,4897
2736,252
2736,1865
2736,2739
2736,2788
2736,3149
2736,4986
2738,2830
2740,278
2740,293
2740,1170
2740,1568
2740,2012
2740,2427
2740,2885
2740,3468
2740,4303
2740,4384
2740,4527
2741,77
2742,2612
2743,4808
2744,215
2745,1309
2747,394
2747,455
2748,118
2748,885
2750,20
2750,2098
2750,2263
2750,2719
2750,3999
2751,1637
2752,424
2752,1032
2754,71
2754,3731
2754,4709
2759,105
2759,4395
2760,2716
2763,1001
2767,208
2767,376
2767,435
2767,1035
2767,3445
2767,4857
2768,846
2772,3586
2773,148
2773,2232
2774,622
2774,2817
2774,4295
2774,4747
2775,1179
2778,237
2779,4063
2779,4481
2780,1259
2780,4604
2782,4089
2782,4553
2785,456
2786,2121
2786,3289
2786,3354
2786,3581
2786,3880
2786,4266
2787,548
2791,1006
2792,428
2794,212
2794,650
2794,851
2794,1865
2794,2402
2795,4981
2797,3581
2800,717
2800,1563
2800,2169
2800,2664
2802,130
2802,4511
2803,414
2804,2777
2805,4272
2806,4360
2808,2785
2808,3749
2813,172
2813,177
2813,616
2813,622
2813,729
2813,766
2813,1177
2813,1604
2813,1739
2813,1942
2813,3090
2813,3187
2813,3464
2813,3574
2813,4113
2813,4944
2814,1113
2815,2932
2817,2002
2817,2325
2817,3189
2821,4848
2822,1165
2824,411
2824,1495
2824,1512
2824,2930
2824,4988
2825,601
2825,957
2825,1898
2827,452
2828,12
2828,119
2828,164
2828,371
2828,391
2828,501
2828,520
2828,622
2828,754
2828,1177
2828,1680
2828,1952
2828,2495
2828,2650
2828,3002
2828,3017
2828,3298
2828,4575
2829,4263
2830,1573
2833,835
2834,575
2835,1847
2837,1567
2838,1230
2839,438
2839,1909
2839,4513
2839,4633
2839,4754
2840,4710
2844,263
2844,424
2844,4710
2846,1766
2847,333
2848,301
2849,957
2851,1182
2851,4433
2853,101
2853,519
2854,520
2854,1590
2855,878
2855,3161
2857,4324
2857,4366
2858,221
2858,557
2858,881
2859,20
2860,90
2860,1484
2860,2056
2860,2765
2860,3392
2860,3651
2860,4647
2861,1493
2863,897
2863,3741
2864,2120
2865,20
2865,83
2869,3101
2871,762
2873,336
2875,434
2875,2232
2875,4049
2875,4237
2875,4319
2876,1912
2877,942
2877,2816
2877,3974
2878,561
2878,2474
2879,952
2879,1618
2882,926
2883,2198
2884,4648
2887,1898
2888,4
2889,1205
2890,394
2890,618
2890,1496
2890,4065
2890,4454
2896,77
2896,316
2896,351
2896,389
2896,771
2896,897
2896,1343
2896,2763
2896,2790
2896,3292
2898,112
2899,1194
2901,2811
2902,137
2903,1377
2903,4150
2904,1595
2904,1825
2906,228
2906,1337
2906,2072
2906,3290
2907,202
2907,740
2907,3426
2908,2709
2909,991
2911,2
2911,198
2911,2647
2914,402
2914,876
2914,2825
2914,4065
2914,4936
2915,1371
2916,218
2916,969
2916,4025
2917,147
2918,1503
2919,735
2920,214
2920,2144
2921,350
2921,1656
2923,866
2926,773
2926,1020
2926,1072
2926,1485
2926,1570
2926,1758
2926,2143
2926,2502
2926,2651
2926,2841
2926,3127
2926,4090
2926,4832
2932,1286
2932,2059
2935,3977
2937,1066
2937,3052
2937,4277
2938,820
2940,346
2941,3139
2941,3290
2942,67
2943,218
2943,3983
2944,830
2945,66
2946,2623
2947,137
2947,438
2947,1033
2947,1218
2947,2297
2947,2454
2947,2655
2947,3464
2947,3955
2947,4263
2947,4636
2947,4875
2949,1241
2949,1291
2950,1045
2950,3815
2951,137
2955,3739
2956,1699
2957,665
2961,361
2962,1718
2963,1592
2964,432
2964,2366
2965,1040
2966,1863
2966,2325
2967,282
2967,3331
2968,1113
2971,424
2972,225
2972,3185
2973,142
2973,3751
2974,625
2976,4633
2977,623
2978,2070
2979,1246
2980,2884
2980,4848
2982,4204
2984,420
2985,1184
2985,1592
2986,3842
2987,1583
2987,3033
2987,3717
2989,2764
2990,3699
2991,13
2992,83
2992,830
2992,1310
2992,1679
2992,1825
2992,2161
2992,2995
2992,3752
2993,2877
2994,391
2994,3585
2994,4501
2995,153
2995,2485
2995,2880
2995,3695
2998,429
2998,523
2999,2709
3000,1610
3004,133
3004,198
3004,585
3004,649
3004,855
3004,1150
3004,1259
3004,2165
3004,2351
3004,2723
3004,2785
3004,2924
3004,4352
3004,4631
3008,531
3010,2583
3010,3592
3010,4173
3011,455
3011,640
3013,2
3013,180
3015,1159
3016,76
3016,883
3016,4701
3019,385
3020,650
3024,146
3024,979
3024,2122
3024,3006
3024,3083
3024,3486
3027,414
3028,65
3028,347
3028,1753
3028,2508
3030,435
3031,4347
3032,575
3037,273
3037,425
3037,634
3037,4174
3039,2781
3039,2954
3041,2084
3041,2622
3041,4335
3041,4631
3042,1392
3042,3170
3042,4295
3044,92
3044,185
3044,568
3044,586
3044,1440
3044,1583
3044,1708
3044,1969
3044,2121
3044,2758
3044,3004
3045,2785
3047,221
3047,2789
3049,451
3049,820
3050,2841
3051,171
3055,198
3056,2950
3057,1308
3057,2622
3057,3235
3059,66
3059,105
3059,1742
3060,4
3062,1060
3062,1576
3063,3082
3065,1694
3065,4081
3065,4389
3068,438
3070,849
3070,3626
3070,4757
3071,3651
3071,4976
3072,2809
3072,3700
3074,820
3074,2593
3076,1524
3078,883
3079,169
3079,4615
3080,1701
3081,2339
3081,3589
3082,3731
3082,4859
3084,414
3085,3052
3085,4513
3086,585
3086,711
3086,3539
3086,4082
3087,485
3090,72
3090,1544
3090,1766
3092,1053
3092,1382
3094,1308
3095,3090
3098,4038
3099,1073
3101,2033
3103,1286
3103,1364
3103,3422
3105,2425
3106,1119
3107,4204
3107,4748
3109,1482
3111,418
3111,671
3111,766
3111,783
3111,1025
3111,1047
3111,2959
3113,3811
3115,2319
3115,3869
3116,1706
3116,2618
3116,2771
3116,4516
3117,1226
3117,3956
3117,4828
3118,2237
3119,162
3120,2001
3120,2351
3120,3282
3124,142
3126,3258
3127,42
3128,1118
3128,2188
3128,3090
3128,3909
3128,4987
3129,110
3130,1311
3130,3973
3132,841
3133,2858
3133,4019
3134,2368
3136,2072
3137,1040
3141,803
3142,2729
3143,2440
3143,4905
3146,2159
3146,3138
3147,1020
3147,2537
3148,2746
3150,23
3151,514
3151,1052
3152,346
3152,1047
3152,4591
3153,222
3153,329
3153,815
3155,198
3155,1163
3155,2551
3156,559
3157,1228
3159,65
3159,254
3159,1234
3159,1276
3159,1425
3159,2785
3159,4144
3159,4263
3159,4300
3159,4374
3162,650
3165,3201
3166,2147
3167,1696
3173,1311
3174,952
3175,138
3175,942
3175,4170
3175,4428
3177,979
3178,20
3178,2215
3178,2454
3179,1383
3180,1209
3180,1894
3182,4877
3184,1119
3186,553
3191,766
3191,1759
3192,3967
3194,61
3196,4848
3203,643
3205,1739
3205,3260
3207,4360
3209,184
3209,186
3209,222
3209,424
3209,1759
3209,1761
3209,1895
3209,2084
3209,2210
3209,2370
3209,2441
3209,2448
3209,2675
3209,3550
3209,3712
3209,4000
3209,4065
3209,4144
3209,4192
3209,4774
3212,3749
3213,138
3214,2984
3215,557
3216,4689
3217,1469
3217,1836
3218,3726
3221,944
3221,1091
3222,1391
3222,2868
3223,1824
3225,3651
3225,3955
3226,583
3226,1958
3226,3346
3228,1205
3229,701
3229,2401
3236,185
3236,563
3236,830
3236,899
3236,1156
3236,1358
3237,859
3237,1172
3238,2372
3240,2830
3241,385
3242,3874
3243,1029
3244,2809
3246,2715
3249,7
3249,2402
3250,373
3251,3474
3252,1216
3253,112
3253,1883
3253,3308
3253,4517
3254,1449
3254,4600
3256,3193
3257,1030
3257,2072
3258,3581
3261,247
3262,443
3262,4879
3263,259
3264,2936
3264,3305
3266,996
3266,3908
3269,2943
3272,3354
3272,4827
3273,2188
3274,1686
3277,66
3278,3764
3278,4883
3279,4464
3280,635
3280,2103
3280,2636
3280,2909
3280,3652
3280,4103
3280,4419
3280,4631
3281,32
3283,1119
3284,1544
3285,1637
3285,4989
3286,101
3286,347
3287,424
3287,4322
3288,20
3289,2032
3290,92
3290,996
3290,3783
3292,95
3293,212
3293,1635
3297,727
3301,389
3302,3913
3303,958
3304,3097
3306,766
3306,4113
3306,4710
3306,4794
3307,1324
3309,72
3309,937
3310,3074
3311,3831
3312,1512
3312,2914
3313,3082
3315,571
3315,2560
3315,4886
3317,1880
3318,100
3318,101
3318,320
3318,394
3318,1145
3318,1301
3318,1399
3318,1444
3318,1455
3318,1824
3318,3034
3318,3819
3318,4251
3318,4823
3318,4977
3320,159
3321,2371
3322,432
3322,1932
3323,2262
3324,1391
3324,1766
3325,1358
3326,239
3326,1795
3326,1968
3326,3392
3328,425
3329,424
3331,32
3331,778
3331,4986
3332,320
3333,2551
3334,4747
3336,424
3336,4289
3337,1124
3338,2432
3340,4986
3343,100
3343,394
3343,1303
3345,2474
3347,990
3349,1302
3350,2737
3351,3187
3352,7
3352,49
3352,133
3352,605
3352,766
3352,783
3352,858
3352,1090
3352,1792
3352,2188
3352,2530
3352,3274
3352,3654
3352,3955
3352,4575
3353,1718
3353,3796
3356,435
3356,1850
3357,2006
3357,3689
3359,500
3361,113
3362,674
3363,474
3363,503
3363,2540
3364,563
3367,1866
3368,221
3368,280
3368,434
3368,4303
3368,4472
3369,1213
3369,1317
3370,770
3370,878
3370,2118
3370,3139
3370,3452
3370,3667
3371,2715
3372,4728
3373,1544
3374,432
3374,4246
3376,134
3377,2785
3378,1871
3380,1963
3381,393
3381,1825
3381,3863
3383,1311
3383,1533
3383,3187
3383,3969
3383,4562
3384,234
3387,57
3391,1734
3392,367
3392,394
3392,1535
3392,3046
3393,3014
3396,4282
3397,346
3398,2551
3399,676
3400,402
3402,137
3402,688
3402,724
3402,2147
3402,2277
3402,3183
3402,3268
3405,80
3405,2076
3406,2769
3408,4144
3409,1169
3411,650
3411,651
3411,838
3411,942
3411,1119
3411,1291
3411,1302
3411,4019
3412,980
3412,1148
3412,2184
3412,3695
3414,2121
3415,456
3415,1395
3416,2356
3417,386
3418,3831
3420,2454
3423,4139
3424,1675
3424,2924
3427,53
3427,63
3427,200
3427,1259
3427,1423
3427,2101
3427,3148
3427,4315
3427,4575
3428,63
3428,239
3428,391
3428,520
3428,1025
3428,2970
3428,3234
3431,1990
3431,2881
3432,4159
3433,4781
3433,4848
3435,204
3436,2784
3438,1295
3438,4072
3438,4241
3440,3667
3441,806
3441,1066
3441,1506
3441,2880
3442,153
3442,4878
3443,20
3443,109
3443,358
3443,425
3443,499
3443,762
3443,883
3443,1936
3443,3831
3443,4491
3444,2178
3445,2247
3445,2549
3446,1428
3446,1573
3446,1975
3447,134
3447,4666
3449,336
3450,2002
3451,2183
3451,3716
3453,198
3458,377
3459,1705
3460,2664
3463,23
3463,711
3463,885
3463,1850
3463,1972
3463,2176
3463,2996
3463,3090
3463,3100
3463,4277
3463,4843
3463,4883
3464,72
3465,385
3466,823
3466,3699
3468,182
3468,516
3468,575
3468,2137
3468,2703
3468,3459
3468,3663
3468,3946
3468,4061
3468,4065
3472,2458
3473,98
3473,4624
3474,4089
3475,3101
3476,208
3477,1923
3478,175
3478,4505
3479,3912
3484,2813
3486,199
3486,3384
3486,4752
3487,85
3487,822
3487,4050
3489,44
3489,1039
3489,1119
3489,1583
3490,2709
3491,707
3492,4501
3493,3161
3495,1119
3497,649
3497,830
3497,1784
3499,99
3501,208
3503,766
3504,172
3504,1462
3505,547
3506,3595
3506,4617
3507,771
3508,2195
3509,1915
3509,2295
3511,183
3511,812
3512,1165
3513,1918
3516,601
3516,2189
3516,2642
3517,503
3517,1570
3517,1749
3518,394
3518,2910
3518,4046
3519,112
3519,1052
3520,137
3521,813
3522,169
3523,494
3524,20
3525,2
3526,25
3526,2785
3528,61
3528,567
3528,2943
3528,4441
3530,3651
3531,3597
3534,215
3534,1066
3534,2894
3534,2910
3534,4493
3535,3684
3535,4324
3536,2884
3537,1273
3539,1025
3542,2551
3544,102
3544,118
3544,139
3544,373
3544,445
3544,474
3544,702
3544,806
3544,944
3544,1215
3544,1508
3544,1933
3544,1963
3544,2118
3544,2764
3544,2943
3544,2969
3544,3046
3544,3197
3544,3699
3544,4069
3544,4398
3544,4513
3544,4594
3544,4710
3545,229
3548,2053
3549,571
3553,1346
3554,1557
3554,2187
3554,2234
3554,3093
3554,3448
3557,1020
3558,1004
3558,4702
3559,337
3559,769
3559,4548
3559,4655
3562,4848
3563,2549
3568,8
3569,1496
3571,3523
3572,3090
3573,2720
3576,57
3576,2729
3576,2930
3576,4551
3576,4553
3582,2540
3582,2695
3583,4
3588,533
3588,2198
3588,2597
3590,131
3590,282
3590,702
3590,714
3590,937
3590,1084
3590,1544
3590,1642
3590,1836
3590,1891
3590,2402
3590,2766
3590,2884
3590,3254
3590,4023
3590,4144
3590,4253
3590,4277
3590,4324
3590,4827
3591,1363
3595,3482
3596,7
3597,389
3598,1618
3598,4104
3605,95
3605,1963
3609,486
3609,2689
3609,4026
3609,4633
3611,66
3613,112
3613,4352
3615,1077
3618,319
3618,2325
3619,341
3619,348
3619,364
3619,815
3619,1515
3619,2340
3619,3183
3619,3651
3619,3984
3619,4144
3623,2758
3624,771
3628,171
3628,2514
3628,2756
3629,434
3629,4375
3630,1521
3631,3654
3633,1469
3635,1825
3637,200
3637,401
3637,2181
3642,1191
3644,950
3645,1901
3646,3626
3649,239
3649,346
3649,567
3649,1181
3649,1686
3649,2810
3649,2825
3649,3392
3649,4414
3649,4700
3649,4851
3652,553
3654,103
3654,388
3654,453
3654,782
3654,1082
3654,2045
3654,2073
3654,2442
3654,3361
3654,3695
3654,4324
3654,4382
3655,1803
3656,1567
3657,1789
3658,4633
3660,2229
3664,3131
3665,743
3665,1564
3666,110
3667,1730
3668,25
3671,572
3671,1803
3672,934
3673,1637
3675,2785
3677,214
3677,3392
3677,4616
3677,4648
3679,42
3680,3651
3681,1497
3682,2966
3683,4654
3685,820
3685,1246
3685,3191
3685,4531
3687,65
3690,394
3691,37
3692,1246
3694,1148
3695,435
3695,499
3695,1205
3695,2418
3695,2437
3695,2713
3695,3404
3695,4089
3696,222
3697,72
3699,77
3699,85
3699,1217
3699,1822
3701,622
3704,432
3704,3916
3706,7
3706,208
3706,296
3706,411
3706,532
3706,2399
3706,3007
3706,4097
3706,4270
3707,957
3711,400
3713,1996
3714,3075
3719,456
3721,225
3723,402
3724,77
3725,4748
3727,1276
3727,3868
3729,3031
3733,602
3737,1759
3738,7
3738,382
3738,2930
3739,3230
3739,4161
3740,400
3740,3492
3740,4723
3740,4943
3743,66
3744,763
3744,1026
3744,1255
3745,3138
3746,7
3746,4513
3748,3646
3749,1156
3750,2091
3750,3501
3751,2372
3754,401
3754,3892
3754,4233
3754,4668
3755,1697
3755,4262
3759,2924
3762,310
3762,3651
3764,249
3765,952
3765,3811
3766,1322
3767,1060
3768,78
3769,3910
3770,20
3770,391
3770,748
3770,2196
3771,1639
3772,389
3773,385
3773,435
3775,20
3775,968
3775,1184
3775,1187
3775,3004
3775,4108
3775,4923
3775,4942
3778,4886
3779,3392
3780,1119
3782,2884
3784,2229
3785,65
3786,3445
3788,567
3789,424
3789,4039
3790,320
3790,572
3790,2232
3790,3284
3790,3317
3790,3407
3790,3993
3790,4478
3791,1419
3791,2932
3792,3034
3793,84
3793,2237
3793,4099
3795,942
3796,718
3796,1831
3796,2038
3796,3904
3798,1503
3798,1876
3798,2203
3798,4041
3799,7
3799,4346
3801,229
3801,382
3801,4220
3806,742
3807,2300
3808,674
3808,1531
3808,1720
3808,2619
3808,3584
3808,4056
3808,4476
3808,4579
3809,33
3810,1117
3811,77
3811,225
3811,247
3811,1123
3811,1184
3811,1520
3811,1664
3811,1686
3811,2094
3811,3104
3811,3883
3811,4476
3811,4652
3812,1184
3813,48
3813,88
3813,244
3813,1034
3813,2035
3813,4877
3816,1686
3817,873
3817,1664
3817,1860
3817,2424
3817,3774
3818,77
3819,2880
3819,4508
3820,1618
3821,1177
3823,1511
3825,4454
3826,356
3826,394
3826,937
3826,3857
3830,2540
3830,4175
3831,2112
3831,3827
3832,4449
3835,3247
3835,3764
3837,361
3837,423
3837,783
3837,1066
3837,1308
3837,1699
3837,1809
3837,2372
3837,3090
3837,3208
3837,3392
3837,4788
3838,3831
3838,4167
3839,1450
3842,149
3842,356
3842,1583
3844,301
3845,2136
3847,7
3848,208
3849,4529
3851,1865
3852,348
3853,100
3854,142
3855,147
3856,601
3859,66
3859,247
3859,885
3859,1821
3859,2228
3859,2880
3859,3034
3859,3642
3859,4998
3861,950
3861,2067
3864,2896
3871,2635
3873,348
3875,494
3878,424
3878,532
3879,3234
3879,4846
3880,20
3882,2884
3886,101
3886,506
3887,44
3887,1386
3889,2454
3889,4612
3889,4845
3890,1712
3894,1614
3894,2950
3897,1865
3900,76
3900,1383
3901,373
3905,1277
3906,77
3906,566
3906,1550
3906,2509
3906,4171
3907,2416
3911,1561
3912,203
3913,2333
3913,3276
3914,2608
3915,3894
3917,2052
3918,1029
3918,3941
3918,4931
3920,1469
3925,8
3925,298
3925,389
3925,435
3925,813
3925,1117
3925,1286
3925,2784
3925,3075
3925,3490
3925,4883
3928,389
3929,137
3930,2884
3932,7
3932,4622
3932,4886
3933,3048
3934,4296
3934,4401
3935,1399
3937,142
3937,353
3937,1025
3937,1174
3937,1561
3937,2622
3938,8
3940,324
3941,1489
3942,838
3944,244
3945,133
3945,3796
3947,2188
3947,4516
3949,1865
3950,570
3950,1098
3950,1394
3950,1896
3950,2785
3952,2103
3955,247
3957,4604
3958,3757
3960,3354
3960,4916
3962,9
3962,140
3963,1050
3965,2183
3967,4287
3968,434
3969,92
3969,247
3969,927
3969,958
3969,1051
3969,1343
3969,3451
3969,3699
3969,4186
3971,2178
3973,3820
3976,418
3978,333
3978,1825
3979,2295
3981,7
3981,2560
3982,871
3983,80
3983,436
3983,479
3983,1117
3983,1530
3983,1934
3983,2078
3983,3265
3983,3550
3983,3695
3984,2952
3986,1850
3988,571
3989,87
3989,584
3989,983
3989,1382
3989,2424
3989,2880
3991,515
3991,1996
3991,2413
3991,2880
3991,4813
3992,3842
3994,3953
3995,501
3997,1786
3998,650
3998,1897
4001,169
4002,3347
4003,702
4003,4589
4004,3958
4005,4626
4006,4144
4009,342
4010,618
4010,643
4010,1402
4010,2436
4011,1268
4014,2940
4018,880
4019,1311
4022,2572
4029,4654
4030,374
4031,3482
4033,4424
4034,968
4035,2975
4036,519
4040,4496
4043,1912
4044,2551
4044,4284
4044,4456
4045,4660
4046,77
4047,141
4047,254
4047,1075
4047,1752
4047,2881
4047,3483
4047,3831
4048,199
4049,1525
4051,623
4051,4232
4051,4326
4053,975
4054,3955
4057,1636
4060,12
4060,174
4060,1052
4060,2537
4060,3202
4060,3742
4062,1218
4063,3490
4064,3392
4065,1758
4066,519
4066,813
4066,2862
4067,2866
4068,3646
4070,3443
4071,1512
4073,1571
4073,3386
4075,1592
4076,2202
4078,2315
4079,866
4082,353
4083,7
4085,436
4086,1346
4086,2001
4087,2233
4087,3171
4091,1276
4093,1113
4096,66
4097,66
4097,164
4097,649
4097,1850
4100,1686
4106,1382
4109,2055
4112,1311
4114,4454
4116,291
4116,2159
4117,1501
4117,3618
4118,1066
4123,1498
4124,553
4125,4719
4126,868
4127,1679
4128,3731
4128,4883
4129,1117
4131,1311
4132,2785
4133,1467
4136,2229
4138,858
4139,2715
4140,1040
4141,247
4141,559
4141,3278
4144,348
4145,319
4146,347
4147,147
4147,548
4148,4943
4150,476
4150,1884
4150,2665
4150,3009
4150,4231
4150,4592
4151,200
4153,119
4154,845
4155,112
4156,3967
4157,3813
4158,20
4158,140
4158,164
4158,282
4158,338
4158,424
4158,567
4158,879
4158,899
4158,1053
4158,1555
4158,1603
4158,1935
4158,2084
4158,2326
4158,2362
4158,3183
4158,4174
4158,4380
4158,4441
4160,1085
4165,4848
4166,3046
4166,4065
4174,885
4175,3478
4176,72
4176,1686
4177,182
4179,1576
4179,2331
4179,3101
4179,3626
4180,2372
4187,722
4187,2188
4187,4373
4188,130
4189,1246
4189,4848
4190,2635
4191,1289
4191,2366
4191,2425
4191,2484
4193,1708
4194,566
4196,130
4197,1927
4199,622
4201,2125
4203,2020
4205,113
4206,3176
4207,4271
4207,4959
4208,1230
4210,4019
4212,655
4213,77
4213,105
4213,219
4213,243
4213,280
4213,427
4213,520
4213,869
4213,883
4213,944
4213,1127
4213,1361
4213,1462
4213,1488
4213,1632
4213,1749
4213,2085
4213,2118
4213,2461
4213,2940
4213,4036
4213,4765
4214,383
4215,3587
4217,122
4218,56
4219,870
4221,1625
4222,696
4224,4948
4225,65
4225,185
4225,838
4225,2101
4225,3172
4225,3695
4225,3824
4225,4633
4226,3335
4226,4467
4227,1952
4228,530
4228,1172
4228,3983
4229,1020
4230,2540
4232,933
4234,2426
4235,4859
4236,2083
4238,3216
4239,2147
4239,4641
4240,408
4240,3731
4242,289
4242,348
4242,808
4242,2415
4242,3456
4242,3489
4244,2251
4247,1822
4248,1218
4250,881
4252,1388
4257,3488
4260,3139
4260,4787
4265,740
4266,389
4267,2402
4268,349
4269,329
4270,520
4270,1225
4270,2708
4270,3355
4270,3773
4272,169
4272,3526
4272,4281
4272,4846
4274,575
4275,100
4275,464
4275,479
4275,960
4275,1125
4275,1906
4278,2135
4279,1458
4280,1972
4282,119
4282,1892
4284,98
4284,2168
4284,4476
4284,4869
4285,382
4286,365
4286,417
4286,2289
4286,3461
4286,4313
4287,1708
4289,870
4290,2785
4296,3695
4297,1392
4297,4524
4301,3426
4304,2932
4305,2078
4306,3695
4309,1675
4309,3931
4309,4636
4311,52
4312,2175
4317,1218
4318,3695
4318,4529
4319,4633
4320,2354
4321,4835
4323,2
4323,561
4323,1185
4323,1556
4323,3304
4323,3603
4323,4911
4325,4201
4325,4513
4327,2046
4328,618
4329,2913
4329,3090
4329,3490
4332,1465
4333,3193
4334,185
4334,288
4334,1191
4334,1392
4334,3602
4334,4501
4334,4859
4336,4182
4338,4161
4339,137
4340,2806
4340,4858
4342,532
4343,63
4343,421
4343,848
4343,1614
4343,2188
4343,2229
4343,2295
4343,4909
4344,1177
4345,2188
4351,3017
4353,547
4354,1543
4355,2331
4355,2805
4357,1707
4357,2372
4357,2474
4358,110
4360,4270
4361,4139
4362,917
4364,2085
4364,2159
4369,591
4370,3811
4374,237
4374,1462
4374,1679
4374,1825
4374,3840
4376,1117
4377,349
4379,4652
4385,1708
4390,268
4392,243
4392,689
4392,1754
4392,3138
4393,625
4393,1101
4393,1156
4393,1365
4393,1370
4393,1865
4393,3139
4394,66
4397,671
4397,1718
4397,1823
4397,3210
4399,3480
4400,754
4400,1141
4402,3749
4403,222
4404,1512
4405,4897
4406,1243
4407,259
4407,402
4407,1029
4407,1640
4407,2084
4407,4225
4409,3101
4410,547
4410,1066
4411,3798
4412,1379
4413,1870
4417,288
4417,3604
4418,147
4420,1066
4421,77
4421,4848
4423,214
4424,12
4424,137
4424,1331
4425,20
4425,191
4425,601
4425,874
4426,4529
4427,2651
4429,195
4429,4142
4431,1639
4432,131
4432,2232
4433,141
4433,1141
4433,3075
4436,319
4440,638
4440,1410
4440,2663
4442,711
4443,20
4443,98
4443,226
4443,308
4443,310
4443,601
4443,1052
4443,1071
4443,1179
4443,1205
4443,1633
4443,1831
4443,2604
4443,2975
4443,3080
4443,4699
4444,52
4446,285
4446,347
4446,364
4446,402
4446,466
4446,885
4446,2133
4446,2160
4446,2295
4446,2921
4446,4036
4446,4827
4446,4977
4447,2354
4447,4986
4448,679
4449,4185
4450,1320
4451,3718
4452,3335
4452,3565
4453,3695
4454,441
4455,3084
4460,2084
4460,2200
4460,3090
4461,385
4461,2295
4462,3138
4466,3908
4468,559
4469,2076
4470,4984
4472,1544
4473,294
4474,2924
4475,4085
4476,7
4477,399
4480,3354
4482,1594
4484,239
4484,639
4484,957
4484,4809
4486,2126
4486,4398
4487,4406
4489,1675
4489,3955
4490,1311
4490,4144
4492,1032
4494,376
4494,1235
4494,1662
4497,1109
4497,3254
4497,4962
4499,1686
4501,130
4502,152
4504,2078
4507,4851
4510,4553
4513,1230
4513,2062
4515,1708
4515,3586
4518,3496
4521,4936
4522,2729
4526,347
4527,1933
4529,2035
4532,4877
4533,214
4533,423
4533,514
4533,676
4533,1132
4533,1533
4533,4631
4534,3716
4535,20
4535,188
4535,214
4535,413
4535,660
4535,1060
4535,1637
4535,2188
4536,1875
4538,351
4538,3799
4539,2509
4541,77
4541,4701
4542,926
4542,4992
4543,3462
4544,1503
4545,265
4547,559
4547,3860
4549,660
4552,1848
4552,4225
4555,4201
4556,4034
4557,138
4557,425
4557,893
4557,1224
4557,1759
4557,1900
4557,2540
4557,2920
4557,3190
4557,3606
4559,1497
4559,2884
4559,4415
4560,571
4561,3185
4565,1066
4566,2252
4567,453
4568,1302
4571,137
4571,3140
4571,4501
4572,4036
4573,424
4573,937
4574,3138
4576,169
4579,57
4579,112
4579,137
4579,425
4579,426
4579,709
4579,851
4579,1659
4579,2023
4579,2056
4579,2777
4579,2879
4579,2884
4579,3702
4579,3760
4579,3800
4579,3832
4579,4198
4579,4748
4579,4876
4579,4977
4580,1363
4580,4717
4581,199
4583,2052
4583,2440
4583,2826
4584,1496
4586,2667
4587,139
4587,4704
4590,3004
4595,721
4596,4296
4597,1168
4600,3058
4602,77
4604,4523
4605,348
4606,952
4606,1149
4606,1605
4606,4851
4607,1383
4608,3090
4609,3798
4610,572
4610,3695
4618,2995
4619,394
4620,66
4621,4319
4623,2295
4625,198
4626,1958
4627,2771
4629,567
4630,23
4630,110
4630,455
4630,1430
4630,1503
4630,1693
4630,1850
4630,2582
4630,2862
4630,3777
4630,3798
4630,4144
4630,4515
4631,2546
4632,186
4632,2333
4632,3241
4632,4839
4633,934
4634,1914
4635,4936
4636,871
4636,893
4636,1637
4637,1592
4639,1364
4643,463
4644,1055
4646,561
4646,3448
4646,3641
4646,3923
4647,46
4647,650
4647,781
4647,857
4647,1066
4647,1416
4647,1690
4647,1809
4647,1861
4647,1933
4647,2483
4647,2490
4647,2651
4647,2657
4647,2785
4647,2850
4647,3048
4647,3101
4647,3327
4647,3975
4647,4019
4647,4144
4647,4599
4647,4631
4648,3233
4650,2160
4651,623
4653,650
4655,92
4655,456
4655,1391
4655,4389
4656,4785
4657,640
4658,4144
4659,3139
4661,4089
4662,1793
4663,425
4664,2440
4668,353
4668,385
4668,390
4668,3625
4669,116
4669,1101
4669,1863
4671,2414
4673,164
4674,4692
4675,2229
4676,584
4676,1149
4676,1570
4676,1928
4676,2064
4676,4046
4678,1568
4679,3481
4681,2370
4682,4113
4683,66
4686,2715
4687,4748
4689,568
4690,950
4691,130
4691,486
4691,543
4691,1300
4691,1399
4691,2065
4691,2098
4691,3090
4691,3718
4691,3825
4691,3877
4692,2537
4693,325
4693,778
4693,981
4693,1053
4693,1149
4693,1544
4693,2784
4693,4501
4694,349
4694,527
4694,1119
4694,4897
4695,320
4695,4144
4697,4352
4698,225
4698,771
4699,1084
4702,1512
4703,413
4705,77
4708,474
4711,543
4712,198
4713,990
4713,4715
4714,2095
4716,1782
4720,2300
4723,201
4724,3742
4725,790
4725,1489
4725,2474
4726,494
4726,3356
4727,2537
4727,3496
4729,2924
4730,321
4732,4261
4733,4879
4735,3392
4738,493
4738,3951
4739,647
4740,866
4741,2826
4742,4596
4743,249
4743,395
4743,3185
4745,424
4746,99
4748,252
4752,499
4753,391
4754,4571
4756,338
4757,110
4758,1786
4759,432
4760,1311
4763,4144
4764,183
4764,1914
4764,2114
4764,3626
4764,4077
4764,4182
4766,2537
4767,445
4767,1908
4767,2785
4769,3701
4770,1090
4773,225
4773,866
4773,3587
4774,2
4775,434
4776,3739
4777,60
4777,812
4777,3872
4777,3877
4777,4271
4779,937
4779,1085
4779,1664
4779,1864
4779,2437
4779,2454
4779,3007
4779,3571
4779,3578
4779,4152
4780,3877
4782,1822
4782,2076
4782,3198
4782,3386
4783,839
4783,2328
4783,3811
4784,4527
4785,1156
4785,1614
4786,1029
4787,7
4787,110
4787,195
4789,202
4790,98
4790,112
4790,377
4790,1056
4790,1271
4790,1423
4790,2026
4790,2357
4790,2720
4790,2930
4790,3911
4790,3951
4790,4090
4790,4105
4790,4495
4790,4851
4791,3254
4792,226
4792,4356
4793,1891
4794,4
4794,67
4794,1222
4794,1858
4794,3651
4799,373
4799,549
4803,92
4803,142
4803,273
4803,1839
4803,2161
4803,3316
4803,4642
4804,2178
4806,48
4807,2796
4808,679
4809,4529
4810,65
4811,4515
4813,66
4813,115
4813,1004
4813,1150
4813,3500
4814,2428
4815,208
4817,2072
4818,650
4824,4539
4825,1218
4825,4326
4826,268
4829,559
4830,195
4830,1056
4830,1230
4830,1339
4830,2492
4830,2862
4830,4173
4830,4316
4833,1913
4833,4144
4833,4645
4835,452
4835,2240
4835,3029
4835,3366
4835,4982
4836,3496
4838,783
4838,960
4838,4074
4838,4551
4839,41
4839,373
4839,475
4839,547
4839,680
4839,771
4839,1121
4839,1182
4839,1439
4839,1525
4839,2059
4839,2283
4839,2663
4839,3543
4839,4647
4839,4986
4844,2784
4847,3130
4848,3831
4849,4324
4852,2667
4852,4105
4853,1511
4853,4121
4860,225
4861,2820
4863,2403
4865,2831
4868,3224
4870,2020
4871,3742
4872,100
4873,130
4874,180
4875,1183
4877,523
4880,1282
4881,2432
4882,1570
4882,2454
4884,2241
4884,3082
4885,2065
4886,3187
4887,7
4888,1060
4892,130
4892,336
4892,413
4892,453
4892,726
4892,944
4892,1336
4892,1386
4892,1668
4892,3603
4892,4207
4894,4592
4894,4689
4898,2935
4900,122
4901,137
4901,838
4902,2281
4903,20
4903,622
4903,1501
4905,2825
4907,885
4908,1880
4908,4089
4910,4423
4912,2537
4913,2283
4915,4846
4917,719
4918,1708
4918,1827
4918,3286
4918,3760
4920,2924
4922,100
4923,1430
4924,2841
4925,1871
4926,2763
4927,636
4928,4680
4929,4204
4930,3075
4932,2616
4933,425
4936,1533
4937,210
4937,2550
4937,3239
4938,1308
4939,1102
4940,1131
4943,1628
4945,1282
4948,2159
4949,1020
4950,4098
4951,1098
4952,435
4952,782
4952,2250
4953,4374
4954,650
4956,56
4956,3125
4957,1538
4958,2169
4960,4303
4963,288
4964,333
4964,783
4964,2297
4964,2406
4965,56
4966,3501
4969,774
4974,2933
4974,3813
4976,1963
4978,1395
4979,3764
4980,57
4980,233
4980,2298
4981,212
4982,3652
4984,60
4984,625
4984,668
4984,1259
4984,1469
4984,1686
4984,1915
4984,2068
4984,4034
4984,4408
4986,2966
4991,7
4991,958
4991,1610
4991,2143
4991,3842
4991,4613
4993,2223
4994,4710
4996,3294
4999,77
