src,dst
0,1
0,54
0,77
0,1298
0,2804
0,2836
0,3195
0,3631
0,3812
0,4368
0,4674
4,2169
4,2510
4,3786
6,278
6,410
6,1600
6,2692
8,372
8,403
8,803
8,2348
8,3135
8,3389
9,403
9,508
9,803
9,1006
9,1425
9,2053
9,2342
9,2398
9,2847
9,3479
9,4498
9,4910
10,367
10,895
11,347
11,585
11,1466
11,1504
11,1757
11,3511
11,4161
12,207
12,544
12,2747
12,3154
12,3606
12,3615
12,3772
12,3787
12,4191
12,4215
12,4452
14,714
14,1781
14,2491
16,3061
17,276
17,1830
17,3184
17,4506
17,4865
18,2147
18,4663
20,10
23,1660
25,135
25,212
25,3791
25,4737
25,4942
26,1399
26,2365
26,3232
26,3797
27,1433
27,1774
29,62
29,153
29,327
29,711
29,2031
29,2614
29,2837
29,3616
29,3816
31,1039
34,81
34,412
34,751
34,997
34,1057
34,1598
34,2909
34,3022
34,3751
34,3813
34,4155
34,4915
39,161
39,321
39,709
39,739
39,889
39,1299
39,1707
39,2070
39,3080
39,3431
39,4117
39,4200
39,4456
40,110
40,403
40,449
40,1398
40,1428
40,3320
41,166
41,876
41,1457
41,2303
43,18
43,212
43,877
43,1111
43,3267
43,4775
45,31
46,169
46,867
46,4731
47,13
48,324
48,379
48,3940
48,4028
48,4120
51,3155
52,253
52,347
52,1224
52,1719
52,1867
52,2067
52,2441
52,3253
52,4742
53,1734
53,2926
55,282
57,7
57,118
57,502
57,801
61,226
61,3756
64,1374
65,3504
66,40
66,196
66,725
66,821
66,1308
66,1439
66,1778
66,1935
66,2624
66,3238
67,306
67,1042
67,2055
71,528
71,912
71,2120
71,2683
71,3100
71,3366
71,3943
71,4106
72,317
72,675
72,1794
72,2807
72,3709
73,80
73,196
73,1908
73,2574
73,3472
74,128
74,1429
74,1925
74,2080
74,2359
74,4037
74,4258
75,539
75,1731
75,2426
75,4782
76,2369
78,1093
78,1514
78,1800
78,2055
78,2181
78,2701
78,3795
79,117
79,1345
79,4568
80,285
80,330
80,602
80,605
80,2370
80,2553
82,3202
85,1483
86,3885
88,283
89,129
89,365
89,486
89,1082
89,1089
89,1095
89,1116
89,1503
89,1826
89,2039
89,2612
89,2915
89,3759
89,3862
89,4052
89,4427
91,497
91,882
91,1056
91,1239
92,1774
93,600
93,2640
94,1031
94,1466
94,2618
94,3646
94,3685
94,4603
95,205
95,415
95,430
95,452
95,1111
95,1546
95,2738
95,3167
95,3754
96,192
96,329
96,474
96,861
96,1744
96,2447
96,3229
96,4353
96,4591
97,584
97,2996
97,3504
97,4146
98,429
98,1372
98,1644
98,2491
99,3500
101,508
101,685
101,1411
103,684
103,1082
103,2449
103,3140
103,3256
103,3811
104,964
104,4865
106,1
106,429
106,627
106,738
106,763
106,1176
106,2342
106,2365
107,6
107,295
107,548
107,627
107,1143
107,1833
107,1941
107,2161
107,2168
107,2294
107,2956
107,3273
107,3525
108,2113
108,2678
109,1150
110,7
110,409
110,827
110,1444
110,4380
111,1529
111,1765
111,4367
112,508
112,612
112,691
112,1293
112,1357
112,1511
112,1674
112,1767
112,1908
112,1927
112,2971
112,3323
112,3559
112,3737
112,3739
112,4335
112,4492
112,4588
113,331
113,1006
113,1380
113,1621
113,1996
113,2168
113,2649
113,3403
113,4973
114,576
116,508
116,814
116,1751
116,1905
116,3492
116,3772
125,322
125,896
125,950
125,1120
125,1370
125,1527
125,1579
125,2641
125,3695
125,4142
125,4360
126,245
126,572
126,1187
126,4142
127,90
127,182
127,1694
127,2491
127,3519
130,508
131,1814
131,4003
132,187
132,618
132,1293
132,2504
132,4131
136,235
136,1255
137,1345
137,1490
137,4948
139,467
139,4109
139,4447
139,4492
140,1162
140,1219
140,3564
142,1345
144,21
144,344
144,429
144,2801
144,2951
144,3806
144,4760
145,168
145,3526
145,4568
146,1175
146,3971
148,202
148,619
148,701
148,1060
148,1161
148,2359
148,4407
150,1029
150,2731
150,3644
151,21
151,141
151,219
151,413
151,995
151,1166
151,1392
151,1682
151,3369
151,3553
151,3790
151,4369
151,4519
151,4591
151,4765
151,4950
154,363
154,644
154,910
154,1190
154,1824
154,2528
154,3697
155,1963
155,2858
155,3135
155,3192
155,3201
155,4391
156,3605
156,3796
157,1162
157,1601
157,3014
157,4850
158,195
158,3651
159,586
159,4876
161,388
161,1216
161,3482
162,166
162,474
162,1016
163,2614
163,2888
163,3357
163,4550
164,536
164,1767
164,2100
164,3781
164,3811
164,3871
165,146
165,581
165,1614
165,3336
166,424
166,511
166,627
166,745
166,2765
166,3274
166,3576
166,3976
166,4475
171,2191
171,3885
173,58
173,2688
175,2267
175,4419
175,4698
175,4948
176,196
176,1167
176,1437
176,1489
176,1510
176,2819
176,4318
177,283
177,391
177,473
177,1090
177,3791
177,3902
177,4192
179,3477
180,80
180,172
180,1764
180,1832
180,2027
180,2292
180,3464
183,613
183,1029
183,1032
183,1127
183,1406
183,2483
183,3619
184,211
184,1015
184,1544
184,1696
184,2232
184,2861
184,4568
187,1020
187,1247
188,4568
191,1901
191,3415
193,275
193,4984
194,60
194,1773
194,3493
197,576
197,1164
197,1940
197,2607
197,3791
197,3871
197,4565
197,4663
198,504
198,534
198,771
198,2836
198,3047
198,4758
199,21
199,129
199,611
199,897
199,1218
199,2734
199,3064
199,3221
199,3291
199,4011
200,31
200,307
200,1294
200,1403
200,2005
200,2977
200,3312
200,3772
200,4159
201,813
201,1129
201,1235
201,1401
201,3132
201,3825
206,435
206,640
208,2067
208,4884
209,271
209,3360
209,3693
210,16
210,329
210,432
210,667
210,867
210,1878
210,2033
210,2168
210,3214
210,4727
212,2613
212,4578
214,368
214,569
215,1
215,349
215,3397
216,190
216,568
216,2036
220,623
221,167
222,275
222,2620
222,3766
222,4015
223,1031
224,1305
224,1686
224,3053
225,228
225,317
225,1411
225,2036
225,2059
225,2089
225,2873
225,2911
225,2925
225,3135
225,3500
225,3521
225,4222
226,879
226,2549
226,4281
227,367
227,968
227,1288
227,1982
227,2040
227,2289
227,3255
227,3874
227,4259
227,4614
229,378
229,1082
231,1576
231,1678
231,3794
234,2359
235,187
235,504
235,3890
236,360
236,557
236,832
236,1250
236,2147
236,2497
236,2719
236,2913
236,3452
236,4096
236,4163
236,4204
237,2345
237,3395
237,4471
239,567
239,1845
239,3918
239,4009
242,233
242,3749
248,33
248,515
248,3329
250,581
250,918
250,1137
250,1447
250,1593
250,2316
250,3360
250,3747
250,4298
252,910
252,3855
254,124
257,327
257,910
257,1588
257,2019
257,2316
257,2920
257,3887
257,4553
257,4560
259,474
259,4283
259,4296
261,583
261,1858
263,420
263,2930
264,134
264,321
264,2234
264,2447
264,2510
264,3475
264,4995
265,80
265,900
265,2885
265,3900
267,685
268,59
274,80
274,2275
274,2349
275,3288
279,2169
287,1545
288,614
288,910
288,1857
288,2480
288,3152
289,3444
290,360
290,4924
292,508
292,1385
293,161
295,1549
295,3025
295,4657
297,81
297,3901
299,1476
299,2508
300,58
302,2825
303,363
303,418
303,1093
303,1966
303,2458
303,4656
303,4971
304,326
304,361
304,929
304,984
304,2455
304,4248
304,4929
310,246
310,2311
311,27
311,278
311,1637
312,295
312,427
312,1225
312,1412
312,1553
312,1602
312,1686
312,2211
312,2996
312,3609
312,3699
312,3780
313,888
313,1424
314,122
316,21
316,1627
316,1672
316,2182
316,3378
318,3596
319,2038
320,135
322,1056
328,317
328,649
328,1043
328,4322
331,80
334,738
334,1049
334,2103
335,329
335,923
336,3108
337,374
337,403
337,1746
337,1796
337,2399
339,4360
340,869
340,1334
340,1426
340,3221
340,4631
341,756
341,2995
341,3360
341,4040
342,1758
342,3421
342,4334
346,4220
348,3031
351,146
351,217
351,783
351,842
351,1014
351,1114
351,1633
351,1638
351,1840
351,3161
351,3933
351,4338
352,212
353,768
353,1330
353,3853
353,4273
355,169
355,495
355,960
355,1814
355,2738
355,3072
355,3541
355,3667
355,3789
355,3931
355,3942
355,4077
355,4500
355,4894
356,731
356,782
356,4924
358,272
360,604
362,272
362,2707
362,3834
362,3856
364,212
364,1606
364,3202
364,3509
366,1080
366,1678
366,2168
366,2614
366,3516
368,278
368,1960
368,2126
368,2208
368,2832
369,1256
369,4039
369,4971
370,2067
372,1156
375,543
376,873
376,2732
376,3837
377,1221
382,1402
382,3038
382,3321
383,544
383,714
383,806
383,965
383,4278
384,4842
386,10
386,2112
389,4517
390,1605
390,3581
391,84
391,740
391,4366
392,1504
392,1686
392,4415
393,2510
393,4860
394,1492
395,121
397,962
397,1263
397,2491
397,4948
398,128
398,540
398,1134
398,2076
398,2447
399,190
401,918
401,2723
401,3031
402,257
402,262
402,4309
405,218
405,1822
405,3863
405,4205
407,4505
407,4678
408,3031
411,1329
411,1541
411,4469
411,4649
414,3562
417,80
421,36
423,2388
423,4072
426,3216
426,3408
428,557
428,2075
428,2565
428,2656
428,3782
428,4042
431,262
431,3343
433,6
435,578
435,3203
435,4108
436,325
436,853
437,180
440,1134
440,1185
440,1466
440,1763
440,2891
440,3012
442,1134
444,4271
445,16
445,531
445,652
445,836
445,1285
445,1433
445,1813
445,2252
445,2859
445,3064
445,3073
445,3272
445,4665
446,809
447,917
447,1222
447,1364
447,1760
447,2241
447,3556
450,80
450,1031
450,2497
453,501
453,964
453,2358
453,2729
453,3590
453,4667
453,4905
454,321
456,291
456,611
456,3532
458,1102
458,1629
458,1928
458,3347
460,3303
464,324
464,670
465,330
468,272
469,167
469,494
470,388
470,4253
470,4448
471,989
472,2432
472,3544
472,4137
472,4666
473,233
473,1077
473,1998
473,2101
475,81
475,541
475,632
475,816
475,828
475,992
475,1080
475,1374
475,1469
475,1791
475,2388
475,4838
478,275
478,580
478,760
478,909
478,4743
479,271
479,1870
479,2411
479,4382
480,284
480,685
480,2885
480,3446
480,4303
481,87
481,174
481,233
481,776
481,802
481,835
481,907
481,930
481,953
481,1073
481,1117
481,1184
481,1264
481,1931
481,2360
481,4182
482,282
483,1
484,3478
487,138
487,505
487,763
487,824
487,3885
488,24
488,696
488,1281
488,3885
488,4937
489,413
489,497
489,718
489,883
489,1961
489,2250
489,3283
491,169
491,296
491,3539
491,4697
492,359
492,4932
493,282
493,807
493,2396
493,4595
495,324
499,128
499,588
499,1764
499,2940
499,3832
500,1232
500,1458
500,4472
506,2291
506,4641
508,384
508,1903
508,2359
508,3415
509,669
509,1314
509,1717
510,738
510,3526
512,1642
512,2452
513,223
513,550
513,4901
514,611
514,2670
515,671
515,1783
515,2447
516,467
516,1867
517,712
517,4142
518,425
518,4840
519,167
519,4048
519,4694
523,1779
523,3195
524,1095
526,3221
526,4763
527,324
528,4214
530,212
530,2131
530,2962
530,2996
530,3292
530,3885
531,211
531,978
531,1766
531,1886
531,4638
532,187
534,1993
534,4965
537,3416
537,4748
541,1581
542,1251
542,3403
545,2691
547,2996
548,166
548,956
548,1919
548,4121
548,4760
551,7
551,608
551,1630
551,3700
552,24
552,1056
552,2935
552,3436
552,3720
553,3660
553,4658
555,148
555,2635
555,2857
556,12
556,1461
556,1748
558,16
558,3015
558,3143
559,4813
560,88
560,443
560,501
560,1249
560,1705
560,2923
560,4334
561,15
562,1283
562,3791
563,322
564,1045
565,508
565,1805
565,2735
565,2746
566,38
570,1594
570,2472
570,2481
571,867
571,1007
571,2902
571,4455
571,4810
573,402
573,1258
573,2375
573,3811
573,4086
574,737
574,1079
574,1678
574,3944
575,1814
576,777
577,10
577,1403
577,3637
577,4579
578,146
578,166
578,3135
578,3661
578,3948
578,4863
579,793
579,923
582,2238
586,410
587,115
587,721
587,1111
587,3851
587,4922
590,10
590,256
590,501
590,1958
593,81
594,583
594,682
594,2644
595,247
595,2155
595,4036
596,244
596,256
596,729
596,3342
596,4977
597,372
597,903
597,1315
597,1624
597,2408
597,2877
597,4568
598,357
598,932
598,1253
598,1646
598,3516
598,4683
599,18
599,2447
599,4208
601,1742
601,2282
601,2761
601,3020
601,3504
601,4903
603,166
606,371
606,1165
608,3885
610,708
610,3128
610,4760
615,6
615,258
615,2047
617,363
617,1954
617,3440
617,3504
617,3776
617,4335
617,4983
619,466
620,13
621,1249
622,333
622,1774
623,2446
623,3885
624,548
626,4202
628,1442
628,4568
629,1544
629,3069
629,4313
629,4760
630,1962
630,4948
633,727
633,1846
633,1898
633,2359
633,3311
633,4108
633,4930
634,244
634,783
634,3307
635,2828
635,4859
636,395
636,790
636,1297
636,1564
636,3169
636,3202
636,3234
636,3432
636,4997
637,1140
637,1186
637,3964
642,3570
644,149
644,223
644,683
644,2737
644,3409
646,714
646,3169
647,3124
648,80
648,413
648,4927
651,143
651,3459
653,31
653,658
653,1380
653,2888
654,3732
655,1020
655,1287
655,2704
656,2950
657,2563
660,4833
661,21
661,2091
662,908
662,993
662,1656
662,1869
662,3353
662,4682
663,354
663,508
663,520
663,940
663,979
663,981
663,1389
663,1432
663,1803
663,2422
663,3929
663,4648
664,1057
664,2091
664,3245
666,4698
668,2447
673,1212
673,1734
673,3379
674,611
674,4568
676,1783
676,4703
677,321
677,4397
677,4845
678,864
678,1295
678,3527
679,296
680,3014
681,3161
681,4588
683,106
683,2179
683,2996
686,21
687,409
687,1391
687,1980
687,2618
687,4021
687,4423
689,600
689,2134
689,3524
690,1612
690,2779
692,424
692,1748
694,2819
695,817
695,2244
697,942
697,2681
697,3674
698,35
698,80
698,230
698,748
698,910
698,1120
698,1322
698,1823
698,2154
698,3233
698,3346
698,3871
698,4544
700,60
700,1690
701,294
701,461
701,3926
702,1642
704,2359
704,3530
704,4060
704,4144
705,375
705,600
705,1766
705,3027
705,3093
705,4070
707,315
709,2192
715,305
715,422
715,486
715,521
715,854
715,1257
715,1276
715,1915
715,2932
715,3164
715,3269
715,3547
715,3813
715,4177
716,881
716,1812
716,4038
720,223
722,262
723,645
723,2659
723,2950
724,538
729,1888
730,146
730,331
730,631
730,738
730,1145
730,3444
730,3823
730,4279
730,4514
732,538
732,1076
732,2202
732,2422
733,10
735,1602
735,4198
735,4432
736,202
739,415
739,1777
742,2846
742,4208
743,680
743,2061
744,219
744,782
744,1235
744,1330
744,1347
744,1492
744,1750
744,1799
744,4661
745,59
745,238
745,533
745,845
745,926
745,1600
745,1778
745,2774
747,923
750,1908
750,2022
750,2189
750,2580
750,3014
752,80
753,169
754,2698
754,3446
754,3522
755,360
755,1783
755,1860
755,3077
757,161
758,185
758,585
759,671
759,4099
762,726
765,1315
766,226
766,322
766,985
766,1107
766,1286
766,3415
766,3668
769,1110
769,1778
769,4084
770,190
770,1946
770,2872
770,2950
771,798
772,2348
772,3656
774,435
777,734
777,1434
780,693
780,1774
781,998
783,682
784,1533
784,3909
785,508
785,1059
785,4901
786,219
786,4948
787,172
787,535
787,650
787,3213
789,7
789,429
789,2764
791,521
793,161
794,321
794,1543
794,1650
794,3091
794,3813
795,714
796,1690
798,2195
799,7
799,4286
802,2290
802,3791
804,32
804,88
804,207
804,265
804,286
804,496
804,1033
804,1649
804,1690
804,2330
804,2533
804,3081
804,3728
804,4215
804,4248
804,4468
805,613
805,1514
805,2052
808,1499
810,309
810,2509
810,2677
811,3069
811,3240
811,3494
811,4277
811,4810
812,33
812,246
812,1112
815,282
818,1056
818,2696
818,3249
818,4853
819,2746
820,585
820,2001
820,2659
823,611
823,1806
823,2661
823,3058
823,3986
823,4583
825,726
825,3908
826,2447
829,761
830,2424
831,3881
831,4515
833,4221
835,4831
836,949
836,4175
837,21
837,22
837,1655
837,2366
837,2405
838,146
840,161
840,272
840,1169
840,1842
840,2865
840,4630
841,27
841,1047
841,1679
842,1569
842,1787
842,3342
843,2660
847,751
847,802
847,1597
847,1951
847,2177
847,2316
847,3128
847,4787
848,437
848,659
849,1933
850,567
851,365
852,775
855,2984
856,58
857,2601
857,2833
857,4366
858,7
858,860
858,1566
858,2655
859,2122
859,2771
859,3143
859,3302
859,4279
859,4303
862,380
862,1577
863,497
865,836
865,3622
866,2248
868,2359
871,1771
871,3709
872,4403
873,1621
876,776
876,1625
876,2019
876,2712
881,1763
883,462
883,1337
883,2436
883,4079
884,81
884,1942
884,2616
886,31
886,522
886,2576
886,3490
886,4731
887,467
888,230
888,408
888,895
888,1425
888,3770
888,4028
891,594
891,802
891,2933
892,365
892,1530
892,2142
893,192
893,3749
894,1148
894,1903
898,81
898,2558
899,2169
901,900
901,1350
901,4870
902,3124
904,1986
904,2738
904,4400
909,532
915,1
915,3298
915,4017
916,877
916,1178
920,980
920,3515
920,3921
922,352
922,809
922,4591
923,2087
924,4633
924,4657
925,245
927,247
927,1030
927,2094
927,4541
928,249
928,611
928,1113
928,3811
933,3685
935,1212
935,1740
935,2577
937,280
937,734
937,4471
943,1489
944,591
944,1364
944,2404
944,3457
944,4343
946,706
946,817
947,42
947,1439
948,879
951,576
954,1423
955,420
955,1033
955,3095
955,3489
955,3691
956,2243
957,123
957,1145
957,2138
957,2570
957,2775
957,2800
957,3723
958,1152
958,2359
959,798
961,291
963,121
963,347
963,1459
963,1767
963,1841
963,1868
967,364
967,2573
967,2710
967,3664
969,3036
970,746
970,2445
970,3086
970,3767
973,2373
973,2732
973,3446
973,3465
974,365
975,174
975,329
975,1687
975,2290
975,2359
975,4661
976,139
976,918
976,2084
976,2685
976,4738
977,809
977,1241
977,1249
979,729
979,2577
979,2808
979,2899
979,3447
979,4118
979,4741
979,4921
986,1563
986,2358
986,3957
987,459
987,3165
987,4227
987,4454
989,2099
989,4554
990,508
990,1354
990,1938
990,2269
990,2484
990,2758
990,3147
991,253
991,1093
995,1903
996,325
996,457
996,1563
996,1850
996,1865
996,3360
996,4564
998,1602
998,4894
1000,22
1002,1331
1003,710
1003,3005
1004,1612
1004,3245
1004,3322
1005,402
1006,202
1006,798
1006,999
1006,1388
1006,1654
1006,1670
1006,1686
1006,2949
1006,3434
1006,4241
1006,4721
1006,4819
1009,1774
1010,36
1010,226
1010,241
1010,1287
1010,1926
1010,2240
1010,2477
1010,3352
1010,4069
1011,819
1011,2553
1012,60
1012,63
1012,245
1013,810
1013,1006
1013,2418
1013,3706
1017,434
1018,146
1018,345
1018,3269
1021,124
1021,1349
1022,1016
1023,518
1023,944
1023,1140
1023,1602
1023,1943
1023,4235
1024,21
1024,3086
1025,1075
1025,1774
1025,4461
1026,1858
1026,2270
1028,388
1029,950
1029,1957
1029,2542
1029,4427
1031,1545
1031,1634
1031,2325
1031,2808
1032,115
1032,2951
1032,3804
1034,359
1034,3011
1035,4335
1036,2973
1036,3615
1039,463
1039,3722
1040,2221
1040,2265
1040,4093
1041,434
1041,1489
1044,1204
1044,1393
1044,2742
1044,4412
1044,4730
1045,271
1045,1602
1045,4467
1046,3328
1046,3823
1046,4092
1048,345
1048,2220
1048,2735
1049,4107
1050,498
1050,718
1050,2329
1051,128
1051,458
1051,1162
1051,3561
1052,4160
1052,4801
1053,18
1054,2565
1054,4478
1054,4703
1055,466
1056,792
1056,941
1056,2842
1058,1609
1062,2932
1064,420
1064,1622
1065,329
1065,1917
1066,1268
1066,2238
1067,129
1067,983
1067,1037
1067,1620
1067,1697
1067,1711
1067,2443
1067,2905
1068,2888
1069,211
1069,4961
1070,402
1074,31
1074,710
1074,4681
1076,102
1076,416
1076,4357
1076,4701
1083,1047
1084,203
1084,591
1086,988
1087,134
1089,1518
1089,2164
1089,3482
1092,727
1093,2757
1093,3118
1094,333
1094,4309
1094,4525
1096,1666
1096,3599
1097,988
1097,1202
1097,2622
1097,3489
1098,1364
1098,2133
1098,3005
1099,388
1100,948
1100,3700
1101,712
1101,1190
1101,1703
1103,3084
1103,4364
1104,33
1104,129
1105,370
1105,2447
1109,4468
1113,3160
1114,2250
1115,6
1115,87
1115,942
1115,983
1115,1743
1115,3958
1115,4131
1119,4309
1121,957
1122,739
1123,895
1123,982
1123,988
1124,685
1124,2162
1125,295
1125,1277
1125,1647
1125,2080
1125,3423
1125,3549
1125,4990
1126,714
1126,3364
1127,413
1128,146
1130,212
1131,126
1131,3281
1131,3315
1132,83
1133,1331
1134,59
1135,355
1135,403
1135,853
1135,1694
1135,2008
1135,2807
1138,247
1138,1095
1138,1506
1138,1562
1138,2260
1138,3867
1142,122
1142,129
1142,2077
1143,1541
1143,4924
1144,3943
1146,3811
1149,223
1150,2911
1154,345
1154,3413
1155,1612
1156,282
1156,3829
1157,477
1157,3083
1157,4022
1157,4174
1158,256
1158,1686
1158,2183
1158,2602
1158,3967
1159,1114
1159,2692
1159,2917
1159,4420
1162,247
1162,618
1162,1783
1162,2571
1162,3652
1162,4140
1162,4466
1163,3310
1167,2553
1170,638
1170,3341
1171,3928
1172,256
1172,4537
1175,298
1179,882
1179,4038
1184,260
1184,4689
1186,706
1188,2076
1188,2546
1188,2576
1188,4822
1189,4221
1191,325
1192,1222
1192,2864
1193,1113
1194,1783
1194,1897
1194,2494
1195,1107
1196,21
1196,2488
1196,3180
1197,443
1197,1147
1197,1324
1197,2483
1198,971
1198,4038
1199,30
1200,2311
1203,3868
1203,4482
1205,797
1205,1145
1206,219
1206,727
1206,2711
1206,4371
1207,1088
1207,1830
1208,129
1208,371
1208,640
1208,1513
1208,2296
1208,2437
1208,2779
1208,2937
1210,621
1210,726
1210,1408
1210,1420
1211,3
1213,3881
1215,1019
1215,1031
1215,1269
1215,1590
1215,3982
1215,4566
1220,124
1220,1163
1220,2238
1223,1806
1224,1674
1226,434
1226,1878
1228,1869
1229,1249
1229,3062
1230,2612
1230,3152
1231,2607
1231,3811
1233,883
1233,1915
1236,15
1236,21
1237,1201
1238,576
1238,2012
1238,3155
1238,3696
1238,3727
1238,4017
1238,4127
1239,388
1239,508
1239,2264
1240,4948
1243,738
1243,3495
1244,949
1245,282
1245,2700
1246,81
1246,129
1246,211
1246,467
1246,978
1246,1088
1246,1353
1246,1716
1246,2066
1246,2622
1246,3614
1246,3701
1247,226
1247,907
1247,1640
1247,2651
1247,2820
1247,3155
1247,3306
1248,714
1249,1783
1251,418
1251,4403
1252,1057
1252,1895
1254,2261
1254,3471
1259,761
1260,864
1260,2018
1260,2521
1260,2693
1260,3024
1260,3622
1261,190
1261,583
1261,1234
1261,1258
1261,2629
1261,2760
1262,521
1262,2761
1265,42
1265,385
1265,539
1265,1821
1265,4026
1266,4334
1267,218
1269,508
1270,921
1270,4839
1271,323
1272,658
1273,21
1274,1312
1274,1985
1274,2716
1274,3640
1275,726
1275,1707
1275,3383
1276,667
1278,607
1279,283
1279,1336
1279,2418
1279,2691
1279,2812
1279,3159
1279,3581
1279,3962
1287,2846
1289,978
1290,1642
1290,1669
1290,2011
1290,2091
1290,2457
1290,3060
1293,1294
1294,2246
1295,672
1295,1306
1295,2731
1296,40
1296,836
1296,1181
1296,2042
1296,4568
1297,273
1297,1365
1300,1483
1302,2729
1302,3754
1307,749
1307,2407
1307,4027
1309,28
1309,1796
1309,1991
1309,2125
1309,4309
1310,2553
1311,247
1313,260
1313,3223
1313,3831
1313,4534
1316,255
1317,3572
1317,4454
1318,1523
1318,3937
1319,773
1321,1544
1321,1592
1321,2365
1321,4061
1321,4120
1325,315
1325,888
1325,1456
1325,2486
1326,1167
1326,2820
1326,3133
1328,1899
1331,1817
1332,682
1332,3617
1333,640
1333,895
1333,1268
1335,1114
1338,4466
1338,4568
1339,1268
1339,1814
1339,3376
1342,1765
1342,3423
1342,4087
1342,4270
1342,4520
1343,873
1343,1642
1344,1
1344,256
1344,4181
1346,160
1348,161
1355,3060
1356,240
1356,256
1356,2150
1356,2389
1356,4672
1358,1432
1358,1623
1358,1717
1358,2174
1358,2888
1359,4402
1360,3503
1361,31
1361,2888
1361,4454
1362,3256
1363,1783
1366,828
1366,4292
1366,4449
1367,2055
1367,3051
1368,115
1371,255
1371,1120
1371,4989
1372,2348
1372,2966
1372,3229
1373,2062
1373,2168
1375,4216
1375,4825
1376,281
1379,212
1379,1470
1382,449
1382,4036
1384,371
1384,1979
1384,3634
1386,1001
1386,2888
1387,4303
1388,87
1388,124
1388,611
1388,1798
1388,3347
1389,1327
1390,4717
1394,1442
1394,2595
1395,1380
1396,473
1396,4216
1397,497
1397,978
1400,202
1400,1591
1400,2738
1400,2913
1400,3076
1400,3774
1404,942
1405,358
1405,2284
1407,384
1407,473
1407,507
1407,1565
1407,2091
1407,2512
1407,2978
1407,3402
1407,4334
1407,4486
1409,4154
1410,1212
1410,2143
1410,4600
1410,4650
1410,4980
1412,1873
1413,87
1413,240
1413,885
1413,1214
1413,1562
1413,1793
1413,1907
1413,1931
1413,3365
1413,3631
1415,613
1416,1892
1418,435
1418,2359
1418,2954
1421,374
1421,474
1422,253
1422,323
1422,1843
1423,1411
1424,822
1424,2849
1424,4941
1427,202
1427,685
1427,1878
1427,3935
1430,349
1430,1860
1430,2198
1430,3448
1431,212
1434,1174
1435,357
1436,4948
1438,129
1440,347
1441,4466
1442,1454
1442,1764
1442,3322
1446,185
1448,31
1448,508
1448,734
1448,985
1448,1795
1448,1933
1448,2082
1448,2880
1448,3921
1448,4593
1449,152
1449,645
1449,691
1449,923
1449,982
1449,1168
1450,3148
1450,4143
1450,4393
1451,129
1451,1952
1451,3014
1452,702
1452,819
1452,1470
1452,1625
1452,1767
1452,1843
1452,2387
1452,4130
1452,4279
1452,4551
1452,4803
1453,2447
1453,2535
1455,1817
1455,2385
1455,2780
1455,3003
1455,4654
1460,133
1460,878
1460,1677
1460,3742
1460,4257
1461,21
1461,374
1461,4841
1462,284
1462,1560
1462,3053
1464,1078
1464,2695
1464,3481
1464,3791
1465,918
1467,7
1467,68
1468,2247
1468,2546
1468,3040
1469,166
1470,1287
1470,3425
1471,607
1471,2280
1472,3119
1472,4865
1474,1182
1474,1295
1475,867
1477,2365
1477,4499
1478,241
1480,35
1481,126
1481,4210
1483,2248
1485,429
1485,4002
1486,708
1487,260
1488,3255
1489,321
1492,1318
1492,1600
1492,1738
1492,3162
1492,3649
1493,773
1493,1020
1494,1031
1494,2508
1495,4307
1496,1411
1496,3899
1497,321
1497,923
1497,1476
1497,3943
1497,4485
1499,81
1499,718
1499,1616
1499,3073
1499,4473
1500,1959
1500,3669
1500,4983
1501,913
1502,2447
1505,1842
1505,2458
1505,4463
1507,993
1507,3308
1509,623
1515,1033
1515,3791
1516,659
1517,1173
1517,1411
1517,4247
1517,4784
1519,712
1519,1038
1519,1797
1519,3552
1519,3729
1520,260
1522,371
1525,585
1525,713
1525,729
1525,1032
1525,1075
1525,1933
1525,3893
1525,4795
1526,1922
1526,4449
1528,809
1528,3622
1531,262
1531,1762
1531,2938
1531,4960
1532,1504
1532,2817
1533,4851
1534,1472
1535,474
1535,4871
1536,1029
1536,2365
1537,168
1537,4348
1538,126
1540,377
1540,3102
1542,625
1542,1479
1542,3356
1542,4514
1547,521
1547,1756
1547,2447
1547,2545
1550,7
1550,90
1550,1877
1550,2761
1550,4598
1551,1299
1551,1749
1552,1536
1554,260
1554,1889
1554,1930
1555,897
1555,1744
1555,2229
1555,2326
1556,1183
1558,323
1559,945
1561,2447
1561,3529
1563,448
1564,1134
1567,3614
1568,256
1570,1057
1572,3342
1573,407
1573,2850
1574,1185
1575,5
1575,1217
1577,1086
1577,3199
1578,927
1580,1082
1580,1134
1580,3535
1582,1093
1583,1686
1583,2012
1583,2753
1584,672
1584,1827
1584,2274
1585,813
1585,4760
1586,4036
1587,1403
1589,22
1589,4221
1592,282
1592,3318
1593,2859
1594,2447
1595,377
1595,2291
1595,3687
1595,3813
1596,3841
1596,4810
1599,641
1599,2078
1599,3146
1599,4275
1599,4991
1603,501
1604,202
1607,711
1607,1774
1607,1796
1608,3811
1610,995
1610,3186
1611,641
1611,2940
1611,3487
1611,4922
1612,1167
1613,1712
1613,1931
1613,3827
1613,4844
1615,4526
1621,322
1621,998
1621,2178
1621,2755
1622,1765
1622,2132
1622,2257
1622,3323
1622,4968
1623,4983
1627,10
1629,277
1629,2294
1629,2353
1629,2824
1631,410
1631,3601
1635,321
1636,387
1636,1249
1639,2256
1639,2359
1639,4075
1641,1167
1642,282
1642,4319
1643,2265
1644,3594
1644,4142
1645,19
1645,166
1645,180
1645,282
1645,518
1645,652
1645,726
1645,945
1645,2687
1645,2762
1645,4376
1645,4479
1646,118
1647,87
1647,485
1647,494
1647,688
1647,1482
1647,1503
1647,1508
1647,1808
1647,3124
1648,2659
1651,473
1651,1047
1651,1295
1651,2446
1651,4334
1652,2820
1652,4731
1653,21
1658,2002
1658,3253
1658,4983
1659,1136
1659,1885
1659,2537
1659,2843
1659,3075
1659,3350
1659,3523
1660,3444
1661,675
1661,2012
1662,435
1662,1514
1663,1621
1664,3753
1664,4334
1665,1
1665,3765
1667,522
1667,1472
1668,3061
1669,1973
1670,1985
1673,3084
1676,945
1676,3913
1677,1718
1677,3440
1677,4054
1682,118
1682,174
1682,3503
1683,167
1684,532
1685,2909
1685,4303
1689,323
1689,844
1689,1417
1689,2534
1689,3882
1691,31
1691,1982
1692,422
1692,2070
1692,2597
1693,255
1693,2368
1695,1423
1696,80
1698,281
1699,4334
1700,2821
1701,174
1701,1619
1701,1720
1701,3548
1702,1293
1703,217
1703,1284
1703,4167
1703,4552
1703,4757
1704,371
1706,186
1706,749
1706,907
1707,141
1708,1060
1708,4393
1708,4410
1709,240
1709,333
1709,1772
1709,2909
1709,4272
1709,4524
1710,343
1710,1878
1710,3109
1710,4417
1713,347
1713,1860
1713,2035
1714,2391
1714,4100
1715,1
1720,2471
1721,1100
1721,1825
1721,2980
1721,3359
1721,3802
1724,1139
1724,2055
1724,2165
1724,3466
1725,205
1726,1016
1727,501
1728,465
1729,638
1729,2553
1730,1644
1731,1202
1731,3575
1732,2663
1732,2765
1732,2888
1733,3299
1733,3659
1733,4325
1734,1503
1735,1107
1735,2419
1736,418
1736,2766
1736,3130
1737,291
1737,3014
1737,3023
1743,120
1743,212
1743,247
1743,503
1743,761
1743,1061
1743,1273
1743,1423
1743,1521
1743,1645
1743,2285
1743,2451
1743,3644
1743,4168
1747,998
1748,706
1748,4470
1748,4544
1749,1292
1749,4865
1751,16
1752,941
1753,244
1754,2691
1754,4201
1755,1156
1759,611
1761,2447
1763,2484
1765,514
1765,2565
1765,4753
1768,1076
1769,643
1770,764
1771,1052
1773,1571
1774,87
1779,4134
1780,501
1782,83
1782,4854
1783,281
1783,467
1783,508
1783,938
1783,1642
1783,2132
1783,3977
1783,4438
1783,4530
1783,4948
1784,729
1785,315
1785,879
1785,942
1785,2055
1785,2216
1785,4215
1786,2444
1786,2583
1789,4708
1790,1019
1792,2246
1793,18
1793,531
1795,467
1796,212
1796,1880
1796,2378
1796,4923
1800,520
1800,2984
1801,642
1802,141
1804,538
1804,3026
1804,3598
1804,4223
1804,4366
1806,126
1806,685
1806,1027
1806,1106
1806,1301
1806,1617
1806,3382
1806,4532
1807,541
1807,3793
1807,4020
1807,4725
1809,448
1810,168
1810,205
1810,262
1810,267
1810,377
1810,1766
1810,2618
1810,2845
1811,1456
1811,4241
1816,146
1816,639
1816,2680
1816,2974
1828,703
1829,1511
1829,3867
1831,244
1831,4036
1831,4325
1834,80
1834,997
1835,10
1835,4663
1836,508
1836,3274
1836,3373
1836,3765
1836,4558
1837,117
1837,3430
1837,4607
1839,1106
1839,4094
1848,873
1849,16
1851,1111
1852,727
1852,864
1852,1263
1852,1984
1853,244
1853,3373
1853,4938
1854,1027
1854,3882
1854,4425
1855,323
1856,420
1857,18
1857,1867
1858,1219
1858,1888
1858,4361
1861,1679
1861,3065
1862,3791
1863,2465
1863,4779
1864,81
1864,324
1864,1165
1864,1401
1864,3588
1865,1209
1865,4398
1870,134
1870,407
1870,1020
1870,3593
1870,3914
1870,3925
1870,4421
1870,4558
1871,1674
1871,3978
1871,4454
1872,180
1874,1416
1874,3135
1877,1738
1877,3450
1878,659
1878,4366
1879,90
1879,2004
1879,2432
1879,3061
1879,3150
1879,3301
1880,583
1881,243
1882,219
1883,31
1883,726
1884,861
1884,1983
1887,738
1887,4435
1890,1481
1891,1334
1893,1320
1894,1385
1895,719
1896,129
1896,2295
1899,536
1900,2821
1900,4012
1901,76
1903,908
1904,650
1904,2738
1906,1484
1909,1817
1909,3507
1909,4891
1910,1764
1911,539
1912,60
1913,3871
1914,469
1914,2281
1914,4184
1918,2374
1919,508
1921,1895
1923,1212
1924,80
1924,1111
1929,1111
1929,2046
1930,2447
1932,129
1934,1411
1934,2996
1934,3243
1936,998
1936,3222
1937,2663
1937,3461
1939,1967
1939,2424
1944,1602
1944,4992
1945,182
1945,2738
1947,1247
1948,3
1948,474
1953,180
1953,2575
1955,1781
1959,355
1959,402
1959,642
1959,1334
1959,4153
1962,38
1962,3091
1964,1403
1965,923
1968,1644
1969,347
1970,640
1970,1031
1970,2012
1970,2098
1973,1962
1974,1920
1974,3347
1974,4760
1975,169
1975,1380
1975,3014
1975,4885
1976,4221
1978,462
1978,1266
1978,1294
1978,1508
1978,1696
1978,3227
1978,3615
1978,3622
1978,4548
1981,1738
1981,1741
1981,2180
1981,2590
1981,4208
1981,4545
1984,641
1984,1775
1985,207
1986,1848
1987,161
1987,4379
1988,1625
1989,418
1990,822
1990,1201
1992,141
1992,1498
1994,323
1994,2359
1994,2365
1995,2306
1995,2365
1997,1037
1997,3446
1999,246
1999,1625
1999,4657
1999,4772
2000,59
2000,1978
2000,2317
2000,2844
2003,1242
2003,3815
2003,4026
2004,2341
2006,616
2006,2417
2007,638
2007,2833
2007,3116
2007,4418
2007,4489
2009,3825
2010,1241
2011,3964
2013,143
2014,2004
2015,688
2016,3811
2017,1354
2018,623
2018,4813
2019,124
2019,1956
2020,1502
2021,129
2021,360
2021,1185
2021,2752
2021,3014
2024,271
2025,1675
2029,803
2029,1424
2029,1492
2029,2207
2029,2538
2029,3044
2029,3390
2030,1819
2031,3909
2032,1766
2032,2736
2032,3470
2032,3521
2032,3665
2034,691
2037,2447
2038,213
2038,287
2038,389
2038,850
2038,1293
2038,1613
2038,2653
2039,2732
2039,4473
2043,416
2044,4230
2044,4337
2045,1469
2048,76
2049,1668
2050,408
2050,4811
2054,1931
2056,1345
2056,3628
2056,4822
2057,141
2057,1075
2057,2109
2058,370
2060,3245
2060,3346
2063,372
2063,2168
2063,3958
2063,4815
2064,181
2064,4589
2065,68
2065,226
2065,410
2065,1913
2065,3604
2067,190
2068,143
2069,245
2069,1818
2072,773
2073,76
2073,3098
2073,3505
2073,4547
2073,4873
2074,2290
2074,2305
2079,4303
2081,1731
2082,3813
2083,402
2085,880
2085,4065
2086,764
2086,882
2086,4514
2087,3322
2088,1971
2090,1294
2090,4044
2092,4303
2094,161
2094,402
2094,507
2094,1184
2094,1417
2094,3385
2096,3709
2097,21
2099,1345
2102,2510
2104,202
2104,1425
2105,877
2105,1489
2107,4309
2107,4373
2108,2491
2110,566
2110,813
2111,121
2111,2525
2113,2595
2115,725
2115,1091
2116,219
2117,718
2118,3503
2123,1111
2124,325
2124,2141
2127,31
2127,4895
2128,670
2128,992
2130,2112
2130,4025
2132,2844
2133,3816
2135,295
2136,2404
2137,2338
2137,2719
2137,3334
2137,4445
2139,4863
2140,1202
2140,1919
2144,640
2144,4882
2145,291
2145,2730
2146,1442
2146,3137
2148,3360
2150,778
2150,1116
2150,1184
2150,3891
2151,4568
2152,443
2152,2665
2153,1642
2153,3229
2153,3258
2153,4226
2156,1527
2156,2713
2157,129
2159,1756
2159,2979
2160,1235
2160,2703
2160,3264
2160,4944
2162,207
2162,4164
2163,4164
2165,759
2165,867
2165,1153
2165,1437
2165,1472
2165,1794
2165,2618
2165,3196
2165,3467
2165,4038
2165,4715
2166,1973
2167,1458
2167,1865
2167,4528
2169,262
2170,3868
2172,1619
2173,167
2176,1915
2178,1600
2184,1165
2188,625
2188,2926
2195,3909
2196,2220
2196,4334
2196,4768
2197,860
2199,410
2199,685
2201,446
2201,546
2201,1600
2201,2458
2201,3513
2201,4473
2203,3213
2204,259
2204,1625
2205,1671
2205,2365
2206,1621
2209,243
2209,359
2209,371
2209,455
2209,839
2209,2040
2209,3074
2210,21
2210,50
2210,1177
2212,462
2213,139
2213,870
2214,100
2214,2336
2214,4568
2215,710
2217,631
2219,6
2219,638
2219,4422
2219,4623
2220,2183
2221,4309
2222,331
2222,1414
2222,1711
2223,1492
2224,31
2226,1738
2227,129
2228,1489
2228,2470
2228,3176
2228,3273
2228,4925
2230,2778
2232,1031
2233,2963
2233,3969
2233,4177
2235,1033
2236,581
2236,4040
2236,4739
2238,1942
2238,2303
2238,3965
2239,353
2239,962
2241,90
2241,2297
2241,2335
2241,3512
2242,834
2244,7
2244,2447
2245,1263
2248,3274
2249,58
2250,7
2250,498
2250,844
2251,27
2251,190
2251,230
2251,3858
2252,4975
2253,1461
2254,3014
2255,1716
2258,1818
2258,2527
2260,315
2261,1646
2262,1370
2263,83
2263,3107
2263,3811
2265,1679
2266,683
2266,1767
2268,3459
2271,1218
2272,984
2273,2359
2273,2473
2273,2946
2277,128
2278,1001
2279,1504
2283,204
2283,300
2283,1815
2283,2106
2283,2168
2283,2802
2283,3382
2285,3631
2286,212
2286,257
2286,355
2286,434
2286,535
2286,1977
2286,4847
2286,4951
2287,317
2287,321
2293,645
2293,2883
2299,1061
2301,1444
2301,2121
2304,1855
2308,1141
2308,3052
2309,2231
2310,578
2310,828
2310,1444
2310,2658
2310,4101
2310,4213
2310,4381
2312,503
2312,4470
2313,618
2313,2787
2314,1962
2315,80
2316,161
2316,514
2319,3272
2320,211
2321,228
2321,911
2321,3175
2322,1263
2322,3595
2324,2704
2326,1001
2326,3293
2326,4892
2327,38
2328,110
2331,1403
2332,76
2332,198
2332,863
2332,926
2332,948
2332,988
2332,1078
2332,1141
2332,1250
2332,1539
2332,1776
2332,3539
2332,4568
2334,2742
2337,329
2339,273
2340,1817
2341,1085
2341,1618
2341,4490
2342,1437
2342,3510
2343,3464
2343,3772
2343,3974
2343,3996
2343,4988
2344,3791
2345,387
2345,788
2345,917
2345,4091
2346,2526
2346,2958
2346,3444
2347,557
2348,2109
2350,2458
2351,1324
2351,2041
2352,1783
2354,641
2354,1212
2354,2998
2354,3746
2355,1749
2356,2168
2357,388
2358,864
2358,1982
2360,1814
2361,1209
2362,56
2362,270
2362,539
2362,638
2362,1463
2362,1479
2362,1512
2362,2647
2362,3229
2362,3422
2362,3772
2362,4161
2362,4282
2362,4864
2363,322
2364,1751
2364,2200
2364,3120
2365,934
2365,1114
2365,3846
2367,1776
2371,688
2372,572
2374,746
2376,3200
2376,3239
2376,3360
2376,3410
2376,4496
2377,665
2377,1160
2377,2008
2377,2288
2377,3071
2377,3666
2377,4558
2379,6
2382,4248
2382,4760
2383,798
2384,910
2385,1545
2385,3089
2386,233
2390,10
2390,2506
2391,710
2393,211
2393,4764
2394,1630
2395,446
2395,4962
2397,260
2397,4143
2397,4384
2400,4252
2400,4863
2401,1199
2401,4148
2402,262
2403,994
2403,1982
2403,3440
2403,3635
2403,3683
2403,3811
2406,1163
2406,3732
2409,508
2409,2499
2409,3094
2410,2765
2411,3782
2412,211
2413,2735
2413,3615
2415,1813
2417,244
2417,1756
2417,2259
2418,174
2418,465
2418,529
2418,1166
2418,1263
2418,1271
2418,1374
2418,2447
2418,2597
2418,2605
2418,2815
2418,2901
2418,3612
2418,3691
2418,3715
2418,3819
2418,3958
2418,4314
2420,425
2421,824
2423,107
2424,614
2424,3574
2425,533
2425,919
2427,2628
2427,3405
2427,4601
2428,2513
2428,4036
2429,1472
2430,1082
2431,1674
2433,129
2434,693
2435,6
2436,1398
2436,2300
2438,2951
2439,875
2439,2897
2439,3518
2440,161
2440,572
2442,60
2442,2618
2443,77
2443,502
2443,934
2443,1286
2443,2636
2443,2765
2444,773
2446,323
2447,2027
2448,4204
2448,4460
2450,4309
2453,121
2454,1437
2456,4142
2456,4779
2458,100
2459,1957
2459,3310
2460,33
2462,241
2463,435
2463,3528
2464,452
2464,1136
2466,1508
2466,3973
2468,4591
2469,1178
2470,22
2470,367
2470,616
2470,1147
2474,4775
2476,948
2476,2665
2478,485
2478,609
2479,2387
2479,3641
2479,4778
2482,764
2484,318
2485,2375
2485,4317
2486,1132
2486,2814
2487,919
2487,1527
2489,1976
2492,544
2492,4004
2493,80
2496,879
2498,31
2500,2149
2500,3859
2502,368
2502,885
2502,2925
2503,1644
2504,557
2504,3771
2505,3730
2505,4901
2507,3631
2511,1722
2511,4119
2514,1793
2515,844
2515,3792
2516,4153
2517,112
2518,1787
2518,2442
2518,3577
2519,3849
2520,255
2520,2791
2520,4585
2521,910
2523,710
2523,782
2524,3500
2526,21
2526,2362
2526,3445
2530,446
2530,584
2530,4517
2531,3215
2531,3900
2532,3031
2535,4897
2536,2691
2539,4497
2540,203
2540,3538
2541,1793
2544,1783
2548,1600
2549,327
2549,906
2549,1134
2549,3569
2549,4691
2550,2423
2551,2442
2551,3752
2552,1749
2552,3705
2552,4901
2553,260
2553,3503
2554,3062
2556,1720
2557,87
2559,1078
2560,1305
2560,4636
2561,1082
2561,4653
2562,2112
2562,3645
2562,4131
2567,2553
2572,346
2574,2965
2578,1127
2579,895
2582,16
2584,291
2584,333
2585,828
2586,535
2587,2292
2588,1814
2589,4558
2591,133
2592,256
2594,1037
2594,2785
2594,3144
2596,761
2598,882
2599,441
2599,749
2599,810
2599,905
2599,1118
2599,1723
2599,3041
2599,3088
2599,3212
2600,767
2600,3622
2600,4643
2604,474
2606,2017
2608,202
2608,1385
2609,1498
2610,2533
2611,2629
2611,3151
2611,4029
2611,4573
2611,4947
2615,207
2615,296
2615,326
2615,3206
2615,3742
2619,339
2619,1420
2621,4270
2623,180
2625,2660
2625,3861
2626,2016
2626,4582
2626,4936
2629,2506
2631,3129
2632,1512
2632,1825
2633,1966
2634,435
2634,3366
2637,266
2637,1140
2637,3191
2637,3749
2638,1943
2639,4849
2640,2295
2640,2814
2642,344
2643,4142
2645,2359
2645,4038
2646,2618
2650,3001
2650,3757
2652,325
2652,880
2652,881
2652,1424
2652,2447
2652,4402
2654,1775
2654,1842
2654,2876
2657,141
2657,466
2660,262
2660,3091
2662,711
2662,3363
2665,306
2665,2032
2665,2298
2665,3553
2665,3566
2666,262
2667,2970
2667,4822
2669,609
2669,4311
2671,3229
2672,1072
2672,4303
2674,2291
2675,1033
2675,4354
2676,147
2676,706
2676,813
2676,1495
2679,501
2679,2295
2682,1903
2683,957
2683,1996
2683,3274
2684,260
2684,3828
2686,327
2689,2172
2694,22
2697,2510
2699,355
2699,583
2701,2225
2702,473
2705,449
2705,1318
2705,2311
2705,2825
2706,4865
2708,2577
2709,291
2709,890
2709,4063
2709,4608
2714,778
2714,4641
2714,4709
2715,2035
2715,4830
2717,226
2717,4108
2718,31
2718,1437
2720,3558
2721,126
2721,4185
2722,1351
2722,4036
2723,273
2723,1152
2723,3124
2723,3720
2724,205
2725,324
2726,3256
2727,2614
2728,295
2729,1075
2733,138
2733,490
2733,1623
2733,2453
2733,3658
2733,4154
2738,435
2739,118
2739,3084
2739,4166
2739,4320
2740,548
2741,473
2741,4635
2743,960
2743,1707
2744,2322
2745,203
2745,332
2745,699
2745,846
2745,879
2745,1285
2745,1293
2745,2095
2745,2636
2745,3014
2745,3336
2745,3833
2745,4998
2746,295
2746,1681
2748,1401
2748,2719
2748,3744
2749,244
2749,444
2749,931
2749,960
2749,4996
2750,4874
2751,691
2754,2888
2754,3391
2754,4473
2756,180
2756,247
2759,1922
2763,1420
2767,2070
2768,237
2768,1645
2768,3171
2769,738
2770,260
2772,129
2772,3959
2773,1511
2776,1161
2776,1411
2777,2888
2777,3562
2778,365
2781,1783
2782,3223
2783,226
2786,117
2792,286
2794,1357
2794,2990
2796,50
2797,255
2798,658
2798,2510
2802,253
2803,169
2805,3158
2806,361
2808,1019
2808,1282
2808,2041
2809,4986
2810,1841
2810,2918
2810,3928
2810,4081
2813,1598
2814,2231
2814,3108
2816,4167
2818,381
2821,1417
2822,1783
2823,2200
2827,403
2827,3143
2827,3187
2827,3368
2829,501
2832,269
2832,3429
2834,1029
2835,4661
2837,1451
2838,4038
2839,2185
2839,2937
2840,2701
2845,4204
2846,997
2847,4154
2848,1089
2848,1304
2848,2218
2851,2384
2851,4616
2852,1783
2852,4465
2853,419
2854,2134
2855,2329
2855,3898
2857,2961
2860,1232
2861,1920
2862,1630
2863,798
2863,3299
2863,4983
2864,324
2864,4444
2866,1678
2866,1916
2867,2790
2868,1846
2869,190
2869,4356
2869,4651
2870,1258
2871,971
2871,2964
2875,3256
2877,3204
2878,1767
2879,13
2881,2494
2882,1027
2884,640
2887,2190
2889,737
2890,1336
2892,2248
2893,418
2894,1306
2896,84
2898,4142
2899,122
2899,212
2899,775
2899,987
2899,1491
2899,1675
2899,2149
2899,2359
2899,2566
2899,4169
2900,169
2903,4456
2904,1112
2904,2017
2904,2114
2907,3026
2908,2220
2908,2616
2910,2691
2910,4256
2912,685
2914,100
2914,232
2914,501
2914,509
2914,1796
2914,1814
2914,1820
2914,2416
2914,4006
2914,4104
2916,3774
2919,2290
2922,323
2922,1778
2922,2990
2924,894
2924,4100
2924,4865
2927,3533
2928,258
2928,536
2928,771
2928,972
2928,1315
2929,1439
2931,1112
2932,1118
2935,607
2936,368
2939,3586
2939,4644
2941,2296
2942,357
2944,1705
2945,971
2945,1020
2945,1224
2947,828
2947,2360
2948,1364
2952,2691
2953,2618
2955,1766
2955,2359
2955,2754
2956,521
2956,2564
2957,1167
2959,3030
2965,13
2965,211
2965,2307
2967,2
2967,360
2967,726
2967,1329
2967,1381
2967,2789
2969,2936
2972,263
2974,167
2974,186
2974,538
2974,578
2974,2513
2974,3030
2974,3300
2974,4227
2975,22
2975,3980
2976,1369
2979,873
2979,918
2979,1033
2979,1175
2979,2093
2979,3019
2981,2805
2981,3496
2981,4051
2981,4849
2982,1331
2985,370
2986,658
2986,2936
2987,503
2987,1711
2987,4911
2988,727
2989,4468
2991,143
2991,2359
2992,1378
2992,3455
2993,1806
2999,1175
3000,1315
3000,1481
3001,521
3001,713
3001,995
3001,1136
3002,608
3003,2627
3004,1417
3006,81
3006,1093
3007,172
3008,245
3008,3798
3009,1479
3010,2514
3014,27
3014,31
3014,285
3014,623
3014,643
3014,773
3014,795
3014,895
3014,910
3014,1108
3014,1403
3014,1524
3014,2607
3014,3379
3014,3476
3014,3623
3014,3844
3014,4814
3014,4818
3016,528
3017,778
3021,798
3023,439
3023,2414
3023,3520
3025,38
3028,2465
3029,202
3030,1029
3030,4464
3031,875
3031,4372
3032,3011
3032,3198
3033,649
3034,282
3035,1091
3035,3134
3036,910
3037,1458
3039,233
3039,1183
3039,1670
3040,1492
3042,1060
3042,4710
3043,2797
3043,3415
3046,37
3046,3950
3048,452
3049,1252
3049,1311
3049,3108
3049,3294
3049,4278
3049,4713
3050,219
3050,3818
3052,3871
3053,141
3053,4264
3053,4514
3053,4745
3054,1370
3054,4966
3055,1508
3055,4387
3055,4404
3056,18
3056,549
3056,2795
3056,3590
3056,4942
3057,4948
3058,15
3059,1350
3060,1459
3062,1899
3063,2661
3066,1341
3066,3287
3067,1672
3068,685
3070,1383
3070,3976
3072,2811
3072,3362
3073,24
3073,263
3073,1814
3073,4599
3076,125
3076,1632
3078,2458
3079,128
3079,779
3079,1295
3080,4278
3081,1001
3081,1320
3081,1364
3082,3637
3084,347
3085,640
3085,2984
3086,1830
3087,347
3087,1466
3089,3525
3090,287
3091,2546
3092,3272
3096,503
3097,1432
3099,1047
3099,1307
3099,3867
3101,1675
3103,1016
3104,4514
3105,6
3105,535
3107,592
3107,1626
3107,2119
3107,3106
3110,1649
3111,910
3111,2603
3111,2819
3111,4024
3111,4295
3112,3791
3113,324
3114,2802
3115,1504
3117,691
3118,205
3118,764
3120,55
3120,2384
3121,3637
3122,498
3123,2491
3125,583
3125,3142
3125,4206
3126,87
3126,3918
3127,895
3128,1294
3129,1508
3131,1634
3136,2217
3136,4931
3138,3415
3139,391
3139,718
3139,2735
3139,2895
3139,3857
3139,3905
3139,4280
3143,1764
3145,3553
3146,4631
3149,212
3149,957
3152,90
3153,3155
3156,2665
3157,1602
3159,2522
3163,178
3166,3003
3168,508
3172,919
3174,3135
3176,928
3177,4983
3178,195
3180,1182
3180,1874
3180,2028
3180,2276
3180,3886
3181,1
3182,3062
3183,1899
3185,31
3185,1892
3189,1718
3190,1843
3191,3981
3193,413
3195,1071
3197,272
3205,469
3207,1241
3207,2597
3207,3773
3208,1190
3209,2973
3210,944
3211,2980
3215,402
3217,1112
3218,4910
3219,2162
3219,4472
3220,761
3223,270
3223,2951
3223,3427
3224,4514
3225,4036
3226,1608
3226,4359
3227,1980
3227,2458
3228,544
3228,2424
3230,503
3230,3777
3232,7
3235,1052
3236,2514
3237,198
3241,1111
3241,2618
3242,1674
3242,4207
3242,4215
3244,4331
3245,255
3246,3415
3246,3458
3246,3865
3247,3614
3247,4945
3248,38
3248,226
3248,1313
3248,1634
3248,1758
3248,1766
3248,2495
3248,3456
3248,3542
3248,3813
3248,3924
3248,4622
3249,1369
3249,1820
3250,443
3251,2426
3252,439
3257,1731
3259,640
3260,803
3261,2909
3262,270
3262,3966
3263,272
3265,1832
3266,1495
3266,4395
3267,170
3267,282
3267,650
3267,1990
3267,3013
3268,1298
3271,2828
3271,3018
3271,3141
3271,4861
3272,76
3272,192
3272,295
3272,396
3272,1326
3272,2738
3272,2841
3272,3129
3272,3927
3272,4736
3275,2508
3276,1705
3277,388
3277,4680
3278,584
3279,1353
3280,1903
3282,4559
3284,2807
3285,3173
3285,3592
3285,3881
3285,4497
3286,2556
3288,550
3288,1971
3288,4822
3289,244
3291,384
3294,1749
3294,3975
3294,4167
3296,567
3296,4924
3297,3
3304,1827
3305,7
3309,1151
3309,1183
3309,2746
3309,3408
3310,691
3310,985
3310,2779
3310,3712
3310,4948
3313,1147
3313,4043
3314,4360
3316,4220
3317,2055
3321,93
3321,400
3321,1609
3321,2447
3321,3550
3321,3614
3322,2016
3324,3360
3325,2962
3326,3570
3330,3729
3331,1739
3331,1972
3331,2036
3332,1378
3333,81
3333,347
3333,923
3335,371
3335,873
3335,1008
3335,1406
3335,3435
3335,3504
3336,3272
3338,956
3340,2764
3341,389
3341,4920
3344,1461
3345,2168
3349,1
3350,474
3350,2237
3351,1472
3351,3734
3351,4217
3354,2746
3354,3936
3355,2149
3355,2529
3355,2948
3357,84
3357,807
3357,1034
3357,1063
3357,1745
3357,2960
3357,3743
3360,230
3360,374
3360,682
3360,1778
3360,2911
3360,2943
3360,4735
3361,26
3361,2391
3362,2745
3367,2678
3370,501
3372,906
3374,347
3374,4071
3377,703
3380,81
3381,22
3382,1681
3384,317
3385,682
3386,1263
3387,1374
3390,1
3391,338
3392,244
3393,1751
3394,76
3394,3978
3396,1173
3396,4360
3398,1783
3399,3014
3399,4158
3400,233
3400,3690
3401,3170
3403,377
3403,4034
3404,1694
3406,948
3407,1878
3408,1717
3409,69
3411,1796
3412,425
3414,203
3416,1492
3417,3306
3418,2221
3419,693
3420,402
3423,105
3424,272
3426,190
3428,531
3432,3500
3433,2677
3435,146
3435,2284
3435,2359
3435,2365
3435,2392
3435,2719
3435,4214
3437,4313
3438,435
3439,70
3439,1072
3439,1145
3439,1875
3439,2185
3439,2194
3439,3381
3439,3752
3439,4187
3439,4718
3441,4664
3442,2668
3443,3164
3443,4497
3446,1129
3449,3164
3449,3488
3453,1019
3453,2318
3454,2630
3460,554
3460,609
3460,1666
3460,2185
3460,2673
3460,3188
3460,4303
3460,4714
3460,4796
3462,8
3462,37
3462,118
3462,741
3462,3135
3462,4202
3462,4953
3463,3736
3466,659
3466,1402
3466,3662
3466,3785
3466,4948
3468,1857
3469,166
3469,3805
3474,169
3476,400
3477,834
3477,3956
3480,2288
3481,255
3482,295
3482,406
3482,589
3482,4369
3483,42
3483,333
3483,734
3483,4558
3484,2937
3484,3657
3485,3321
3486,437
3489,425
3497,1434
3497,2158
3497,2553
3497,3070
3498,1671
3498,3086
3499,853
3499,4115
3500,3151
3501,2885
3502,1020
3505,139
3505,167
3505,1433
3505,1657
3505,2193
3505,2521
3505,3319
3505,4544
3505,4631
3506,3170
3508,3167
3510,430
3512,295
3512,874
3514,613
3514,4245
3515,2175
3515,3473
3517,535
3518,219
3525,118
3530,345
3531,81
3534,1089
3536,2618
3537,262
3537,964
3537,1006
3537,3360
3538,2066
3540,2731
3540,3618
3543,1439
3544,344
3545,3749
3546,1132
3551,2983
3553,128
3553,172
3554,718
3555,860
3557,467
3558,2990
3560,706
3563,27
3565,910
3567,2651
3568,2091
3570,169
3570,2799
3570,3137
3573,2359
3573,3597
3573,4836
3578,322
3579,643
3580,476
3580,834
3580,1303
3580,1378
3580,1688
3580,2091
3580,2275
3580,2994
3580,3215
3580,3339
3582,3062
3583,2066
3583,3176
3584,2041
3585,2061
3587,3533
3589,4874
3591,680
3596,490
3596,3347
3596,3451
3597,3458
3599,4551
3600,415
3602,2497
3603,1263
3605,2995
3607,809
3608,60
3608,2925
3610,4335
3611,2607
3613,1539
3614,1
3615,50
3616,52
3616,914
3616,1642
3616,1644
3616,4724
3620,2447
3620,4149
3621,3321
3624,1381
3625,2071
3626,4948
3627,496
3627,1847
3627,3353
3627,3871
3627,4675
3629,3173
3630,153
3630,178
3630,233
3630,2818
3630,3031
3630,3290
3632,2826
3634,4121
3636,880
3637,3772
3638,1844
3638,2779
3638,3946
3639,291
3642,153
3643,1799
3647,4022
3648,2490
3650,827
3652,218
3653,2632
3654,2080
3655,4248
3659,3491
3660,3272
3663,869
3670,2910
3671,477
3671,1773
3672,3900
3672,4901
3673,139
3673,715
3675,883
3675,4014
3676,853
3677,323
3678,912
3679,1642
3679,1682
3679,1718
3679,4700
3680,284
3680,323
3680,2333
3680,3709
3681,361
3684,1806
3686,4303
3687,2348
3688,381
3689,119
3689,2041
3689,4734
3692,1225
3692,4957
3694,2461
3696,1323
3696,3348
3698,497
3698,1655
3698,4539
3698,4596
3699,262
3699,913
3699,1972
3699,2856
3702,141
3703,930
3704,188
3704,578
3704,2388
3704,2790
3705,2200
3708,1241
3708,4124
3710,355
3711,40
3713,2231
3714,910
3715,1626
3716,1
3717,2659
3719,404
3720,761
3721,1867
3723,4204
3724,1466
3725,2716
3726,1444
3726,1668
3726,3571
3726,4347
3727,7
3729,4948
3730,115
3730,1382
3730,2793
3731,3885
3732,2348
3733,3791
3735,1962
3735,2461
3735,4509
3736,4036
3737,778
3737,3295
3738,122
3738,2055
3738,4671
3740,984
3741,2141
3745,1686
3745,4523
3748,4216
3748,4857
3753,2323
3755,2696
3758,437
3758,1530
3758,1902
3758,2664
3758,3553
3760,641
3761,1644
3762,583
3763,3250
3764,1218
3764,1563
3768,1972
3769,942
3775,3084
3778,2243
3779,3132
3783,2345
3784,2091
3787,957
3788,121
3790,4761
3791,1424
3791,4670
3795,1722
3795,2410
3795,2983
3795,3633
3797,419
3797,1045
3797,1484
3797,3884
3799,402
3800,1859
3800,2951
3801,2091
3801,4590
3803,333
3803,4274
3807,1504
3808,161
3809,247
3810,83
3810,4773
3811,4568
3814,942
3814,1443
3817,4663
3817,4695
3817,4731
3817,4872
3818,1
3818,420
3820,258
3820,4480
3821,828
3822,410
3824,181
3824,212
3824,343
3824,355
3824,1391
3824,1530
3824,3014
3824,3131
3824,3170
3826,3429
3827,4781
3827,4974
3830,497
3830,4922
3835,180
3835,280
3835,347
3835,1926
3836,189
3838,4108
3839,1345
3840,608
3842,1819
3843,1817
3845,2447
3847,3446
3848,15
3849,3287
3850,161
3852,247
3854,782
3854,1364
3855,2404
3858,2513
3859,246
3859,4948
3860,3669
3864,1136
3864,2905
3866,3780
3869,521
3869,1657
3870,3457
3871,3797
3872,16
3873,1766
3876,2783
3877,1
3878,21
3878,776
3878,844
3878,2190
3878,3212
3878,3270
3878,4483
3878,4502
3879,2543
3880,3
3880,4135
3883,1796
3884,413
3885,2146
3887,2831
3887,3932
3888,3859
3889,2761
3892,1672
3895,18
3896,521
3897,1644
3899,416
3904,4731
3906,2185
3906,4846
3907,269
3911,1687
3912,3465
3912,4088
3915,2998
3916,2795
3917,3516
3918,451
3918,1502
3918,1856
3919,1381
3920,1867
3923,652
3928,2475
3930,4087
3934,734
3935,258
3935,4366
3935,4431
3936,484
3936,1557
3936,2555
3937,385
3937,1273
3937,2490
3938,1111
3938,3119
3939,2333
3940,246
3940,1020
3940,1139
3940,1445
3940,2441
3941,1112
3943,2210
3945,1225
3947,347
3949,2664
3951,3073
3952,934
3952,4175
3953,828
3954,1783
3955,2387
3956,2906
3956,3327
3957,466
3957,4446
3960,3360
3961,3546
3961,4744
3963,118
3968,1952
3970,378
3972,803
3972,4340
3974,4302
3974,4766
3978,186
3978,278
3978,863
3978,998
3978,1498
3978,1678
3978,3129
3978,3882
3978,4549
3979,395
3983,2533
3984,2545
3986,3053
3987,3379
3988,2913
3989,2508
3989,4670
3990,911
3990,1624
3991,22
3993,2775
3993,4220
3994,3615
3995,3709
3997,4853
3999,15
3999,3662
4000,914
4001,3562
4005,501
4007,776
4008,4948
4009,1562
4010,1504
4011,308
4011,862
4011,1838
4011,2248
4011,4144
4011,4469
4013,4657
4016,301
4016,591
4016,926
4016,1749
4016,2187
4016,2302
4016,2491
4016,2577
4016,3388
4016,3881
4016,3910
4016,4725
4016,4812
4017,189
4017,625
4017,3750
4017,3900
4017,4796
4017,4994
4018,2673
4019,998
4022,2723
4022,3466
4023,1027
4030,983
4031,2066
4032,2359
4033,1590
4033,2508
4033,2874
4035,2055
4036,4123
4037,260
4037,402
4037,2984
4037,3533
4041,1563
4042,1429
4042,3194
4043,1788
4044,253
4044,544
4044,2002
4044,2968
4045,185
4046,503
4047,4682
4049,81
4050,4167
4053,241
4055,1412
4055,3378
4056,3743
4057,1577
4058,6
4058,443
4058,446
4059,2980
4062,3221
4063,273
4063,966
4063,2381
4064,3096
4064,4375
4066,22
4066,1738
4067,535
4068,4849
4069,2210
4072,566
4072,4563
4072,4730
4073,1482
4073,2029
4074,910
4074,4305
4076,2067
4078,5
4080,3075
4082,169
4082,388
4082,492
4083,466
4085,2375
4089,4865
4090,1492
4091,4657
4092,800
4092,4259
4095,3881
4096,3961
4097,4012
4097,4559
4098,353
4100,923
4101,1675
4102,3378
4103,244
4105,2765
4109,708
4109,2016
4110,2077
4111,2917
4112,957
4113,4126
4114,1763
4116,2909
4122,2627
4122,4330
4123,1888
4123,2380
4123,3106
4125,1429
4126,532
4128,24
4129,134
4129,4300
4131,429
4132,3364
4133,1258
4136,1178
4138,141
4139,291
4139,368
4139,1319
4141,2629
4145,2248
4145,2361
4145,3371
4147,3713
4150,923
4151,370
4152,2062
4156,1642
4157,1637
4162,1876
4164,1352
4165,2038
4170,419
4171,1717
4172,1600
4173,782
4173,4780
4174,2690
4174,4916
4175,3326
4176,6
4176,81
4178,2039
4179,2845
4180,2289
4180,4301
4180,4352
4183,325
4185,251
4185,457
4185,4363
4185,4440
4186,449
4188,508
4189,2359
4189,3998
4190,84
4190,2220
4190,3342
4190,3713
4193,2859
4194,3143
4195,1132
4196,4169
4196,4972
4199,324
4200,2575
4202,4528
4203,728
4206,1161
4208,395
4209,4042
4211,3570
4212,389
4215,3575
4218,49
4218,1075
4218,1962
4218,4631
4219,2965
4221,3859
4223,3922
4223,4910
4225,1232
4225,1619
4225,1731
4228,3772
4229,247
4231,4007
4232,1711
4233,1392
4234,367
4234,643
4234,4785
4236,166
4237,711
4237,951
4237,4866
4238,27
4238,4061
4239,2442
4240,2614
4242,3061
4243,247
4243,438
4243,3108
4244,1417
4246,2712
4249,793
4250,1031
4251,1958
4251,3107
4255,3971
4255,4392
4258,703
4259,4221
4260,1075
4261,263
4261,875
4261,1628
4261,3014
4261,3167
4261,4820
4262,413
4263,128
4263,1292
4266,2861
4266,4459
4267,1978
4268,4175
4269,2461
4273,803
4274,1111
4274,1292
4276,190
4276,4723
4277,350
4277,2051
4277,2467
4277,3364
4277,4756
4279,1180
4281,124
4281,2886
4281,2984
4281,3303
4283,3180
4284,4568
4285,4664
4286,332
4287,4227
4288,875
4289,180
4290,1644
4291,419
4291,4946
4292,6
4292,2723
4293,4601
4294,219
4297,167
4299,728
4303,2593
4304,247
4306,1473
4306,1512
4306,2569
4306,2951
4308,3415
4310,497
4311,3709
4312,167
4312,4816
4315,2934
4315,4006
4315,4197
4316,70
4321,218
4322,33
4322,143
4322,2041
4323,2618
4324,4558
4326,497
4327,2497
4328,4254
4329,3961
4330,403
4330,2799
4331,4017
4332,611
4333,329
4336,4222
4337,1634
4339,1061
4341,2509
4342,4544
4344,3445
4345,1899
4346,400
4349,1731
4350,613
4351,821
4353,55
4355,1711
4356,2023
4357,4511
4358,3255
4362,3415
4365,3195
4369,2071
4370,844
4374,1027
4377,2446
4378,3977
4378,4874
4379,3119
4383,782
4385,983
4386,35
4386,1903
4388,15
4388,4889
4389,22
4389,134
4389,4907
4390,3269
4394,572
4394,3682
4396,3207
4398,3454
4399,688
4401,683
4401,1282
4403,2555
4406,4398
4408,3382
4409,2678
4410,2543
4410,3922
4411,2082
4413,1957
4414,988
4415,2788
4416,3135
4424,1600
4426,1620
4428,495
4429,2036
4430,1888
4430,4702
4432,1273
4433,1402
4433,2186
4434,2510
4436,1783
4436,1825
4437,2238
4439,327
4441,1777
4442,503
4443,167
4450,388
4450,4685
4451,3014
4453,2497
4457,3774
4458,3137
4460,31
4462,1
4462,4006
4467,1112
4469,997
4469,1364
4472,2926
4473,349
4473,1010
4473,1082
4473,2830
4473,3254
4473,3903
4474,112
4476,1764
4477,2655
4480,258
4480,416
4480,659
4480,845
4480,1291
4480,1760
4480,1972
4480,2185
4480,2726
4480,3135
4480,3718
4481,942
4482,3601
4483,657
4483,2686
4484,31
4484,262
4487,167
4487,584
4487,714
4487,2811
4487,4752
4488,1234
4491,1958
4493,3690
4494,4335
4495,538
4496,525
4496,1819
4497,2454
4500,4883
4500,4979
4501,609
4501,4976
4503,153
4504,413
4507,3206
4508,1806
4510,864
4512,2620
4513,2012
4514,146
4514,291
4515,1019
4516,3221
4518,1958
4521,2365
4522,139
4522,4760
4526,3976
4527,83
4528,982
4529,497
4530,1920
4530,3992
4531,2949
4533,998
4535,3697
4536,3003
4538,2845
4540,112
4542,2491
4543,2683
4546,728
4547,226
4547,490
4551,880
4551,1180
4551,2198
4551,3155
4553,827
4553,1081
4553,1341
4553,2122
4553,2217
4553,2508
4553,2512
4553,2668
4553,4956
4555,3457
4556,2012
4557,1886
4560,875
4561,437
4561,1419
4562,246
4562,1380
4569,728
4570,1282
4571,3323
4572,2444
4574,3715
4575,2936
4576,1444
4577,15
4577,4953
4580,1489
4581,2909
4584,87
4586,895
4587,2424
4588,355
4588,4473
4592,1406
4594,2321
4594,4405
4595,3707
4597,3143
4598,81
4598,2501
4601,1384
4602,761
4604,40
4604,42
4604,49
4604,87
4604,185
4604,745
4604,966
4604,1227
4604,1336
4604,1866
4604,1950
4604,2033
4604,2129
4604,2168
4604,4215
4604,4224
4605,429
4606,124
4609,263
4610,2192
4611,1153
4612,1817
4612,1818
4612,1949
4612,2171
4612,2617
4612,2624
4612,3802
4612,4567
4613,122
4613,291
4613,688
4613,1380
4613,2398
4613,3005
4613,4175
4613,4943
4615,3383
4616,258
4616,1708
4616,2575
4616,3184
4616,4104
4616,4565
4617,2510
4618,1895
4619,669
4620,3415
4621,1380
4621,2174
4622,311
4622,618
4622,1091
4622,3045
4624,541
4625,521
4626,1439
4626,3379
4626,3985
4627,1920
4628,4551
4629,4948
4631,1330
4632,892
4634,3074
4634,3179
4637,2614
4638,2547
4639,400
4640,3382
4642,3806
4644,317
4644,3546
4645,2396
4646,44
4646,2842
4647,539
4650,2026
4650,2997
4652,749
4655,357
4655,640
4655,939
4655,3311
4655,3451
4655,4468
4659,4340
4660,3031
4661,778
4661,4879
4662,1076
4664,3014
4665,936
4665,1680
4665,2826
4665,4299
4665,4963
4668,262
4669,211
4673,526
4674,365
4676,3548
4677,2746
4679,853
4679,4328
4682,1927
4684,1766
4686,2568
4686,4192
4687,691
4688,2665
4690,2150
4692,2149
4693,728
4696,1117
4698,260
4699,50
4704,3871
4705,2359
4706,529
4706,1931
4706,3894
4707,4460
4708,7
4709,334
4709,1095
4709,2950
4711,1846
4712,1304
4715,81
4716,2120
4717,1027
4719,4983
4720,2508
4720,4707
4722,269
4726,2221
4728,2653
4729,124
4730,1163
4731,3900
4732,2017
4733,541
4733,1300
4733,4970
4740,1349
4744,167
4744,1690
4744,3875
4746,1106
4747,2490
4749,190
4750,2563
4751,3525
4754,1581
4755,1565
4759,4334
4762,1560
4762,4204
4766,195
4766,2457
4766,3014
4766,4034
4767,329
4769,3823
4770,1783
4771,1817
4774,4603
4776,987
4777,2365
4779,2210
4780,4265
4783,983
4786,3811
4788,2921
4788,3507
4789,873
4791,1312
4792,3292
4793,2590
4794,3311
4797,167
4798,501
4798,2981
4799,1006
4800,1106
4802,80
4802,1340
4802,2565
4804,1190
4805,862
4806,1825
4807,2472
4808,4449
4809,3791
4810,4782
4817,121
4817,1935
4818,3116
4818,3180
4821,2833
4822,2152
4822,2581
4822,3291
4823,1439
4824,3215
4826,4418
4827,894
4827,2569
4828,3950
4829,1908
4831,3818
4832,520
4833,2220
4834,3615
4835,880
4836,2624
4836,2784
4837,3245
4840,76
4840,404
4840,1151
4840,1876
4840,2648
4840,3375
4842,2316
4842,4137
4843,4277
4848,1678
4849,2926
4851,90
4851,373
4851,552
4851,914
4851,1242
4851,1502
4851,4790
4852,688
4853,207
4855,21
4856,778
4858,1134
4859,738
4862,721
4863,1920
4867,1072
4868,1380
4869,2849
4875,1541
4877,827
4878,3
4880,3644
4881,773
4886,3073
4887,80
4888,4661
4890,1678
4893,2849
4894,317
4896,952
4898,124
4899,21
4900,2319
4902,273
4904,81
4904,3526
4906,1300
4908,4685
4909,167
4912,2275
4913,88
4913,697
4913,1174
4913,1377
4913,1575
4914,1401
4917,713
4918,3924
4919,83
4921,1844
4923,30
4923,160
4923,921
4923,952
4923,1548
4923,2190
4923,2704
4923,3303
4923,3337
4923,4303
4924,738
4926,4880
4928,3206
4930,3371
4933,2570
4934,31
4934,2149
4934,2221
4935,2329
4939,392
4940,3581
4943,2359
4948,244
4949,3918
4952,218
4954,1774
4955,4115
4958,244
4959,1756
4964,2248
4967,4760
4969,2391
4971,1253
4974,3561
4977,717
4977,2016
4978,4948
4981,685
4982,2925
4983,1019
4985,2345
4986,1221
4987,3321
4993,718
4994,185
4998,1280
4998,1451
4998,3231
4998,3358
4999,4160
