src,dst
0,1
3,24
3,1068
3,2025
3,2120
3,4154
3,4859
4,2368
4,2401
4,4436
4,4718
6,452
6,1544
6,2642
6,2837
7,468
7,508
7,810
7,1802
7,2448
7,3043
8,157
8,205
8,264
8,344
8,439
8,444
8,818
8,1003
8,1097
8,1140
8,1628
8,1771
8,2793
8,2826
8,2881
8,3347
8,3369
8,3786
8,4314
8,4888
9,1425
11,2498
11,3403
12,386
12,744
12,760
12,845
12,2219
13,1260
13,1263
15,945
17,3171
18,738
19,1937
19,3853
19,3878
20,4053
25,303
25,1152
26,110
26,539
26,580
26,4926
27,57
27,1106
27,1142
27,2336
27,2831
27,3192
27,3548
27,4490
28,70
28,218
28,465
28,844
28,1560
28,2318
28,3270
28,3500
28,4796
30,12
30,108
30,442
30,684
30,1331
30,4549
35,907
35,3847
36,1683
36,2468
38,124
38,187
38,375
38,559
38,1548
38,1597
38,2064
38,2322
38,2637
38,2940
38,4031
39,292
39,750
39,3052
40,1828
41,276
41,908
41,1160
41,2531
41,3790
41,4144
42,325
42,1274
43,951
45,31
45,2871
48,414
48,700
48,842
48,1045
48,1078
48,1103
48,4481
49,1417
49,1662
49,3392
50,3420
52,1654
52,4690
55,10
55,2240
56,941
56,1123
56,1265
56,2140
56,2471
56,2518
56,2533
56,2748
56,2782
56,3417
56,3781
56,4406
56,4654
58,1174
58,1244
58,4033
58,4271
58,4492
59,987
59,1137
59,1218
59,2417
59,2528
59,4540
60,415
60,1551
60,1825
60,4680
60,4723
60,4982
61,323
61,1327
61,1578
61,2718
62,2155
62,2478
62,4468
63,313
63,3224
65,218
65,4023
65,4302
66,1
66,643
66,1589
67,2800
73,985
73,1003
73,1823
73,3694
75,190
75,445
75,1781
75,1848
75,2965
75,3135
75,3630
75,4250
76,4049
77,106
77,2533
78,1209
78,1738
78,2065
79,767
79,3108
79,3162
80,1123
81,306
81,1828
81,4687
84,64
84,441
84,665
84,925
84,4014
85,2967
86,1628
88,1750
88,2768
89,536
92,23
92,785
92,2047
92,3816
92,4438
95,2533
98,1423
98,2566
98,3148
98,3174
99,795
99,875
99,1770
99,4710
99,4919
100,908
100,1081
100,3456
100,3475
102,255
102,511
102,1189
102,1720
102,1795
102,2913
102,4039
102,4935
104,2276
107,786
109,4565
112,1431
112,2403
112,4738
113,515
113,1387
113,1414
113,1985
113,2109
113,3916
113,4439
115,2026
115,4352
116,48
116,4617
120,103
120,253
120,276
120,358
120,442
120,621
120,803
120,806
120,1258
120,1457
120,1850
120,2319
120,2472
120,3189
120,3506
120,3654
120,3845
120,3854
120,4025
120,4085
120,4395
120,4663
120,4761
120,4768
122,2527
122,2640
123,785
123,1956
123,2527
123,2619
123,3739
123,4471
126,436
126,1084
126,3224
127,233
127,359
127,423
127,472
127,1856
127,2468
127,2561
127,2970
127,4295
129,109
130,1094
130,3091
130,4769
130,4967
131,34
131,821
131,1620
131,2125
131,3248
131,4130
132,5
132,68
132,1420
133,1674
133,3491
135,665
135,1270
135,1913
136,4021
138,224
138,1890
138,2270
139,54
139,110
139,735
139,996
139,1165
139,1690
139,2239
139,2815
139,2897
139,2943
139,3563
139,3691
139,3901
139,4069
139,4253
141,4736
142,815
142,839
145,2826
146,2118
146,4738
148,71
148,4751
151,78
151,1420
153,59
153,165
153,462
153,692
153,723
153,1901
153,2404
153,2495
153,3418
153,4202
155,51
162,125
162,366
162,3998
164,74
164,217
164,695
164,764
164,1635
164,2120
164,2362
166,424
166,568
166,870
166,2843
166,4918
167,1994
168,379
168,1690
168,1903
168,2337
168,2404
168,2643
168,3275
168,4848
168,4859
169,1472
169,2673
169,2760
174,1258
174,2404
174,4859
176,1039
177,143
177,274
177,351
177,539
177,611
177,1041
177,1272
177,3603
177,3774
177,4411
177,4807
180,3621
182,94
182,186
182,489
182,628
182,1921
182,2059
182,2090
182,2666
182,2842
182,3546
182,4560
182,4774
183,64
185,3281
186,975
186,2612
186,4086
191,14
191,1004
191,1123
192,460
192,820
192,1424
192,2454
192,2663
192,2796
192,4857
194,289
194,781
194,920
194,4536
195,296
195,381
195,1181
195,1279
195,1557
195,1701
195,1711
197,1760
197,3173
198,2532
201,2730
201,2942
202,2533
202,3488
203,601
203,1579
203,1945
203,2663
203,3685
204,250
204,2434
204,4376
206,501
206,949
206,1840
206,3108
207,3529
208,539
209,658
210,216
210,1156
210,3548
211,46
211,406
211,2648
212,1646
212,2013
212,2685
212,3034
213,479
213,561
213,601
213,628
213,1724
215,218
220,163
220,653
220,1298
220,3042
220,3238
220,3465
220,3649
220,3886
220,4870
221,4354
222,466
222,587
222,1739
222,1938
222,2094
222,2607
222,2806
223,4758
225,281
228,106
228,2695
230,547
230,1637
230,2826
232,197
232,234
232,240
232,2736
234,12
234,410
234,603
234,1036
234,1261
234,1691
234,2252
234,3237
234,4539
237,965
237,1123
237,1333
237,2780
237,2911
237,4392
238,717
238,1300
238,2651
238,3357
238,3697
238,4850
239,379
239,1160
239,1269
239,2103
239,2995
241,274
241,276
241,1345
241,2155
242,1019
243,226
243,2631
243,3545
244,1576
244,3570
245,16
245,515
245,945
245,1005
245,3753
246,4167
246,4466
251,27
252,77
252,1156
252,2600
253,1274
254,961
254,2149
256,4045
260,315
260,601
260,803
260,944
260,1472
260,2054
260,2361
260,2492
260,3855
260,4882
261,29
261,242
261,907
261,1135
261,1260
261,1969
261,2008
261,3862
261,4025
261,4886
264,2533
266,353
266,1420
266,1952
266,2465
266,2513
266,2947
266,4889
267,1861
267,2434
267,3891
267,4424
267,4737
268,2741
269,87
269,445
269,485
269,1305
269,1429
269,1573
269,2367
269,2529
269,2787
269,2825
269,2919
269,3016
269,3754
269,3756
269,3939
269,4131
271,4888
272,1354
272,3812
275,1455
275,1927
275,2965
275,3679
279,1420
279,2710
284,4037
284,4814
285,197
286,3825
287,137
287,2082
287,2570
287,2886
287,3642
288,1329
288,2255
288,3183
290,14
291,40
292,1295
292,3694
293,308
293,2072
293,2261
293,2962
295,1082
297,945
297,1014
297,1674
297,3984
299,4885
300,215
300,1822
300,2923
300,4065
301,161
301,971
301,3845
301,4422
302,51
302,258
302,430
302,2060
302,2217
302,2925
302,3541
303,1667
304,4833
305,515
305,722
305,3565
309,3372
310,362
310,466
310,590
310,706
310,1012
310,1667
310,2245
310,3627
310,3672
310,3995
310,4864
311,398
315,800
316,2344
318,442
318,2598
318,4953
320,12
320,4769
321,539
322,96
322,647
322,1035
322,1201
324,344
324,539
324,579
324,2716
324,4274
326,2440
326,3954
327,1345
327,3123
327,3350
327,3430
327,3547
328,4957
329,2225
329,2343
329,3124
330,4183
331,4422
332,3019
334,949
334,2638
334,3047
334,4139
334,4585
335,124
335,559
335,4885
336,2441
336,2533
337,294
337,1348
337,3681
337,3984
337,4670
338,815
338,1213
338,2117
339,658
339,1932
341,157
341,535
342,4775
345,77
345,2090
346,159
346,1646
347,1502
347,2503
349,194
349,4644
350,68
350,3174
352,1311
352,1402
352,2045
352,2171
352,2404
352,2587
354,621
356,2109
361,1822
361,2366
361,2883
361,3000
361,3124
363,57
363,4798
364,205
364,442
364,652
364,3603
367,313
368,903
368,1333
368,2157
368,2903
368,3203
369,274
369,536
369,1022
369,1058
369,2662
370,4391
371,713
371,1297
371,2297
371,2315
371,2377
371,3876
371,4130
372,79
372,181
372,216
372,615
372,661
372,809
372,856
372,896
372,1182
372,1654
372,2172
372,2286
372,4907
372,4998
373,1674
373,1943
373,3181
374,3475
376,1654
377,465
377,688
377,1098
377,1287
377,1905
377,2384
377,2642
377,4108
378,276
379,878
379,1436
379,2581
379,2881
379,3129
379,3658
380,200
380,2745
382,296
382,688
383,378
383,2532
384,391
384,880
384,1857
385,1191
385,1474
385,4623
388,1881
388,2892
389,444
389,3129
390,1160
392,992
392,1068
392,1917
392,2738
392,4717
393,632
393,1080
393,1175
393,1778
393,2085
393,2477
396,1
396,12
396,831
396,882
396,1230
396,1476
396,1528
396,1544
396,1820
396,1975
396,2270
396,2498
396,2569
396,2782
396,3089
396,3121
396,3417
396,4496
396,4645
397,781
398,3603
400,2468
401,48
401,806
403,1260
407,2358
407,2830
407,4245
410,500
412,1788
412,1855
412,2662
412,3933
413,372
416,466
416,792
417,181
417,584
417,1332
417,2364
417,2967
417,3478
417,4527
418,569
420,276
420,3897
422,1708
422,4679
424,2263
424,4378
425,727
425,1802
427,3238
428,978
428,997
428,2468
428,4006
428,4391
428,4422
429,2059
431,1447
432,1659
432,1921
432,2763
432,4333
435,51
436,69
436,1641
436,2192
436,2750
436,3189
437,1298
437,2369
437,4309
438,319
438,523
438,626
438,899
438,1808
438,2371
438,2824
438,2906
438,2922
438,3122
438,3537
438,4113
438,4285
440,415
440,806
442,501
442,1168
442,1253
442,2240
442,4107
447,5
447,2456
447,2949
448,325
448,4372
449,82
449,426
449,875
449,1274
451,268
451,3118
453,408
453,2684
454,4210
455,493
456,3905
457,278
457,2632
458,1994
458,3010
459,1495
461,5
461,64
461,149
461,713
461,945
461,2375
461,2776
461,3233
461,3361
461,3404
461,3466
461,3745
461,4024
461,4399
463,4293
463,4387
463,4819
464,963
464,1088
464,1620
464,1878
464,2146
466,1278
466,2173
467,4966
470,118
470,1167
471,593
471,2873
474,398
474,640
474,2781
474,3263
474,4320
474,4957
476,378
476,4678
477,442
477,2026
478,1334
479,281
479,564
479,1768
479,2067
479,4689
480,69
480,4566
481,268
481,365
481,891
481,1231
481,1345
481,1389
481,2304
481,2528
481,2762
481,3542
481,3643
481,4448
481,4484
481,4903
482,643
486,953
486,1442
486,3070
486,3256
486,3989
487,5
487,2138
487,2917
488,415
490,253
490,475
490,603
490,1499
490,2024
490,3932
490,4590
491,445
491,2967
491,4925
492,57
492,1345
493,1136
495,2204
495,2662
495,2673
495,4789
498,3161
498,4797
499,1279
500,785
500,1777
502,125
503,14
503,159
503,1054
503,1947
503,2376
503,2684
503,2777
505,421
505,4354
506,392
507,1195
507,4000
512,469
512,563
512,950
512,1933
513,2218
513,3070
513,3364
516,613
516,1060
516,4017
518,233
518,844
518,4109
518,4185
518,4978
519,4245
520,4500
521,2881
522,717
522,1254
522,2755
522,2958
522,4205
522,4869
526,1191
526,1952
526,3162
526,3268
527,119
527,281
527,4282
529,849
529,1447
529,1876
529,4897
530,2958
531,446
532,2577
532,4738
533,728
533,1367
533,2034
533,2468
533,3657
533,4560
534,1063
534,2527
536,1620
536,3576
538,1001
538,2450
538,4167
538,4181
539,842
539,3789
542,12
542,143
542,362
543,647
543,1223
543,1982
543,3504
544,357
544,1037
544,1207
544,1403
544,2905
544,2965
544,3547
544,3660
544,4528
544,4928
546,1162
546,4350
548,3361
550,1311
555,270
556,1901
557,1176
557,2528
557,3518
557,4410
560,16
560,74
560,357
560,1859
560,4233
565,24
565,1880
565,2646
565,2735
565,3537
565,4566
570,501
570,984
570,1037
570,3052
570,3259
570,3972
571,536
571,1628
571,2389
571,4674
572,762
572,1420
572,2417
572,3815
572,4814
573,723
573,3895
574,528
574,1467
574,3601
574,3714
575,179
575,2316
575,3522
575,3580
578,119
578,442
578,1822
578,1919
578,3098
580,1024
580,1100
580,2109
580,2143
580,4711
582,2140
582,3822
583,1402
583,2232
585,1075
585,1324
585,3442
586,2533
586,4982
587,2707
588,1027
588,1312
588,2839
589,240
589,998
589,2092
589,2272
591,511
591,4793
592,3174
593,2967
593,4104
594,128
596,880
596,1370
596,2771
598,3685
602,1661
602,4678
604,2172
606,500
606,1695
606,2752
606,3345
607,569
607,937
608,937
608,3174
612,2041
616,535
616,4283
618,1357
618,3614
619,408
621,29
621,70
621,71
621,280
621,308
621,1288
621,1360
621,1546
621,1910
621,1994
621,3598
621,4587
622,776
622,996
622,4932
625,2279
626,12
629,3724
633,96
633,280
633,2436
633,3361
633,4955
634,1665
634,2390
634,3078
636,278
636,682
636,3453
636,3497
637,268
637,1892
637,2533
638,247
638,2249
643,627
643,3929
643,4416
647,2604
647,3597
649,581
649,2347
649,4994
650,2598
651,325
653,137
653,1146
653,1411
653,2499
653,2768
653,4083
653,4213
655,2233
656,4309
656,4757
657,1169
657,2186
657,3615
657,3810
657,4317
658,226
658,1862
659,3570
659,4841
660,571
660,872
660,2468
660,3153
662,798
662,2061
662,3709
663,1191
663,2000
663,2173
663,3176
663,3247
663,4601
664,64
664,3368
664,4848
665,2022
666,119
666,466
667,348
667,442
667,1591
668,1645
668,1659
668,3080
670,338
670,2512
670,2532
670,3726
672,215
672,709
672,820
673,103
673,825
673,1297
673,1345
673,2187
673,2587
673,3080
673,3230
673,3640
674,1356
674,4611
675,1160
676,460
677,445
677,1533
677,3140
677,4261
678,744
678,2375
679,274
680,502
680,940
680,2527
680,4617
681,910
681,4371
683,344
683,709
683,747
683,945
683,1106
683,1481
683,2533
683,2598
683,2621
683,3687
683,4934
685,1139
689,51
689,294
689,1674
689,3219
690,421
690,748
691,1094
691,2992
693,754
693,858
693,1755
693,2074
693,2199
693,3116
693,3226
693,3585
693,3625
693,3702
693,3923
693,4237
693,4523
693,4768
693,4800
697,3548
698,4376
699,2468
699,3905
701,104
701,218
701,539
701,870
701,890
701,954
701,1168
701,1480
701,1682
701,2741
701,3062
701,3365
701,3914
701,3928
701,4442
701,4562
702,1786
702,4514
703,1741
703,1751
703,3555
703,4928
704,1375
704,2379
704,3459
704,4585
705,2179
705,2630
705,2897
707,4670
709,218
709,2940
709,4905
710,442
711,91
711,333
711,1485
711,1530
711,2059
711,2451
711,2598
711,3314
711,3477
712,344
712,2341
712,2897
712,3306
716,615
716,1292
719,622
719,1362
720,576
720,1825
721,853
721,3546
721,4167
721,4328
724,353
724,524
724,1802
724,3349
724,4650
725,1761
725,1940
725,3224
725,3655
725,4522
726,63
726,919
726,1643
726,1794
726,1984
726,2014
726,3179
726,3333
726,4224
728,205
728,1235
728,1255
729,159
729,2442
731,2963
734,294
734,643
734,1746
734,2091
734,2738
734,3867
734,4758
737,3984
738,661
738,1420
739,597
739,1593
739,2800
740,945
740,4181
743,868
743,1196
743,1446
743,2663
743,4012
745,3548
746,621
746,3132
748,1245
748,2969
748,3296
748,3493
749,315
749,900
749,2299
749,2636
752,867
752,1098
752,1161
752,1935
752,2063
752,3508
752,3920
752,4957
753,80
753,1325
753,2564
753,4554
753,4730
758,104
758,1093
758,2510
758,2551
758,3046
758,3822
758,3850
761,730
761,743
761,1063
761,3951
763,442
765,1211
765,1824
770,3548
771,325
771,4283
772,281
772,2365
774,4833
775,483
775,2359
777,214
777,1194
777,2235
777,3710
777,3812
777,3898
780,214
780,1901
780,3482
782,661
782,1586
782,1619
782,1980
783,1586
783,4979
784,2101
787,653
787,2338
787,2816
787,3268
787,4246
789,535
789,1336
790,2064
793,44
794,508
794,1772
794,1791
794,3190
794,4373
796,577
798,1632
800,1349
800,2963
800,3426
801,14
801,584
801,1643
801,2343
801,2948
801,2970
804,137
804,360
805,348
811,124
811,661
811,1084
811,3700
811,4004
813,1893
813,2340
813,4566
814,2440
815,1123
815,1225
815,1963
815,3722
815,3832
816,1403
816,2053
816,2838
816,4566
817,603
817,767
817,1557
817,3451
817,4489
819,446
819,2011
819,2015
819,2402
820,68
820,3033
822,484
822,631
822,654
822,1015
822,1026
822,1339
822,4855
824,559
826,378
826,921
826,972
826,1132
826,1555
826,1646
826,2251
826,4369
826,4500
827,1345
828,323
828,895
828,1140
828,1166
828,1387
829,306
829,635
829,2825
831,3638
831,3679
831,4335
831,4836
833,12
834,2313
834,3025
834,3613
834,3640
834,3945
834,4483
835,1546
835,3127
835,4496
836,69
836,980
836,1436
836,1505
836,2729
836,3044
836,3566
837,1282
837,2338
838,46
838,1391
838,1735
838,2002
838,4309
839,948
839,1170
839,1479
839,2151
839,2612
843,515
843,1044
846,4369
848,150
848,1158
848,1353
848,3660
848,3717
849,542
849,688
850,294
850,645
851,193
851,2339
851,2574
852,723
852,2547
852,4186
854,57
854,200
854,541
854,723
854,888
854,2404
854,2518
854,2963
855,4369
859,344
859,399
859,1028
859,1543
859,2434
859,2817
859,2899
860,473
860,796
860,2392
860,2805
860,3509
860,4714
863,489
863,1628
864,249
864,3273
865,442
865,3188
865,3420
869,5
869,850
869,2534
869,4945
870,154
871,1628
872,2274
873,1674
873,3607
874,1967
874,3256
875,44
875,176
875,1628
875,4181
876,161
876,788
876,975
876,4257
877,791
877,984
877,1579
877,3387
881,64
881,3238
885,949
885,1420
886,1901
886,2053
886,3858
889,14
891,617
897,273
897,609
897,696
897,773
897,926
897,949
897,2606
897,2702
897,3623
898,205
898,313
898,1014
898,2211
898,2523
898,4568
898,4574
898,4724
898,4758
899,3735
901,14
901,348
901,1695
901,2043
901,2310
901,2652
901,3426
901,4765
903,2052
903,2935
903,2944
903,3830
903,4652
904,1831
904,3475
905,2370
905,2450
906,180
906,1067
906,1211
906,1640
906,2432
906,2623
906,2912
906,2978
906,3698
906,4351
909,1587
909,2739
911,31
911,229
911,1958
911,4062
911,4433
913,1578
914,2533
915,2233
915,2263
915,4093
915,4864
916,157
916,961
916,1460
916,4868
917,893
917,1477
918,658
919,157
919,175
919,1498
919,4472
922,2963
923,242
923,4418
927,1260
927,1634
928,601
929,2816
930,414
930,1487
930,4540
931,818
934,1229
934,1450
934,2635
934,3697
934,4470
934,4972
935,1866
935,2479
936,119
936,2026
936,2629
936,3359
938,10
938,1345
939,872
942,815
942,3087
943,125
943,1936
943,3163
943,3660
946,250
946,840
946,1626
946,2134
946,3141
949,143
949,295
949,2212
949,4333
951,494
951,1295
951,1447
951,1804
951,2612
951,3225
956,514
956,2354
956,2849
956,4679
957,4515
958,80
959,274
959,1550
959,1754
959,2092
959,2720
960,1089
960,4385
960,4894
961,3595
964,747
968,296
968,2017
969,558
969,1641
969,1806
970,902
970,1673
970,3159
970,4828
971,1045
971,2131
973,29
975,2700
979,3189
979,3475
981,253
981,3746
981,4232
982,44
982,1532
982,2731
983,762
983,1117
983,1800
983,4355
985,908
985,2413
985,4895
986,4566
989,281
989,1922
991,255
991,671
991,920
991,1755
991,1818
991,1973
991,2161
991,4167
991,4908
995,781
995,4399
996,2222
999,94
999,119
999,965
999,2592
999,2854
999,4277
999,4527
1000,46
1002,808
1002,2781
1002,4384
1006,2251
1007,2055
1007,3322
1007,3781
1007,4149
1009,10
1009,1967
1010,378
1011,1589
1011,3254
1011,4444
1013,12
1014,184
1014,536
1014,709
1014,951
1014,1162
1014,2372
1014,2575
1014,2917
1015,2898
1016,2389
1017,357
1017,781
1017,2846
1018,4597
1020,277
1020,1149
1020,1404
1020,2494
1020,2663
1020,2953
1024,692
1025,436
1028,1199
1029,74
1029,3952
1030,159
1030,402
1030,446
1033,2612
1034,433
1035,599
1035,2125
1038,776
1038,992
1038,2766
1038,3883
1038,4053
1038,4072
1040,1140
1040,2059
1040,2512
1040,2581
1042,51
1043,298
1047,386
1047,3796
1049,501
1049,2076
1049,4908
1051,539
1051,565
1051,1187
1051,1412
1051,3220
1052,1
1053,4908
1055,996
1055,1022
1055,1436
1055,1588
1055,3510
1056,436
1056,2147
1056,2263
1057,343
1057,2736
1057,3660
1057,4309
1057,4529
1057,4621
1057,4982
1059,442
1062,501
1064,2219
1066,1160
1066,2306
1068,4809
1070,315
1070,4736
1073,5
1074,44
1074,348
1074,2740
1074,3568
1077,501
1079,494
1079,1325
1079,2963
1079,3475
1081,1888
1083,205
1083,479
1084,3080
1085,501
1087,121
1087,386
1091,559
1096,2403
1098,2951
1099,3598
1101,4617
1102,614
1102,2503
1104,157
1104,743
1107,1198
1107,1674
1107,2404
1109,723
1111,3685
1112,510
1114,64
1114,77
1114,3030
1114,4208
1114,4368
1114,4527
1115,4218
1115,4806
1116,173
1116,375
1116,4627
1117,727
1118,735
1119,1063
1119,3967
1119,3970
1121,496
1121,2186
1121,2405
1124,2064
1125,1333
1127,3892
1127,4798
1128,421
1128,1852
1128,1857
1129,240
1129,3872
1131,1207
1134,1392
1134,1971
1135,101
1135,170
1135,613
1135,1521
1135,3499
1135,4164
1138,2673
1138,4843
1139,151
1142,1822
1143,81
1144,259
1147,171
1147,875
1147,2036
1147,2725
1148,4757
1150,351
1150,1371
1150,3887
1150,4830
1151,919
1151,1084
1153,1199
1153,1403
1153,1773
1153,4454
1154,2233
1155,216
1156,2535
1157,281
1157,2376
1159,40
1163,945
1164,723
1170,276
1170,2404
1172,715
1172,2524
1173,482
1176,600
1176,611
1176,924
1176,1169
1176,1199
1176,1324
1176,2415
1176,3873
1176,4036
1176,4043
1176,4217
1176,4387
1176,4896
1176,4921
1179,1824
1179,2173
1179,3420
1180,723
1183,87
1183,157
1183,1660
1183,2687
1183,4177
1183,4636
1184,807
1184,2293
1184,3331
1185,1120
1185,2180
1186,79
1188,559
1190,3510
1190,4928
1191,2040
1193,426
1193,867
1195,64
1197,2881
1197,4958
1200,1659
1200,4957
1201,47
1202,3261
1202,4610
1204,850
1204,1169
1205,856
1205,2533
1205,3682
1206,157
1206,450
1206,778
1206,885
1206,3052
1206,3129
1206,3352
1206,3702
1206,4957
1206,4959
1207,575
1208,236
1208,1592
1208,2624
1210,1274
1210,1504
1210,1955
1210,3264
1210,3669
1211,2967
1212,274
1213,3702
1214,497
1214,732
1214,2026
1215,554
1215,1344
1215,2386
1215,2533
1216,1802
1219,919
1219,1652
1219,3051
1219,4150
1220,68
1221,4885
1222,295
1222,329
1222,933
1222,1118
1222,1408
1222,2102
1222,2167
1222,2518
1222,2577
1222,2627
1222,3206
1222,3280
1222,3291
1222,3304
1222,4059
1222,4872
1222,4974
1223,1266
1223,1560
1223,1664
1223,2531
1223,2920
1227,2905
1227,3679
1227,4112
1233,218
1233,325
1234,708
1236,3723
1237,2064
1238,841
1238,2409
1238,3073
1238,3466
1240,249
1240,1318
1242,2403
1242,3138
1246,260
1247,932
1248,1061
1248,1988
1248,2288
1248,4899
1249,1294
1249,4769
1251,2404
1252,614
1252,3701
1252,3755
1252,3786
1254,3338
1256,594
1256,1944
1256,2547
1256,3660
1256,4216
1260,1589
1260,2440
1261,24
1262,4135
1264,2027
1264,2296
1264,3598
1267,2163
1267,2662
1267,3562
1268,951
1268,3747
1275,4186
1276,294
1276,4585
1277,4492
1280,1436
1280,1659
1283,1266
1285,308
1286,71
1287,4488
1288,16
1288,185
1288,1457
1288,1559
1288,1644
1288,1854
1288,2901
1288,3132
1288,4200
1290,945
1293,402
1296,12
1299,552
1299,3494
1299,4130
1301,3011
1301,4738
1303,1940
1304,3096
1304,4000
1305,1585
1305,1797
1305,2099
1307,253
1308,473
1309,1224
1310,646
1310,2444
1310,2915
1310,4551
1310,4957
1311,308
1312,2101
1312,2965
1313,3513
1313,3843
1314,951
1314,1333
1314,2059
1314,2193
1314,3193
1314,4007
1315,996
1315,1819
1315,4100
1316,1655
1316,1840
1316,2312
1319,2952
1319,2967
1321,515
1321,1014
1322,29
1322,249
1322,426
1322,1029
1322,1628
1322,2508
1322,2992
1322,3374
1322,3826
1323,3273
1324,44
1324,1113
1324,2662
1324,2861
1324,3158
1325,1489
1325,3848
1325,4715
1330,452
1330,1460
1330,2177
1330,2749
1330,4366
1333,281
1333,2314
1333,4403
1334,3124
1336,395
1336,1117
1336,1538
1336,1699
1337,474
1340,753
1340,2196
1341,4422
1342,324
1343,106
1343,1837
1345,1367
1345,1853
1347,759
1350,1403
1350,2850
1350,4201
1351,10
1355,1050
1357,1071
1357,1141
1359,510
1359,1379
1359,3515
1359,4376
1359,4497
1361,990
1361,1281
1364,218
1364,1586
1364,4670
1365,468
1365,747
1365,2484
1366,247
1366,2913
1366,4703
1368,446
1369,257
1370,2196
1372,2767
1372,4279
1373,1032
1373,4769
1374,357
1375,976
1375,1519
1375,2184
1375,2533
1375,3174
1376,194
1376,617
1376,2218
1376,4459
1378,187
1378,2096
1378,3313
1378,3831
1378,4867
1380,1420
1381,378
1381,644
1381,1171
1382,2750
1382,4229
1385,2408
1386,234
1386,4549
1388,1078
1390,2468
1392,2881
1393,1853
1394,469
1396,44
1397,594
1397,2439
1397,2541
1399,229
1399,1149
1399,1521
1399,2769
1399,2841
1400,182
1401,395
1401,1857
1401,1892
1404,176
1404,1035
1404,3966
1405,3933
1406,565
1406,3480
1407,3897
1407,4885
1409,2180
1409,4111
1409,4713
1410,511
1410,1855
1410,4468
1412,44
1412,798
1412,1169
1412,1497
1413,233
1413,2542
1415,792
1415,2571
1415,4963
1416,281
1416,4611
1418,378
1419,2130
1419,2836
1419,4509
1421,575
1421,963
1421,4927
1425,117
1425,247
1425,1041
1426,3603
1427,615
1427,1633
1427,1763
1427,3019
1428,274
1428,3824
1431,1291
1431,2768
1433,539
1435,294
1437,194
1437,2051
1437,3667
1437,4575
1438,643
1438,1976
1438,3362
1438,3747
1438,4212
1439,3508
1441,57
1441,1946
1441,2577
1441,2965
1443,1938
1444,1467
1444,1938
1445,723
1445,1436
1445,1517
1445,1548
1448,977
1449,4250
1450,219
1450,567
1450,1994
1450,2406
1450,3700
1452,2662
1453,2913
1454,1160
1454,1379
1454,2611
1454,3602
1454,3834
1454,4675
1459,1436
1459,2761
1461,2268
1461,4478
1461,4549
1462,925
1463,44
1463,2989
1464,1966
1464,3209
1464,4966
1468,104
1468,4718
1469,1436
1469,1909
1469,2206
1469,4391
1471,1192
1471,1387
1471,2356
1471,3802
1473,1476
1475,125
1476,1274
1476,3263
1476,4480
1478,740
1482,3702
1482,4725
1483,2269
1483,2726
1483,3092
1483,3859
1484,1793
1484,4354
1485,810
1485,1223
1485,3052
1486,80
1486,1542
1488,4257
1489,2540
1490,2404
1490,3095
1490,4422
1491,1420
1493,1022
1494,2736
1495,2351
1495,2404
1495,2705
1496,905
1496,1956
1496,2575
1496,3022
1496,3182
1496,3852
1496,3910
1496,4875
1500,3537
1500,4712
1501,1123
1501,3692
1501,4852
1502,1652
1503,1578
1505,549
1506,255
1507,1387
1508,875
1508,1826
1508,3893
1508,4047
1509,878
1509,3260
1510,444
1512,1320
1512,1600
1512,1692
1512,4419
1513,1446
1514,653
1515,3702
1516,2404
1516,3553
1518,1035
1520,226
1520,654
1520,1352
1520,1871
1520,2680
1520,3505
1522,2330
1523,1166
1523,2018
1523,4646
1525,433
1527,732
1529,151
1529,2162
1529,3383
1532,3563
1532,4272
1533,415
1534,663
1535,1767
1536,181
1537,2008
1539,87
1539,317
1539,384
1539,910
1539,2421
1539,4340
1540,850
1540,3436
1540,4319
1544,497
1544,686
1544,3361
1545,4014
1548,575
1549,1562
1549,2032
1549,3267
1549,3537
1551,3252
1551,4179
1551,4376
1552,1123
1552,2085
1552,2654
1553,218
1553,1260
1554,1933
1556,613
1557,247
1558,442
1558,932
1558,1082
1558,2585
1558,4050
1558,4078
1558,4664
1561,627
1561,1224
1561,2946
1561,4655
1563,1420
1563,3523
1564,473
1564,1338
1565,908
1566,4687
1567,635
1567,2237
1567,4123
1569,4950
1570,2533
1571,951
1572,268
1575,3240
1575,3933
1575,4440
1577,4611
1580,1209
1581,88
1581,4672
1584,1071
1584,1772
1590,501
1594,398
1594,3804
1594,4489
1595,545
1595,2247
1595,4035
1596,1060
1596,3485
1598,3598
1599,540
1601,4309
1602,512
1604,1547
1605,919
1606,1028
1608,444
1608,706
1608,2672
1608,4573
1608,4949
1611,134
1612,1145
1612,3979
1612,4121
1614,455
1614,3892
1615,3547
1615,4562
1616,978
1617,1042
1617,2561
1617,4577
1621,2881
1624,3334
1624,3724
1624,3795
1625,12
1625,3312
1627,1543
1627,4788
1630,567
1631,1169
1631,2233
1631,3424
1631,4268
1633,14
1633,1023
1633,1137
1633,1807
1634,2877
1634,3108
1635,250
1635,663
1635,757
1635,1681
1635,3859
1635,4731
1636,1795
1636,2216
1636,2528
1636,3311
1637,1436
1638,226
1638,4670
1639,537
1639,1671
1639,3405
1639,3506
1641,1895
1641,4322
1642,643
1642,4163
1642,4742
1646,340
1646,647
1646,669
1646,985
1646,1767
1646,1938
1646,2844
1646,3824
1646,4596
1647,1213
1648,1194
1649,2905
1650,64
1652,387
1652,1054
1653,4687
1654,2589
1654,3676
1656,1710
1656,2528
1657,97
1657,2539
1658,2972
1660,262
1660,2750
1661,274
1663,421
1663,1950
1669,3129
1670,2064
1672,1098
1672,1863
1674,1451
1674,1940
1674,2283
1674,2334
1675,665
1675,1844
1676,57
1676,3572
1677,2301
1678,4309
1679,411
1679,2462
1679,2879
1679,4184
1679,4718
1682,624
1683,799
1683,3101
1684,569
1686,5
1686,919
1686,2450
1686,2630
1686,4930
1687,2415
1688,732
1690,603
1690,4600
1693,1137
1693,1736
1693,2945
1693,4015
1693,4265
1693,4678
1695,1048
1696,1479
1696,2667
1698,426
1700,2641
1703,2630
1704,1071
1704,3068
1706,899
1706,1367
1706,1403
1706,2113
1707,218
1707,338
1707,375
1707,741
1707,1492
1707,3474
1707,3812
1707,4134
1707,4166
1707,4859
1712,4670
1713,333
1715,4484
1716,965
1717,575
1717,1261
1718,289
1719,760
1721,603
1722,4098
1722,4167
1723,4617
1724,1479
1724,2628
1724,2703
1724,3948
1725,4617
1726,124
1726,3567
1727,375
1728,647
1729,1532
1731,945
1732,4859
1734,1209
1734,1680
1734,4931
1735,118
1735,627
1735,3034
1735,4051
1735,4137
1737,308
1737,4384
1741,402
1742,1492
1743,157
1744,1284
1747,357
1749,581
1750,263
1750,786
1750,1346
1750,3131
1750,3586
1753,2736
1753,3824
1753,4549
1755,58
1755,1465
1755,1856
1755,2825
1756,378
1756,1294
1757,2389
1758,233
1759,443
1764,2881
1765,3299
1766,949
1773,459
1773,798
1773,1798
1773,2075
1774,3822
1775,1132
1775,4757
1779,1666
1779,2301
1779,2977
1782,609
1782,2375
1782,4000
1782,4309
1784,2220
1785,1418
1785,3082
1787,2443
1787,3016
1789,4857
1792,3296
1796,709
1796,1392
1799,748
1799,2965
1801,47
1801,760
1801,4525
1803,242
1805,4195
1806,1480
1810,319
1810,408
1810,713
1810,1785
1810,2004
1810,3199
1810,4126
1811,671
1814,263
1816,226
1816,2452
1816,4309
1817,1980
1817,2527
1821,1767
1821,4014
1821,4156
1822,1776
1824,410
1827,870
1827,2001
1829,2852
1829,3952
1829,3989
1830,584
1831,733
1831,2533
1832,2404
1832,4033
1833,611
1833,2061
1833,3940
1835,628
1835,2612
1837,965
1837,2037
1837,2577
1837,3174
1838,1146
1840,399
1840,4655
1841,2149
1843,2422
1843,3984
1845,247
1846,3016
1846,3361
1847,3990
1851,4218
1853,3993
1853,4354
1858,1403
1858,4866
1860,2308
1860,2518
1860,3035
1860,3588
1860,3847
1864,2993
1864,4859
1865,1451
1865,1705
1865,3788
1865,4133
1865,4610
1865,4927
1866,1777
1866,1802
1866,3136
1867,5
1867,3548
1868,4976
1869,2041
1870,386
1870,4804
1870,4910
1872,74
1872,134
1872,3126
1872,3128
1872,3761
1874,2518
1874,4309
1875,2633
1875,3340
1877,4957
1881,3669
1882,1392
1883,920
1884,1
1885,4536
1886,1223
1887,2036
1889,360
1889,1942
1891,22
1891,37
1891,742
1894,980
1897,1203
1897,1404
1898,1586
1900,682
1901,2389
1901,3611
1902,4769
1904,150
1904,1793
1906,1822
1906,3458
1906,3937
1906,4407
1907,561
1907,2788
1907,4601
1908,591
1908,2598
1909,147
1909,236
1909,753
1909,810
1909,866
1909,1022
1909,1694
1911,483
1911,4336
1912,2389
1912,2598
1912,4677
1914,2417
1915,57
1915,90
1915,281
1915,1333
1915,1605
1915,2982
1916,1106
1918,1060
1919,227
1919,283
1919,2592
1919,3129
1919,4256
1922,14
1924,314
1924,351
1924,893
1924,2021
1924,2096
1924,2459
1924,2568
1924,2734
1924,3764
1924,4643
1925,3838
1926,3892
1928,12
1928,3877
1929,2026
1930,866
1930,1049
1930,3157
1930,4111
1930,4821
1931,1662
1934,1037
1934,2527
1939,4857
1941,3697
1941,3983
1944,104
1944,1489
1944,2408
1948,2532
1948,4391
1949,104
1951,791
1953,792
1953,2759
1956,114
1956,3410
1956,4685
1957,452
1957,1699
1957,2055
1960,3869
1961,157
1961,386
1961,3629
1964,808
1964,2965
1964,3679
1964,4000
1965,1935
1965,3266
1968,1487
1970,933
1970,1105
1972,800
1972,2167
1973,357
1976,1039
1977,948
1978,405
1979,1420
1979,3593
1979,3853
1980,807
1980,3475
1980,3587
1980,4061
1980,4917
1981,3016
1981,4355
1983,957
1986,14
1987,768
1987,2757
1987,2919
1987,4777
1989,1705
1989,2543
1989,4971
1990,109
1990,253
1990,510
1990,1108
1990,1126
1990,1217
1990,1423
1990,2197
1990,2648
1990,4003
1990,4369
1990,4468
1990,4803
1990,4811
1991,2965
1992,423
1992,547
1992,1058
1992,1888
1992,2704
1992,3769
1992,4021
1992,4167
1993,3642
1994,681
1995,1440
1995,3035
1995,3537
1996,3147
1996,3434
1996,3496
1996,4797
1997,503
1999,1480
1999,3268
2000,1585
2003,1081
2003,4992
2005,692
2005,2323
2006,51
2006,2785
2006,4186
2007,205
2007,2518
2007,3255
2007,4885
2009,2703
2009,3892
2009,4973
2012,710
2014,3845
2019,798
2020,1714
2023,559
2025,949
2026,1420
2028,3347
2029,1727
2030,281
2030,3812
2031,4466
2035,1472
2038,1853
2038,2522
2039,2017
2041,554
2042,866
2042,2289
2044,646
2044,879
2044,1467
2044,2278
2044,2294
2044,2773
2046,2008
2048,1586
2048,1814
2048,3248
2048,3637
2048,4309
2049,1250
2049,1895
2050,3539
2050,4549
2055,1160
2056,1521
2058,1752
2058,2450
2058,4079
2058,4301
2058,4757
2059,445
2059,2694
2060,138
2060,274
2060,1636
2060,2010
2060,3338
2060,3674
2062,956
2065,3580
2066,3548
2068,1944
2068,2400
2069,2004
2069,2764
2069,2888
2070,1237
2071,3171
2073,442
2073,847
2073,2263
2073,3129
2073,3415
2077,1479
2078,2146
2079,319
2079,402
2079,632
2079,1120
2079,1260
2079,1547
2079,2160
2079,2219
2079,2240
2079,2417
2079,3015
2079,4609
2079,4786
2080,2389
2081,3627
2083,571
2084,4236
2086,263
2086,2552
2088,2533
2093,2338
2095,3701
2095,4779
2097,559
2097,4067
2098,1772
2100,93
2100,205
2100,443
2100,647
2100,1655
2100,2087
2100,4260
2104,200
2104,1403
2104,3173
2105,551
2105,4813
2107,446
2107,3050
2108,384
2111,535
2112,2306
2115,4738
2116,87
2116,4305
2119,1061
2119,2514
2119,3278
2121,10
2122,2965
2123,584
2123,2251
2123,4357
2127,614
2128,645
2128,802
2128,3009
2129,157
2129,840
2129,985
2129,1646
2129,2650
2129,2736
2129,3153
2129,3517
2132,2279
2133,362
2135,2186
2135,3990
2136,1211
2136,3243
2137,4278
2139,2389
2139,4323
2139,4980
2140,1589
2140,1610
2140,4651
2141,72
2141,3011
2141,3095
2142,12
2142,157
2142,3473
2144,1142
2144,1234
2145,231
2148,344
2149,1699
2149,2719
2149,3086
2150,4299
2152,12
2152,172
2152,360
2152,1042
2152,1345
2153,956
2153,3039
2153,3116
2154,375
2154,4955
2155,308
2155,359
2155,2962
2155,3537
2157,1237
2157,2555
2157,3069
2158,965
2158,4437
2159,872
2159,927
2159,945
2164,185
2168,3268
2169,44
2170,1636
2173,343
2175,157
2176,1762
2178,1497
2178,3331
2181,2388
2181,3331
2181,4876
2182,1589
2183,485
2185,4079
2185,4859
2186,1548
2188,1345
2189,313
2190,119
2191,1910
2191,2851
2194,296
2194,2677
2198,932
2199,545
2199,2120
2200,3059
2201,4720
2202,442
2202,2075
2202,2441
2202,2603
2202,3519
2202,4367
2202,4369
2203,594
2207,323
2207,947
2207,965
2207,1050
2207,1532
2207,1697
2207,1770
2207,1873
2207,2174
2207,4645
2207,4877
2207,4985
2208,996
2209,3694
2210,661
2213,329
2214,466
2215,768
2219,445
2219,631
2219,3499
2221,764
2221,2575
2221,2714
2221,4149
2224,1037
2225,249
2225,302
2225,3004
2226,1586
2228,998
2229,756
2230,1963
2231,515
2234,495
2234,1367
2234,2262
2234,3070
2236,1709
2238,1163
2241,1660
2241,3351
2243,2316
2243,2332
2243,2742
2243,3627
2244,1497
2246,1646
2246,4999
2247,769
2247,1989
2248,4426
2250,1853
2253,394
2253,466
2253,792
2253,1215
2253,1605
2253,1607
2253,1651
2253,2156
2253,2779
2253,2782
2253,3109
2253,4135
2254,2927
2254,3091
2254,3331
2254,4228
2255,1694
2255,1752
2255,3732
2255,4736
2256,1234
2257,1481
2257,1667
2257,3793
2258,1659
2259,1048
2263,3858
2263,4780
2264,1215
2265,2166
2266,44
2270,2350
2271,1980
2271,3396
2273,2085
2274,4820
2277,4376
2279,2736
2281,333
2282,4355
2284,445
2285,611
2285,3213
2287,3614
2289,53
2290,1404
2291,669
2291,4633
2292,1058
2295,747
2298,953
2300,1959
2300,2447
2301,844
2302,2501
2302,2663
2303,1667
2303,4754
2305,119
2307,419
2307,1008
2307,1061
2307,2881
2311,4935
2317,53
2320,276
2321,1837
2323,2726
2323,2795
2324,554
2325,1404
2325,2610
2326,892
2326,966
2327,4617
2328,1927
2328,1935
2328,2572
2329,1983
2329,2316
2329,2713
2331,831
2331,2517
2333,509
2333,514
2333,955
2333,2219
2333,3111
2333,3361
2333,3382
2333,4177
2334,1004
2335,2312
2336,3121
2336,4111
2345,2366
2345,2856
2346,64
2346,1433
2346,3617
2346,3840
2348,4422
2349,2616
2349,2976
2349,4768
2352,357
2353,2965
2354,528
2354,694
2355,1810
2355,2791
2355,2872
2357,4257
2360,1555
2363,2059
2364,747
2373,1646
2374,1646
2378,808
2380,2024
2381,1467
2381,2950
2382,160
2382,504
2382,3603
2383,2967
2385,844
2386,34
2386,218
2386,257
2386,883
2386,2004
2387,4585
2388,151
2389,71
2389,2649
2389,2835
2389,3669
2389,4161
2390,2252
2390,2533
2391,2881
2393,414
2393,762
2394,263
2394,975
2394,2376
2394,3448
2394,4489
2394,4808
2395,542
2396,233
2397,365
2397,1895
2398,1696
2399,1853
2403,1659
2410,414
2410,473
2410,4042
2411,567
2412,14
2412,2172
2412,3165
2415,294
2416,445
2416,4719
2419,688
2419,3694
2420,1151
2420,3178
2423,1568
2424,1035
2426,4168
2427,1818
2428,240
2428,2620
2428,4258
2429,2359
2429,4910
2430,1560
2430,3069
2433,4769
2435,2771
2440,870
2440,3631
2443,53
2443,83
2445,1736
2446,769
2446,1255
2450,218
2455,967
2455,4879
2459,280
2460,565
2460,2299
2463,205
2464,4399
2466,3843
2467,762
2467,1586
2468,247
2469,1954
2470,1646
2473,1888
2474,580
2475,2011
2475,2609
2475,4659
2476,1943
2478,2143
2478,4186
2478,4508
2480,71
2480,163
2480,281
2480,404
2480,779
2480,1289
2480,2608
2480,3660
2480,4369
2481,893
2482,325
2483,822
2485,1476
2486,1925
2486,3975
2487,553
2488,3669
2489,402
2489,1668
2489,1962
2489,2306
2489,3921
2490,1324
2491,1278
2491,3842
2493,200
2493,261
2493,280
2493,623
2493,759
2496,3536
2496,4196
2496,4459
2497,399
2497,945
2497,1278
2497,1588
2497,1898
2500,233
2500,566
2500,949
2501,3374
2502,1823
2502,3402
2504,473
2505,2965
2505,4251
2506,2389
2507,205
2509,1170
2515,1160
2516,1925
2516,2219
2516,2802
2520,856
2520,1110
2521,3548
2522,4909
2526,86
2526,2456
2527,125
2527,465
2527,1260
2527,1849
2527,3149
2527,3909
2530,3273
2534,3910
2536,2669
2536,3155
2536,4330
2538,176
2538,2630
2539,12
2540,1609
2544,1105
2545,514
2546,1282
2546,3798
2550,1215
2554,641
2554,3763
2556,240
2556,3589
2557,2967
2558,48
2558,1292
2558,1384
2558,1834
2558,2232
2558,3104
2558,4075
2559,2680
2560,663
2561,168
2561,2688
2562,1899
2563,308
2563,674
2563,751
2563,3760
2563,3817
2565,218
2566,3724
2567,229
2572,79
2572,2032
2572,2771
2572,2930
2572,3102
2572,3557
2573,3052
2575,1985
2576,151
2576,157
2576,2229
2576,4391
2578,1029
2579,967
2579,4559
2580,747
2580,4964
2582,2417
2583,1910
2583,3564
2583,4541
2584,1836
2584,2774
2586,134
2586,4881
2588,434
2588,2090
2588,2863
2590,2642
2590,3455
2590,4445
2591,308
2593,2155
2594,1022
2594,1809
2594,2204
2595,4169
2595,4181
2595,4948
2596,2663
2597,865
2597,3239
2597,3310
2599,615
2600,181
2600,3669
2600,4861
2601,553
2602,896
2603,3249
2605,3822
2612,183
2612,2743
2612,3841
2613,3420
2614,2440
2615,3825
2617,1613
2621,4986
2622,410
2625,3070
2630,4391
2632,117
2632,569
2632,1257
2632,4612
2634,360
2634,1092
2634,1118
2634,3499
2634,3969
2634,4181
2636,194
2636,247
2636,423
2637,4500
2639,924
2639,4167
2641,3135
2642,2461
2644,445
2645,559
2647,226
2649,4957
2651,4757
2653,569
2653,1940
2654,406
2655,4369
2656,892
2657,2008
2658,1793
2659,4589
2660,2736
2660,3409
2661,648
2661,3031
2661,4560
2662,1281
2662,2404
2662,3257
2662,3818
2664,1326
2665,798
2665,2060
2667,149
2667,233
2667,312
2667,329
2667,2931
2667,3173
2667,4706
2668,1158
2669,2017
2670,1260
2671,1510
2675,57
2675,1802
2676,106
2676,140
2676,509
2676,537
2676,1048
2676,2339
2676,3202
2676,3618
2678,3854
2679,902
2680,759
2680,2229
2680,4816
2681,47
2681,1069
2681,1446
2681,3905
2683,472
2683,631
2683,1695
2683,1920
2683,3139
2683,3409
2683,3968
2684,4416
2686,106
2688,96
2688,648
2688,717
2688,998
2688,1132
2688,1145
2688,1802
2688,2964
2688,4389
2688,4775
2690,2461
2691,14
2692,2443
2693,1763
2693,3004
2693,3362
2695,3443
2696,4347
2697,4536
2698,3673
2699,945
2701,1674
2702,2604
2706,3784
2706,4417
2706,4752
2708,1921
2708,2980
2711,2059
2712,103
2712,247
2712,1813
2717,781
2717,3394
2721,1067
2721,1790
2721,2321
2721,2519
2721,2683
2722,402
2722,4165
2725,4850
2727,12
2727,158
2727,306
2728,294
2728,2954
2729,3724
2732,24
2732,3006
2733,632
2733,641
2733,977
2733,1702
2733,2532
2733,3457
2733,4388
2737,3129
2739,1289
2739,2431
2744,1641
2746,2265
2747,1888
2747,2458
2747,3285
2747,3547
2747,3922
2748,3129
2748,3595
2748,3919
2751,2219
2753,415
2754,501
2754,682
2754,2862
2758,315
2758,394
2758,558
2758,1178
2758,2998
2758,3584
2765,3361
2767,77
2768,12
2770,2768
2770,3660
2770,4755
2775,4000
2778,1035
2783,603
2784,87
2784,2787
2784,3782
2786,3108
2789,2627
2790,539
2790,2026
2793,12
2793,21
2793,309
2793,468
2793,502
2793,1335
2793,2461
2793,2682
2793,4701
2793,4977
2794,1976
2794,3622
2794,3767
2797,510
2798,1628
2799,302
2799,883
2799,1797
2799,3368
2799,3960
2799,4019
2799,4750
2800,159
2801,359
2803,4130
2804,1646
2807,2026
2808,80
2808,4447
2809,452
2810,632
2810,2279
2811,893
2811,2873
2813,2738
2814,4184
2816,4493
2818,48
2818,4663
2819,4585
2820,1432
2821,1776
2821,2905
2822,1392
2822,4502
2823,1433
2823,3236
2827,2635
2828,3095
2829,277
2829,3228
2832,298
2833,3409
2834,2218
2834,2972
2839,517
2845,646
2845,3548
2846,1411
2846,2428
2846,3773
2846,3984
2846,4721
2847,998
2848,14
2853,2356
2855,2604
2857,1945
2857,3686
2858,1358
2859,193
2859,718
2859,3052
2859,3950
2859,4303
2860,270
2860,706
2860,2812
2865,460
2866,117
2867,3464
2867,4549
2867,4605
2869,1808
2870,1199
2870,3892
2875,1557
2876,2816
2878,426
2878,980
2878,3605
2880,2830
2881,3425
2881,3898
2882,2710
2884,966
2885,3499
2887,1260
2890,3052
2890,4986
2894,775
2895,2314
2896,86
2897,292
2897,1398
2900,2102
2902,2061
2904,12
2905,3238
2907,3892
2907,4566
2908,402
2910,29
2910,316
2910,3604
2914,103
2914,263
2914,483
2914,1111
2914,1132
2914,2553
2916,2240
2918,1162
2920,801
2920,3411
2921,1398
2921,3100
2923,1745
2924,1530
2924,4391
2924,4517
2926,1071
2926,1358
2926,1737
2929,643
2932,539
2934,1457
2936,893
2936,3651
2937,2965
2937,3026
2937,4996
2938,3132
2939,1230
2942,323
2942,3049
2949,147
2949,410
2955,760
2955,1163
2955,3145
2955,3662
2955,3724
2956,1547
2957,2026
2959,2004
2959,2342
2959,4063
2959,4172
2960,2090
2960,2838
2961,558
2962,2461
2963,452
2966,403
2966,2251
2966,3812
2966,4017
2966,4084
2966,4210
2966,4273
2968,242
2970,134
2970,736
2970,1115
2970,3170
2970,4487
2970,4942
2971,1084
2971,4614
2973,308
2974,205
2979,150
2980,1377
2981,3268
2983,2527
2983,4348
2985,769
2986,137
2987,119
2990,197
2991,688
2991,3520
2994,1539
2996,872
2997,1696
3001,348
3001,4250
3002,2351
3003,1694
3004,4691
3005,1659
3005,3550
3005,3730
3007,4529
3008,840
3008,1967
3008,3431
3008,3898
3008,4255
3008,4729
3009,24
3009,4376
3012,276
3013,2532
3013,3111
3014,2055
3016,1137
3016,4244
3016,4672
3017,3613
3018,2042
3018,2575
3018,4928
3019,609
3020,2965
3021,106
3024,790
3024,840
3024,1807
3024,2195
3024,4426
3026,1440
3027,4042
3028,2976
3029,3492
3029,4250
3029,4582
3030,53
3030,559
3030,1479
3030,1531
3030,1655
3030,1975
3030,2438
3034,399
3036,2207
3037,1132
3037,2672
3037,3510
3039,149
3040,1480
3040,2219
3041,4859
3044,566
3045,1923
3048,398
3049,735
3049,1798
3049,2167
3049,2883
3053,3499
3053,4552
3054,2612
3055,919
3056,452
3057,566
3057,2458
3057,4549
3058,1544
3059,707
3059,2434
3059,4359
3060,709
3060,4197
3061,110
3061,2881
3063,1685
3063,3981
3064,1933
3065,2575
3065,3706
3065,4278
3066,4475
3067,398
3067,2418
3069,1203
3070,2468
3071,2
3071,10
3071,472
3071,648
3071,1398
3071,1574
3071,2024
3071,2067
3071,2425
3071,4049
3071,4451
3071,4491
3072,1910
3074,445
3075,359
3076,2532
3076,4769
3077,2438
3079,2156
3081,1126
3084,1300
3085,569
3088,77
3088,3435
3088,3574
3089,144
3089,2626
3090,565
3090,661
3091,4966
3093,43
3097,104
3099,2862
3099,4450
3105,1447
3106,1837
3107,2967
3110,2155
3112,1511
3113,2008
3113,3676
3115,57
3117,3411
3118,2468
3119,1118
3119,1420
3119,2126
3119,3734
3120,2199
3125,769
3127,54
3127,323
3127,1408
3129,1035
3130,1790
3132,517
3133,445
3133,1933
3133,2085
3133,2674
3133,3704
3134,1404
3135,3128
3137,139
3137,862
3137,1568
3137,2330
3142,2800
3144,1825
3146,3598
3148,1623
3151,119
3152,2167
3154,1730
3156,446
3156,3780
3160,847
3160,1813
3164,294
3166,1938
3168,1937
3169,1982
3169,4257
3171,44
3171,3031
3172,1035
3173,2365
3174,2404
3175,68
3175,2768
3177,1446
3178,236
3180,205
3184,4323
3185,1311
3185,1646
3186,2620
3187,4245
3191,433
3194,508
3195,333
3196,4726
3197,2850
3198,1192
3200,2522
3200,4329
3200,4767
3201,850
3201,920
3201,1022
3201,1103
3201,2361
3201,3245
3204,963
3205,4369
3207,226
3208,1802
3210,2955
3211,3420
3212,125
3214,972
3214,1168
3214,3578
3215,920
3216,2162
3216,2528
3216,4925
3217,171
3217,3378
3218,81
3218,1497
3218,3447
3221,3510
3222,357
3222,766
3223,713
3223,1736
3223,2552
3223,4425
3223,4834
3229,197
3229,861
3229,1398
3229,1618
3229,2689
3229,4014
3231,2177
3233,1668
3234,937
3235,4130
3240,214
3240,610
3240,920
3240,980
3240,1317
3240,1613
3240,1913
3240,1923
3241,579
3242,514
3242,882
3242,1456
3242,1525
3242,4376
3242,4519
3243,966
3243,1239
3243,2509
3243,4801
3244,1436
3246,2415
3246,4429
3246,4837
3247,1812
3247,3004
3247,4736
3250,956
3251,3508
3251,3597
3251,4268
3252,803
3252,2756
3253,967
3253,3628
3256,890
3258,1160
3259,289
3262,1257
3262,1978
3263,686
3263,1088
3263,3269
3265,315
3267,147
3267,601
3267,1050
3267,1069
3267,1177
3267,2881
3267,3297
3270,178
3270,2087
3271,2157
3271,3634
3272,3373
3272,3724
3274,1760
3276,71
3277,242
3277,566
3277,713
3277,2026
3277,3211
3277,3673
3277,3838
3277,4000
3277,4688
3279,181
3281,1130
3282,1628
3283,4504
3283,4987
3284,4369
3286,189
3286,442
3286,603
3286,954
3286,2773
3286,2975
3287,419
3287,4062
3288,294
3289,125
3290,357
3290,4132
3292,178
3294,1292
3295,1646
3295,2881
3298,2173
3300,1200
3301,3893
3302,1223
3302,2000
3305,77
3305,3586
3305,4159
3307,947
3307,3590
3308,1701
3309,825
3315,1378
3316,2450
3317,1944
3318,3838
3320,68
3321,539
3323,3123
3324,3146
3325,265
3325,552
3325,1844
3325,3742
3326,528
3327,2450
3328,496
3328,3348
3328,4580
3329,1944
3330,575
3331,1071
3332,882
3333,893
3335,2739
3336,1844
3336,3966
3337,395
3338,2114
3339,3070
3340,321
3341,3669
3342,1489
3343,4126
3344,894
3346,4384
3348,71
3348,405
3348,830
3353,4950
3354,80
3355,1760
3358,2318
3358,4682
3360,3614
3361,1980
3362,263
3362,884
3362,892
3362,2389
3362,3970
3363,2389
3367,4000
3370,2492
3371,1472
3374,640
3374,647
3374,3894
3375,919
3376,1260
3377,452
3377,4578
3377,4957
3378,1234
3378,1388
3378,3613
3378,4769
3379,2165
3380,1069
3381,769
3384,844
3385,2180
3388,2552
3389,1952
3390,1771
3391,1933
3393,1420
3395,1225
3395,4198
3397,3563
3398,779
3399,44
3399,121
3399,151
3399,496
3399,994
3399,1046
3399,2255
3399,2663
3399,4885
3400,398
3401,2293
3406,159
3407,3162
3408,236
3408,2414
3410,218
3410,1622
3410,1730
3410,2251
3410,2864
3410,3994
3412,1533
3413,442
3416,4718
3418,23
3418,82
3418,3331
3421,77
3421,248
3421,263
3421,1458
3421,1770
3421,3537
3421,4376
3421,4549
3422,1420
3422,2963
3423,2167
3427,145
3427,358
3427,1472
3427,2275
3428,445
3428,4778
3429,1479
3432,1103
3432,4434
3433,340
3437,159
3438,1187
3439,3135
3439,4734
3440,620
3440,1086
3440,2078
3440,2227
3440,2533
3440,4775
3441,1191
3444,4309
3445,523
3446,2733
3449,93
3449,340
3449,1557
3450,547
3454,2026
3460,106
3461,2889
3463,161
3466,687
3466,3414
3467,3369
3467,4150
3468,1258
3469,4283
3470,165
3470,414
3470,2057
3470,3713
3471,395
3472,138
3472,967
3472,2772
3472,3338
3472,3548
3472,3663
3474,4267
3474,4618
3475,3052
3475,3656
3476,1776
3481,14
3483,3680
3483,4250
3484,4053
3484,4458
3486,1661
3487,800
3487,3821
3487,4900
3489,2587
3490,1160
3494,639
3494,4038
3495,1802
3495,4988
3498,998
3501,568
3501,1152
3501,1543
3501,2309
3501,2407
3502,57
3503,2075
3505,180
3507,3089
3511,70
3511,3455
3512,2059
3516,296
3519,569
3521,4718
3524,1191
3525,2318
3526,3898
3527,2100
3528,344
3528,857
3528,1696
3528,1990
3528,3374
3528,3514
3529,1662
3530,1632
3531,2950
3532,1126
3532,1940
3532,3547
3533,4821
3533,4862
3534,2263
3535,635
3535,1259
3535,2299
3535,2909
3535,3559
3535,3700
3535,4412
3538,161
3540,3338
3540,4309
3543,3368
3544,1644
3547,2533
3549,3563
3551,157
3552,151
3554,3174
3556,137
3556,154
3556,1192
3556,1326
3556,1747
3556,1879
3556,2110
3556,2220
3556,3092
3556,3227
3556,4081
3558,423
3560,515
3561,3629
3561,3702
3562,909
3562,4241
3563,4684
3563,4857
3564,2480
3565,1520
3565,1959
3565,2715
3565,4104
3569,1274
3570,1281
3571,1402
3574,779
3574,902
3574,1048
3574,1362
3574,1430
3574,1839
3574,4815
3575,1081
3576,472
3577,3043
3579,441
3581,4814
3582,1740
3583,178
3583,3159
3589,281
3589,3792
3591,1367
3592,2347
3594,2776
3595,2792
3595,4376
3596,1094
3596,1466
3596,4908
3597,190
3597,1769
3597,3874
3597,4322
3599,1646
3600,576
3606,3004
3608,700
3608,1790
3609,1218
3612,1725
3613,1105
3614,4775
3616,1160
3619,1123
3620,3545
3623,785
3624,81
3624,603
3624,3859
3626,487
3626,1135
3626,3770
3629,614
3629,993
3629,1072
3629,1298
3629,1432
3629,1933
3629,1937
3629,2064
3629,2548
3629,4220
3629,4449
3629,4467
3629,4545
3632,3247
3633,933
3635,2004
3636,632
3636,3510
3636,4158
3639,4769
3640,137
3640,171
3640,1241
3640,1583
3640,1603
3640,2933
3640,3083
3644,2709
3645,2672
3645,3806
3646,853
3647,768
3647,1690
3648,1152
3650,613
3652,408
3653,1586
3655,157
3655,303
3655,1105
3655,1524
3655,2173
3655,2724
3655,2999
3655,4176
3659,601
3659,640
3660,1069
3660,4391
3661,575
3661,1629
3661,2276
3661,4514
3663,12
3663,96
3663,105
3663,594
3663,630
3663,1434
3663,3167
3664,1511
3665,365
3668,227
3668,3964
3670,2881
3671,3694
3672,1971
3674,1813
3674,2905
3675,2090
3675,4162
3677,1167
3678,1861
3682,4203
3683,4123
3684,298
3684,2064
3684,3055
3685,1613
3686,912
3688,801
3688,1408
3688,4064
3688,4608
3688,4935
3689,688
3693,1593
3695,1224
3696,3224
3697,967
3699,4177
3700,3366
3702,33
3702,1187
3702,1582
3702,3143
3702,4630
3703,408
3705,16
3705,277
3705,1451
3705,4029
3705,4156
3707,2276
3707,2913
3707,4286
3708,3420
3709,281
3711,1156
3712,3799
3715,12
3718,2643
3718,4092
3719,1431
3720,1592
3721,2905
3722,3664
3723,2059
3725,1709
3727,3011
3728,3702
3729,764
3731,1733
3733,641
3733,1080
3733,3162
3736,1709
3737,2965
3737,4775
3738,1825
3738,3610
3740,569
3741,1714
3743,462
3744,674
3748,2026
3749,839
3750,840
3750,1733
3750,2173
3750,4236
3751,1367
3751,4167
3752,351
3757,2293
3758,1898
3759,2468
3759,4309
3762,1641
3762,4204
3768,2109
3771,3052
3774,1557
3774,2663
3775,2527
3776,168
3776,4619
3777,3016
3783,4369
3783,4686
3784,276
3785,124
3785,1457
3787,423
3787,4001
3791,2
3791,1582
3791,1765
3791,3973
3791,4137
3794,1140
3797,1674
3799,1533
3800,77
3800,1133
3800,2796
3801,3799
3803,384
3807,3430
3808,1890
3809,2963
3809,4842
3811,4000
3811,4005
3811,4210
3812,2016
3812,4476
3814,323
3819,1282
3819,2347
3819,2922
3819,3094
3819,4145
3820,512
3822,218
3823,3512
3824,4624
3825,125
3825,359
3825,1021
3825,1795
3825,1812
3825,1815
3825,2881
3825,3095
3825,3864
3825,4191
3825,4466
3825,4500
3827,119
3827,355
3827,455
3827,551
3827,581
3827,1250
3827,1662
3828,81
3828,798
3829,1436
3830,48
3833,1667
3833,4556
3835,3417
3836,1560
3837,643
3838,2646
3838,4832
3839,181
3843,1472
3844,68
3846,945
3846,1380
3847,32
3849,807
3850,31
3851,1798
3853,2004
3856,643
3857,182
3858,1695
3860,2158
3860,3779
3861,3238
3861,3499
3863,1188
3865,3421
3866,3893
3866,4116
3868,3108
3869,741
3870,3613
3871,2587
3875,2461
3879,240
3879,1859
3880,353
3880,4532
3881,2419
3882,945
3885,1476
3887,812
3887,1226
3887,1270
3887,1328
3887,2528
3887,4737
3888,281
3888,535
3888,4309
3889,3604
3890,1487
3892,797
3893,1771
3894,2549
3894,4768
3896,2965
3898,2338
3899,932
3899,4229
3900,1525
3902,14
3904,3139
3906,2017
3907,2648
3908,2322
3911,823
3912,615
3913,1289
3915,323
3917,2695
3917,4552
3918,581
3924,2940
3924,4117
3925,2306
3926,1923
3927,4415
3927,4444
3929,4916
3930,2120
3933,84
3934,88
3935,4385
3936,512
3937,3765
3938,4718
3941,1499
3942,1061
3943,4536
3946,1806
3947,3546
3949,1709
3949,4296
3952,990
3952,1586
3952,4259
3953,1888
3955,2967
3956,3268
3957,3062
3958,4167
3959,1028
3959,3049
3961,4210
3962,2024
3963,587
3965,2434
3971,3499
3973,125
3973,406
3973,1228
3973,1679
3974,3666
3976,414
3977,294
3977,611
3978,3349
3980,1984
3981,569
3982,1160
3984,3687
3985,445
3986,1851
3987,4309
3988,2196
3989,53
3991,1320
3991,4981
3992,3882
3995,1111
3995,2165
3996,263
3997,568
3999,4503
3999,4859
4002,727
4006,2218
4008,4509
4009,1674
4011,1436
4013,744
4016,2265
4017,1481
4018,1519
4020,1060
4022,1067
4022,4391
4024,2571
4026,1
4026,170
4026,421
4027,832
4028,3858
4029,2513
4030,565
4032,2851
4034,315
4040,2532
4041,1853
4042,2418
4043,114
4043,117
4043,395
4044,315
4045,3508
4046,1923
4048,3781
4052,44
4053,1938
4054,3669
4055,44
4055,610
4055,4792
4056,270
4057,69
4058,580
4060,4977
4063,118
4065,3772
4066,3862
4066,4095
4068,1541
4070,1037
4071,80
4071,646
4071,1231
4073,4885
4074,317
4074,2376
4076,549
4076,3403
4077,362
4077,2061
4077,2972
4077,3690
4080,294
4080,1730
4082,1028
4085,333
4087,844
4088,769
4089,281
4090,1579
4091,2612
4093,1974
4094,2663
4096,165
4097,1313
4099,2404
4101,1795
4102,281
4103,1492
4103,3146
4105,3549
4106,274
4109,1950
4109,4927
4110,40
4111,406
4113,157
4114,3548
4114,4199
4115,4283
4118,4167
4120,919
4122,1375
4124,820
4125,579
4126,80
4127,2619
4128,197
4129,1177
4130,1822
4133,759
4133,1288
4133,1641
4133,4885
4136,713
4136,759
4138,710
4140,1737
4141,2826
4142,2881
4143,2533
4146,2628
4147,4475
4148,2199
4151,2461
4152,265
4153,137
4155,1440
4157,1809
4159,1152
4159,1873
4159,1891
4159,3268
4159,4010
4159,4390
4159,4421
4160,1628
4162,2840
4163,134
4163,193
4163,409
4163,3513
4167,10
4167,1380
4167,1576
4167,2736
4167,2868
4167,3573
4167,4829
4168,44
4168,2658
4168,3479
4170,2603
4171,125
4173,2995
4174,3238
4175,1923
4175,2124
4178,2316
4180,387
4182,2270
4183,732
4187,3281
4188,1785
4189,53
4189,562
4189,875
4189,2441
4190,487
4190,4360
4192,411
4192,2207
4192,3641
4193,494
4194,562
4194,2522
4197,663
4197,4391
4202,2166
4206,1165
4207,3129
4209,3004
4210,366
4210,2279
4211,1389
4214,223
4215,4566
4216,559
4217,408
4218,584
4219,2862
4220,500
4220,4527
4221,242
4222,539
4223,902
4223,4010
4225,2008
4226,1994
4227,1130
4229,1481
4230,263
4231,281
4234,2312
4235,391
4236,2260
4236,2714
4236,3462
4236,3512
4236,3548
4238,577
4239,235
4239,568
4239,577
4239,2354
4239,3778
4239,4400
4240,954
4242,4149
4243,595
4243,1479
4245,937
4247,3557
4249,732
4250,875
4252,231
4252,762
4252,1666
4254,2995
4258,276
4258,394
4258,2891
4262,1767
4262,3359
4263,776
4264,236
4264,4346
4266,4775
4269,2478
4270,2978
4275,945
4276,2018
4277,1709
4280,1389
4281,2024
4282,185
4282,1802
4283,1169
4284,4112
4285,4310
4287,3103
4288,1130
4289,1420
4290,2864
4291,2978
4291,3150
4292,23
4292,1582
4292,2532
4292,3419
4292,3613
4294,1586
4297,24
4298,3914
4299,3595
4300,825
4300,1095
4300,1539
4300,1844
4300,2057
4300,2089
4304,2613
4305,1076
4306,387
4307,603
4307,1839
4307,3500
4308,1844
4309,12
4309,150
4309,3303
4311,1424
4311,4859
4312,2434
4313,1232
4315,2774
4316,143
4316,1032
4318,847
4318,4856
4321,392
4322,3853
4324,171
4325,465
4326,2928
4326,3475
4326,4716
4327,4775
4331,3796
4332,4095
4333,1737
4334,760
4335,48
4335,325
4335,1061
4335,1899
4335,2016
4335,3990
4335,4195
4337,1447
4338,1492
4338,4886
4339,1842
4339,2102
4341,3812
4342,1646
4343,4509
4344,442
4344,4500
4345,1274
4347,282
4347,3574
4348,540
4348,576
4348,642
4348,1945
4348,2881
4348,3766
4349,10
4351,433
4353,2251
4354,32
4355,1454
4356,643
4356,2965
4358,932
4358,4519
4361,2862
4362,44
4363,1166
4364,2663
4365,1822
4365,2340
4366,79
4370,2203
4371,3858
4374,2714
4375,101
4375,1218
4375,1689
4375,2033
4375,4207
4375,4726
4377,281
4379,1842
4380,988
4380,1806
4380,2267
4381,323
4381,465
4381,1646
4381,1701
4381,2106
4382,4035
4383,2995
4385,3129
4386,3102
4389,465
4391,325
4392,57
4393,748
4393,3669
4394,226
4396,4473
4397,1257
4401,553
4401,715
4401,1619
4402,1628
4404,152
4404,455
4404,894
4404,1383
4404,1660
4404,2437
4404,4012
4404,4245
4404,4683
4405,1659
4408,3850
4409,205
4411,1224
4412,1433
4413,4255
4414,542
4418,1966
4420,2649
4422,2541
4423,647
4423,2315
4426,3038
4427,1363
4428,671
4430,2612
4431,2218
4432,1761
4434,80
4434,159
4434,445
4434,525
4434,1714
4434,2468
4434,2776
4434,3331
4434,3944
4434,4453
4434,4645
4435,3820
4441,12
4443,1255
4444,445
4445,1748
4446,3453
4449,4210
4452,3780
4452,4598
4455,2738
4456,91
4456,1714
4457,4267
4459,1420
4460,1333
4460,2959
4460,3666
4461,2063
4462,255
4463,188
4463,439
4463,781
4463,1420
4463,1470
4463,1557
4463,2449
4463,2874
4463,3705
4463,3931
4464,2323
4465,4425
4466,1282
4469,775
4472,3292
4472,4248
4473,1274
4474,121
4474,436
4474,920
4474,1526
4474,1560
4474,1998
4474,2117
4474,4878
4475,617
4475,3319
4475,4398
4475,4604
4476,1163
4476,1887
4476,3906
4477,998
4477,3103
4477,4883
4479,475
4479,2518
4481,1422
4482,3716
4485,1881
4486,171
4486,1217
4486,4984
4489,844
4490,1122
4492,1232
4492,4167
4494,2404
4494,3404
4495,4925
4498,1640
4499,2527
4501,2450
4502,2441
4502,2889
4503,199
4504,134
4504,847
4504,1021
4504,1132
4504,2443
4504,3032
4504,3724
4504,4369
4504,4441
4505,553
4506,2511
4506,4075
4506,4924
4507,4229
4509,1635
4510,1927
4511,4163
4512,552
4513,3129
4515,119
4515,4910
4516,723
4518,475
4519,4885
4520,1160
4521,181
4522,547
4523,899
4524,512
4524,1200
4524,2723
4524,2893
4524,3052
4526,802
4527,247
4527,648
4527,1243
4527,1403
4527,1809
4527,2220
4527,2630
4527,3937
4527,4649
4527,4687
4527,4718
4528,283
4529,2453
4530,16
4530,58
4530,168
4530,259
4530,998
4530,1273
4530,1284
4530,1338
4530,2359
4530,4941
4531,2218
4533,951
4534,2306
4534,3386
4535,4449
4537,3126
4538,1391
4542,1255
4543,465
4544,2263
4546,1270
4547,3595
4548,920
4549,4481
4550,4357
4553,4387
4555,2788
4557,74
4557,714
4557,962
4557,1320
4557,1375
4557,2901
4557,4895
4558,395
4561,229
4563,539
4563,646
4564,3016
4565,49
4565,1959
4566,2796
4567,1218
4569,460
4570,2018
4571,4359
4572,111
4572,1117
4572,4699
4576,4682
4577,74
4577,80
4577,181
4577,233
4577,2205
4577,3805
4577,4797
4578,512
4579,1318
4581,1181
4581,2518
4584,3089
4586,1966
4588,2323
4590,348
4590,932
4590,1752
4590,4775
4591,1250
4592,4857
4593,1840
4594,2967
4595,4301
4597,4228
4597,4436
4598,1304
4599,442
4599,3892
4602,929
4603,2549
4603,2965
4606,29
4607,2978
4613,966
4615,797
4615,2771
4615,3023
4615,3813
4615,4233
4616,1207
4616,2453
4617,48
4617,466
4617,611
4617,1363
4617,2771
4617,4181
4618,302
4618,1740
4618,2709
4618,2941
4620,310
4620,561
4620,2280
4620,2525
4620,3356
4620,4149
4621,1149
4621,1271
4621,4873
4622,1060
4623,4748
4625,741
4626,1188
4628,134
4629,3940
4631,1135
4632,262
4634,1367
4635,2805
4636,415
4636,974
4636,4252
4637,4293
4638,3015
4639,419
4640,1714
4641,2965
4642,358
4647,3984
4648,3586
4653,106
4656,4447
4657,24
4657,1065
4657,1646
4658,1539
4660,197
4661,44
4661,2584
4662,1223
4665,157
4666,3340
4667,2768
4668,799
4668,929
4668,4589
4669,408
4671,1936
4673,2190
4675,137
4675,1295
4676,3842
4678,4112
4678,4923
4679,965
4679,3627
4681,1265
4682,3724
4684,464
4684,3114
4684,4908
4686,929
4692,68
4692,1767
4692,3536
4693,910
4693,4922
4694,2082
4695,3951
4696,1920
4697,1329
4697,4783
4698,553
4700,181
4702,4885
4704,2354
4705,601
4707,4149
4708,4075
4709,949
4710,366
4714,887
4719,791
4720,156
4720,661
4720,1306
4720,2967
4722,3095
4727,12
4728,4376
4730,2024
4730,2172
4730,3903
4732,3774
4733,344
4735,500
4736,2972
4738,756
4738,847
4739,4410
4740,1045
4740,2761
4741,2627
4743,2109
4744,2995
4745,1152
4746,4425
4747,201
4749,278
4749,452
4749,1140
4749,4340
4752,147
4753,1345
4756,2575
4757,1582
4757,2323
4758,3268
4759,1298
4762,2854
4763,847
4764,2166
4766,3858
4769,54
4769,2223
4769,2696
4769,2715
4769,3779
4770,937
4771,832
4771,1628
4772,5
4773,329
4775,283
4776,2552
4777,1090
4781,3073
4782,226
4784,3772
4785,4172
4787,2648
4790,2382
4791,893
4791,4869
4792,2967
4795,562
4796,46
4796,205
4797,4512
4798,218
4798,755
4798,1031
4799,1855
4800,125
4802,4966
4805,3331
4810,2941
4811,1557
4812,1433
4817,4957
4818,3013
4821,965
4821,1990
4822,623
4823,1896
4824,2581
4825,247
4826,1940
4831,1092
4833,2881
4835,4467
4838,165
4838,281
4838,2781
4839,1923
4840,452
4840,504
4844,4001
4845,2090
4846,4309
4847,282
4847,2761
4849,4903
4851,338
4851,815
4852,1762
4852,1783
4853,893
4854,1029
4854,3238
4857,647
4858,1591
4859,258
4860,3049
4861,3293
4862,433
4863,2233
4864,4786
4865,485
4871,344
4871,2441
4871,3716
4874,4376
4878,766
4878,1169
4880,2501
4884,1808
4885,1636
4886,605
4886,1395
4886,1780
4886,3786
4886,4306
4886,4930
4887,3103
4890,1042
4891,1170
4891,4583
4892,1160
4893,276
4895,4723
4898,4549
4901,1646
4902,1358
4902,1541
4902,3910
4904,1269
4906,624
4911,2251
4912,24
4913,357
4914,359
4915,408
4916,2293
4920,359
4920,1853
4921,952
4925,2984
4929,1751
4930,196
4930,2537
4930,2618
4933,1695
4935,1305
4936,2928
4937,4859
4938,1223
4939,395
4940,2361
4943,44
4943,475
4943,661
4943,4309
4943,4760
4944,77
4946,762
4947,2219
4949,1302
4949,2242
4949,4794
4950,1035
4951,3853
4952,138
4952,635
4954,442
4956,1028
4956,1625
4956,2166
4956,2726
4956,3452
4956,3884
4956,4475
4957,3065
4957,4748
4960,1822
4961,193
4962,4167
4963,4769
4965,57
4966,1954
4966,2640
4968,68
4968,307
4968,579
4968,905
4968,1061
4968,1090
4968,3232
4968,4309
4969,547
4969,1896
4969,2864
4970,2695
4975,124
4975,823
4975,996
4975,1177
4975,2575
4975,4932
4976,2782
4979,2219
4983,3050
4989,2567
4989,4328
4990,3510
4991,4184
4992,1587
4993,1690
4994,501
4994,1188
4994,1408
4995,536
4997,1822
4998,12
4998,2457
4998,2988
4998,3095
4999,257
4999,1966
4999,4119
4999,4611
4999,4827
