src,dst
0,1
0,431
0,1077
0,1149
0,1215
0,1691
0,2535
0,2563
0,4261
2,1121
2,3653
2,4116
4,5
4,116
5,195
5,2080
5,4398
6,2037
6,3334
8,1932
8,3360
8,3482
8,3740
8,3764
8,4163
8,4430
10,688
10,1851
10,2129
10,2562
10,3790
11,235
11,1297
11,2459
11,4965
12,164
12,233
12,1447
12,1835
12,3257
13,2646
17,74
17,76
17,266
17,437
17,1183
17,1532
17,2734
17,4084
17,4347
17,4674
19,3160
19,3389
19,4670
20,1004
20,1657
20,3232
20,3330
20,3424
20,4384
21,599
21,1413
21,2257
21,3452
23,1857
26,3453
26,4163
27,153
27,295
27,365
27,795
27,1259
27,1416
27,2034
27,2290
27,3334
27,4121
28,151
28,2154
28,2261
29,520
29,773
29,1175
29,1546
29,1757
29,1866
29,2166
29,2832
29,3250
29,3287
29,4116
29,4971
30,3217
32,201
32,227
32,256
32,534
32,660
32,908
32,1171
32,1490
32,1842
32,1919
32,2507
32,2627
32,3250
32,3409
32,3544
32,3562
32,3646
32,3818
32,4381
32,4419
32,4747
33,631
34,1085
34,3250
35,260
35,1975
35,2664
35,2988
35,3334
35,3419
35,4535
37,159
37,996
37,1339
37,1370
37,1974
37,1986
37,2327
37,2458
37,3023
37,3375
38,2232
38,3398
38,4077
40,809
40,2221
40,2580
40,3456
40,4202
40,4724
43,45
43,4066
44,516
44,693
44,975
44,1120
44,1263
44,1357
44,1729
44,1732
44,1856
44,2099
44,2330
44,4204
44,4352
44,4821
47,569
47,669
47,957
47,1607
47,2376
47,4428
48,2288
49,403
49,453
49,781
49,3280
51,324
51,1335
51,1917
51,4066
52,4041
53,1095
53,1857
55,2364
56,141
56,628
56,1407
56,3000
56,3539
56,3589
56,4106
56,4331
57,418
59,97
59,643
59,818
59,925
59,1247
59,1393
59,2586
59,3553
59,3590
60,74
60,215
60,222
60,535
60,1030
60,1708
63,21
63,507
63,521
63,624
63,1309
63,2072
63,2266
63,2534
66,236
66,1057
66,1062
67,1141
68,585
68,1318
68,1322
68,2175
68,2587
68,2609
68,4385
71,1278
71,2644
71,3604
71,3967
71,4074
72,2246
72,4247
72,4659
73,21
73,248
73,265
73,350
73,379
73,695
73,1320
73,1834
73,1978
73,2476
73,2757
73,3130
73,3463
73,3604
73,4245
73,4347
73,4707
73,4795
73,4834
73,4924
75,389
75,1071
78,522
78,527
78,1563
78,2177
78,2185
78,2469
78,2585
78,2647
78,4023
80,448
80,1355
80,2048
80,3694
80,4204
82,2554
83,55
83,350
83,973
83,1018
83,1062
83,1140
83,1441
83,1553
83,1574
83,1711
83,1725
83,2014
83,2201
83,3110
83,4014
83,4154
83,4537
85,159
85,270
85,1041
85,1213
85,1320
85,1356
85,1841
85,2676
85,3112
85,4071
85,4482
86,1630
86,2690
86,4419
87,3240
88,328
88,358
88,421
88,1445
88,1853
88,4873
89,2680
90,643
90,1529
92,104
92,107
92,567
92,721
92,1480
92,2285
92,3470
92,3747
92,4676
92,4789
93,171
93,1511
93,2192
93,2411
93,4282
93,4612
94,22
94,1001
94,4106
95,2943
96,383
96,1648
96,4715
98,4527
99,1944
99,4818
100,604
100,1134
100,3498
100,4025
101,196
101,2066
101,3897
103,1311
103,2871
103,2986
103,4344
104,1953
104,2910
104,4204
106,2309
106,2516
106,4064
109,1030
109,1097
109,2120
109,3790
110,57
110,163
110,298
110,1034
110,1739
120,1000
120,1227
122,681
124,269
124,401
124,703
124,911
124,959
124,1095
124,1315
124,2206
124,2959
124,3035
124,3352
124,3546
124,4961
125,334
125,669
125,1700
125,4456
126,326
126,982
126,1541
126,2442
126,3093
126,3412
127,150
127,223
127,513
127,927
127,1065
127,1497
127,1871
127,2313
127,3713
128,18
129,139
129,165
129,686
129,4377
130,162
130,198
130,437
130,1537
130,1622
130,3485
130,4408
131,61
131,3373
131,3606
132,9
132,482
132,911
132,1745
132,2385
132,2538
132,2951
132,3466
132,4034
132,4189
132,4900
135,1231
135,1551
135,3389
140,1156
140,3000
140,4032
141,871
141,901
141,1719
142,1467
143,118
143,634
143,849
143,1266
144,3971
146,1592
146,2141
146,2448
147,1850
148,503
148,1494
148,1700
148,2275
148,2924
148,4650
149,624
152,4006
155,171
155,323
155,325
155,1108
155,1156
155,1198
155,1374
155,1624
155,1714
155,2221
155,2493
155,3521
155,3846
155,4070
155,4218
155,4889
156,2
156,389
157,1153
157,4006
161,2694
162,341
162,806
162,1959
162,2189
162,2556
162,3107
162,3808
165,4592
166,447
166,990
166,1187
166,1356
166,2605
167,61
167,1434
167,2562
167,2998
167,3640
167,3888
167,4339
167,4532
167,4844
168,2129
169,382
169,817
169,3747
169,4360
170,315
170,3200
171,1432
172,177
172,539
172,884
172,1077
172,2306
172,2813
172,3080
172,3280
172,3618
174,521
174,1122
175,255
175,1931
175,3495
175,4438
176,97
176,261
176,604
176,745
176,828
176,1533
176,1863
176,2453
176,3447
179,254
179,706
179,1853
179,2108
179,2841
179,3365
180,4611
181,1782
181,3350
182,1652
182,3257
182,4904
183,3710
185,958
185,2249
186,3542
186,3814
187,277
188,21
188,1303
189,1685
199,1239
199,1449
199,3301
200,271
200,418
200,558
200,1058
200,1200
200,1830
200,1870
200,2104
200,2168
200,2464
200,2772
200,3228
200,3670
200,3782
200,4552
200,4705
201,178
201,557
201,1475
201,4123
201,4884
202,712
202,1128
202,1225
202,1285
202,3308
202,4271
202,4988
204,263
205,57
205,74
205,337
205,447
205,648
205,743
205,1309
205,1375
205,1655
205,1785
205,1908
205,1909
205,1957
205,2584
205,3188
205,3223
205,3665
205,4002
205,4635
205,4775
206,686
207,45
207,229
207,247
207,688
207,1101
207,1529
207,3465
207,3640
207,4003
207,4067
207,4810
208,1136
208,2297
208,2378
208,2412
208,3749
209,307
209,1239
210,1443
216,214
216,446
216,2115
216,2493
216,4258
217,57
217,2970
219,4006
220,81
221,1685
221,3590
224,3928
224,4308
227,1137
228,204
228,2198
230,1340
230,1401
231,334
232,504
232,2163
234,161
234,843
234,1484
234,1726
234,2078
234,2186
234,4250
235,1694
237,448
237,534
237,881
237,2227
237,2629
237,3965
237,4001
239,1484
240,1657
241,2380
241,2703
241,4236
242,1192
242,1708
242,1722
245,925
245,1212
246,3334
249,15
249,85
249,106
249,210
249,211
249,538
249,548
249,771
249,2458
249,2768
249,3867
249,4353
249,4783
249,4913
253,505
253,2743
253,3790
255,2054
255,3814
257,133
258,162
258,214
258,236
258,401
258,3226
258,3751
258,4321
258,4391
258,4517
258,4825
264,2531
264,4775
268,117
268,133
268,691
268,1411
268,2051
268,2634
268,2651
268,2854
268,3487
268,3678
270,2424
272,184
272,302
273,227
273,4308
274,456
274,925
275,55
275,3257
276,227
277,162
277,3250
278,173
278,1603
278,3626
279,5
279,927
279,1613
279,1714
279,3168
279,3422
280,21
280,262
280,1051
280,1456
280,2602
280,4944
281,3027
283,488
283,4066
284,969
284,1621
286,408
286,448
287,227
287,297
287,1624
287,1967
296,3034
302,213
302,556
302,1285
302,1680
302,1710
302,1829
302,1944
302,2477
302,2550
302,4058
302,4312
302,4485
302,4600
302,4926
303,162
303,253
304,429
304,1356
304,1733
304,2234
304,4879
305,76
305,1451
308,1080
309,207
309,411
309,879
309,1022
309,4006
309,4626
310,159
310,1848
310,2463
311,3122
311,3842
311,4241
312,300
312,1353
312,3148
313,2469
316,993
316,1305
316,4204
316,4228
316,4740
317,1046
317,1402
317,1647
317,1856
317,1983
317,2029
317,2249
317,2317
317,2362
317,2459
317,2504
317,2926
317,3577
317,3605
317,4045
317,4196
317,4498
317,4664
318,776
318,927
318,1163
318,1909
318,3048
319,4876
321,57
321,383
321,1495
321,2088
321,2435
321,3198
321,3713
321,4411
321,4605
321,4796
321,4843
321,4983
325,2865
327,1413
327,4196
328,524
328,625
328,686
328,2382
328,2593
328,2617
329,1639
330,358
330,460
330,625
331,549
331,4944
332,2731
332,3554
335,1080
335,4407
336,1080
336,1099
336,3401
336,4823
338,291
338,4101
340,439
340,2045
340,3179
340,3737
340,3773
342,112
342,353
342,1356
342,2221
342,3653
342,4489
343,1706
343,1770
343,2743
343,2964
346,2156
349,145
349,783
349,2182
351,7
351,1484
352,3604
353,627
354,3250
355,630
355,863
355,889
355,913
355,1101
355,3499
355,3588
355,4032
355,4584
360,743
360,1106
360,1861
360,2542
360,2835
360,3027
360,3195
360,3401
360,4006
361,1778
361,2399
361,2565
363,2205
363,2496
363,3250
363,4422
365,2190
365,2463
370,31
372,4843
373,4105
374,1057
374,1351
374,1982
374,2067
374,4106
375,14
375,473
375,695
375,3350
376,178
377,438
377,637
377,775
377,3505
380,95
380,2871
381,227
381,783
381,804
381,1016
381,1071
381,1578
381,3835
381,4603
381,4842
384,990
384,4551
385,2468
385,3766
385,4720
386,1006
386,1539
386,1653
392,809
392,4063
393,648
393,2965
393,3412
393,4378
393,4953
394,243
394,1441
394,1779
394,4998
395,218
395,574
395,1339
395,1406
395,2192
395,2701
395,2855
395,4508
395,4532
397,1200
400,108
400,114
400,197
400,209
400,250
400,834
400,1890
400,2679
400,2723
400,4690
401,1359
402,69
402,2524
403,3304
404,1668
404,2263
406,538
406,1432
406,1598
407,3452
412,5
412,1528
412,4849
413,766
414,1814
414,2998
415,65
415,423
415,530
415,796
415,1080
415,2024
415,2832
415,3765
415,4327
415,4361
416,1073
416,2674
419,2752
420,159
420,2871
420,3475
421,326
421,334
421,358
421,549
421,901
421,2093
421,2547
421,2579
421,2956
421,3202
421,4077
421,4361
427,55
427,1857
427,1927
427,2482
427,2766
427,3692
430,2871
432,198
432,921
432,1573
432,1744
432,3453
432,4087
435,2444
435,2875
435,3695
435,4242
435,4438
435,4843
436,22
436,4013
436,4116
440,50
440,133
440,490
440,1367
440,1425
440,1934
440,2115
440,2230
440,2676
440,3537
440,3647
440,3765
440,3985
440,4204
440,4361
441,55
441,2169
442,398
442,843
442,1085
443,263
443,3140
444,295
444,326
444,536
444,1165
444,1296
444,1860
444,1886
444,2458
444,4521
448,2115
449,4077
450,198
450,1857
450,3702
451,2551
451,3161
451,4364
451,4578
454,3117
455,243
455,398
455,1447
455,2203
455,2310
455,3587
455,4887
457,266
458,287
458,1431
459,61
459,437
459,1657
459,2209
459,2288
459,2328
459,3009
459,4347
461,80
461,1048
461,1332
461,1356
461,3246
462,706
462,809
463,196
463,538
463,1205
463,1233
464,69
464,405
464,580
464,905
464,1084
464,1309
464,3039
464,4990
465,2282
465,3086
465,3880
465,4422
466,1608
467,1156
467,1903
468,1374
468,1567
470,2479
470,2744
470,2840
472,348
472,632
472,634
472,2046
474,181
475,198
475,981
475,4907
476,371
476,2530
476,2534
477,2865
478,238
478,4859
480,50
480,3523
483,553
483,996
483,1621
483,2852
483,3712
483,4767
483,4807
484,178
484,718
484,2173
484,3418
484,3572
485,1485
485,2221
485,2394
485,2480
485,2905
485,3102
485,3322
489,55
489,488
489,625
489,847
489,1254
489,1546
489,1582
489,1909
489,2316
489,2755
489,2835
489,2844
489,2890
489,3397
489,3464
489,4004
491,218
491,290
491,766
491,1224
491,1264
491,1565
491,1688
491,1876
491,3840
493,39
495,388
495,1272
495,1951
495,2137
495,3428
495,4152
495,4603
495,4691
496,574
496,614
496,818
496,1072
496,1119
496,1360
496,2664
497,374
497,1030
497,1798
497,1886
497,2221
497,2466
497,2822
497,2974
497,4267
498,2743
499,291
499,958
499,1910
500,4852
501,347
501,1139
501,1929
501,3039
501,3554
501,4965
502,626
506,162
506,2100
508,262
508,1127
508,1730
508,1950
508,3778
508,4204
510,429
511,1426
511,1502
512,4775
513,266
513,1909
515,3563
522,162
522,1139
522,2746
524,68
524,1524
524,4465
526,118
526,3388
531,328
533,162
533,1397
540,2879
541,336
541,1932
541,2235
541,3342
542,1262
542,3053
542,3634
542,4621
543,522
543,4605
545,1976
545,2221
545,2754
545,3047
545,3179
545,3320
545,3609
545,4630
547,469
547,1662
547,2463
547,4481
550,867
550,1992
550,4045
550,4064
551,138
551,190
551,1115
551,1539
551,1576
551,1704
551,2448
551,2491
551,4325
552,14
552,21
552,615
552,1779
552,2006
555,112
559,3539
559,3885
560,1249
560,4377
561,448
561,1727
561,2368
562,577
562,3457
563,1068
563,1472
563,4031
564,326
564,675
564,1398
564,3484
566,447
566,2871
570,3463
571,556
572,521
575,401
575,1001
577,301
577,1153
577,1548
577,2217
577,2328
577,2964
577,3740
577,4007
578,25
582,951
582,2323
582,2516
583,491
583,565
583,724
583,3110
583,4032
584,55
584,4988
585,18
585,74
585,739
585,3494
586,3389
587,212
587,290
587,2163
587,3509
589,683
589,793
589,852
589,1064
589,1138
589,3250
589,3315
589,3999
589,4632
590,1479
590,1665
590,2025
590,2793
591,25
591,236
591,1328
591,4255
592,532
592,809
592,1023
592,1872
592,2725
592,3571
593,1776
595,800
595,909
595,1041
595,1222
595,2760
595,4341
597,3554
598,1714
600,712
602,347
603,1258
603,1539
603,2358
603,4335
604,1705
604,2219
604,4981
605,1449
606,753
606,1152
606,1495
606,1983
606,2115
606,3457
607,4672
613,1055
613,1119
613,4147
613,4759
616,398
616,3035
616,4621
617,287
617,959
617,1080
617,2453
617,2941
621,1624
622,453
625,1536
625,3027
627,580
627,1407
627,1732
627,2224
627,2269
627,3186
627,3389
627,4304
633,193
635,790
635,1120
635,1509
636,1511
639,1452
640,1239
642,1671
643,700
644,648
644,661
644,874
644,1210
645,1360
645,1820
647,1053
647,4520
649,79
649,290
649,775
649,1094
649,1584
649,1834
649,2440
649,4493
650,2753
650,4124
651,663
651,1493
651,1521
651,1861
651,2540
651,3790
651,4591
652,893
652,1861
656,42
656,290
656,1178
656,3320
656,3395
656,4775
657,80
657,1433
657,1904
657,2175
658,233
659,922
662,25
662,1214
663,534
663,612
663,1531
663,2682
663,2749
664,1101
666,54
666,171
666,207
666,300
666,535
666,900
666,922
666,1156
666,1352
666,1416
666,1844
666,2084
666,2448
666,2505
666,2516
666,2735
667,1932
667,2461
668,262
668,1025
668,1304
668,3035
668,3871
671,2
671,401
671,661
671,1015
671,1047
671,1986
674,665
674,2216
676,2399
676,3386
676,4000
676,4571
676,4749
677,3559
678,57
678,2114
678,4131
678,4161
679,107
679,1197
680,548
680,2869
680,3728
680,3808
681,974
681,2607
681,3720
681,3983
682,519
682,917
682,997
682,2314
682,4233
684,21
684,609
684,2534
684,3084
684,3755
687,4059
690,554
692,114
692,624
694,290
694,981
694,2516
694,4927
695,391
696,1015
696,1407
697,4465
698,4204
701,119
701,2973
704,376
707,1587
707,3677
707,4213
707,4532
708,108
708,4001
709,919
709,2755
709,3374
709,4150
709,4357
710,2670
710,4204
710,4383
711,1697
711,1754
711,2003
711,3241
711,3391
711,3631
711,4163
711,4810
711,4981
712,1101
712,1268
712,2676
712,4575
713,920
713,2239
713,4347
713,4814
714,1447
714,2293
714,2674
715,2349
715,3229
717,1864
717,2085
717,3590
718,505
719,618
719,723
719,1186
719,1477
719,1699
719,2592
719,4546
720,688
720,963
720,1449
720,2089
720,2580
722,460
727,265
728,618
728,1524
728,2349
728,3731
730,709
730,2255
730,2443
730,3826
730,4457
732,957
732,2941
732,2998
732,4567
732,4787
734,3522
735,368
735,438
736,612
737,1316
737,1618
737,3057
737,3749
737,4190
740,2554
740,4520
741,492
741,3189
741,4092
742,138
742,1915
744,548
746,817
746,1068
746,1886
747,434
747,2623
747,3590
748,236
748,2274
748,3516
749,159
749,2328
749,4196
749,4424
752,203
752,647
752,832
752,854
752,1132
752,1277
752,1657
752,2115
752,2147
752,2160
752,3283
752,3676
752,4758
752,4920
754,1071
754,4966
755,1689
755,3046
756,903
757,990
759,236
760,3
760,265
760,2093
760,2569
761,1886
762,393
762,588
762,766
762,1233
762,2900
764,750
764,1617
764,2194
765,2219
766,3419
766,4789
767,31
768,3761
769,4006
770,162
772,516
772,648
772,1581
772,2767
772,3642
777,1130
777,1747
778,36
778,2060
778,3907
779,927
779,1873
779,4673
780,1217
780,1449
780,1642
780,1667
780,1909
780,2191
780,2589
780,4296
783,171
783,487
783,693
783,804
783,2945
783,2979
783,3697
783,3760
784,163
784,1013
784,4072
785,270
785,446
785,845
786,688
787,145
789,1
789,1172
789,2427
789,4595
791,358
792,4520
793,31
793,2713
793,4257
794,535
797,1580
797,3863
797,4036
797,4532
798,3481
799,532
801,112
801,366
801,1114
801,1296
801,1361
801,2643
801,3038
801,3284
801,3528
801,4204
801,4885
803,1996
803,2267
803,2463
803,2909
803,3423
803,3727
803,4362
806,608
808,1030
810,1394
810,2202
811,314
811,2440
812,2288
813,302
814,1646
814,2964
816,2288
817,985
817,2060
817,4559
817,4988
819,629
820,1657
822,438
822,1262
823,536
824,479
824,1618
824,2276
824,2644
824,4094
825,4681
825,4705
827,190
827,820
827,2142
827,2664
827,2672
829,1956
829,2214
829,2384
829,3118
829,4414
830,910
830,975
830,1885
830,4820
831,2380
833,25
833,2141
833,2997
833,4520
834,97
834,2049
834,3996
837,2613
837,4289
838,3907
839,438
839,695
839,724
839,847
839,2967
840,3554
841,4929
844,80
846,413
848,1861
848,3299
849,71
849,120
849,433
849,685
849,2415
849,2458
849,2563
849,3711
849,3803
849,3913
849,3964
853,3554
855,259
856,786
856,1246
857,1514
858,159
858,1436
859,557
859,686
860,520
860,1279
860,1566
860,3927
860,4731
861,1484
861,2265
862,1134
863,3885
864,2255
864,2272
864,2347
865,3195
868,969
870,599
872,314
873,4072
876,319
876,383
876,3020
876,3655
876,3972
878,116
878,476
878,2055
878,2444
882,604
882,1207
882,3022
883,929
883,3027
883,3893
883,4039
885,2902
887,2804
887,4307
887,4817
888,147
890,3482
894,1934
895,227
895,1972
897,118
897,1113
897,1339
897,3094
897,4704
898,310
898,2070
898,2851
898,3868
899,517
901,9
901,2120
902,290
902,476
902,775
902,850
902,1351
902,2385
902,2846
902,2868
902,3928
902,4046
902,4977
903,629
904,272
904,448
904,1084
906,1161
906,4059
907,347
907,4763
910,255
910,334
910,1404
910,1897
910,2495
910,2771
910,4179
910,4310
912,796
912,4275
914,538
914,1619
915,84
917,1689
918,288
918,1780
918,1822
920,4520
922,89
922,3192
928,1742
929,319
930,1262
931,683
931,4536
932,2037
932,3328
933,39
934,227
934,1909
935,4886
936,247
936,563
936,1071
936,1254
936,4176
936,4835
936,4923
937,843
937,1117
937,1985
937,2777
937,2812
937,2957
937,3468
938,699
939,1657
941,2105
942,211
942,774
942,1880
943,4522
944,2992
946,9
946,433
946,2141
946,3320
946,4710
947,3198
949,102
949,1966
950,262
950,3517
951,429
951,601
951,1452
952,1009
952,1077
952,2462
952,2486
952,2760
952,3332
952,3387
952,4753
953,869
953,2333
953,4069
953,4410
953,4787
954,521
954,3049
954,3300
954,3943
954,4204
955,91
955,121
955,413
955,476
955,1248
955,3191
955,3679
956,492
956,951
956,3389
958,535
958,2099
958,2364
958,3181
959,429
959,604
959,1216
960,4001
962,4896
964,1006
964,1855
964,1886
964,2628
964,4115
967,4578
968,429
968,3823
969,25
969,171
969,356
969,3209
969,3318
972,1741
972,2914
976,137
979,534
979,3239
982,3572
983,1386
983,1588
983,1639
983,2282
983,3033
983,4492
983,4520
984,1399
986,9
986,2337
987,334
987,891
987,1062
987,3554
987,3744
989,57
989,1042
989,1853
989,2674
990,297
990,2379
990,4006
991,1343
991,2063
991,2066
991,2454
991,2738
992,4468
992,4704
993,1730
993,2743
994,133
994,162
994,348
994,604
994,1079
994,1545
994,1850
994,1865
994,2258
994,2574
994,3706
994,4108
994,4296
994,4604
994,4667
998,358
998,2083
999,2964
1003,612
1003,634
1003,1033
1003,4277
1005,411
1005,1964
1005,2174
1005,3401
1005,4435
1007,1621
1007,2537
1008,369
1008,774
1008,923
1008,1768
1008,1854
1008,2769
1014,81
1014,437
1014,596
1014,691
1014,1885
1014,2554
1014,3768
1014,3885
1015,9
1015,133
1015,218
1015,881
1015,1909
1015,3208
1015,3741
1017,98
1019,534
1019,4573
1020,961
1020,3614
1021,498
1021,3554
1021,4515
1024,210
1026,1548
1026,2030
1026,2287
1026,2559
1026,2783
1026,3109
1027,3590
1028,152
1028,196
1028,1511
1028,2264
1028,2992
1028,4317
1029,691
1032,195
1032,826
1032,3149
1035,45
1035,2288
1036,3790
1038,153
1038,190
1038,336
1038,1322
1038,1541
1038,1554
1038,1606
1038,1739
1038,2337
1038,2439
1038,3246
1038,4477
1040,960
1040,1441
1040,3617
1041,95
1044,61
1044,476
1044,600
1044,2376
1044,3653
1044,4623
1045,55
1049,2760
1054,802
1054,1374
1054,3394
1054,4861
1056,429
1056,1641
1056,3357
1056,4413
1056,4775
1059,2541
1059,2584
1059,3186
1060,262
1060,1699
1060,2836
1060,3268
1060,3783
1060,4124
1061,1250
1061,3281
1061,3621
1063,1218
1065,295
1065,702
1065,1984
1065,2174
1065,3144
1069,923
1069,2061
1069,3179
1070,1426
1070,1637
1071,721
1074,3334
1075,288
1075,539
1075,1293
1075,1452
1075,1734
1075,1857
1076,287
1078,39
1078,2204
1078,2344
1078,3289
1078,3907
1078,4730
1080,3466
1081,227
1081,3368
1082,2221
1082,3940
1083,1030
1083,1224
1083,2204
1083,3713
1083,4327
1083,4815
1086,4723
1087,22
1087,524
1087,3177
1087,4023
1087,4124
1087,4361
1088,243
1089,1159
1089,2574
1090,966
1091,628
1092,507
1093,30
1093,2048
1096,245
1096,2871
1098,368
1098,497
1098,927
1098,2791
1100,996
1100,4032
1102,118
1102,383
1103,118
1103,236
1103,1589
1103,4152
1104,1094
1105,686
1105,940
1107,25
1107,1911
1109,1467
1109,3902
1110,3216
1110,3571
1113,516
1115,3674
1116,599
1118,4355
1119,328
1122,325
1123,2196
1123,2306
1124,225
1124,532
1126,1984
1126,2030
1126,2381
1129,118
1130,4715
1131,977
1131,1321
1131,3621
1132,1583
1133,1399
1133,2371
1133,2674
1133,4461
1134,159
1134,315
1134,1794
1134,2004
1135,1041
1135,2513
1135,3101
1135,4166
1141,398
1142,2166
1142,2649
1142,3442
1142,3833
1142,4196
1143,694
1143,1540
1143,2281
1143,4011
1144,1125
1145,637
1147,4683
1148,104
1150,488
1150,507
1150,2099
1151,178
1151,2141
1151,2221
1151,2248
1152,4560
1153,2246
1154,1861
1154,4399
1157,105
1157,3196
1158,61
1158,1258
1158,2071
1158,2221
1160,3443
1162,1394
1163,2786
1164,162
1164,1231
1164,4041
1166,423
1166,634
1168,2937
1169,2343
1169,2669
1171,5
1171,1610
1171,1886
1171,2859
1172,986
1172,1261
1172,1700
1173,1541
1174,2879
1174,2963
1175,345
1175,2068
1175,2072
1175,4627
1176,1185
1176,1886
1176,4775
1177,4275
1180,3924
1182,5
1182,535
1182,3697
1182,4776
1184,433
1184,2088
1185,1262
1185,1464
1185,2912
1185,3774
1188,1601
1188,1932
1188,2975
1189,371
1189,1544
1189,2291
1190,1167
1190,3084
1190,3307
1191,3559
1192,2746
1192,2870
1192,3887
1193,326
1193,538
1193,2923
1193,4450
1197,21
1197,654
1198,1052
1201,253
1201,260
1201,609
1201,1385
1201,2122
1201,3093
1201,4037
1201,4919
1202,4275
1203,447
1203,517
1203,1620
1203,2198
1203,4419
1204,3640
1204,3863
1208,451
1208,1540
1208,3757
1209,2015
1209,3571
1209,4106
1219,266
1220,42
1220,118
1220,302
1221,107
1221,627
1223,253
1223,548
1223,3958
1223,4375
1223,4843
1224,297
1224,520
1224,2175
1224,3820
1224,4061
1226,218
1228,1367
1228,3402
1229,81
1229,193
1230,342
1230,924
1233,2141
1233,2650
1233,2885
1235,133
1235,1179
1235,4644
1236,536
1236,1972
1236,3208
1237,1206
1238,2469
1238,2705
1238,2858
1238,4507
1239,194
1239,1938
1239,2372
1239,2887
1239,2991
1239,4582
1239,4716
1240,1401
1240,2949
1241,524
1243,1051
1243,2308
1243,3292
1246,210
1246,2700
1249,2533
1252,437
1253,178
1253,892
1253,1491
1255,297
1256,288
1257,190
1257,625
1257,689
1257,822
1257,1242
1257,4998
1260,577
1261,1170
1262,589
1262,1681
1262,2485
1262,2555
1265,987
1265,1318
1265,1948
1265,3533
1266,4240
1267,534
1268,525
1268,623
1268,3069
1269,81
1269,686
1269,2117
1269,2862
1269,3361
1269,4715
1270,3583
1273,643
1273,2235
1273,2743
1273,4793
1275,3335
1277,1101
1280,425
1280,1194
1280,3226
1281,3867
1283,2992
1284,721
1284,2364
1286,452
1286,1097
1286,1922
1286,2025
1286,3020
1286,3935
1286,4054
1290,1699
1290,4532
1291,1889
1291,3039
1292,1998
1292,2892
1292,3214
1299,159
1299,4654
1300,16
1301,30
1301,253
1301,1529
1301,3061
1302,1339
1302,2255
1302,2823
1302,3198
1304,3402
1306,532
1306,2662
1307,22
1307,1220
1307,3269
1308,3083
1308,3736
1311,2183
1312,326
1312,4920
1317,398
1319,4820
1322,7
1322,2969
1322,3244
1323,615
1323,686
1323,3239
1323,4895
1325,871
1327,30
1329,5
1329,2056
1330,2234
1331,159
1331,2133
1331,2604
1333,1764
1334,57
1334,1669
1334,3380
1336,3463
1337,1012
1337,1927
1337,3389
1338,2115
1338,3389
1339,725
1339,4561
1342,82
1342,198
1342,527
1342,634
1342,763
1342,4656
1344,65
1345,548
1345,1562
1346,672
1346,1826
1346,4330
1347,2476
1349,2662
1349,3621
1350,3885
1354,138
1354,287
1354,665
1354,1068
1355,2153
1358,672
1358,3110
1358,4902
1360,437
1360,1720
1360,2099
1360,2578
1360,3455
1360,3774
1360,4184
1362,251
1363,272
1363,959
1363,1225
1364,1146
1364,3999
1365,726
1366,136
1366,4240
1368,64
1368,669
1368,1268
1368,1786
1368,2315
1368,4195
1368,4232
1369,1886
1370,529
1372,413
1372,4830
1373,3280
1374,153
1374,655
1376,1879
1376,4308
1377,519
1378,2664
1378,4403
1379,528
1380,2030
1383,1343
1385,204
1385,1499
1385,2490
1385,2798
1385,3900
1385,4780
1388,1700
1388,3514
1388,4302
1389,497
1391,2241
1391,2489
1392,2221
1394,1988
1394,4512
1395,2060
1395,2249
1395,2788
1395,4937
1398,4580
1399,31
1399,2901
1399,2960
1400,287
1401,57
1403,2469
1408,534
1408,1051
1408,1417
1408,2137
1408,4063
1408,4972
1409,247
1409,4060
1409,4876
1410,1122
1412,1095
1414,425
1415,1837
1415,2196
1415,4308
1418,1147
1418,3195
1419,924
1419,4103
1420,1125
1421,1293
1421,1767
1424,266
1424,345
1424,1053
1424,2482
1424,4320
1426,1214
1426,2730
1428,1030
1428,2645
1429,3380
1431,2865
1434,45
1434,121
1434,350
1434,1231
1434,1274
1434,4472
1434,4940
1435,1002
1437,243
1438,660
1438,1213
1439,3110
1440,630
1440,1101
1440,2382
1440,3751
1441,3527
1442,4384
1444,574
1448,3068
1448,4612
1448,4814
1450,2982
1450,4456
1453,917
1453,1025
1453,1591
1453,2084
1453,2141
1453,2743
1453,3297
1453,3352
1454,276
1454,1269
1454,3653
1455,154
1455,2651
1455,2848
1455,3246
1455,3953
1457,548
1457,1715
1457,3637
1457,4349
1458,4258
1461,314
1461,1762
1461,2310
1461,2363
1461,2383
1462,114
1462,1058
1463,4404
1465,434
1465,2066
1465,4397
1466,4674
1466,4956
1468,334
1469,1565
1470,326
1471,25
1471,1561
1471,2491
1471,3146
1471,3199
1474,159
1474,1447
1476,447
1476,836
1476,3556
1476,4730
1478,1165
1481,1705
1481,2175
1482,4532
1483,3863
1484,153
1487,1013
1488,565
1488,1915
1488,2200
1488,3404
1488,4230
1489,2525
1489,3907
1489,4663
1489,4773
1492,2288
1496,282
1500,3798
1501,1167
1501,2216
1501,2390
1503,4607
1503,4723
1503,4733
1504,159
1504,3844
1504,3863
1505,924
1505,2066
1506,1425
1506,4810
1507,42
1507,476
1508,588
1508,4466
1509,3756
1510,3027
1512,21
1512,137
1512,1552
1512,3243
1513,2836
1514,826
1514,1529
1514,4322
1515,291
1516,4419
1517,288
1517,686
1518,890
1520,2481
1520,4175
1520,4680
1522,1909
1523,350
1525,2458
1526,1156
1526,2431
1526,3877
1528,980
1528,2750
1528,3182
1535,595
1535,1013
1535,2261
1535,4268
1535,4524
1535,4660
1537,3128
1538,4979
1540,55
1540,77
1540,971
1540,1268
1540,2159
1540,2234
1540,3204
1540,3295
1540,4439
1541,348
1542,272
1542,2255
1542,2661
1542,2786
1542,3062
1542,3234
1542,4159
1543,576
1543,902
1543,1050
1543,1111
1543,1112
1543,2699
1543,3027
1544,399
1544,1234
1544,4601
1545,50
1545,251
1545,289
1545,1205
1545,1764
1545,1779
1545,1848
1545,2626
1545,2789
1545,2998
1545,3863
1545,4031
1545,4572
1547,1360
1547,2361
1547,2846
1547,4024
1547,4429
1549,4335
1550,111
1550,266
1555,383
1555,955
1555,2458
1555,2842
1555,4650
1556,335
1556,1046
1556,3526
1556,4743
1557,192
1557,1328
1558,1333
1558,3920
1560,1601
1560,2744
1564,535
1570,1430
1571,16
1576,615
1577,2283
1579,2083
1579,4905
1580,62
1586,314
1588,408
1590,145
1591,481
1591,1010
1591,1288
1591,2478
1591,2516
1591,3956
1592,1101
1592,2382
1592,3982
1593,689
1594,608
1594,1566
1595,2750
1597,1101
1597,1970
1599,262
1599,2590
1599,2674
1600,1953
1602,433
1602,4819
1604,114
1604,209
1604,507
1604,3580
1604,3865
1604,4456
1605,2664
1605,4868
1609,1695
1609,1905
1611,2129
1611,3135
1612,1601
1612,2115
1612,2824
1612,4612
1615,2221
1616,1486
1616,3839
1616,4893
1622,718
1622,2926
1622,3981
1622,4970
1623,1127
1625,137
1625,634
1625,4909
1626,2637
1626,2865
1627,4540
1628,1165
1628,4136
1629,437
1629,688
1629,866
1629,1254
1629,3276
1630,548
1630,4794
1631,514
1631,725
1631,4181
1633,1446
1633,4325
1634,1035
1634,1460
1634,1989
1634,3019
1634,4386
1635,2230
1635,3563
1637,3836
1638,2946
1638,3952
1640,1147
1640,1402
1640,1707
1640,1981
1643,941
1643,1865
1643,3980
1644,429
1644,476
1644,1850
1645,236
1645,686
1645,988
1646,1303
1646,1667
1646,2598
1647,335
1647,758
1647,797
1647,824
1647,1288
1647,1909
1647,2107
1647,2286
1647,2572
1647,3668
1647,4354
1647,4498
1648,2990
1649,153
1649,1138
1649,2486
1649,3453
1654,163
1654,2627
1656,347
1656,1498
1656,2750
1656,4139
1656,4612
1659,121
1660,4124
1664,1984
1666,745
1671,519
1674,178
1675,433
1676,509
1676,2012
1676,4652
1677,486
1677,1371
1677,4820
1677,4843
1679,422
1679,2095
1682,4520
1683,91
1684,173
1684,309
1684,927
1684,3791
1684,4106
1684,4599
1687,699
1687,3088
1690,532
1692,2102
1692,4096
1692,4870
1693,1519
1693,1819
1693,3004
1696,3765
1698,1764
1701,615
1702,924
1703,2963
1706,549
1706,4459
1708,3251
1708,4520
1709,31
1714,648
1716,446
1718,725
1718,945
1718,1031
1718,3246
1718,3907
1720,1199
1721,1777
1722,1563
1722,1927
1722,2190
1723,1122
1725,256
1725,3915
1726,14
1726,580
1728,2516
1728,3809
1731,21
1731,105
1731,121
1731,1072
1731,1108
1731,1499
1731,1708
1731,2313
1731,2674
1731,3398
1731,4333
1733,2336
1733,2423
1733,4107
1735,306
1736,227
1737,291
1737,1198
1737,1642
1737,2010
1737,2820
1737,3584
1737,3709
1740,190
1740,535
1740,2096
1740,4742
1741,482
1742,2964
1743,1030
1743,1132
1743,2498
1743,3987
1743,4284
1743,4515
1743,4701
1746,171
1748,1165
1748,4587
1749,2149
1750,456
1750,4121
1751,152
1751,1589
1752,95
1752,4132
1753,114
1753,314
1753,896
1753,2166
1753,2259
1753,3184
1753,3747
1753,4345
1753,4899
1753,4914
1755,3186
1756,52
1758,996
1759,2210
1760,1648
1761,3428
1762,1592
1763,850
1763,957
1763,1390
1763,2390
1763,4059
1763,4152
1763,4497
1764,350
1765,2099
1768,77
1769,653
1770,1799
1770,3886
1770,4775
1770,4998
1772,163
1772,3788
1772,4361
1773,2099
1773,4621
1774,211
1774,405
1774,429
1774,509
1774,2370
1776,716
1776,2092
1776,2288
1776,2893
1776,2937
1777,2489
1779,218
1779,347
1779,1787
1779,2534
1781,2278
1781,2607
1781,3106
1787,643
1787,3785
1789,3338
1790,2132
1790,2244
1792,2163
1792,2316
1793,583
1793,1418
1794,513
1795,236
1795,262
1795,926
1797,1178
1797,3032
1798,2259
1798,2731
1801,31
1801,1324
1801,1328
1801,2296
1801,4017
1803,643
1803,2141
1803,3773
1804,326
1804,889
1805,4031
1806,5
1806,145
1806,2802
1806,4915
1806,4944
1809,320
1810,809
1811,4998
1812,1309
1813,236
1813,549
1814,121
1814,822
1815,624
1815,2489
1816,190
1816,3293
1816,4106
1818,827
1819,1351
1819,3622
1821,1399
1821,1986
1821,2673
1822,488
1822,1101
1822,2255
1822,2514
1822,4042
1823,326
1824,1246
1825,509
1826,809
1826,948
1826,1574
1826,3818
1827,1449
1828,2347
1828,2760
1830,1030
1831,115
1831,227
1831,425
1831,428
1831,957
1831,961
1831,1381
1831,1762
1831,2075
1831,2633
1831,3017
1831,3342
1831,4031
1832,2428
1832,2964
1832,4422
1832,4814
1833,211
1836,1178
1836,3770
1838,399
1838,1399
1838,2855
1839,1530
1843,1119
1843,2280
1845,689
1846,643
1847,212
1847,595
1847,2311
1849,534
1854,796
1858,1842
1859,262
1862,171
1862,1426
1863,4655
1867,653
1867,1160
1867,4271
1868,5
1869,927
1869,4664
1874,5
1874,3914
1874,4287
1874,4327
1874,4832
1875,3042
1875,4605
1876,417
1876,2027
1877,1170
1877,2951
1877,4811
1878,3226
1878,3570
1879,81
1880,494
1880,2438
1881,2554
1881,2951
1881,3216
1882,4077
1883,190
1883,2778
1884,1527
1884,1606
1884,1777
1884,1817
1884,3565
1884,3730
1884,4890
1884,4982
1887,238
1887,1984
1887,3765
1888,1650
1891,1004
1891,3068
1892,1167
1893,161
1893,1128
1893,2657
1893,3248
1894,2337
1895,869
1895,3653
1896,3280
1899,278
1899,1425
1900,1216
1900,1435
1900,3193
1901,2059
1901,2672
1902,3774
1905,1065
1906,476
1906,2931
1907,1050
1912,3323
1913,1356
1914,625
1914,4900
1916,1246
1917,3183
1918,244
1918,646
1918,1852
1918,2843
1918,4532
1919,1565
1919,1941
1920,1200
1920,4196
1920,4264
1920,4417
1921,793
1923,889
1924,1057
1924,3761
1925,4843
1926,1035
1926,3044
1930,957
1930,1834
1931,1046
1932,2100
1933,1953
1936,1357
1936,2729
1936,4620
1939,1678
1939,2058
1940,4759
1942,842
1942,1161
1943,2133
1943,4101
1945,133
1945,634
1945,3178
1945,4530
1949,653
1949,4532
1952,3863
1953,55
1954,2107
1954,3608
1955,2734
1955,4754
1957,3882
1958,1117
1958,3951
1959,57
1960,509
1960,688
1960,4522
1961,1807
1961,2066
1962,4031
1963,1119
1963,1296
1963,2677
1965,74
1967,1313
1967,2241
1967,4216
1968,634
1968,2138
1968,2814
1968,3198
1969,4534
1970,1563
1971,3719
1973,207
1973,3170
1977,1974
1977,2005
1979,1030
1980,4361
1981,204
1981,364
1981,479
1981,1067
1981,2221
1981,2227
1981,2608
1984,774
1984,793
1984,1447
1990,1293
1990,1735
1990,2250
1991,1592
1993,227
1994,538
1994,629
1994,631
1994,2613
1994,3427
1995,429
1997,387
1997,961
1997,2219
1997,2381
1997,3549
1998,382
1998,520
2000,429
2002,297
2002,1071
2005,1783
2005,1826
2007,1889
2007,2463
2008,2447
2008,3198
2009,21
2009,162
2009,226
2009,4077
2011,170
2013,929
2016,1065
2017,145
2017,225
2017,1384
2017,2550
2017,3978
2017,4930
2018,2103
2018,4102
2019,379
2019,877
2019,1796
2019,1900
2020,1212
2021,204
2022,1841
2023,1844
2026,3453
2028,2964
2031,1402
2031,1592
2031,1842
2032,1779
2036,335
2037,2933
2038,1277
2038,1932
2038,2978
2038,3413
2039,1025
2039,1119
2039,1343
2039,1842
2039,2115
2039,4843
2040,4289
2041,969
2041,1841
2042,2082
2043,290
2043,625
2043,3403
2043,3590
2043,4133
2044,3389
2047,1662
2050,306
2050,1084
2050,2658
2052,2516
2053,1885
2053,2964
2057,287
2057,4621
2062,25
2062,4001
2063,365
2063,367
2063,2652
2064,1841
2065,809
2069,1582
2073,69
2076,626
2076,3016
2077,97
2077,1125
2079,2754
2081,536
2086,1278
2087,33
2089,1459
2090,790
2091,4852
2094,1986
2094,4484
2097,111
2097,473
2098,2986
2098,3554
2099,1994
2101,2809
2103,534
2103,3728
2103,3814
2104,4520
2106,1153
2107,437
2107,3066
2109,826
2109,1582
2109,2177
2109,2410
2109,2964
2109,4182
2109,4775
2110,874
2110,1046
2111,21
2111,3182
2111,4297
2111,4619
2112,822
2112,1097
2112,3054
2113,358
2116,3653
2118,739
2119,3554
2119,3748
2121,1446
2123,218
2123,4184
2124,686
2125,2400
2126,69
2126,2246
2126,2459
2126,2510
2126,3188
2127,773
2127,2463
2129,453
2130,4116
2131,347
2135,174
2136,563
2136,1296
2136,1621
2136,1854
2137,3711
2139,1285
2140,3052
2143,297
2144,535
2145,2156
2146,371
2148,190
2148,2175
2148,3515
2149,4106
2149,4790
2150,21
2150,2563
2151,509
2151,2595
2151,2616
2151,2911
2151,4305
2151,4898
2152,1561
2152,2952
2153,16
2153,326
2153,532
2153,620
2153,916
2153,996
2153,2055
2153,2369
2153,3220
2153,3451
2153,4355
2153,4363
2153,4578
2153,4805
2154,123
2154,673
2154,891
2155,22
2158,171
2158,2045
2158,3989
2161,1850
2162,2836
2163,580
2164,1944
2164,4007
2166,429
2166,687
2166,1156
2166,1725
2166,3186
2166,3488
2166,4398
2167,7
2167,366
2167,390
2167,1779
2167,3554
2167,3798
2167,3912
2167,4656
2167,4788
2170,1401
2170,4187
2170,4367
2171,1120
2171,2825
2172,1697
2172,2544
2172,3004
2175,2458
2175,3522
2175,4041
2176,297
2178,4901
2179,446
2180,1886
2180,3598
2180,4943
2184,2129
2184,2663
2187,2259
2187,3986
2188,236
2188,2400
2188,3999
2188,4105
2193,1058
2193,3660
2197,1443
2197,3463
2207,3833
2207,3883
2208,3928
2208,4976
2210,599
2211,1725
2211,2055
2212,5
2212,619
2215,1957
2218,2458
2219,1009
2219,4993
2222,1808
2222,4119
2223,121
2223,301
2224,194
2224,1443
2228,687
2228,2765
2228,3198
2229,1298
2229,1870
2231,630
2233,160
2233,3913
2234,1565
2234,3960
2236,30
2236,726
2237,686
2238,437
2238,1994
2243,1165
2244,660
2244,4494
2246,1672
2247,266
2248,138
2248,557
2248,2181
2249,1013
2251,2174
2251,2471
2251,4602
2252,1199
2252,3563
2253,1066
2253,2605
2256,1058
2256,1489
2257,694
2257,3823
2258,2005
2258,2216
2258,2281
2258,3774
2262,4678
2262,4723
2267,1868
2267,2348
2267,3070
2267,3808
2269,3675
2270,2174
2271,3320
2273,3160
2277,3559
2278,2412
2278,2932
2279,160
2279,229
2279,344
2279,518
2279,588
2279,963
2279,3535
2279,3629
2284,214
2284,627
2284,2743
2287,1909
2289,1196
2289,1677
2289,2240
2289,2710
2292,3455
2294,270
2295,634
2298,1293
2298,2078
2299,42
2299,3117
2300,1417
2300,3743
2300,3938
2301,91
2301,2561
2302,1011
2302,1132
2302,3961
2303,1055
2303,3201
2305,1972
2311,1446
2311,4153
2314,1582
2318,774
2319,1279
2320,800
2320,3999
2321,1657
2324,2871
2326,163
2326,1766
2326,2548
2326,3931
2326,4425
2328,265
2328,3540
2331,1700
2331,3825
2332,681
2332,4648
2333,434
2333,516
2333,2733
2333,2793
2333,2865
2334,4001
2335,3706
2337,1900
2337,4206
2338,447
2338,687
2339,403
2339,673
2339,1426
2339,3910
2340,1025
2342,521
2342,558
2342,880
2342,4588
2342,4998
2343,1499
2346,1441
2346,4957
2347,114
2347,612
2347,856
2347,1637
2347,1982
2350,1915
2351,519
2352,2548
2353,5
2354,252
2354,4640
2355,2134
2355,3175
2356,1700
2356,3725
2356,3746
2357,688
2359,24
2359,69
2359,1266
2359,1434
2359,1499
2359,1841
2359,2970
2360,516
2365,2000
2366,145
2366,190
2366,236
2366,610
2366,1834
2366,1837
2366,4419
2367,1178
2370,1563
2370,2078
2370,3730
2370,4788
2373,1016
2373,4377
2374,1467
2377,1013
2379,966
2379,2195
2379,2329
2379,3724
2380,706
2384,276
2386,1402
2386,1467
2386,2333
2386,4086
2387,3907
2388,192
2388,2033
2389,3553
2391,2337
2391,3777
2392,4370
2393,2083
2393,3197
2395,178
2395,3058
2395,4173
2396,196
2397,3335
2398,227
2398,473
2398,669
2398,3474
2398,3580
2400,399
2400,1572
2400,2115
2400,3216
2401,1588
2402,1251
2403,81
2403,641
2404,4147
2406,306
2407,25
2408,1637
2408,1681
2409,3358
2409,3606
2412,2255
2414,2088
2414,2244
2414,4964
2416,287
2417,1178
2420,917
2420,2491
2420,2526
2421,398
2421,3250
2421,4402
2422,290
2425,2554
2426,3110
2428,452
2428,774
2428,1688
2428,2563
2428,2685
2428,4789
2429,634
2429,2271
2429,4646
2430,815
2430,2575
2430,4603
2433,884
2434,121
2437,483
2437,1406
2437,2815
2437,3459
2441,350
2445,55
2445,699
2445,1294
2445,1909
2446,153
2447,448
2447,539
2447,2427
2447,4246
2449,4612
2452,253
2452,2244
2452,3618
2455,3208
2455,4942
2456,262
2456,2190
2457,2348
2459,1405
2460,1777
2461,223
2461,3962
2465,22
2465,3735
2467,2070
2468,429
2468,4612
2469,516
2469,1356
2470,1934
2470,4034
2472,336
2474,2166
2475,2071
2476,1853
2483,235
2483,296
2483,1200
2483,2728
2483,4618
2484,31
2484,260
2484,1192
2484,1545
2484,2035
2484,2654
2485,2521
2486,521
2486,4004
2488,2462
2491,476
2492,1942
2494,209
2494,821
2494,1430
2497,568
2497,3052
2499,691
2499,4540
2501,567
2501,824
2501,1407
2501,3510
2502,2121
2502,3250
2502,3302
2502,4789
2503,3640
2506,2200
2508,3027
2509,2874
2509,4431
2509,4759
2511,162
2512,535
2512,3613
2513,1018
2515,580
2515,1065
2515,4193
2517,1674
2518,263
2519,55
2520,927
2523,159
2523,2556
2525,159
2525,546
2525,2213
2527,69
2527,2907
2527,4295
2527,4795
2528,3027
2530,22
2530,3993
2532,3823
2533,2984
2533,4944
2534,107
2534,344
2534,516
2534,648
2534,2436
2539,565
2539,3469
2540,2071
2543,253
2543,2663
2543,4968
2545,4102
2546,367
2546,1886
2549,1435
2552,2469
2553,1514
2553,2104
2553,3156
2553,3434
2554,638
2557,1419
2558,1559
2560,2534
2563,2336
2563,2435
2563,3669
2564,604
2564,1205
2564,3677
2564,4234
2564,4935
2566,1787
2567,236
2567,4392
2568,2368
2570,1025
2571,3250
2573,405
2575,297
2575,995
2575,1908
2575,4144
2575,4334
2581,2865
2582,2836
2588,588
2589,1574
2589,4882
2591,588
2594,1539
2594,2206
2594,3139
2596,4498
2597,328
2599,422
2600,1778
2601,3604
2603,2973
2604,2339
2606,1127
2610,341
2610,1246
2610,4836
2612,2574
2614,272
2614,3247
2615,69
2618,1013
2619,1390
2620,192
2620,2628
2621,631
2621,1544
2621,4838
2622,118
2624,686
2625,790
2625,2538
2628,1932
2630,554
2631,1524
2631,2458
2632,1503
2634,1972
2635,3452
2636,1407
2637,970
2637,1276
2637,2260
2638,314
2639,260
2639,2196
2639,3471
2639,3890
2640,2075
2641,2471
2642,790
2645,4006
2646,1593
2647,3073
2648,774
2648,4068
2650,529
2651,3690
2653,2177
2653,4831
2655,69
2656,5
2659,1853
2660,104
2660,1547
2660,2665
2660,3684
2660,4419
2660,4725
2664,1262
2666,2220
2667,1402
2668,424
2674,3823
2675,886
2675,2658
2678,580
2681,1278
2681,2749
2681,4687
2683,2045
2684,1101
2684,2602
2687,429
2688,608
2689,348
2689,1585
2689,2051
2689,2221
2691,233
2692,1246
2692,3527
2695,2608
2696,437
2697,379
2697,826
2698,3858
2698,4918
2702,45
2702,594
2702,817
2702,981
2702,1848
2702,2583
2702,2884
2702,4205
2705,2608
2705,4340
2705,4873
2707,82
2707,3157
2707,3440
2708,335
2708,1178
2708,2834
2708,4307
2709,807
2709,2066
2709,2448
2709,2522
2709,2845
2709,3586
2709,3740
2709,4169
2711,709
2711,3400
2712,1646
2714,41
2715,2760
2716,2998
2717,2926
2717,3143
2717,3378
2717,4361
2718,1705
2719,546
2720,1643
2720,1886
2720,2836
2720,4256
2721,1735
2721,3059
2721,3616
2721,4053
2721,4925
2722,826
2723,625
2723,1713
2723,2529
2724,2902
2726,9
2727,61
2733,1794
2736,4367
2737,335
2739,2580
2739,2886
2739,4377
2739,4526
2740,95
2740,1298
2740,3118
2741,2447
2743,869
2744,1175
2745,2234
2747,1348
2747,1614
2747,3596
2748,2034
2749,2117
2749,2755
2749,4754
2750,4705
2751,3250
2751,3747
2751,4285
2753,2412
2754,453
2756,293
2756,322
2756,471
2756,741
2756,1128
2756,1841
2756,2082
2756,2440
2756,3015
2756,3585
2756,4143
2756,4914
2758,2462
2761,1324
2761,1432
2761,1632
2761,2244
2761,4730
2762,3046
2763,4032
2764,2672
2765,1668
2771,1984
2772,396
2773,84
2773,4238
2775,1636
2775,2220
2775,2304
2775,2968
2775,4341
2775,4514
2777,30
2779,1898
2781,446
2782,5
2784,4578
2786,2344
2786,3682
2787,65
2792,3027
2793,4436
2794,104
2794,776
2794,2348
2794,2809
2796,247
2796,262
2797,2269
2799,738
2800,1559
2800,1807
2801,535
2805,1650
2806,535
2808,1972
2810,1621
2810,4130
2811,3401
2816,3205
2816,3797
2817,716
2819,581
2819,1013
2819,1155
2822,1324
2826,5
2828,1447
2828,4856
2829,422
2830,796
2830,4471
2831,705
2833,514
2833,1536
2837,1356
2839,641
2845,404
2847,4945
2849,743
2850,1986
2853,118
2856,3907
2857,1996
2860,2743
2861,3999
2864,2584
2864,4875
2865,1445
2865,1562
2865,3105
2866,826
2866,924
2866,940
2866,1016
2866,1030
2866,1397
2866,1486
2866,1539
2866,1636
2866,1661
2866,1987
2866,2149
2866,2489
2866,2871
2866,3036
2866,3416
2866,3503
2866,3529
2866,3949
2866,4326
2867,609
2871,1170
2872,196
2873,136
2876,1852
2876,4511
2878,2115
2878,3037
2880,2879
2881,4612
2882,1225
2883,3110
2886,191
2886,204
2886,565
2886,3554
2886,3994
2886,4205
2888,3816
2889,2185
2891,1886
2893,3048
2894,2427
2894,3259
2895,350
2896,174
2897,648
2897,1224
2898,1705
2899,604
2902,431
2902,3169
2902,3213
2902,3600
2903,398
2904,310
2904,2344
2906,1192
2907,3849
2908,4512
2913,159
2915,686
2916,3410
2916,4361
2917,4308
2918,1287
2918,1441
2919,2554
2920,3606
2920,4148
2921,750
2922,63
2922,3933
2923,2379
2923,4006
2925,2197
2927,825
2928,2117
2929,398
2930,91
2930,608
2930,3063
2930,3841
2931,259
2931,293
2931,731
2931,1167
2931,3651
2931,4146
2932,469
2932,1015
2932,1119
2932,1663
2932,2240
2932,2602
2932,4438
2934,2099
2936,17
2936,3908
2937,2780
2938,4964
2939,97
2939,3712
2939,3878
2940,2132
2941,162
2944,743
2944,2311
2944,3130
2947,2576
2947,3739
2948,403
2948,2283
2948,3456
2948,3885
2950,261
2951,259
2951,3564
2953,339
2953,347
2953,445
2953,573
2953,1010
2953,1942
2953,3753
2953,4327
2953,4328
2953,4347
2953,4896
2955,2035
2956,3555
2958,1972
2958,2563
2966,2349
2971,2779
2972,2341
2972,2458
2972,3316
2973,509
2973,3758
2974,1946
2976,1700
2980,1225
2980,2165
2981,1013
2982,1101
2982,4775
2983,1524
2984,1447
2984,1511
2984,4109
2985,1288
2987,3039
2989,197
2989,447
2989,2671
2993,1264
2993,3770
2993,4311
2994,2803
2995,2411
2996,5
2996,3657
2999,521
2999,4433
3001,2099
3001,2472
3002,2296
3003,1246
3005,136
3005,1432
3006,3011
3006,3334
3006,4283
3007,2941
3008,159
3008,539
3008,4776
3010,261
3012,2785
3014,2099
3014,3730
3017,4657
3018,2977
3019,4741
3021,1101
3023,153
3023,1062
3023,1626
3024,3255
3025,378
3025,1425
3028,1467
3029,2579
3030,290
3031,2799
3040,1768
3040,3988
3041,1149
3042,2486
3043,350
3045,3042
3045,3072
3046,2341
3048,2992
3050,793
3051,2415
3051,4022
3055,1050
3055,3686
3055,4774
3058,2848
3060,1037
3060,3287
3064,398
3065,665
3067,1543
3067,1589
3071,1434
3075,1374
3076,2307
3077,4532
3078,314
3078,3990
3079,1779
3081,2427
3082,632
3085,1688
3085,3371
3085,4615
3087,1117
3087,3033
3089,1521
3089,3154
3090,123
3091,134
3092,2344
3094,2578
3095,293
3096,151
3096,2257
3097,3892
3098,1447
3098,2911
3099,4612
3100,297
3100,2850
3106,158
3108,121
3110,64
3112,490
3112,4235
3112,4883
3113,437
3114,265
3114,1842
3115,2066
3116,229
3116,310
3116,1264
3117,1972
3119,2427
3120,236
3120,4775
3121,1955
3123,1983
3124,344
3124,745
3124,3952
3125,1479
3125,1735
3125,1837
3126,653
3126,3925
3129,2476
3129,3180
3131,4009
3133,118
3133,3246
3133,3270
3133,3417
3133,3432
3136,446
3136,1575
3136,4045
3137,3590
3138,567
3141,447
3142,2
3142,36
3142,357
3142,362
3143,3697
3145,768
3145,2516
3147,1618
3150,1294
3150,4122
3152,16
3152,24
3152,222
3152,802
3152,4612
3153,1464
3155,91
3155,1063
3158,201
3159,162
3162,1974
3163,1224
3164,1322
3165,4437
3165,4650
3166,1621
3166,1841
3169,991
3171,2674
3172,1713
3176,2181
3180,1063
3183,4264
3186,1807
3187,191
3188,3195
3190,726
3194,1120
3195,113
3195,528
3195,815
3195,2973
3195,3494
3195,4217
3195,4934
3203,1509
3204,410
3204,422
3204,453
3204,1114
3204,1703
3204,2156
3204,2164
3204,2226
3204,2807
3204,3174
3204,3186
3204,3212
3204,3775
3204,4430
3204,4732
3205,1051
3205,4870
3206,91
3207,618
3210,1419
3211,4532
3212,57
3212,977
3212,1374
3212,1886
3212,3357
3212,3719
3215,3042
3215,3438
3218,145
3218,190
3218,966
3218,1908
3218,2257
3219,516
3220,448
3220,498
3220,806
3220,1473
3220,2694
3220,3262
3220,3600
3221,2284
3222,2458
3222,2793
3224,1775
3224,4037
3225,2204
3225,4116
3226,1119
3227,285
3227,686
3227,932
3227,982
3227,4290
3227,4719
3228,46
3228,4328
3229,549
3230,1447
3231,2498
3233,4283
3234,517
3234,2732
3234,2863
3234,3761
3235,790
3236,2576
3237,5
3238,2554
3242,39
3245,383
3249,925
3250,1432
3252,3767
3253,3554
3254,2554
3255,1413
3256,2177
3257,2954
3257,2969
3258,314
3260,957
3260,1790
3260,2833
3260,3554
3261,1443
3261,3264
3262,3170
3262,4941
3263,546
3264,389
3265,294
3265,1717
3265,2749
3266,488
3267,2202
3271,634
3272,3186
3273,2004
3273,3820
3274,1645
3274,1700
3274,1970
3274,3814
3274,4260
3275,3160
3277,262
3278,3452
3279,290
3279,350
3279,403
3279,429
3279,1214
3280,1128
3285,817
3286,55
3286,2526
3287,437
3288,7
3290,2342
3291,2516
3291,3999
3293,922
3293,1195
3293,1530
3294,1657
3294,2734
3296,2058
3296,3337
3297,287
3297,1191
3297,4865
3298,1125
3298,4932
3301,845
3301,3781
3303,4810
3305,368
3305,629
3305,783
3305,1917
3306,1685
3307,4308
3309,4754
3310,55
3310,3963
3311,3106
3313,2045
3314,389
3315,1729
3317,4006
3319,2362
3320,3242
3321,2376
3323,2793
3324,152
3325,1405
3327,152
3328,716
3329,1065
3331,534
3333,891
3335,927
3335,1541
3335,1725
3335,1840
3335,2268
3335,2483
3335,3380
3335,3889
3335,3942
3335,4260
3335,4318
3336,1830
3339,1029
3340,452
3340,3185
3341,4007
3343,218
3344,2679
3344,4034
3344,4355
3345,3011
3346,2493
3346,4728
3347,4243
3348,1231
3349,1575
3353,1779
3354,1395
3355,3402
3356,2664
3359,2836
3361,1592
3363,2516
3367,2462
3368,178
3368,262
3368,647
3368,775
3368,951
3368,1013
3368,2554
3368,3650
3368,4462
3368,4532
3369,970
3369,3782
3370,3023
3370,4872
3372,1006
3377,1262
3379,741
3379,4281
3381,891
3381,2818
3381,3146
3381,4104
3381,4395
3383,227
3383,3497
3384,1425
3384,1670
3385,836
3385,1529
3385,2206
3385,3490
3388,399
3389,522
3390,190
3390,1361
3390,3554
3392,162
3392,204
3392,1308
3392,2221
3393,3217
3395,4005
3396,1073
3397,2522
3402,347
3405,775
3406,1447
3408,826
3411,1331
3412,3974
3414,1572
3415,910
3418,917
3420,2538
3420,2755
3421,2412
3425,1617
3425,3618
3426,3590
3428,3977
3429,990
3430,89
3430,514
3430,3907
3430,4303
3431,632
3433,630
3435,4340
3436,745
3437,1608
3439,796
3439,2577
3441,57
3443,371
3443,4289
3444,138
3445,999
3445,3721
3445,4597
3446,111
3446,546
3446,1657
3446,2819
3446,4523
3447,3903
3447,4589
3448,4656
3449,634
3450,4001
3452,3571
3453,2014
3454,39
3454,159
3454,2656
3454,3522
3455,4697
3456,3167
3458,2375
3460,3198
3461,3027
3462,1434
3467,534
3469,2759
3472,2862
3473,1278
3475,269
3475,347
3475,1673
3475,2909
3476,431
3476,1909
3477,913
3477,1153
3478,1382
3479,612
3479,826
3479,835
3479,1013
3479,1046
3479,2577
3479,3885
3480,1511
3483,544
3486,2419
3487,270
3487,2344
3489,3463
3489,3958
3491,1430
3491,1915
3492,270
3492,631
3493,802
3494,1851
3496,336
3496,367
3498,1624
3498,2679
3500,3402
3500,4115
3501,768
3502,1094
3504,1741
3504,3936
3506,2336
3506,4372
3507,4620
3508,1119
3511,2967
3512,743
3513,1262
3518,161
3519,3401
3520,2378
3522,2554
3524,2206
3526,1315
3526,4828
3530,4377
3531,1512
3532,726
3532,1543
3532,4400
3532,4513
3532,4841
3534,225
3536,1214
3537,134
3537,554
3537,724
3537,1540
3537,2000
3537,2037
3537,2842
3537,4106
3538,1563
3539,1316
3541,191
3541,3638
3543,3842
3543,4520
3545,348
3547,368
3547,1588
3548,3424
3550,600
3551,398
3551,1559
3552,1935
3552,1970
3552,3008
3552,3740
3553,1343
3554,4006
3558,469
3561,2809
3561,3653
3562,1058
3562,1520
3562,2074
3566,4914
3567,1987
3568,313
3568,460
3568,965
3568,1423
3568,1441
3568,2977
3568,3562
3568,4264
3569,1063
3573,618
3573,4194
3574,1120
3575,1043
3576,3428
3578,4852
3579,1465
3581,852
3582,1588
3583,193
3583,282
3589,646
3589,4127
3591,538
3591,3039
3592,1868
3593,1524
3597,2129
3599,661
3602,1776
3602,4645
3603,2541
3606,429
3606,2413
3606,2935
3606,3173
3607,643
3607,4427
3608,2092
3610,207
3611,487
3611,836
3612,114
3615,3482
3619,429
3620,1154
3623,686
3623,3791
3624,1490
3624,4006
3625,1013
3625,1808
3625,3199
3627,634
3627,4503
3628,3284
3629,227
3629,425
3629,2099
3630,42
3630,1181
3630,1377
3630,2779
3630,3097
3632,55
3633,2285
3633,2770
3633,2821
3633,2962
3633,3084
3635,1002
3636,2799
3636,3172
3639,300
3639,1651
3639,1999
3639,3023
3640,3143
3640,4003
3641,408
3641,429
3642,2246
3643,4220
3643,4831
3644,2746
3645,310
3645,4487
3648,3401
3649,917
3651,3724
3652,383
3654,61
3656,207
3656,3179
3658,2476
3661,2714
3662,3318
3663,2190
3666,689
3666,828
3666,1179
3666,1541
3666,2291
3666,2382
3667,2059
3668,519
3668,1978
3672,328
3672,4917
3673,516
3673,758
3675,916
3675,1315
3675,1634
3680,1310
3680,1868
3680,2799
3680,4313
3681,1071
3681,1295
3683,4456
3684,2220
3685,36
3685,1484
3687,2220
3689,1468
3691,204
3691,4606
3693,889
3694,314
3696,634
3698,2232
3699,58
3699,320
3699,775
3699,996
3699,1214
3699,1427
3699,2134
3699,2137
3699,2412
3699,2444
3699,2486
3699,2822
3699,2905
3699,3671
3699,4167
3699,4294
3699,4538
3699,4557
3699,4639
3700,1046
3701,2168
3703,4789
3704,335
3705,3042
3707,1927
3708,289
3710,3134
3711,2798
3711,3884
3712,945
3714,729
3714,776
3714,1231
3714,1266
3714,1426
3715,538
3715,959
3716,1262
3718,851
3718,1269
3719,2255
3722,2001
3723,398
3724,1006
3725,3198
3726,2590
3729,1953
3732,535
3733,326
3734,3320
3738,1315
3740,2225
3742,1807
3742,4276
3745,990
3748,537
3750,745
3752,3334
3756,162
3759,251
3762,1658
3762,1771
3762,2381
3762,2838
3762,3596
3762,3767
3763,1232
3763,1707
3767,774
3767,1124
3767,1402
3767,3100
3769,315
3770,272
3771,290
3772,1356
3774,162
3776,672
3776,4121
3779,1422
3780,326
3784,519
3784,3326
3784,3896
3786,847
3787,2522
3789,1167
3790,4032
3790,4057
3792,3999
3793,3747
3794,4419
3795,290
3796,358
3798,3482
3799,296
3799,3975
3800,724
3801,528
3802,4848
3805,535
3805,1289
3806,429
3807,2835
3809,867
3810,1641
3811,535
3811,2890
3812,2674
3813,1068
3813,4031
3814,1214
3815,828
3816,1823
3817,2941
3819,1624
3820,178
3820,588
3820,974
3820,1624
3820,3351
3821,2967
3822,3424
3823,1987
3824,2516
3824,2841
3827,227
3828,2782
3829,624
3830,2852
3831,693
3832,1562
3834,91
3837,3798
3837,3994
3838,4532
3842,4032
3843,2924
3845,3104
3846,4621
3847,1044
3848,3846
3850,102
3850,119
3850,226
3850,263
3850,491
3850,569
3850,629
3850,809
3850,884
3850,927
3850,1432
3850,1467
3850,1928
3850,3463
3850,4385
3851,369
3852,1053
3852,1271
3852,2795
3853,45
3853,3284
3854,3802
3854,4029
3855,3500
3856,1030
3856,2790
3857,2476
3858,640
3859,502
3859,726
3859,782
3859,1473
3859,1688
3859,1775
3859,2337
3859,3012
3859,3971
3859,4835
3859,4843
3860,777
3860,2785
3860,3302
3861,2104
3862,209
3863,3180
3864,908
3864,1447
3866,4032
3869,969
3869,3898
3870,2458
3872,65
3872,409
3872,665
3872,1068
3872,2574
3872,2611
3872,2654
3872,3132
3872,3250
3872,3941
3872,3960
3872,4408
3872,4855
3873,2626
3874,1319
3875,3194
3876,253
3878,2877
3879,299
3879,549
3881,966
3882,685
3885,775
3885,4512
3890,1413
3890,4525
3894,52
3895,314
3898,4864
3899,136
3901,2941
3904,193
3904,473
3904,1146
3904,1271
3904,1618
3904,1799
3904,2254
3904,4792
3905,2516
3906,192
3907,2141
3909,2865
3915,523
3915,1842
3915,3804
3915,4797
3916,238
3917,1348
3917,2760
3917,2952
3918,2055
3919,626
3921,89
3921,247
3921,532
3922,192
3924,1076
3925,824
3925,1503
3925,1791
3925,3004
3925,4873
3926,3004
3928,1422
3929,4816
3930,3455
3932,1670
3934,297
3934,1467
3937,4204
3937,4998
3939,1938
3944,1433
3945,1915
3946,3199
3947,368
3948,558
3950,2602
3952,2339
3954,203
3955,1823
3957,497
3958,1244
3958,1929
3958,2129
3959,2498
3966,4152
3968,2979
3968,4401
3969,2616
3969,4332
3971,2977
3972,3563
3973,1191
3973,1337
3973,1950
3976,25
3976,535
3976,1614
3977,1246
3978,3376
3979,890
3980,1211
3984,1565
3991,448
3992,494
3995,599
3995,4201
3997,558
3998,2066
3999,348
4002,1711
4002,2626
4002,4617
4002,4798
4006,1543
4006,3754
4006,4539
4007,596
4009,3423
4010,2269
4012,2458
4012,4948
4013,133
4014,271
4016,917
4018,624
4019,4612
4019,4801
4020,218
4020,4411
4021,447
4021,1192
4021,1738
4023,632
4023,1729
4023,2344
4023,3282
4023,4582
4026,235
4026,333
4026,344
4026,669
4026,689
4026,1489
4026,1795
4026,3197
4026,4023
4026,4100
4027,378
4027,2774
4028,118
4028,1396
4030,434
4032,453
4032,843
4032,1044
4032,1672
4032,1744
4032,2476
4032,4015
4033,726
4033,4700
4035,3471
4036,1239
4038,686
4038,2194
4040,3428
4041,3863
4043,516
4044,236
4047,2469
4048,1201
4049,1013
4049,4149
4051,637
4052,1217
4052,4532
4052,4947
4052,4996
4055,1266
4056,796
4059,2236
4060,1887
4062,65
4062,89
4062,611
4062,2663
4065,3216
4066,579
4067,1030
4073,3447
4073,4210
4074,788
4074,2284
4074,2982
4074,3125
4074,3344
4074,3863
4074,3937
4075,2964
4076,3730
4077,3907
4077,4869
4078,341
4079,118
4080,1725
4081,3605
4082,959
4083,262
4085,121
4088,3276
4089,1120
4089,3207
4090,3711
4091,1051
4091,4291
4093,42
4093,815
4093,3382
4094,1767
4094,4379
4095,1543
4097,1256
4098,492
4099,818
4103,25
4103,630
4103,2773
4104,4236
4109,426
4109,2134
4110,2605
4110,4174
4111,3143
4112,1146
4112,3364
4113,538
4114,2992
4117,213
4117,282
4117,466
4117,669
4117,908
4117,3790
4117,4891
4118,637
4120,580
4121,718
4123,342
4124,535
4124,2633
4125,466
4126,173
4128,2342
4129,663
4134,2854
4135,2847
4135,4275
4137,3463
4138,3035
4138,4209
4139,790
4140,3273
4141,287
4142,3402
4143,120
4143,262
4143,1076
4143,1356
4145,2663
4147,334
4147,653
4150,750
4150,2961
4150,3151
4151,1614
4152,2706
4155,1786
4156,1667
4157,437
4157,968
4157,2479
4157,2909
4157,3127
4157,4223
4157,4984
4158,3694
4160,118
4160,524
4160,663
4160,2083
4162,1543
4163,1624
4164,233
4164,405
4164,523
4164,568
4164,609
4164,1057
4164,1318
4164,1677
4164,2459
4164,2536
4164,3103
4164,4419
4164,4929
4165,1908
4168,3027
4170,4361
4171,1261
4172,3389
4173,893
4173,4969
4174,1101
4176,171
4176,548
4176,579
4176,670
4176,1472
4176,2533
4177,2122
4178,4422
4180,171
4183,145
4185,159
4186,227
4188,1112
4188,3493
4191,376
4192,1449
4196,282
4197,1137
4198,1013
4198,4479
4199,2030
4200,3362
4203,421
4207,534
4208,3604
4210,2446
4211,4464
4211,4998
4212,3284
4214,2755
4214,3717
4214,4764
4215,2699
4219,161
4221,516
4221,4350
4222,1396
4224,3195
4225,2324
4227,751
4227,2710
4227,2916
4227,3820
4227,4558
4228,262
4228,424
4228,1724
4228,1898
4229,3482
4231,3
4231,1035
4231,1712
4231,2602
4231,3338
4235,3503
4235,3575
4236,1732
4237,3186
4237,4901
4239,1584
4239,4069
4244,1324
4244,3068
4246,798
4247,306
4247,2432
4247,3362
4248,1166
4249,851
4249,4846
4251,544
4252,1246
4253,2576
4254,2685
4259,2534
4260,215
4260,2516
4260,4578
4262,4067
4263,3887
4264,1269
4265,3039
4266,2085
4266,3027
4269,3605
4270,604
4272,2658
4273,4419
4274,2202
4277,3330
4277,4688
4279,408
4280,2485
4286,774
4286,4480
4287,64
4287,119
4287,195
4287,267
4287,530
4287,924
4287,941
4287,2174
4287,2412
4287,2704
4287,3399
4288,686
4289,685
4289,1141
4289,1332
4289,1387
4289,1823
4289,2128
4289,2325
4289,3111
4289,3816
4289,4624
4292,4017
4293,3226
4298,959
4298,4661
4299,1205
4301,294
4302,2068
4306,1830
4308,278
4309,30
4313,927
4313,4116
4314,3109
4315,4335
4316,3736
4318,1315
4318,2500
4319,3179
4320,641
4320,724
4320,1341
4320,2819
4320,2939
4320,3823
4320,4541
4323,2802
4324,1984
4327,1258
4327,2694
4329,97
4332,413
4334,1001
4334,4604
4336,1707
4337,1051
4338,1153
4339,61
4339,253
4339,805
4339,1287
4339,2068
4339,2345
4339,3250
4339,3595
4339,3664
4339,4050
4339,4998
4342,2124
4343,1499
4346,712
4347,1067
4348,437
4350,350
4350,1294
4350,4713
4351,482
4353,1784
4355,1030
4355,1314
4355,3027
4355,4243
4356,1030
4356,1371
4356,3980
4358,3438
4364,1910
4365,3427
4366,1890
4367,299
4368,21
4368,25
4368,1272
4368,1282
4368,1343
4368,1378
4369,521
4370,1261
4371,120
4374,3598
4376,1
4376,399
4376,640
4376,1403
4376,1430
4376,2388
4376,2405
4376,4372
4377,1101
4377,2322
4377,2343
4377,3640
4377,4032
4379,4032
4380,4032
4382,236
4384,548
4387,2051
4388,588
4389,4367
4390,2752
4390,3525
4390,3885
4393,544
4394,1402
4395,292
4395,382
4395,1231
4395,1739
4395,3659
4395,4766
4396,686
4404,4820
4405,1328
4406,310
4407,3559
4408,120
4408,145
4408,296
4408,337
4408,339
4408,790
4408,826
4408,1568
4408,2871
4408,3642
4409,2557
4412,2674
4413,5
4413,1731
4414,1394
4415,1046
4416,743
4416,1245
4416,1254
4416,1678
4416,2576
4416,3104
4416,3407
4416,3914
4416,4006
4416,4199
4418,121
4418,1322
4418,1382
4418,2375
4418,2595
4418,2686
4418,2951
4418,3366
4418,3774
4418,4373
4418,4454
4418,4548
4419,227
4420,1524
4420,1657
4420,2746
4420,2780
4421,1030
4423,4124
4426,153
4427,1464
4432,4291
4434,4377
4437,2245
4440,180
4440,265
4440,2487
4440,3388
4441,3521
4442,1511
4443,1853
4443,3594
4443,4873
4444,549
4445,272
4446,3713
4447,2115
4448,725
4449,1411
4450,2244
4451,1117
4452,1870
4453,2087
4453,3517
4453,4226
4455,394
4456,1080
4458,178
4460,3676
4462,686
4462,1206
4463,1050
4463,4359
4466,630
4467,3665
4469,4069
4470,1053
4473,14
4474,3195
4475,4204
4476,4589
4478,1699
4479,2418
4483,1101
4486,2537
4488,4289
4489,2225
4490,927
4491,2462
4493,3560
4495,247
4496,824
4499,530
4500,2204
4500,3761
4501,227
4501,1071
4501,3505
4502,74
4504,3042
4505,1077
4506,615
4506,1677
4507,3702
4508,452
4508,1374
4509,1244
4510,1900
4516,2477
4518,549
4518,2803
4518,3598
4519,65
4519,3907
4519,3964
4519,4621
4528,1112
4529,1932
4531,665
4532,691
4533,171
4533,2345
4534,534
4535,1534
4541,1947
4542,3622
4543,247
4544,2083
4545,2556
4547,1170
4549,2750
4550,4664
4552,3499
4553,2576
4554,4582
4554,4706
4554,4758
4555,119
4557,326
4557,2385
4558,1073
4558,2088
4558,4962
4562,491
4562,2450
4562,3189
4563,2537
4564,31
4565,2255
4566,2835
4567,3823
4568,194
4568,1406
4569,171
4570,3397
4574,1225
4575,423
4575,612
4575,2942
4576,4438
4577,178
4578,4532
4579,1917
4581,3284
4582,42
4582,1136
4582,1841
4582,2017
4582,3381
4583,4929
4585,1788
4586,3140
4589,3341
4590,1624
4591,1114
4591,4520
4593,4375
4594,3179
4596,4775
4597,84
4597,647
4597,3923
4598,2565
4604,2959
4605,1211
4608,30
4609,1834
4610,691
4613,3110
4614,1865
4616,218
4616,4585
4622,2852
4628,70
4628,91
4628,203
4628,301
4628,350
4628,434
4628,516
4628,544
4628,1077
4628,1937
4628,2051
4628,2309
4628,2714
4628,2776
4628,2801
4628,3012
4628,3527
4629,796
4629,1367
4631,1300
4631,2823
4632,429
4632,699
4632,3455
4633,3516
4633,4921
4634,171
4636,439
4637,1234
4638,2575
4641,4115
4642,2779
4643,398
4647,162
4649,1567
4650,1639
4651,961
4653,4053
4658,1589
4659,2375
4662,626
4663,889
4665,2774
4666,1
4666,3074
4668,118
4669,957
4671,1067
4672,4000
4674,134
4674,857
4674,1800
4674,2448
4675,198
4677,683
4679,1343
4680,39
4680,1559
4682,817
4684,429
4685,2576
4686,107
4687,3740
4689,2865
4692,297
4693,300
4694,3893
4695,314
4696,1886
4698,1027
4699,4843
4702,426
4703,379
4703,536
4703,725
4703,1569
4703,2516
4703,2995
4703,3970
4703,4556
4703,4963
4705,3499
4706,2337
4707,2824
4708,4363
4709,565
4709,3481
4709,4359
4710,424
4710,534
4710,2157
4710,2268
4711,604
4712,91
4714,1197
4717,98
4717,1340
4717,2526
4717,2556
4717,3026
4717,3149
4717,3891
4717,4351
4718,4715
4720,4520
4721,2071
4722,3452
4726,675
4726,1106
4726,1333
4726,2451
4726,3722
4727,509
4729,159
4732,120
4734,640
4735,183
4735,4195
4736,673
4737,4355
4738,3174
4739,3634
4740,4532
4742,2339
4743,2964
4744,1447
4745,223
4745,1071
4745,1418
4745,1650
4746,969
4746,1842
4746,3688
4748,1767
4749,4152
4750,212
4750,1447
4751,39
4752,2809
4755,3376
4756,521
4757,516
4758,3410
4759,2693
4760,3020
4761,963
4761,4999
4762,2115
4765,1187
4767,875
4768,1156
4769,3061
4770,2674
4771,3039
4772,353
4774,25
4774,81
4774,413
4774,418
4774,1326
4774,1577
4774,1802
4774,2242
4774,2255
4774,2312
4774,2674
4774,2742
4774,3429
4774,3557
4774,3601
4774,3736
4774,4625
4774,4800
4774,4965
4775,4009
4777,479
4778,3035
4779,3751
4781,612
4782,347
4784,546
4785,2147
4786,3259
4791,413
4799,871
4803,253
4804,1390
4804,2246
4804,4910
4806,2221
4806,4897
4808,3177
4809,3604
4811,1171
4812,299
4812,1077
4812,2354
4812,2412
4812,4989
4813,505
4816,3093
4818,4204
4820,1315
4822,1489
4824,685
4825,173
4826,431
4827,2240
4829,879
4829,892
4833,3020
4834,523
4834,4008
4834,4106
4834,4946
4835,3453
4836,2127
4837,2480
4839,4032
4840,1199
4845,665
4847,2324
4848,3779
4850,532
4851,263
4852,1194
4853,4243
4854,4843
4854,4967
4857,2411
4858,4152
4860,3647
4862,1657
4863,136
4863,159
4864,2115
4866,2562
4867,1993
4871,1890
4874,4944
4874,4984
4877,4523
4878,325
4879,847
4880,3677
4881,3292
4884,774
4884,3013
4884,3911
4886,1166
4886,3686
4888,581
4892,270
4894,1200
4901,4264
4903,1282
4905,705
4906,233
4908,2259
4909,2776
4911,2838
4912,227
4913,805
4913,889
4913,4730
4916,3727
4918,643
4918,1225
4922,1066
4928,1834
4929,1521
4931,3751
4932,46
4932,178
4932,211
4932,245
4932,519
4932,520
4932,1447
4932,2307
4932,2419
4933,553
4933,4046
4936,3456
4938,81
4939,4092
4940,118
4940,282
4940,509
4940,1499
4940,1596
4940,2827
4940,3300
4942,196
4942,1624
4942,2217
4942,3267
4944,4282
4945,87
4949,977
4950,119
4950,353
4950,4300
4951,4004
4952,2944
4954,1788
4955,3284
4956,2473
4958,1562
4959,4116
4959,4278
4960,3571
4963,294
4963,1066
4963,1351
4963,1686
4964,2575
4965,42
4965,359
4971,299
4971,2964
4973,9
4974,91
4974,4152
4974,4820
4975,260
4975,1039
4975,1247
4975,3912
4978,2960
4979,4816
4980,1246
4982,978
4982,1794
4982,4802
4985,2288
4986,536
4986,1251
4986,2323
4986,3056
4986,3320
4986,3482
4987,233
4987,754
4990,3312
4990,4112
4991,2959
4992,4696
4994,1908
4995,634
4997,227
4997,733
4997,917
4997,2199
4998,3815
