src,dst
0,1
7,24
10,1973
12,1772
12,1834
12,1889
15,732
15,1422
15,2338
16,3151
17,251
17,1600
17,1775
17,2585
17,3260
17,3326
17,3357
17,3416
17,3625
17,4470
18,201
18,1994
18,2248
18,2471
18,3479
18,4883
19,4659
20,172
20,278
20,1001
20,1247
20,1652
20,3696
22,1574
23,3304
25,617
25,3352
25,3713
25,4198
26,1094
26,2759
27,113
27,590
27,1956
27,3070
27,3158
27,3629
27,3751
27,4432
27,4690
29,1617
30,1920
30,2004
30,3125
30,4064
32,902
33,1517
33,1567
34,204
34,301
34,1327
34,2908
34,3096
34,4602
35,1221
36,4949
37,441
37,665
37,1541
37,1928
37,2994
39,158
39,675
39,1102
39,1311
39,2270
39,2311
40,56
40,237
40,362
40,636
40,1268
40,3078
40,3128
40,3132
40,3344
40,4165
43,1011
43,1048
43,2992
43,3583
44,1125
44,1264
44,2665
44,4272
44,4626
47,192
47,755
47,4948
49,3781
53,1197
58,4522
58,4853
60,89
60,2363
61,1560
63,50
63,89
63,129
63,564
63,1225
63,1516
63,1755
63,2699
63,2740
64,369
64,430
64,1189
64,4711
67,748
67,1363
67,3918
69,1054
69,1074
69,1239
69,1886
69,2133
69,3645
69,4641
69,4975
71,2349
72,330
72,1213
72,2316
72,4890
73,2275
73,3601
73,4512
74,419
74,1540
74,4565
75,2221
75,3759
76,244
76,920
76,3303
76,3534
76,3835
76,4325
76,4376
78,633
78,669
78,761
78,1681
78,1955
78,2083
78,2158
78,3898
78,4501
79,94
79,98
79,1295
79,1684
79,2827
79,2860
79,4774
82,716
82,756
82,1612
82,2209
83,1557
83,1820
85,174
85,3344
88,651
88,1847
88,2079
88,2398
88,2521
88,2735
88,4558
89,2767
89,3206
89,4924
91,100
91,3210
91,4802
92,1270
92,1512
92,2189
92,2462
92,3551
92,4416
92,4451
93,42
97,887
99,576
99,1710
99,3531
102,110
102,989
102,1713
102,2168
103,4826
104,3934
104,4187
107,256
107,574
107,657
107,731
107,1221
107,1233
107,1884
107,1964
107,2026
107,4546
107,4585
111,250
111,1746
111,4212
112,449
113,2
113,3972
114,1190
114,3396
115,350
115,2083
115,2955
115,3511
116,137
116,402
116,3780
116,3892
116,4582
117,2053
120,95
120,228
120,1588
123,425
123,749
123,2276
124,109
125,2173
127,44
127,420
127,1413
127,3389
127,3870
128,1229
129,4985
130,627
130,716
130,1998
130,4856
131,230
131,883
131,2242
131,2507
131,2738
138,365
138,2294
138,2373
138,3308
138,4773
141,1326
143,2704
143,3103
145,4804
146,721
146,4198
147,1317
147,1669
147,2217
147,2311
147,3783
147,4259
148,1402
148,2264
148,2471
148,2654
148,4539
148,4946
149,1997
149,2444
150,441
151,109
153,1594
153,2696
153,3899
155,1720
156,264
156,875
156,1098
156,1911
157,167
157,1414
157,1566
157,4107
157,4141
157,4890
159,296
159,4392
160,2430
160,2582
161,4368
161,4439
163,3947
164,4635
165,118
166,68
166,81
166,289
166,1025
166,1146
166,1376
166,1810
170,57
175,1647
175,2300
175,2619
175,3137
175,3986
175,4233
175,4840
176,933
177,3889
179,1321
179,1724
179,2941
179,4151
179,4181
181,4635
187,948
187,2392
187,2424
188,278
188,502
188,542
188,767
188,940
188,1004
188,1147
188,2840
188,3344
188,3358
188,3917
188,4377
189,357
189,818
189,3239
189,3951
189,4572
190,762
190,4011
191,2102
191,2438
191,3023
194,4396
194,4841
195,831
195,2577
196,59
196,451
196,660
196,724
196,2511
196,2642
196,3008
196,3367
196,4205
197,815
197,986
197,1831
197,1943
197,3922
199,4927
201,1274
203,333
203,386
203,600
203,880
203,1747
203,3207
203,3765
204,3592
204,4266
206,173
207,407
207,1816
207,2037
207,2721
207,3834
207,3847
208,51
208,3593
210,508
210,1684
210,2707
211,2200
212,100
212,303
212,2646
213,144
213,209
213,495
213,566
213,1597
213,2336
213,2605
213,4295
216,353
216,1402
216,2272
217,3862
219,1248
219,1694
221,596
221,782
221,1536
221,1595
221,2155
221,2406
221,2916
222,4804
224,244
224,651
225,3683
231,937
231,1095
232,540
232,3344
232,3468
232,3757
232,4413
236,311
236,3607
238,696
238,1020
238,2267
238,4868
240,2629
242,977
242,4806
245,110
245,2044
246,621
246,1471
246,2885
247,742
247,1578
247,1803
247,3111
247,3591
247,4204
247,4523
253,1632
253,2762
254,248
254,445
254,593
254,1339
254,1403
254,1739
254,3112
254,3659
255,113
255,838
255,1819
255,1979
255,2760
258,2907
259,183
259,1606
259,4327
261,308
261,1263
261,1399
261,2521
261,2908
262,381
262,1935
262,2891
262,4741
264,773
264,4610
265,2521
265,3131
265,3554
265,3993
266,829
266,1013
266,1321
266,2311
266,3015
266,4088
266,4991
270,461
270,692
270,768
270,1295
270,2099
270,2161
270,2701
270,3554
270,3678
270,3937
270,4857
271,591
271,2124
271,2383
271,4761
273,101
273,3573
275,2082
275,3253
279,394
279,396
279,689
279,1183
279,2523
279,2550
279,3050
279,3241
279,4788
280,244
281,9
281,56
281,2095
283,202
283,311
283,1389
284,2679
284,3344
284,3897
285,1294
285,3259
285,3536
285,4479
286,470
286,1578
286,3974
288,311
288,1352
288,3036
289,322
289,503
289,1598
290,337
290,2321
291,14
291,4449
292,363
292,528
292,592
292,897
292,1837
292,1932
292,1984
292,2880
292,3103
292,3278
292,4339
298,3864
299,779
299,1243
300,3393
304,672
304,679
304,1426
304,1791
305,3683
306,77
306,1279
310,699
312,1259
312,1371
312,3484
312,3859
314,553
314,2661
314,4731
317,4797
320,625
320,3086
321,570
321,1197
321,1369
321,1511
321,1608
321,1755
321,1768
321,3007
321,4720
323,1038
323,1222
323,1250
323,2867
323,3160
325,3423
326,1399
327,733
327,752
327,2412
328,676
328,1597
329,77
329,4934
332,310
332,1132
332,2034
338,1353
338,3867
339,746
339,4099
339,4736
341,1052
343,1244
343,3522
343,4486
345,2043
348,419
348,1918
348,2555
348,2861
348,3018
352,141
352,1442
352,3937
352,4810
354,3207
355,2335
355,4858
356,106
356,2100
358,2599
358,4030
359,3120
360,767
360,3777
366,204
366,788
366,1494
366,2303
366,3974
367,294
367,377
367,1102
368,634
368,1684
368,2015
370,1738
370,1913
371,626
371,2667
371,4824
372,714
372,4855
373,2033
375,310
375,1007
378,645
378,669
378,1522
378,4613
380,178
384,1589
384,2409
384,3588
384,3656
388,1243
388,4913
389,41
389,3891
390,386
390,2142
390,2160
390,3651
391,3404
392,346
392,1118
392,2824
392,3952
396,382
396,4544
397,2444
397,3792
400,651
403,362
403,1695
404,585
404,2048
405,2125
405,2313
405,3394
405,4678
406,2
406,2557
406,2633
406,3181
408,1688
408,2950
408,3068
408,3405
408,4353
409,504
409,2009
409,2177
409,2598
409,2726
409,2843
409,3921
409,4351
409,4932
410,4451
411,1120
411,3526
412,2071
413,214
414,526
414,932
414,1129
414,1637
414,3702
414,4528
415,3885
415,4997
416,1405
416,4761
417,1339
418,3394
421,655
421,1469
421,2506
421,2554
424,709
424,713
424,2432
424,4171
426,1490
426,1776
427,250
428,132
428,2510
428,2574
429,3543
429,3761
431,2276
433,3426
434,532
434,1243
434,3333
438,239
438,4541
439,180
440,1170
440,1913
440,3843
441,4167
442,2412
442,3169
444,4451
445,4628
446,12
446,121
446,1331
446,4170
447,293
449,1637
449,2279
449,2695
449,3258
449,4344
449,4448
450,1637
450,1940
454,660
454,1479
454,2227
455,1543
455,3914
456,208
456,896
456,3109
457,106
457,652
457,725
457,1843
457,2212
457,4953
458,4986
460,1728
460,4512
460,4709
462,272
463,1092
463,1145
463,4780
464,244
464,1831
464,3025
465,736
465,1472
465,2371
466,1843
467,90
467,1939
467,2457
468,1683
468,2768
468,3023
470,2299
472,1249
472,1554
472,4213
475,223
475,600
475,1466
475,2288
475,2309
475,3862
475,4318
475,4872
476,121
478,3480
479,1210
479,1707
479,1913
479,2583
479,4313
479,4422
479,4554
479,4631
479,4921
480,619
480,804
481,1586
481,1952
484,643
484,782
484,1044
484,1744
484,2684
484,2709
484,2801
484,3287
484,3344
484,3677
484,4799
485,983
485,2351
485,2941
486,1719
488,90
488,3500
488,4184
490,4818
491,1
491,3953
492,70
494,3109
494,4070
498,126
498,556
498,733
498,867
498,1088
498,2110
498,2712
498,3189
499,1813
499,2566
499,4268
500,1854
500,2066
500,2162
500,3858
501,3085
501,3550
507,363
507,382
507,1018
507,1026
507,1326
507,2137
507,2483
507,3417
507,3988
507,4879
507,4999
508,1492
509,84
509,878
509,1424
509,1660
509,2593
510,202
510,915
510,1857
511,282
511,737
511,1367
511,2082
511,2107
511,4837
514,782
514,1000
515,113
516,1247
516,3804
516,3914
516,4321
519,87
519,103
519,835
519,1482
519,1683
519,1954
519,2308
519,3361
519,3363
519,4586
520,4368
521,287
521,1391
522,28
522,3668
523,859
524,747
524,1878
524,2601
524,3120
525,921
525,1147
525,2929
525,4157
527,1355
527,2327
527,2594
527,3060
528,2913
528,3656
529,387
530,59
531,2545
531,2748
531,4815
534,559
534,1229
534,2075
534,3391
534,3973
534,4023
534,4068
537,311
537,2761
538,45
538,230
538,2602
538,2645
538,2754
542,571
542,765
542,1146
546,54
546,828
546,945
546,1760
546,1802
546,2356
546,2432
546,2586
546,2998
546,3458
547,1581
547,2071
547,3186
549,4392
550,182
551,2
551,211
551,1528
553,2687
554,50
554,382
554,1842
554,2305
554,3837
554,4025
554,4867
555,4389
557,803
557,2390
558,120
558,1065
558,3351
558,3767
558,3883
558,4330
558,4782
560,1196
560,3537
560,4379
560,4569
562,910
562,1514
563,208
567,646
567,1963
567,2074
567,2265
567,2801
567,3047
568,349
569,180
569,908
570,335
570,3148
570,3422
572,802
573,4544
575,2344
577,3119
577,4804
578,2406
578,3081
578,3366
578,3828
579,4055
579,4972
580,95
580,787
580,1262
580,1465
580,1787
580,1949
580,2028
580,4710
582,2747
582,4555
584,1121
584,1180
584,1384
584,2026
584,4409
593,795
593,3004
593,4601
594,122
594,1406
595,4221
597,4279
598,670
598,701
598,917
598,1062
598,2410
598,2580
598,3976
598,4414
599,972
599,1915
603,223
605,767
605,2320
605,2964
607,11
607,363
607,822
607,955
607,1261
607,2610
607,2732
607,4733
608,6
608,379
609,135
609,510
609,1702
610,3683
610,3947
612,716
613,106
614,4221
616,1474
616,1660
616,4643
618,361
619,28
619,1398
619,2282
619,3682
619,4927
620,4280
622,204
624,397
624,1174
624,2822
624,4636
624,4964
625,382
625,1050
628,122
628,764
628,4694
629,200
632,112
633,65
634,239
634,4198
637,425
637,3716
638,397
638,2536
639,783
639,826
639,897
639,1381
639,1617
639,1981
639,2027
639,2962
639,3114
640,4824
641,171
648,586
648,4843
649,1704
649,2319
649,2406
650,129
650,2844
652,545
652,4230
653,2165
654,2760
658,3169
659,3844
661,2640
662,334
663,1843
663,2390
666,576
666,2283
666,2508
666,4256
668,664
671,184
673,952
673,4683
673,4773
674,2598
676,2286
677,209
677,657
677,4427
678,77
678,1901
678,2182
678,3819
682,205
682,482
682,647
682,818
682,2182
682,2256
682,2269
684,636
684,3174
684,4622
685,168
685,2494
686,1500
686,2050
686,4479
686,4802
687,4934
688,583
691,121
693,4207
693,4736
696,57
696,1316
696,3656
697,4013
699,2183
699,2291
699,2406
703,1186
703,1880
703,2616
704,125
704,572
704,619
704,1626
704,2081
704,2109
704,2129
704,2358
704,3357
704,3914
705,1366
705,2276
706,425
706,976
706,3043
706,3378
706,3477
707,387
707,1044
707,1663
707,3579
708,1742
710,4051
710,4562
711,2941
712,968
712,1639
712,2449
712,4182
712,4274
712,4892
715,113
715,3720
715,4813
716,993
716,1674
716,2968
717,186
720,4965
722,6
723,1145
723,1732
726,1320
726,4853
729,42
729,180
729,1413
729,2855
729,3778
729,3852
729,4032
729,4974
734,2640
738,4555
739,505
739,1137
740,4503
741,269
741,1254
741,1385
741,3229
741,3842
743,1052
744,3892
750,211
750,1457
751,1243
755,910
755,1220
755,1458
755,2228
755,3567
755,3821
755,3980
755,4053
755,4882
757,4431
758,3642
758,3772
759,627
763,1660
769,309
769,1280
769,4420
770,211
770,3438
771,254
772,4872
775,943
775,2400
776,118
776,249
777,136
777,572
777,2017
780,328
780,947
781,1388
781,2132
781,2495
781,4303
784,1429
784,2583
784,2788
784,2886
784,4663
785,81
785,1248
785,1797
785,2632
788,363
788,3982
790,228
791,2349
791,2748
797,2406
798,2131
798,2402
798,3416
799,497
800,272
800,1906
800,4783
801,347
801,1430
801,2945
801,3231
802,21
802,234
802,361
802,1190
802,1790
802,2103
802,2375
802,2450
802,2537
802,3652
802,3745
802,4423
802,4544
802,4916
805,340
805,3439
806,3240
809,3676
810,565
814,3414
814,3432
814,4334
814,4689
816,2457
817,621
817,1109
817,2711
817,3505
818,962
818,2994
819,799
819,3650
820,1143
820,2213
820,2742
820,3515
820,3930
821,761
821,1515
821,4251
821,4684
821,4806
823,470
823,1556
823,2175
825,1333
830,282
832,737
832,1583
832,2594
833,228
833,1203
833,2215
833,3138
836,600
837,452
838,2878
839,1507
839,1618
841,698
841,2435
841,4036
842,2554
843,1670
843,3464
843,3810
843,3914
843,4266
844,478
844,1869
846,824
848,2077
848,3795
848,4305
849,4780
852,293
852,1155
852,2287
853,1480
853,1844
853,2491
853,3426
853,4123
854,1353
854,1596
855,209
856,619
856,4389
857,309
857,1197
859,171
859,235
859,2355
859,3949
859,4708
860,132
861,4633
862,815
862,1856
862,2429
862,3669
862,4244
863,471
864,752
864,1968
864,4060
865,2026
865,4703
866,272
866,3236
868,2802
868,4332
869,2802
871,171
871,351
872,2928
873,118
873,2380
876,492
878,1715
878,3741
881,233
881,483
885,218
885,3321
885,4331
888,505
888,4291
889,436
890,1315
890,1728
890,2406
890,2672
891,144
891,2662
893,1181
893,1569
893,1637
893,1893
893,4468
893,4738
894,2667
894,3139
895,2068
895,4152
895,4614
898,239
899,56
899,606
899,2006
899,2197
899,2220
899,2406
900,453
901,3451
901,4623
903,1332
904,132
904,1191
904,4904
905,1959
905,3071
909,28
911,783
912,336
912,1709
913,3051
916,1823
916,1931
916,2601
916,4226
918,4675
919,1790
922,1813
922,3042
923,1918
923,2991
924,783
925,250
925,2805
925,4119
925,4573
926,816
926,1006
926,2389
926,2419
927,13
927,956
928,1409
928,4964
931,670
934,81
934,318
935,1054
935,3263
936,960
936,1276
936,1295
936,2493
936,2725
936,3318
936,3524
936,4276
937,337
937,2864
937,4160
939,1970
939,3393
940,2
940,656
940,774
940,1839
940,2797
940,3182
941,162
941,3932
941,4442
942,545
946,11
947,681
947,1160
950,3772
951,1322
951,1826
951,3027
951,4894
957,51
957,2148
959,799
959,1621
959,2789
961,9
963,1038
965,2581
965,4555
967,186
967,971
967,2245
973,473
973,1552
975,436
975,1515
975,2020
975,3699
975,3707
975,4253
979,1138
979,1503
979,3550
979,4403
979,4949
980,4555
981,2898
981,3000
981,4647
982,136
989,84
990,3772
992,4317
994,132
995,1525
995,1607
995,4097
996,4773
997,1338
997,1713
997,2344
998,528
998,4798
999,886
1002,180
1002,741
1002,1104
1005,313
1005,1473
1005,2808
1005,2987
1005,3180
1005,3227
1008,519
1008,4834
1009,309
1009,2959
1009,3709
1009,4017
1012,2802
1015,4872
1016,726
1016,2216
1018,4221
1019,508
1021,656
1021,2928
1021,3542
1021,4993
1023,2968
1024,436
1027,105
1027,2741
1028,122
1028,4534
1032,4722
1033,818
1034,541
1034,1153
1034,1815
1035,918
1036,716
1037,694
1037,1783
1037,2489
1039,381
1039,1850
1042,716
1042,3098
1043,4225
1046,121
1047,278
1049,2459
1051,1717
1051,1809
1051,1920
1052,168
1052,3026
1052,4473
1053,303
1053,2539
1053,4352
1055,966
1055,1730
1056,215
1058,953
1060,3393
1061,519
1061,1328
1061,2223
1061,3014
1061,3395
1061,3398
1061,3818
1061,4289
1061,4474
1063,234
1063,816
1063,1483
1063,1757
1063,3382
1063,4225
1064,735
1064,2284
1070,2865
1071,4512
1071,4842
1072,4161
1074,1491
1075,2357
1077,186
1078,4749
1079,182
1079,2025
1080,106
1080,2321
1080,4102
1080,4451
1082,897
1083,471
1084,2159
1084,2444
1085,962
1085,4387
1086,765
1086,1765
1087,583
1087,1611
1089,1022
1089,3900
1090,287
1093,41
1094,38
1094,683
1094,1041
1094,1386
1094,1877
1094,2145
1094,3341
1097,776
1097,3424
1097,4652
1099,587
1099,2813
1099,4084
1101,385
1101,2680
1103,596
1105,497
1105,1792
1105,2640
1105,3722
1106,571
1106,2167
1106,2589
1106,4045
1106,4535
1107,4640
1108,1402
1110,2471
1112,474
1112,1026
1112,4349
1114,56
1116,6
1116,2561
1116,2888
1116,4067
1117,1446
1117,2343
1119,914
1119,954
1119,2045
1119,2351
1119,3120
1120,943
1120,4736
1121,690
1121,3322
1121,3876
1122,7
1122,4706
1123,186
1124,1920
1124,4790
1127,3762
1127,4066
1128,4423
1130,2521
1131,1754
1131,2194
1131,2330
1131,4697
1134,2260
1134,2266
1135,451
1136,461
1136,2060
1136,2686
1136,2968
1140,178
1140,1410
1140,1656
1140,1752
1140,2106
1140,3758
1141,2224
1141,3296
1141,4555
1142,381
1144,5
1144,2035
1148,1924
1149,4364
1150,668
1150,962
1151,3862
1154,48
1154,1831
1154,2838
1154,3327
1155,74
1156,449
1156,2937
1157,933
1159,218
1160,190
1160,3544
1163,4522
1165,886
1165,906
1165,4814
1168,592
1169,2832
1169,4012
1171,778
1171,4113
1172,4212
1176,818
1176,1798
1178,752
1178,1177
1179,178
1184,989
1185,1969
1185,4468
1186,773
1186,3689
1188,1145
1188,1849
1188,4625
1190,302
1190,4137
1193,3416
1194,1003
1194,2257
1194,2435
1194,4298
1195,2807
1197,600
1197,2417
1197,3566
1197,4673
1198,37
1198,981
1199,2730
1200,875
1201,8
1202,816
1205,1776
1205,4600
1206,1658
1206,3337
1208,1029
1209,675
1212,2395
1212,2896
1212,3815
1212,4198
1212,4816
1214,7
1214,2664
1215,1170
1216,2015
1217,2328
1217,2440
1217,2924
1217,3513
1217,4544
1218,1606
1218,3840
1218,4346
1219,1946
1219,2093
1219,2163
1219,3307
1222,505
1222,1330
1223,1840
1223,2526
1223,4934
1224,313
1225,382
1225,1008
1226,924
1227,870
1228,4852
1231,282
1233,4338
1234,3373
1234,3656
1235,1221
1235,1356
1235,2292
1235,3746
1235,3937
1235,4692
1238,1673
1240,214
1241,725
1242,184
1242,3835
1243,1020
1243,2192
1243,3332
1243,3685
1243,4859
1243,4920
1244,2900
1245,451
1245,1973
1245,2615
1245,3535
1245,3541
1248,3340
1251,529
1251,1592
1251,3656
1252,2024
1252,2802
1253,713
1253,1653
1253,3444
1255,718
1256,52
1257,3077
1257,3841
1257,4105
1257,4193
1257,4934
1258,596
1260,2375
1264,102
1264,953
1264,1059
1264,2674
1264,3732
1264,3965
1264,4909
1265,1550
1265,2158
1265,3103
1266,13
1268,3451
1268,4730
1269,2316
1270,737
1270,4617
1272,4934
1273,374
1273,587
1273,1340
1273,1585
1273,2183
1273,2316
1273,3516
1273,3865
1273,4456
1275,1324
1275,1667
1275,3043
1275,3785
1275,4142
1277,776
1278,2190
1278,2667
1278,3612
1278,3688
1278,4667
1281,1270
1281,1349
1281,3571
1283,545
1284,2219
1284,2968
1284,4649
1285,2704
1287,144
1287,2620
1287,3008
1287,4758
1288,508
1289,782
1289,1606
1289,2352
1289,2856
1290,2952
1290,4370
1290,4379
1290,4417
1291,727
1293,604
1297,315
1297,3217
1298,554
1298,2447
1298,4134
1299,1776
1302,1899
1303,227
1303,1018
1303,1309
1303,1496
1303,1920
1303,1937
1303,3494
1303,4441
1305,2633
1305,2995
1306,200
1307,379
1307,2276
1307,4255
1307,4310
1310,807
1310,1002
1310,1339
1310,2021
1310,2121
1310,2519
1310,2907
1310,2958
1310,3063
1310,3602
1310,4292
1310,4741
1311,3457
1313,730
1314,139
1318,432
1318,1883
1319,106
1319,2232
1323,3680
1325,86
1325,1096
1325,1520
1325,1613
1327,2925
1329,670
1329,944
1333,318
1334,1174
1334,3411
1334,4428
1336,3772
1336,4279
1337,14
1337,1440
1337,1441
1337,1580
1337,1808
1337,2421
1341,826
1343,626
1344,226
1345,2015
1345,3491
1346,713
1346,2498
1346,2529
1346,3184
1346,4736
1346,4796
1347,1311
1348,1616
1350,2406
1351,132
1351,733
1351,969
1351,2433
1351,2744
1354,3455
1357,174
1357,2765
1357,2835
1357,3766
1357,4194
1358,505
1358,3370
1359,815
1359,1412
1360,2777
1362,587
1362,2852
1362,2902
1362,3037
1362,4709
1363,3293
1363,4657
1364,1640
1364,3684
1365,318
1368,6
1368,1551
1368,2394
1368,3476
1370,126
1370,3666
1371,436
1372,811
1372,4423
1373,7
1374,204
1374,3005
1375,978
1375,2968
1377,2082
1378,1831
1379,822
1379,2258
1379,4111
1379,4232
1380,3682
1382,4890
1387,505
1387,4606
1390,496
1390,2031
1392,1014
1392,2873
1392,4081
1392,4659
1393,1271
1393,1452
1393,3452
1393,3487
1394,651
1394,1875
1394,2080
1394,3196
1394,4611
1394,4741
1395,57
1396,184
1396,1716
1396,4368
1398,496
1398,1383
1400,162
1401,4934
1404,1190
1404,2939
1408,3082
1409,910
1412,782
1412,2476
1412,4348
1415,745
1417,2868
1417,4736
1418,1270
1419,122
1419,2591
1419,4329
1420,1326
1421,168
1421,4451
1421,4833
1423,782
1423,2372
1423,2676
1423,2971
1425,172
1425,3235
1428,1145
1428,3090
1429,3110
1429,4786
1431,1508
1433,924
1433,2517
1433,3364
1433,4333
1435,2968
1438,553
1438,1874
1438,4301
1438,4629
1446,619
1447,1369
1449,56
1450,4479
1453,815
1454,49
1454,3730
1455,87
1456,62
1456,276
1456,3201
1458,1825
1458,2465
1458,3178
1458,3406
1458,4821
1459,754
1459,2527
1459,3463
1460,644
1460,3462
1461,736
1463,87
1463,4919
1467,473
1467,2651
1467,3134
1467,3488
1467,4477
1468,395
1470,1335
1474,969
1476,1301
1477,109
1477,3083
1477,3213
1477,3555
1477,3576
1478,4554
1484,56
1485,126
1485,168
1485,3065
1485,3831
1486,314
1486,4380
1487,1325
1488,1739
1493,1104
1498,943
1499,180
1501,2911
1502,974
1502,3323
1502,4126
1504,626
1504,736
1505,2551
1505,2592
1505,3262
1505,3646
1505,4286
1506,1166
1506,1262
1506,2323
1506,2723
1507,1162
1508,1177
1509,824
1509,2948
1510,46
1510,1308
1510,1791
1510,1927
1515,1182
1517,264
1517,1057
1517,2997
1517,4412
1518,747
1519,2259
1519,2538
1519,4885
1519,4917
1521,100
1521,2267
1523,4314
1523,4809
1524,1469
1527,182
1527,478
1527,2434
1527,3680
1527,4543
1530,2802
1532,186
1533,445
1534,1831
1534,2385
1535,38
1535,3294
1537,1115
1538,586
1539,2213
1539,2710
1539,3433
1539,3995
1545,307
1547,1852
1548,487
1550,2907
1551,3094
1553,1003
1553,2769
1554,2361
1554,2576
1554,3279
1555,171
1557,169
1558,1831
1558,2289
1558,3798
1558,3921
1559,3986
1560,1769
1560,2108
1560,3356
1561,548
1561,1081
1561,2700
1561,3264
1561,3416
1562,1170
1563,1556
1564,2121
1564,3933
1565,192
1565,2749
1567,1282
1571,875
1572,586
1573,2951
1574,2630
1574,3118
1575,121
1576,696
1576,2131
1577,845
1577,2011
1577,3666
1577,4016
1579,223
1582,2941
1583,3265
1584,81
1584,1864
1584,2005
1584,2399
1584,3163
1584,3578
1587,4798
1590,1529
1590,2237
1599,1471
1599,2728
1601,445
1601,3338
1602,827
1602,933
1602,2117
1602,2802
1602,3359
1603,436
1603,2668
1603,3387
1603,4231
1604,385
1604,2745
1604,3915
1605,1940
1606,3340
1609,2968
1609,3257
1610,346
1610,589
1610,1100
1610,2134
1610,3229
1610,4488
1614,357
1614,652
1614,3336
1615,2026
1615,4240
1619,783
1619,2071
1619,4144
1622,365
1623,1361
1624,988
1624,4468
1625,81
1625,1549
1627,1511
1629,2521
1630,223
1633,2876
1634,635
1636,2832
1636,3124
1637,180
1638,1311
1642,2062
1642,2626
1642,2705
1643,2419
1643,3330
1644,1182
1645,1092
1646,136
1646,2422
1646,3692
1649,6
1649,1691
1649,4378
1654,11
1654,793
1654,2276
1654,2576
1654,3044
1654,4164
1655,1658
1657,746
1658,598
1658,2760
1659,4790
1660,336
1660,4955
1662,106
1662,4700
1664,4221
1665,2977
1668,335
1668,2895
1669,1158
1669,2563
1672,1210
1672,1838
1673,3304
1673,3935
1675,505
1676,2273
1677,645
1678,289
1678,987
1678,2512
1679,178
1679,1708
1680,4949
1682,121
1682,1508
1682,3628
1684,4324
1685,200
1686,16
1686,3713
1687,1153
1687,2169
1687,2310
1687,4905
1689,318
1689,1317
1690,218
1692,3298
1696,4944
1697,1631
1697,2213
1697,2481
1697,4912
1698,1010
1699,1074
1699,3506
1700,713
1703,2733
1705,89
1706,68
1706,903
1709,294
1709,432
1709,1910
1709,3212
1709,4970
1711,1326
1714,1026
1714,2387
1714,2675
1714,4028
1714,4472
1717,487
1717,576
1717,695
1717,1067
1717,3317
1717,3475
1718,1145
1719,4479
1720,120
1721,3071
1722,204
1722,215
1722,2531
1722,2757
1723,4486
1725,543
1725,613
1725,2280
1725,4382
1726,2276
1727,32
1727,293
1727,966
1727,1920
1727,2569
1727,4367
1727,4651
1729,2459
1733,1296
1733,4707
1734,1321
1734,2164
1735,45
1735,1525
1735,1568
1736,2671
1737,52
1737,1045
1737,1325
1737,3647
1739,3340
1741,3077
1741,4350
1743,3017
1745,895
1745,2968
1750,2564
1750,3445
1750,3795
1751,32
1753,719
1756,56
1759,2877
1760,1628
1761,1096
1762,2353
1762,3727
1763,121
1764,1581
1767,1945
1767,3881
1767,4852
1769,2640
1770,773
1773,2802
1774,168
1774,2774
1777,4824
1778,1102
1778,1800
1778,2295
1779,585
1779,4261
1781,4824
1782,1013
1783,3344
1785,200
1786,882
1786,924
1786,1268
1786,2033
1786,4044
1789,248
1789,2302
1789,3956
1789,4845
1790,2324
1791,733
1792,3
1793,257
1795,1296
1800,517
1800,3869
1801,799
1805,16
1805,696
1805,886
1805,1665
1805,4773
1805,4780
1806,4841
1807,14
1807,1991
1812,218
1813,278
1813,3871
1817,943
1820,169
1820,293
1820,297
1820,1312
1820,1434
1820,1776
1820,3234
1820,3929
1820,4056
1821,121
1821,3991
1822,3366
1824,4824
1827,3951
1828,3077
1829,3426
1830,376
1832,4486
1835,4364
1836,517
1840,794
1840,850
1840,1427
1840,4401
1840,4759
1840,4860
1841,1066
1845,1410
1846,1252
1851,2076
1853,1100
1855,2693
1856,2727
1856,4982
1858,1026
1860,1581
1862,4066
1863,4566
1865,802
1865,2446
1865,3288
1866,1497
1867,282
1867,497
1867,2325
1868,1327
1868,3250
1870,535
1872,184
1872,4559
1873,892
1873,1040
1877,144
1877,1994
1879,2554
1880,109
1880,3987
1882,168
1886,139
1886,2252
1886,3313
1886,3564
1886,4552
1886,4992
1887,1113
1887,4674
1888,402
1888,4433
1888,4517
1890,362
1895,167
1895,1126
1895,2260
1895,2849
1895,3229
1895,3687
1896,1543
1897,4240
1897,4766
1899,244
1899,1971
1899,3329
1900,459
1900,2507
1900,2739
1900,4691
1902,268
1902,4366
1903,382
1904,4319
1904,4590
1905,162
1907,310
1907,2501
1907,3596
1908,1308
1909,782
1912,4555
1914,404
1914,2165
1914,3302
1918,293
1918,4215
1919,713
1920,253
1920,337
1920,1650
1920,4390
1920,4713
1921,2861
1922,943
1922,2149
1922,2894
1923,1889
1924,385
1924,590
1926,2508
1926,3928
1929,112
1929,3708
1929,3802
1930,1006
1930,2584
1933,1531
1933,2420
1934,600
1936,813
1936,1017
1936,1473
1942,4741
1947,545
1948,171
1949,1804
1950,342
1950,635
1950,1439
1950,3200
1950,4130
1951,201
1951,4440
1953,136
1953,4526
1953,4736
1957,3889
1957,4452
1958,445
1958,2307
1960,1384
1962,2267
1965,713
1966,16
1967,66
1967,2012
1970,720
1972,405
1974,2989
1975,114
1975,2951
1976,171
1976,1173
1977,1367
1977,2917
1978,50
1978,4755
1982,2866
1982,3113
1982,4555
1985,28
1985,3425
1985,3850
1987,1980
1988,1585
1989,1239
1989,4463
1990,2383
1990,4254
1991,600
1992,983
1992,3404
1993,1325
1993,2613
1993,4404
1996,570
2000,1701
2000,3076
2001,473
2002,589
2002,4447
2008,4880
2009,824
2010,4513
2011,193
2011,4257
2013,1920
2013,4508
2014,2112
2014,3341
2015,4350
2016,6
2016,4167
2018,783
2018,2032
2019,4350
2022,1113
2022,2357
2023,4317
2029,596
2029,2720
2029,4118
2029,4563
2030,4775
2036,949
2036,2362
2038,204
2038,2533
2039,52
2039,4132
2040,3992
2041,571
2042,167
2043,710
2046,1145
2047,369
2048,3386
2049,596
2049,4709
2053,520
2053,1073
2053,1361
2053,1407
2053,3627
2053,4429
2055,363
2055,770
2055,2237
2055,3715
2055,4422
2056,376
2056,2559
2057,4635
2058,4539
2059,492
2059,1481
2059,2191
2061,1546
2062,1927
2063,470
2064,826
2064,2903
2065,4944
2067,311
2069,924
2070,13
2070,274
2070,3475
2071,95
2072,2004
2072,2547
2073,1899
2073,2930
2077,958
2077,2368
2078,2129
2082,1225
2084,1854
2085,2260
2085,3278
2085,4910
2086,933
2086,2753
2086,3385
2087,1813
2088,596
2088,2357
2089,2009
2090,369
2091,4797
2092,660
2094,1652
2095,4069
2096,4824
2098,2690
2098,3071
2098,4423
2098,4698
2100,2239
2102,1230
2104,3017
2105,2578
2105,4709
2105,4767
2113,277
2115,16
2116,902
2116,3920
2118,2052
2120,1526
2122,4964
2123,870
2123,1348
2123,2053
2123,2787
2126,1554
2127,1864
2128,1402
2128,4133
2130,626
2130,4697
2131,2737
2135,1013
2136,126
2136,3204
2138,4008
2139,1874
2140,2276
2141,1301
2143,1742
2144,2124
2146,690
2146,2764
2146,2974
2146,4538
2146,4849
2147,3357
2150,4997
2151,3341
2152,383
2153,65
2154,3103
2156,1262
2157,1296
2157,2393
2161,1570
2163,1262
2166,782
2170,1748
2171,2314
2171,3289
2171,3423
2172,1943
2174,1796
2174,1799
2174,3286
2174,4712
2174,4841
2178,133
2178,4640
2179,583
2180,263
2180,1925
2180,2900
2180,3976
2180,4424
2181,4
2181,557
2181,887
2184,1769
2185,399
2185,443
2185,471
2185,1749
2185,4083
2186,2267
2187,1999
2188,596
2188,3872
2193,1203
2195,2349
2197,812
2198,1162
2198,2099
2199,2647
2199,3349
2202,1247
2203,660
2204,333
2204,4120
2204,4996
2205,1326
2205,2453
2205,4525
2206,3461
2207,1304
2208,3676
2210,1416
2211,1618
2213,1210
2214,315
2218,3416
2218,4575
2218,4958
2222,3166
2225,316
2226,1877
2226,4594
2230,108
2232,3188
2233,692
2234,4633
2235,3212
2235,4825
2236,1834
2236,2832
2236,3489
2238,1637
2240,2812
2241,1211
2241,2350
2244,478
2245,505
2245,851
2245,1132
2245,2003
2245,2733
2245,3161
2246,2145
2246,3997
2247,601
2249,1403
2249,2377
2249,4887
2251,886
2253,1854
2253,3743
2254,14
2255,361
2259,2627
2260,3097
2261,786
2261,2960
2261,3247
2262,201
2268,1
2268,4954
2271,1568
2273,437
2273,1111
2273,1606
2273,1848
2273,2097
2273,4143
2273,4668
2277,239
2278,1580
2281,1349
2286,393
2286,3302
2290,252
2290,436
2290,3966
2291,1066
2293,779
2295,364
2296,3007
2296,3592
2297,766
2297,1031
2297,2231
2297,2985
2297,3786
2301,120
2301,435
2301,1976
2301,2530
2301,2592
2301,4079
2301,4379
2301,4522
2302,621
2304,133
2304,4521
2305,2989
2306,4949
2311,334
2312,715
2315,349
2315,782
2315,3228
2317,3214
2317,3670
2317,4046
2317,4711
2318,4934
2321,4544
2322,1617
2322,3034
2322,4369
2326,254
2326,3205
2327,1709
2331,668
2332,3656
2333,1852
2334,1013
2336,2071
2336,2432
2337,1432
2338,1881
2340,27
2341,2992
2342,268
2342,483
2342,574
2342,629
2342,1314
2342,1416
2342,1693
2342,2516
2342,2630
2342,2817
2342,3714
2342,3985
2345,3864
2346,4068
2347,505
2347,2544
2348,1716
2352,953
2354,505
2358,4190
2360,2335
2360,2911
2360,3410
2361,1468
2361,2576
2364,497
2364,2807
2364,3864
2365,4761
2366,2095
2366,2872
2366,4269
2367,1092
2367,2889
2369,908
2370,1595
2373,4979
2374,1843
2376,4261
2378,2640
2379,2280
2382,106
2382,2815
2383,59
2384,1170
2384,2818
2386,1729
2387,1029
2388,3780
2389,4971
2396,1578
2397,497
2401,1671
2402,387
2402,792
2403,178
2403,3771
2403,3888
2404,2007
2405,452
2405,690
2405,1436
2405,4553
2407,1339
2408,2389
2409,1943
2411,1543
2412,4279
2413,1175
2413,1831
2413,1833
2413,4358
2414,1317
2416,3947
2418,1508
2418,1509
2418,3690
2423,910
2424,208
2424,214
2425,4389
2426,1018
2426,1986
2427,313
2427,4574
2428,3416
2431,208
2434,260
2436,1295
2437,1095
2437,1187
2441,3393
2441,4489
2441,4850
2443,1008
2443,1769
2444,16
2445,2448
2445,4479
2452,4240
2454,943
2455,690
2455,1671
2455,1731
2456,8
2457,495
2457,2329
2457,2477
2458,56
2458,4410
2458,4478
2459,71
2459,331
2459,735
2459,984
2459,1432
2459,1885
2459,2103
2459,4217
2459,4941
2460,2267
2461,362
2462,1304
2462,1775
2462,2608
2462,4518
2463,815
2466,287
2467,2430
2468,3568
2469,591
2470,815
2473,2556
2474,2972
2474,4185
2474,4605
2475,1334
2479,4797
2480,1843
2483,3781
2484,2354
2486,62
2486,604
2486,799
2487,425
2488,3062
2489,2213
2492,1765
2496,882
2496,2713
2497,112
2499,135
2499,1980
2500,783
2501,955
2501,1010
2501,4121
2502,184
2503,572
2504,105
2505,477
2507,702
2507,1120
2507,2743
2509,2196
2509,2704
2512,1894
2512,2553
2513,718
2513,2588
2513,2698
2513,2936
2513,4103
2513,4590
2513,4658
2513,4737
2514,351
2514,2298
2514,2316
2515,920
2518,2275
2520,2430
2521,1857
2521,4476
2521,4827
2524,38
2525,4423
2528,347
2532,8
2532,1543
2534,1856
2535,278
2538,423
2538,1513
2538,2522
2538,4228
2540,2351
2541,782
2542,3546
2542,4949
2546,604
2546,3901
2548,101
2549,4161
2552,2163
2552,3718
2554,2633
2556,1464
2556,2918
2556,4240
2560,436
2560,4252
2562,2003
2562,4229
2565,1045
2565,2946
2565,2996
2565,3348
2565,3365
2567,436
2568,767
2568,4807
2571,799
2573,1026
2579,1563
2586,435
2587,1286
2587,2260
2587,2351
2587,3996
2590,289
2590,840
2590,949
2590,3136
2590,3482
2590,3549
2593,3046
2595,218
2596,1911
2596,3243
2597,2968
2601,436
2601,2558
2601,3927
2601,4986
2603,337
2606,749
2607,495
2609,3279
2611,766
2611,2406
2611,3655
2611,4726
2612,1848
2615,122
2615,767
2617,1653
2618,293
2619,3420
2621,2406
2622,2099
2623,2840
2624,3214
2624,3369
2624,4502
2625,3656
2628,1746
2629,57
2630,1132
2631,2302
2633,2324
2635,586
2636,4225
2637,244
2637,1003
2637,2256
2637,3051
2637,4434
2638,1252
2638,2643
2639,3511
2640,1999
2641,278
2641,1766
2641,4115
2648,917
2649,1838
2649,4874
2650,2250
2650,2970
2651,107
2651,206
2651,2847
2651,2900
2651,2969
2651,3448
2652,2741
2652,3916
2653,1091
2655,193
2655,2973
2656,3744
2656,3781
2657,4804
2658,1295
2659,1503
2659,3140
2660,4634
2660,4773
2661,4430
2663,4797
2664,730
2664,746
2664,1246
2667,2616
2669,144
2670,585
2670,3756
2670,4547
2673,1282
2677,2303
2678,4177
2681,355
2681,680
2681,760
2681,3950
2682,615
2682,1190
2683,4964
2684,5
2684,2229
2684,3245
2685,4451
2687,872
2688,956
2689,59
2691,2246
2693,3470
2694,2806
2694,3772
2697,1296
2697,2672
2697,3749
2702,2810
2702,2920
2702,4127
2703,733
2704,183
2704,1211
2706,2438
2708,989
2714,1875
2714,2956
2715,505
2716,3393
2717,585
2718,725
2719,45
2719,4681
2720,448
2720,495
2720,544
2720,630
2720,796
2720,2598
2720,2822
2722,1311
2724,887
2727,4052
2729,3030
2729,4797
2730,4210
2734,2371
2736,943
2746,252
2747,601
2750,4071
2750,4824
2751,4890
2752,287
2752,2570
2752,3976
2752,4801
2755,184
2755,4986
2756,471
2760,2424
2762,101
2762,133
2762,510
2762,541
2762,1725
2762,2861
2762,2874
2762,3748
2762,3861
2762,4047
2763,209
2766,2457
2770,1906
2771,2634
2771,4462
2772,4590
2775,2701
2776,1556
2777,250
2778,2119
2779,513
2779,626
2779,4393
2781,660
2782,1145
2782,4030
2784,1233
2785,2276
2786,239
2790,826
2791,6
2792,1042
2793,28
2794,4352
2795,7
2798,1724
2803,3156
2803,4347
2803,4635
2811,4550
2812,2507
2816,2399
2820,171
2821,264
2821,383
2821,3429
2823,1139
2824,728
2826,186
2828,3166
2828,3393
2828,3430
2829,1030
2830,2071
2831,2408
2834,2472
2836,1761
2837,336
2839,28
2841,651
2845,680
2846,474
2846,2330
2850,2819
2851,585
2853,1859
2854,1282
2858,4317
2859,1232
2861,808
2861,1616
2862,1397
2863,692
2865,937
2869,696
2871,625
2871,4210
2874,2243
2874,3106
2875,4008
2877,2135
2877,2933
2877,3127
2877,3703
2877,3910
2877,3959
2877,4288
2879,1508
2879,3455
2879,4320
2879,4595
2881,1651
2882,1804
2882,2988
2883,1788
2883,4375
2883,4580
2884,1546
2884,3485
2887,2710
2890,570
2890,1091
2892,943
2893,565
2893,2822
2893,3656
2893,4915
2898,2630
2899,182
2904,1057
2905,4023
2906,2131
2906,4555
2909,2406
2910,3627
2911,1818
2912,4500
2914,1791
2915,815
2918,4048
2919,1004
2919,3325
2919,4059
2919,4824
2921,3917
2922,2327
2922,4006
2923,1939
2926,1262
2926,3159
2927,1593
2928,267
2931,198
2931,3142
2932,2276
2934,2735
2935,3656
2941,1892
2942,2182
2942,2984
2943,57
2944,2129
2944,3640
2944,4178
2947,1339
2949,2183
2949,4748
2950,4080
2953,4157
2954,132
2954,3031
2954,4934
2956,80
2956,318
2956,907
2956,2901
2957,2467
2957,3167
2958,264
2960,2054
2961,1918
2963,1326
2965,924
2966,357
2967,3278
2970,1936
2975,278
2976,2231
2976,4402
2978,3017
2979,1335
2980,1102
2981,651
2982,2079
2982,3260
2983,2083
2990,2131
2990,3216
2991,2667
2992,903
2993,1402
2996,1207
2996,1938
2999,626
3002,1873
3003,914
3006,2441
3006,3471
3010,28
3016,1852
3017,379
3017,1578
3017,1788
3017,1831
3017,1950
3017,4186
3019,1616
3020,571
3021,633
3021,3064
3022,2989
3028,354
3029,2108
3032,4853
3033,13
3033,140
3033,2726
3033,3061
3033,4145
3035,1339
3038,397
3039,4140
3039,4824
3040,728
3040,1221
3041,1765
3045,365
3048,1020
3049,402
3052,2295
3053,1358
3053,2986
3054,242
3055,277
3055,397
3055,776
3055,2381
3057,395
3058,289
3059,2760
3059,3334
3062,11
3065,2442
3066,2802
3069,1239
3069,4716
3072,2004
3073,3867
3074,2175
3074,3284
3075,1013
3075,1762
3079,3944
3080,4539
3082,105
3087,277
3088,3641
3088,3924
3088,4368
3089,4804
3091,803
3092,477
3092,3249
3095,1137
3097,778
3100,4095
3101,1092
3102,2053
3104,3209
3104,3416
3105,3930
3108,2295
3109,2802
3114,2994
3116,2818
3117,4773
3117,4980
3120,376
3121,1050
3122,1355
3123,4545
3126,2489
3126,4492
3129,193
3130,1221
3133,3772
3134,4282
3135,4000
3141,976
3141,3989
3143,2344
3144,737
3145,1776
3147,1757
3149,2667
3150,1791
3152,100
3153,3676
3154,2406
3155,3667
3155,4221
3159,1342
3162,4261
3164,293
3164,4306
3164,4664
3164,4990
3165,669
3165,3827
3165,4942
3170,41
3170,4551
3172,651
3173,583
3173,4546
3175,1366
3175,4947
3176,3473
3176,4362
3177,31
3184,602
3185,1469
3187,3594
3190,244
3190,3938
3190,4275
3191,1869
3192,448
3192,1529
3192,3747
3193,2936
3193,3315
3194,2490
3197,930
3197,4106
3198,313
3199,162
3202,1139
3202,2951
3202,3110
3203,2438
3207,52
3208,2314
3211,38
3211,3686
3215,2462
3215,3618
3218,2951
3218,3735
3219,1666
3219,1834
3220,1804
3222,741
3223,3853
3225,95
3225,4714
3226,585
3232,186
3237,2988
3238,2598
3240,3169
3242,1632
3244,701
3246,698
3248,816
3251,1514
3252,1262
3252,1526
3252,2796
3252,3403
3254,2015
3254,3958
3255,3171
3256,702
3256,3357
3261,162
3261,596
3266,1473
3267,793
3267,4316
3269,2112
3269,4264
3269,4861
3270,1161
3271,586
3272,1616
3272,3411
3273,2941
3274,1612
3275,690
3275,3512
3276,1920
3277,254
3277,1811
3280,793
3281,602
3281,3799
3282,1544
3282,4997
3283,1531
3284,4646
3285,1170
3290,1426
3290,4479
3291,4138
3292,3047
3293,782
3294,2897
3295,2026
3297,4818
3298,1719
3299,786
3299,2390
3299,3381
3301,2594
3301,3056
3304,1296
3305,1262
3306,621
3307,3527
3307,4127
3309,276
3310,3115
3311,1022
3311,3751
3312,2471
3313,31
3314,816
3316,1864
3319,470
3320,1003
3324,2800
3326,42
3326,1944
3327,474
3327,1489
3328,4736
3331,1543
3331,3954
3339,3849
3340,1712
3342,2511
3343,4368
3345,3037
3346,3217
3346,4458
3347,1831
3349,974
3349,1695
3349,4009
3350,62
3350,611
3350,943
3350,1641
3350,1843
3350,1898
3350,1935
3353,681
3353,2630
3354,1731
3355,404
3355,2666
3355,3656
3355,3801
3355,3807
3355,4208
3357,3914
3360,2390
3361,2439
3362,32
3362,119
3362,563
3362,3195
3362,3456
3362,4042
3368,3077
3371,2330
3372,2041
3374,1095
3375,3594
3376,218
3376,435
3377,1748
3377,2933
3377,3619
3379,167
3380,1979
3381,1267
3383,2007
3384,171
3388,4758
3388,4831
3390,2212
3390,3013
3392,110
3392,3622
3392,4781
3393,294
3394,746
3396,1722
3397,1304
3397,1569
3398,930
3398,3221
3399,357
3399,3465
3401,2303
3401,4037
3402,4242
3405,316
3406,16
3406,1861
3406,3665
3406,4564
3407,35
3408,2356
3409,2510
3412,2819
3414,2532
3416,754
3418,374
3419,81
3421,2640
3421,4406
3426,2416
3427,31
3427,185
3427,186
3427,1192
3427,1322
3427,1443
3427,1893
3428,492
3428,1031
3435,2529
3436,664
3436,3294
3437,1311
3440,3433
3442,106
3443,1451
3446,2071
3447,2457
3447,4960
3449,1818
3450,168
3451,647
3451,4811
3452,727
3453,473
3454,4400
3455,3434
3459,2644
3460,747
3460,3001
3460,4818
3461,32
3461,4723
3462,1614
3462,2543
3466,1852
3467,2908
3467,3359
3469,100
3469,1876
3471,1546
3471,3009
3472,3772
3474,309
3478,3146
3481,1028
3486,3214
3490,180
3492,762
3493,716
3495,1585
3496,1520
3497,902
3498,1881
3499,1814
3501,2646
3502,2861
3503,2380
3507,2847
3508,129
3509,815
3510,545
3514,3422
3518,752
3519,1473
3519,3817
3520,1003
3525,379
3525,3604
3528,574
3528,3853
3529,382
3530,2948
3530,3704
3531,2647
3532,1761
3533,2808
3538,519
3539,1511
3540,184
3540,3779
3543,1566
3545,2162
3547,3076
3547,3907
3548,4240
3549,1434
3552,725
3553,535
3553,1074
3553,1287
3556,1616
3557,3483
3558,698
3559,52
3559,3415
3559,3755
3560,1549
3561,1311
3562,3227
3563,1355
3565,1203
3568,77
3569,2644
3570,713
3571,28
3571,4890
3572,2807
3575,274
3575,3902
3577,2349
3577,3788
3580,1232
3581,2363
3582,3304
3584,4929
3585,815
3586,1287
3587,2761
3589,1003
3589,3611
3590,2451
3590,2472
3590,3115
3590,3864
3592,818
3592,3574
3594,3110
3594,4220
3595,14
3595,590
3595,656
3595,3653
3595,3671
3597,1244
3597,4559
3598,4841
3599,1848
3600,147
3603,3386
3605,448
3605,2577
3606,3789
3609,110
3610,474
3611,636
3613,3414
3614,278
3615,3395
3616,1813
3616,4968
3617,106
3618,782
3620,3656
3621,1815
3623,870
3623,4273
3624,2342
3625,1020
3626,3351
3630,1262
3630,3890
3632,4706
3633,702
3634,1661
3635,2303
3636,1920
3638,3666
3639,725
3644,1704
3644,4800
3648,1444
3649,1508
3654,798
3655,233
3655,884
3655,924
3655,1891
3655,1917
3655,2490
3655,2545
3655,4077
3657,2099
3658,816
3658,1784
3660,1405
3661,1995
3662,120
3663,1133
3663,3257
3664,2355
3665,126
3665,382
3665,827
3665,1410
3665,2105
3665,2783
3665,3278
3666,344
3666,1397
3666,2572
3666,2808
3666,3523
3666,4778
3668,1904
3672,933
3673,1048
3674,2645
3675,1940
3676,4030
3681,517
3682,1999
3683,512
3683,596
3683,801
3683,1416
3683,1632
3684,570
3691,4335
3691,4824
3693,2968
3694,3234
3695,41
3695,1780
3695,3637
3697,4546
3698,1335
3698,1589
3698,3712
3701,3171
3705,619
3705,4000
3706,379
3710,1118
3710,1472
3710,2833
3711,541
3711,588
3711,789
3711,845
3711,914
3711,1591
3711,2420
3711,2938
3711,3011
3711,3224
3711,4372
3711,4927
3717,2840
3719,293
3721,135
3721,2294
3724,171
3726,519
3728,956
3729,1864
3729,4162
3730,154
3730,315
3730,3904
3731,2323
3731,2809
3733,3054
3734,1755
3734,4765
3736,708
3736,3426
3737,142
3738,1671
3738,4931
3739,596
3740,4853
3742,2918
3745,319
3745,3695
3747,1398
3747,2493
3750,4736
3751,214
3752,545
3752,1014
3752,2442
3752,4693
3752,4722
3752,4944
3753,2114
3754,518
3754,1062
3754,4300
3754,4443
3757,448
3759,436
3760,1771
3763,3253
3764,592
3764,2693
3764,4149
3768,2068
3768,2819
3768,4198
3769,1660
3770,591
3772,436
3773,2822
3774,445
3774,474
3774,4762
3775,302
3775,1871
3775,2566
3776,495
3780,533
3780,1232
3780,1497
3781,166
3782,547
3784,2601
3786,489
3786,2263
3786,2771
3786,2804
3786,3183
3787,385
3789,2832
3790,3099
3791,2989
3793,4797
3795,50
3795,2827
3796,3797
3796,4706
3800,293
3803,3494
3805,2742
3806,877
3806,3788
3808,644
3808,692
3808,2182
3808,2430
3808,2481
3809,2838
3811,318
3812,186
3813,815
3816,964
3820,3030
3822,2216
3822,4284
3824,1427
3824,4940
3825,541
3826,1007
3828,7
3828,642
3828,2339
3828,3511
3829,2566
3830,3795
3832,318
3833,1762
3834,2951
3834,4342
3836,132
3838,2307
3839,2272
3841,1445
3844,282
3845,1927
3846,3983
3848,1211
3848,2101
3848,3981
3848,4461
3848,4596
3849,1267
3849,2849
3849,3814
3851,2299
3853,1783
3854,793
3855,1457
3856,184
3857,1113
3857,1262
3860,1497
3862,16
3862,4956
3863,596
3866,95
3867,593
3868,2676
3869,95
3869,477
3869,1344
3869,2870
3873,2119
3874,1752
3875,3214
3877,2026
3878,2316
3878,4156
3879,215
3879,1437
3880,1769
3881,841
3881,4677
3882,687
3882,4983
3884,3987
3886,4890
3887,1852
3889,1881
3893,2516
3894,68
3894,4201
3895,4890
3896,937
3897,1961
3899,32
3903,1296
3905,357
3906,2392
3908,1581
3909,680
3911,557
3912,636
3912,4616
3913,824
3913,4482
3914,1995
3919,2230
3919,3759
3919,4202
3919,4880
3923,2759
3925,31
3926,3204
3931,4392
3933,3431
3934,461
3936,4555
3937,168
3937,1069
3937,1076
3940,4741
3941,2162
3941,3071
3941,4855
3942,3308
3942,4679
3943,2356
3944,105
3945,2308
3946,1606
3948,55
3948,3631
3948,4299
3955,28
3955,929
3960,3930
3961,933
3962,1007
3963,3171
3964,307
3964,349
3964,1549
3964,1873
3967,1473
3968,27
3968,96
3968,241
3968,473
3968,1115
3968,1843
3968,3386
3969,541
3970,2576
3971,4797
3972,324
3974,1167
3974,2814
3974,3441
3974,4078
3976,3338
3977,404
3978,3441
3978,4863
3979,1253
3983,477
3983,700
3983,754
3983,1525
3983,1567
3983,1635
3983,2101
3983,2758
3983,3168
3984,3890
3986,3759
3990,264
3992,508
3992,4270
3994,536
3994,3591
3998,3543
3999,376
4000,3110
4001,493
4001,676
4002,1271
4003,3278
4003,3723
4004,3257
4007,4058
4007,4805
4008,471
4010,3853
4013,309
4014,1869
4015,135
4015,4062
4018,701
4018,4933
4020,1651
4021,1497
4022,633
4024,984
4026,2897
4026,4123
4027,267
4027,4362
4029,3017
4031,3250
4033,2349
4034,8
4035,962
4038,1708
4039,68
4039,3944
4040,4759
4041,2521
4043,4773
4046,1268
4046,4571
4048,2323
4048,4157
4048,4237
4048,4545
4049,4431
4050,3526
4054,4333
4057,1816
4058,134
4058,2051
4058,2415
4061,2391
4063,3841
4065,3077
4065,4769
4066,4336
4066,4590
4068,1885
4072,187
4074,435
4075,1411
4076,676
4080,1769
4082,505
4082,1916
4082,2359
4082,3300
4085,4165
4086,120
4087,3410
4089,2291
4090,710
4091,1999
4091,3146
4092,4225
4092,4878
4093,1828
4094,2311
4095,2276
4096,570
4098,2137
4100,289
4101,3656
4104,297
4106,2478
4108,278
4108,3483
4109,2053
4110,4545
4112,3746
4114,3234
4116,1412
4117,3965
4117,4437
4122,264
4124,773
4125,4261
4126,1648
4128,436
4129,871
4135,1647
4136,14
4138,1271
4138,2780
4138,3179
4139,2986
4142,309
4143,340
4143,2274
4143,2773
4146,3366
4147,4314
4148,2825
4148,3627
4148,3823
4148,4900
4150,4512
4153,2640
4153,4998
4154,2726
4155,3031
4158,309
4159,264
4160,724
4161,21
4162,481
4162,1712
4162,4925
4163,1426
4165,2801
4166,2194
4167,2421
4167,4836
4168,2633
4169,2936
4172,4132
4174,2712
4175,32
4175,132
4175,4907
4176,3795
4177,1661
4179,435
4180,1653
4181,453
4183,382
4187,1620
4189,278
4190,2462
4190,4556
4191,4513
4192,725
4195,2744
4196,908
4197,1574
4199,4790
4200,4736
4201,1411
4201,1444
4201,2842
4201,3093
4201,3335
4201,4005
4201,4131
4203,1873
4206,1469
4206,4779
4209,4083
4210,937
4211,204
4212,1222
4214,1885
4216,716
4216,4904
4218,244
4219,324
4219,1230
4222,147
4223,3795
4224,2162
4227,1497
4229,422
4234,282
4235,887
4236,725
4238,2399
4239,282
4240,621
4240,1531
4240,2589
4241,563
4241,938
4245,95
4246,3139
4247,15
4247,2768
4248,776
4249,1980
4249,2692
4250,3601
4258,3009
4258,3975
4260,4761
4262,4565
4263,730
4265,727
4267,808
4269,2391
4271,4479
4272,2260
4278,3704
4279,4956
4280,243
4280,2204
4281,101
4283,643
4285,2583
4287,2997
4288,623
4288,4696
4290,969
4291,142
4291,991
4291,3107
4293,2276
4294,773
4294,970
4294,1892
4296,2337
4297,4229
4301,398
4301,631
4301,1204
4301,2876
4301,3017
4302,3070
4304,68
4304,1771
4304,1949
4304,3233
4304,3725
4307,3619
4308,287
4309,3802
4311,4314
4312,1932
4314,1100
4317,710
4322,229
4322,1094
4322,2132
4323,386
4326,4564
4328,1597
4333,1291
4337,2521
4340,914
4341,2336
4343,2690
4343,4397
4345,206
4350,204
4352,112
4352,694
4352,719
4352,834
4352,2250
4352,2575
4352,3171
4352,3521
4352,4249
4352,4752
4353,401
4354,1847
4355,557
4356,2192
4357,118
4357,1847
4357,2430
4359,505
4360,4077
4361,4323
4363,218
4364,9
4365,1595
4368,2097
4371,1651
4373,4934
4374,4167
4377,1300
4377,1983
4378,552
4378,4775
4381,182
4381,977
4381,2119
4381,4812
4382,66
4382,607
4382,2114
4382,2671
4382,3853
4382,4173
4383,313
4384,1197
4385,3892
4386,3924
4387,32
4388,215
4389,3646
4391,3026
4392,520
4392,4560
4394,1840
4395,1671
4398,4804
4399,4802
4400,4233
4404,257
4405,1309
4407,4292
4408,3296
4411,1147
4411,4844
4414,55
4414,718
4415,565
4415,1164
4417,3679
4418,300
4419,1838
4419,2857
4419,3569
4421,4997
4425,822
4426,874
4426,1200
4426,1661
4426,2392
4426,4516
4431,2694
4436,1225
4438,539
4438,2968
4438,4188
4444,137
4445,585
4446,1833
4450,727
4451,21
4452,497
4453,62
4453,1973
4454,500
4455,670
4457,3787
4457,4221
4459,988
4460,4377
4464,1003
4465,2661
4466,2420
4467,713
4468,1653
4469,1475
4469,2230
4471,553
4475,596
4480,497
4481,3157
4481,3794
4481,4177
4483,3588
4484,1769
4485,3393
4487,3656
4490,147
4490,451
4491,4824
4493,295
4493,492
4493,1004
4494,773
4495,3404
4496,940
4497,2592
4498,2733
4499,1765
4500,1856
4502,4243
4503,293
4504,2453
4505,2867
4505,4656
4506,1003
4507,933
4507,2614
4507,4167
4509,611
4509,4621
4510,206
4511,1901
4513,3852
4514,167
4519,66
4519,1030
4519,1399
4519,1859
4519,4242
4520,4221
4522,3558
4524,827
4526,1068
4526,2007
4526,3084
4526,3957
4527,4052
4529,815
4530,132
4531,4798
4532,506
4532,1237
4532,1451
4532,1794
4532,2118
4532,2799
4532,3012
4532,3024
4532,3099
4532,3394
4532,3551
4533,2250
4535,198
4536,4350
4537,585
4539,2103
4539,4650
4540,3480
4542,2847
4544,2132
4548,487
4548,879
4548,1236
4549,2045
4550,2861
4557,3471
4558,1301
4561,2095
4563,1230
4563,1814
4566,3876
4567,100
4567,2968
4568,3566
4569,2285
4570,690
4571,1022
4576,3747
4577,1659
4578,579
4578,847
4578,1271
4578,2482
4578,4546
4579,1236
4581,1757
4581,2201
4581,3067
4581,4761
4582,517
4583,4157
4584,4470
4587,2920
4588,1473
4589,3892
4591,858
4591,4986
4592,187
4593,1984
4593,3939
4594,964
4597,3068
4598,362
4598,804
4598,4019
4599,3707
4603,2291
4604,3357
4604,4877
4605,3700
4605,4539
4607,121
4608,2196
4608,2989
4608,4042
4608,4167
4609,4575
4610,1152
4610,3470
4610,3643
4612,589
4614,2666
4615,469
4615,1784
4615,2800
4615,4435
4618,4555
4619,192
4620,3278
4622,731
4624,1295
4627,2872
4627,4686
4630,1983
4632,2299
4633,3975
4635,2121
4637,4804
4638,2213
4639,2797
4642,2554
4644,2449
4645,3196
4645,4973
4647,404
4648,3973
4649,3748
4653,505
4654,2908
4655,1848
4660,52
4660,506
4660,561
4660,2604
4661,1566
4662,4251
4662,4741
4665,3406
4666,244
4669,212
4670,701
4671,2260
4672,1003
4675,362
4675,2731
4675,3274
4676,713
4676,3323
4676,3635
4680,2936
4682,3985
4685,4472
4687,4310
4688,135
4688,272
4688,399
4688,972
4688,1740
4688,2076
4688,2940
4688,3146
4688,3344
4688,4022
4690,727
4695,2818
4699,233
4701,3672
4702,4396
4704,2131
4705,2095
4706,875
4715,185
4715,2600
4715,3278
4715,3376
4715,3400
4715,3413
4717,3785
4718,1593
4719,2594
4721,1973
4724,168
4724,1495
4725,4451
4727,4244
4728,1503
4729,1465
4729,3696
4732,1164
4733,667
4733,1971
4733,2464
4733,3517
4734,363
4735,282
4739,725
4740,2103
4742,4167
4743,1067
4744,4502
4745,1852
4746,1203
4747,309
4748,313
4749,3672
4751,2580
4753,4596
4754,113
4756,783
4757,135
4759,1651
4759,1758
4760,278
4760,2928
4761,4890
4762,778
4763,2406
4764,737
4768,4468
4770,4663
4771,1062
4772,3396
4773,3253
4776,4205
4777,2616
4783,4277
4784,387
4785,187
4785,2679
4787,309
4789,3
4791,376
4792,3699
4793,4949
4794,813
4795,1397
4797,4697
4798,3268
4798,3294
4803,3950
4804,313
4806,474
4808,1472
4814,478
4814,586
4814,906
4814,2000
4817,278
4819,3257
4820,1861
4822,2451
4823,1384
4824,1321
4828,3204
4829,382
4830,313
4830,710
4830,1462
4830,1876
4830,3230
4830,3780
4832,1661
4835,7
4838,1232
4838,2419
4839,209
4839,2643
4846,4256
4847,4315
4847,4697
4848,152
4848,1161
4848,1920
4849,45
4849,220
4849,680
4849,753
4849,1292
4849,2848
4849,4073
4849,4515
4851,4099
4852,309
4853,1138
4854,234
4857,3504
4860,3608
4862,3604
4864,924
4865,2415
4866,4539
4867,4952
4869,1637
4870,451
4871,773
4873,1661
4875,234
4876,991
4880,171
4881,871
4883,985
4884,1790
4886,3519
4888,1804
4888,2485
4888,2927
4888,4750
4889,3229
4891,309
4892,6
4893,2521
4894,3788
4894,4951
4895,1050
4896,505
4898,4323
4899,1511
4901,745
4901,1852
4901,2111
4902,2959
4903,4331
4904,1542
4904,3423
4906,716
4908,2787
4909,4897
4911,2432
4914,4834
4917,1715
4918,46
4922,142
4923,4910
4926,1254
4927,4883
4928,1568
4929,2877
4930,2275
4932,1164
4934,1367
4935,2194
4936,38
4936,1852
4936,2453
4937,2593
4938,4707
4939,135
4940,1941
4943,1197
4945,2984
4949,3543
4950,2007
4950,2415
4951,581
4951,1448
4954,2176
4957,2672
4959,1301
4961,621
4962,2583
4963,4736
4966,120
4967,696
4969,132
4976,1671
4977,4382
4977,4989
4978,2368
4981,2201
4984,2749
4987,3067
4988,1944
4990,4754
4990,4841
4994,1126
4995,2832
4997,2802
