src,dst
0,1
0,2903
4,1351
4,2787
4,3045
4,4715
5,345
5,990
6,88
6,203
6,411
6,436
6,581
6,722
6,732
6,929
6,1525
6,1625
6,1991
6,2024
6,2123
6,2261
6,2598
6,3065
6,3275
6,3361
6,3427
6,3582
6,4326
6,4552
6,4673
6,4690
6,4761
6,4831
6,4835
6,4837
7,23
7,85
7,405
7,489
7,601
7,1923
7,2000
7,3066
7,3366
7,3900
7,4094
7,4673
9,40
12,16
12,409
12,515
12,540
12,732
12,936
12,1196
12,1396
12,1435
12,1453
12,1617
12,1694
12,1710
12,1951
12,2450
12,2542
12,2730
12,2784
12,2988
12,3082
12,3154
12,3954
12,4167
12,4203
12,4968
15,40
15,81
15,226
15,290
15,369
15,1048
15,1265
15,1504
15,1570
15,2705
15,2775
15,3316
15,4748
15,4970
16,1483
16,2003
16,3593
17,107
17,123
17,459
17,495
17,691
17,1076
17,1892
17,2151
17,2379
17,3090
17,3999
18,266
18,517
18,575
18,803
18,1160
18,1291
19,119
19,255
19,301
19,476
19,865
19,2302
19,2495
19,2723
19,3090
19,3561
19,3601
19,4084
19,4283
19,4970
20,637
20,732
20,787
20,1143
20,3458
20,4934
21,532
22,790
24,11
24,64
24,135
24,159
24,259
24,296
24,373
24,532
24,839
24,1117
24,1200
24,1577
24,2012
24,2173
24,2237
24,2319
24,3334
24,3416
24,3689
24,3851
24,4029
24,4284
24,4968
25,109
25,162
25,243
25,307
25,543
25,549
25,586
25,655
25,796
25,1076
25,1174
25,1750
25,1912
25,2165
25,2312
25,2655
25,2750
25,2950
25,3060
25,3194
25,3339
25,3664
25,3963
25,4419
25,4502
25,4516
25,4909
26,98
27,20
27,62
27,159
27,172
27,184
27,476
27,1343
27,3657
27,3814
27,3922
27,3926
27,4541
27,4597
29,2583
30,557
32,67
32,84
32,128
32,152
32,181
32,444
32,503
32,662
32,840
32,861
32,1200
32,1545
32,3073
32,4752
33,113
33,412
33,496
33,547
33,1077
33,1497
33,1896
33,2752
33,2908
33,3814
33,3854
33,4203
33,4752
34,135
34,599
34,2359
34,2908
35,134
35,290
35,1737
35,1839
35,2122
35,2585
35,3057
35,3225
35,3988
36,1213
36,1802
36,2830
36,4456
37,3440
39,259
39,555
39,794
39,855
39,1076
39,1197
39,1882
39,1997
39,2807
39,3680
39,3977
39,4090
40,231
40,4414
41,49
41,367
41,589
41,625
41,861
41,956
41,981
41,1549
41,1956
41,2609
41,4474
43,76
43,154
43,165
43,196
43,337
43,631
43,1668
43,3051
43,3673
43,4004
43,4206
43,4649
44,142
44,222
44,853
44,858
44,861
44,1124
44,1716
44,1991
44,2140
44,2217
44,3298
44,3414
44,4084
44,4559
45,224
45,438
45,645
45,1161
45,1291
45,1318
45,2000
45,2575
45,2670
45,3361
45,4754
45,4858
45,4881
46,3
46,10
46,85
46,86
46,159
46,259
46,368
46,370
46,544
46,921
46,1016
46,1077
46,1552
46,1661
46,1869
46,2024
46,2433
46,2826
46,2885
46,2952
46,3298
46,3441
46,3661
46,3689
46,3845
46,4055
46,4084
46,4332
46,4445
46,4455
46,4619
46,4650
46,4807
46,4968
47,1620
48,132
48,543
48,752
48,2577
48,3720
48,3854
49,11
49,47
49,159
49,429
49,914
49,929
49,1138
49,1706
49,1846
49,1862
51,88
51,180
51,779
51,980
51,982
51,1098
51,2253
51,2428
51,3186
51,3791
51,3881
53,71
53,88
53,147
53,1192
53,1371
53,1372
53,2069
53,2194
53,2380
53,2825
53,3475
53,3678
53,3944
53,4085
53,4480
55,116
55,162
55,181
55,231
55,396
55,624
55,1206
55,1305
55,1501
55,1687
55,1891
55,2838
55,3337
55,3814
55,3899
56,282
56,1153
56,3655
59,2
59,80
59,180
59,345
59,532
59,1048
59,2898
59,3233
59,3412
59,3930
63,1530
63,2460
63,2486
63,2724
63,3092
63,4483
65,117
65,952
65,1218
65,1586
65,1759
65,2072
65,2107
65,2147
65,2830
65,3018
65,3142
65,3685
65,4589
66,1131
66,1139
68,76
68,362
68,1635
68,1843
68,2379
68,2486
68,3341
68,3561
68,3926
71,361
72,379
72,617
72,637
72,981
72,1433
72,3240
73,76
73,81
73,333
73,409
73,496
73,544
73,576
73,658
73,823
73,1076
73,1255
73,1270
73,1371
73,1754
73,1848
73,2250
73,2324
73,2410
73,2609
73,2632
73,2884
73,3437
73,3656
73,3689
73,3824
73,3926
73,4359
73,4612
75,71
75,128
75,532
75,1098
75,3868
75,4754
75,4793
77,1366
77,1923
77,3525
78,117
78,971
78,1802
78,1981
78,2384
78,2577
78,3516
79,111
79,184
79,570
79,664
79,674
79,1016
79,1048
79,1049
79,1333
79,1405
79,1590
79,1687
79,1896
79,2322
79,2911
79,3009
79,3281
79,3322
79,3937
79,4101
79,4658
82,4970
86,1139
86,3067
86,4741
88,555
88,1249
88,1333
88,1651
88,1754
88,1865
88,3562
88,4491
88,4841
88,4903
90,4455
91,281
91,509
91,770
91,1453
91,3554
91,4364
92,177
92,1178
92,1712
92,3316
92,3429
92,3461
92,4118
92,4166
92,4673
93,675
93,1465
93,1625
93,1802
93,1991
93,2179
93,2850
93,2903
93,3346
93,3631
93,4206
93,4844
93,4969
94,788
95,117
95,352
95,457
95,966
95,3483
95,4522
95,4909
96,87
96,473
96,675
96,1959
96,2716
96,3313
96,3375
96,3651
96,4045
96,4084
96,4423
97,387
97,680
97,1748
97,3385
98,1923
98,2951
99,980
99,1545
99,2682
99,2858
99,3370
99,3543
99,3846
99,4699
100,42
100,2599
101,60
101,544
101,1039
101,1969
101,2151
102,2880
105,194
105,769
105,1384
105,1702
105,1923
105,2086
105,3385
105,3409
105,3429
105,3526
105,3872
106,4
106,159
106,528
106,4752
108,243
108,453
108,515
108,544
108,796
108,1545
108,1817
108,2030
108,2474
108,4501
109,3285
110,1270
110,2720
114,424
114,1644
114,3396
114,4141
114,4804
118,142
118,822
118,987
118,1138
118,1200
118,1744
118,2544
118,4732
118,4900
119,1138
120,87
120,491
120,1015
120,2449
121,119
121,1625
121,2329
121,2565
122,580
122,1055
122,1499
122,1567
122,1998
122,2430
122,3429
122,3651
122,4335
122,4478
122,4636
122,4948
122,4968
124,4084
125,1952
125,3097
126,80
126,334
126,517
126,805
126,1048
126,1148
126,2484
126,2600
129,496
129,4903
129,4970
130,87
130,116
130,247
130,321
130,333
130,385
130,453
130,524
130,904
130,1064
130,1281
130,2830
130,3080
130,3321
130,3431
130,3516
130,4096
130,4269
131,532
131,1000
131,3854
131,4094
131,4789
133,2
133,31
133,555
133,1186
133,2591
133,3018
133,4072
133,4761
133,4767
133,4786
136,66
136,155
136,434
136,634
136,753
136,1663
136,1827
136,1833
136,2000
136,2186
136,2775
136,2843
136,2910
136,3636
136,4892
138,2598
138,2755
138,3068
138,3303
138,3494
138,3817
138,4169
138,4228
138,4504
139,196
139,409
139,556
139,562
139,653
139,1413
139,1497
139,2380
139,2484
139,2486
139,2661
139,2694
139,2717
139,3458
139,3910
143,324
143,1182
143,2996
143,3036
143,3971
143,4954
144,725
144,804
144,1473
144,3145
146,3441
148,2
149,1190
149,2656
149,3809
150,3993
152,42
152,424
152,725
152,788
152,887
152,992
152,1090
152,2014
152,2215
152,3414
152,3984
152,4491
152,4609
157,1016
157,3210
157,3659
157,4617
159,181
159,342
159,512
159,791
159,1000
159,1882
159,2529
159,2839
159,3091
159,3251
159,3613
159,3877
159,4071
160,69
160,143
160,459
160,614
160,797
160,829
160,1135
160,2092
160,3214
160,4080
160,4169
160,4228
160,4468
160,4786
160,4988
161,2
161,37
161,189
161,267
161,412
161,528
161,532
161,544
161,979
161,1328
161,1497
161,2825
161,3822
161,4101
161,4364
161,4752
161,4892
163,409
163,716
163,1153
164,237
164,312
164,368
164,414
164,517
164,700
164,1256
164,1512
164,2038
164,2107
164,2410
164,2595
164,2876
164,3956
164,4029
164,4358
164,4439
164,4576
166,69
167,1643
167,2498
167,2968
167,3851
169,243
169,654
169,675
169,937
169,1148
169,1277
169,2041
169,2552
169,3900
169,4461
169,4795
169,4970
170,3723
171,2245
171,2286
172,29
172,90
172,222
172,387
172,411
172,429
172,469
172,575
172,579
172,631
172,715
172,771
172,1359
172,1417
172,1584
172,1632
172,1661
172,1680
172,1712
172,1826
172,1864
172,2086
172,2237
172,2360
172,2577
172,2605
172,2891
172,2908
172,3385
172,3558
172,4078
172,4511
172,4555
172,4673
173,227
173,360
173,754
173,789
173,1237
173,1453
173,1923
173,3385
173,3635
173,4426
173,4455
174,61
174,386
174,496
174,524
174,835
174,1049
174,1369
174,1752
174,2142
174,2915
174,2934
174,3640
174,4626
174,4780
175,74
176,465
178,540
178,2484
178,3236
179,624
179,885
179,1229
179,1841
179,2792
179,3050
179,3298
179,4581
182,111
182,218
182,370
182,601
182,1236
182,1661
182,3458
183,2040
185,71
185,150
185,189
185,194
185,227
185,364
185,409
185,436
185,437
185,833
185,836
185,973
185,1180
185,1196
185,1748
185,2262
185,2951
185,3014
185,3441
185,3543
185,3561
185,4190
185,4923
185,4984
186,86
186,159
186,379
186,618
186,1969
186,2865
186,2931
186,3303
186,3896
186,4047
186,4503
187,3899
188,175
188,312
188,393
188,1016
188,2955
189,11
189,117
189,245
189,351
189,1141
189,1501
189,1719
189,2309
189,2613
189,3318
189,4457
189,4953
190,210
190,921
190,1039
190,1317
190,4358
192,516
192,526
192,1328
192,3657
193,85
193,205
193,211
193,490
193,2593
193,2830
193,2874
193,3267
193,4166
193,4755
195,11
195,981
195,1362
195,2605
195,3067
197,143
197,1178
197,1180
197,1748
197,1754
197,3216
197,3328
197,3818
198,23
198,999
198,1206
198,1592
198,3651
198,4720
201,142
201,233
201,240
201,532
201,570
201,927
201,1614
201,2403
201,2908
201,3048
201,3310
201,3511
201,3517
201,3854
201,4084
201,4619
202,76
202,570
202,1068
202,1174
202,2175
202,3685
202,4455
202,4752
204,81
204,107
204,260
204,483
204,652
204,691
204,1109
204,2158
204,2355
204,2517
204,2746
204,2825
204,3596
204,3597
207,899
207,1328
207,3027
207,3059
209,40
209,3851
209,4295
213,107
213,240
213,254
213,282
213,327
213,673
213,746
213,779
213,997
213,1474
213,1923
213,1989
213,2302
213,2461
213,2634
213,2708
213,2904
213,2989
213,3339
213,3855
213,4124
213,4237
213,4545
215,1082
215,3645
215,4661
216,2298
217,240
217,247
217,1096
217,3851
217,4345
217,4892
219,243
219,1354
219,2695
219,3026
219,3568
219,3854
219,4746
220,4933
221,842
222,796
223,952
223,1497
223,2563
223,3689
223,3731
225,4455
227,2744
228,81
228,166
228,409
228,1417
228,1680
228,1837
228,2656
228,2802
228,4159
228,4581
229,21
229,107
229,264
229,327
229,700
229,986
229,2365
229,2379
229,2410
229,3327
229,3829
232,770
232,774
232,878
232,980
232,1128
232,1675
232,1948
236,681
236,700
236,753
236,1423
236,1455
236,1633
241,68
241,284
241,387
241,532
241,601
241,946
241,2944
241,3282
241,3689
241,3829
244,86
244,3988
245,1716
246,128
246,135
246,176
246,511
246,722
246,1818
247,86
247,1074
247,1712
247,3814
248,35
248,47
248,112
248,732
248,1281
248,1357
248,1433
248,1452
248,2158
248,2914
248,2968
248,3203
248,3320
248,3344
248,3528
248,3845
248,4355
248,4903
250,128
250,234
250,474
250,675
250,780
250,783
250,1234
250,1784
250,1923
250,4222
251,317
251,334
251,371
251,1830
251,2579
251,3166
251,3439
252,142
252,688
252,862
252,1064
252,2218
252,4944
254,159
254,231
254,625
254,929
254,2086
254,4331
254,4583
256,80
257,142
257,165
257,305
257,386
257,457
257,532
257,640
257,980
257,1328
257,1473
257,2280
257,2582
257,3235
257,3761
257,4084
257,4151
257,4524
258,134
258,159
258,260
258,532
258,779
258,1504
258,3035
258,3315
258,3448
258,3468
258,3851
258,4284
261,1428
261,3429
261,4166
265,210
265,790
265,1484
265,2021
265,3050
268,135
268,980
268,3092
269,2
269,40
269,535
269,779
269,1579
269,2640
269,3060
269,4351
270,71
270,780
270,910
270,1196
270,3303
270,4909
273,2380
274,2057
275,557
275,700
275,992
275,1491
275,1680
275,2586
275,2717
275,3559
275,4455
275,4519
276,88
276,180
276,226
276,287
276,302
276,725
276,868
276,876
276,1015
276,1021
276,1174
276,1223
276,1712
276,1748
276,1801
276,1991
276,2505
276,2807
276,3076
276,3398
276,3525
276,3603
276,4149
276,4263
278,1350
278,1627
278,2087
279,113
280,707
280,1094
280,2051
280,3561
280,3723
280,3979
280,4673
280,4903
282,234
283,3385
283,4801
285,2486
286,675
288,162
288,967
288,2725
292,61
292,194
292,846
292,1551
292,2314
292,2709
292,2838
292,4455
292,4983
293,156
293,530
293,1000
293,1138
293,1897
294,290
294,1162
294,1576
294,1981
294,2705
294,2986
294,3331
294,4364
295,2455
295,3664
295,4329
296,727
296,1228
296,4245
297,247
297,393
297,555
297,1465
297,2286
297,2704
298,1667
298,2010
298,4303
299,3854
302,35
302,322
302,471
302,1469
302,2133
302,2491
302,2975
302,3041
302,4084
302,4539
302,4566
304,4084
308,512
308,1083
308,4115
308,4986
309,1061
309,2122
311,409
313,287
315,263
315,1312
315,1625
317,85
317,412
317,477
317,1100
317,1293
317,1808
317,2196
317,2705
317,3028
317,3050
317,4186
317,4455
317,4785
318,233
318,405
318,1217
318,2541
318,2878
318,3339
318,3792
318,4455
319,910
319,2648
319,2949
320,47
320,277
320,287
320,2717
320,2757
320,3723
320,4197
320,4280
320,4769
322,128
322,615
323,515
323,562
323,1270
323,1639
323,2122
323,2949
323,3063
323,4486
325,142
325,1991
325,2094
325,4601
326,1923
327,151
327,678
327,1543
327,1712
327,2407
327,3684
327,4323
328,3
328,29
328,54
328,352
328,429
328,847
328,1186
328,1205
328,2222
328,2561
328,2767
328,2821
328,3253
328,3339
329,52
329,1293
330,158
330,290
330,471
330,543
330,573
330,928
330,1026
330,1412
330,1488
330,2447
330,2913
330,3004
332,2670
332,4228
334,4626
335,592
335,1246
335,2396
335,2912
335,3289
335,3307
335,4769
338,50
338,363
338,488
338,562
338,1104
338,1325
338,1382
338,1852
338,2159
338,2704
338,2839
338,3440
338,3524
338,3953
338,4243
338,4360
338,4909
338,4943
339,4639
340,35
340,351
340,448
340,578
340,2411
340,2682
340,2912
341,659
341,1286
341,2581
341,3034
342,4274
342,4293
343,65
343,67
343,292
343,370
343,2670
343,4084
343,4308
347,627
347,4568
347,4786
348,98
348,2862
348,4245
350,1205
350,2008
352,30
352,409
352,1199
353,117
353,412
353,678
353,954
353,1236
357,2582
357,3655
358,540
358,555
358,1270
358,1584
359,156
359,255
359,444
359,557
359,640
359,662
359,724
359,820
359,886
359,980
359,1091
359,1229
359,2014
359,2043
359,2206
359,2302
359,2512
359,2770
359,3752
359,4342
359,4455
359,4935
360,1338
364,4468
366,615
366,1048
366,1687
366,3296
366,4937
367,1728
370,60
373,85
373,1200
373,1802
373,2328
374,920
374,980
374,3050
374,4784
375,2
375,1525
375,1974
375,3437
375,3596
377,141
377,2151
378,264
378,1286
378,1579
378,3053
381,211
381,327
381,437
381,965
381,1282
381,1382
381,3067
381,3828
381,4648
381,4961
383,3114
383,3673
383,4315
383,4970
384,240
384,479
384,1143
385,379
387,4637
389,770
389,1077
389,1666
389,2093
389,2440
389,2881
389,3596
389,3990
389,4926
390,108
390,814
390,4474
392,251
394,714
394,2000
394,2786
394,3559
394,4064
396,142
396,713
397,159
397,661
397,2697
397,2884
397,3067
397,4251
398,243
398,477
398,707
398,867
398,1436
398,1633
398,2826
398,3018
398,3589
398,4323
399,1566
399,3723
399,3817
399,4933
400,134
400,561
400,579
400,787
400,876
400,4772
401,49
401,194
401,409
401,663
401,937
401,4752
402,422
402,913
402,1077
402,1747
402,3383
402,4729
402,4816
403,501
403,981
403,1133
403,1449
403,2080
403,2300
403,3489
403,3557
403,4051
403,4159
404,2850
404,3379
404,3926
406,135
406,150
406,1317
406,1924
406,3110
407,143
407,233
411,2670
411,4338
413,579
413,654
413,2674
413,2871
413,2967
413,3345
413,4029
415,732
415,952
415,1459
415,4970
416,260
416,892
416,2469
417,1882
417,4741
418,3288
419,200
419,317
419,770
419,1183
419,1536
419,3298
419,4609
419,4715
420,931
420,946
420,1325
420,2090
420,2830
420,3267
420,4766
421,233
421,544
421,570
421,1026
421,1577
421,3347
421,3971
421,4251
423,2971
423,4658
424,4489
424,4694
425,1081
425,1721
425,3458
428,1063
428,1396
428,3851
428,4671
428,4821
430,2038
430,4491
430,4944
431,66
431,3018
433,1527
433,3932
434,1631
434,1651
434,2516
434,3655
434,4812
435,1205
435,3166
435,3949
440,1677
441,4732
445,367
445,477
445,540
445,839
445,877
445,980
445,1453
445,2152
445,2395
445,2725
445,2825
445,3701
445,4159
445,4185
446,69
446,412
446,436
446,501
446,702
446,715
446,768
446,1368
446,1625
446,1954
446,2868
446,3050
446,3086
446,4219
446,4299
446,4505
446,4645
446,4728
447,226
447,1162
447,2375
447,3094
447,3097
447,3148
448,69
449,678
449,3020
449,3808
451,16
451,2770
453,3485
453,4755
454,113
454,1270
454,2054
454,3208
454,3516
454,4944
455,119
455,141
455,673
455,2130
456,516
456,640
456,921
456,926
456,2597
456,2776
456,4083
460,191
460,287
460,409
460,1317
460,1491
460,2338
460,2379
460,3617
460,4990
461,116
461,1015
461,1318
461,1543
461,1748
461,2142
461,2152
461,2486
461,2553
461,2579
461,3646
462,770
462,1625
462,1671
462,3614
463,3096
463,3591
465,231
469,2752
469,3919
469,4049
470,1016
470,1138
470,3386
470,3516
471,3579
472,1115
472,1738
472,1884
472,1987
472,3018
472,4104
472,4365
473,1753
473,1811
473,1817
474,387
474,4764
475,2
475,769
475,2365
475,2919
475,3299
475,3586
475,4637
475,4712
480,2
480,165
480,412
480,842
480,3061
480,3214
480,3437
480,4514
480,4791
481,1211
481,2908
483,203
483,535
483,783
483,839
483,895
483,1796
483,2277
483,2552
483,3198
483,4307
483,4408
483,4503
483,4512
483,4879
485,104
485,113
485,489
485,1371
485,3077
485,3298
485,3731
485,3764
485,4873
486,1685
486,2956
486,3555
486,4027
486,4166
486,4537
487,469
487,557
487,1991
487,2566
487,3045
487,3453
489,726
489,1015
489,1453
489,2452
489,3343
489,3657
493,471
493,770
493,814
493,1267
493,2072
493,3438
493,3622
494,35
494,724
494,1055
494,1412
494,1711
494,3546
494,3931
497,20
497,3018
497,3498
498,159
498,1991
498,3549
498,3720
500,515
500,1026
500,1066
500,1917
500,4933
502,484
502,1320
502,1679
503,49
503,3555
503,4284
503,4589
503,4696
503,4715
504,35
504,380
504,1662
504,4949
506,820
506,1275
506,1348
506,1465
506,3281
507,231
507,496
507,740
507,796
507,957
507,1174
507,1235
507,1396
507,2509
507,4260
507,4944
509,123
509,1453
509,3444
509,4738
510,538
510,2885
511,1048
511,1625
511,1923
511,2968
511,3106
511,3644
511,3956
511,4858
513,501
513,1948
514,165
514,1590
518,640
518,2644
518,4064
519,432
519,921
519,1884
519,1890
519,1991
520,3328
521,42
521,145
522,508
523,637
523,1843
523,2616
523,3780
523,4255
524,123
524,532
524,847
524,877
524,1025
524,1091
524,1228
524,1346
524,1467
524,1679
524,1755
524,2032
524,2410
524,2722
524,3927
528,2965
529,3530
533,479
533,496
533,1991
533,3516
534,66
534,83
534,117
534,142
534,159
534,203
534,682
534,702
534,823
534,1153
534,1469
534,2249
534,3851
534,4439
534,4735
535,86
535,496
535,980
535,1797
535,2390
535,3253
537,1923
537,3059
537,3485
541,180
541,1846
541,2237
541,2298
541,3806
542,135
542,971
542,2474
542,4136
545,1236
545,1584
545,2006
545,3298
546,4673
551,509
551,1016
553,779
554,87
554,1051
554,2609
554,3474
554,4559
555,206
555,429
555,3651
556,1706
557,3122
559,116
559,327
559,1912
559,2140
559,3549
561,49
561,508
561,992
561,1019
561,1605
561,1944
561,1981
561,2175
561,2329
561,2347
561,2552
561,3385
561,3397
561,3683
561,4212
561,4555
561,4699
561,4843
563,530
563,4264
564,2237
564,2528
564,2694
565,367
565,4291
566,1105
566,1981
566,2051
567,405
567,1882
567,3593
567,4970
569,90
571,1291
571,2867
571,3245
571,4869
572,1076
572,2186
572,3751
573,4308
574,530
574,674
574,1412
574,1564
574,1976
574,2550
575,158
575,159
575,337
575,379
575,516
575,897
575,1344
575,1398
575,1617
575,1618
575,2611
575,3392
575,3547
575,3851
575,3864
575,3964
575,4223
575,4715
575,4899
577,1915
577,4933
579,1270
579,1665
579,2618
579,4884
581,1138
581,2069
582,4903
583,11
583,923
583,2187
583,2673
583,3243
583,3361
583,3444
583,3651
583,3903
583,4553
583,4892
585,259
585,653
585,3050
585,3309
585,4084
587,652
587,2519
590,2485
590,2581
591,1174
591,1372
591,3927
593,1036
593,1821
593,2038
593,3001
593,3655
593,4930
593,4970
594,88
594,376
594,814
594,2397
594,2561
594,3780
595,1077
595,1431
595,2579
595,4306
596,2582
597,3684
598,2
598,770
598,1319
598,1384
598,3429
598,3672
598,3933
598,4619
598,4694
600,85
600,509
600,884
600,1814
600,2328
600,2374
600,2951
603,443
603,1109
603,2740
603,4858
603,4968
604,367
604,1015
605,76
605,973
605,2379
606,714
606,1227
606,1849
606,3960
607,159
607,4341
609,260
609,2000
610,1409
610,1670
611,40
611,1509
612,11
612,2949
612,4056
615,1515
616,926
616,1089
616,1247
616,3516
618,222
618,1599
618,1737
619,409
619,562
619,780
619,997
619,1698
619,2067
620,87
620,123
620,495
620,1015
620,1373
620,1417
620,1452
620,1910
620,2390
620,2446
620,2919
620,3167
620,3237
620,3430
620,4206
620,4226
621,148
621,159
621,181
621,344
621,409
621,434
621,656
622,259
622,478
622,663
622,930
622,2646
622,2830
622,3433
623,347
623,405
623,1759
623,1906
623,2992
623,3298
623,4679
623,4970
626,4568
628,479
628,3596
630,3672
632,2740
635,42
638,387
638,1160
638,1477
638,1633
638,2010
639,910
639,1272
639,2237
639,2410
641,1962
641,2848
641,2969
641,4266
642,512
642,1651
642,3657
643,769
643,1026
643,3303
644,214
646,1051
646,2984
646,4578
648,3599
648,3690
648,4757
649,573
649,2889
649,3565
650,159
650,770
651,925
651,1228
651,1357
651,1627
651,2018
651,2137
651,2403
651,2438
651,3076
651,3135
651,3267
651,3302
651,3723
651,4084
654,3
654,3657
654,3707
654,4593
657,495
657,535
657,1869
659,40
659,893
659,2683
659,3162
659,3286
660,2
660,872
660,1631
660,3206
660,4203
661,155
661,1873
661,3067
661,3324
663,922
663,2484
663,2604
663,2651
663,3966
667,992
668,562
668,742
668,2286
668,4079
668,4410
669,971
669,1143
669,1265
669,1643
669,2158
669,3845
670,387
670,1643
670,2303
671,135
677,471
680,2908
683,496
683,833
683,1923
683,2430
683,4051
684,2561
685,49
685,815
685,980
685,2237
685,3272
685,4903
686,267
686,281
686,287
686,864
686,1932
686,3678
686,3926
686,4970
689,113
689,143
689,263
689,532
689,981
689,1245
689,1447
689,1615
689,1882
689,1923
689,1998
689,2151
689,2746
689,2758
689,3113
689,4297
689,4350
690,2829
690,3956
692,60
692,539
692,1024
692,1433
692,1494
692,1800
692,1945
692,3833
693,109
693,249
693,525
693,796
693,820
693,884
693,2211
694,861
694,3437
694,4437
694,4753
695,165
695,1132
696,316
696,2312
697,11
697,1197
697,1362
697,3851
699,23
699,899
699,1016
699,1424
699,1440
699,3035
699,3326
699,3707
699,3845
699,3920
702,8
702,58
702,517
702,535
702,770
702,980
702,1317
702,1568
702,2329
702,2484
702,2949
702,3034
702,3368
702,3596
702,3887
702,4126
702,4447
702,4500
702,4930
703,477
703,1247
703,2561
703,2740
703,3992
703,4200
704,4626
705,85
705,710
705,974
705,2662
705,2858
705,2861
705,2972
705,2984
705,3205
705,4619
706,65
706,310
706,1991
706,2817
706,3525
706,3782
706,4673
707,4603
708,243
708,333
708,1139
708,3539
708,4765
709,1076
711,631
711,3657
712,135
712,2187
712,4735
714,387
714,981
714,1064
714,1215
714,2011
714,2286
714,3055
714,3992
714,4555
715,4909
717,516
717,1425
717,1884
717,3585
717,3853
717,3926
718,2579
719,165
719,2450
721,471
721,482
721,1357
721,2954
721,3297
722,1015
722,1052
723,2949
724,656
724,1147
724,1567
724,1712
724,1991
724,2165
724,3090
724,3303
724,3691
724,3757
725,2833
729,16
729,426
729,465
729,558
729,770
729,1293
729,1331
729,1756
729,1759
729,1967
729,2392
729,2893
729,3458
729,4673
730,281
730,1918
730,4275
731,166
731,451
731,482
731,2033
731,3999
732,231
732,307
732,848
732,1617
732,2584
733,820
733,1059
733,1086
733,4234
734,459
734,3647
737,272
737,615
737,678
737,910
737,954
737,1067
737,1661
737,1706
737,1991
737,2221
737,2366
737,2375
737,2670
737,3125
737,3165
737,3208
737,4017
737,4151
737,4578
737,4619
738,710
738,771
738,2410
738,3437
739,281
739,1100
741,539
741,656
741,1249
741,3154
741,4239
743,247
744,405
744,2140
745,444
745,532
745,779
745,1318
745,1435
745,4603
747,100
747,465
747,700
747,1663
747,2087
747,2902
747,3641
748,324
748,439
748,3517
748,4210
749,1100
749,1706
750,443
750,861
750,1844
750,2262
750,2452
750,2750
750,4903
750,4909
751,85
751,141
751,351
751,395
751,543
751,555
751,673
751,887
751,1100
751,1303
751,1547
751,1777
751,1841
751,1953
751,2038
751,2218
751,2286
751,2484
751,2499
751,2951
751,3106
751,3288
751,3451
751,3723
751,3796
751,3931
751,3992
751,4271
751,4323
751,4928
751,4933
752,152
755,151
755,3069
755,3723
755,4439
756,3531
757,31
757,116
757,3281
757,4110
758,1324
758,1745
761,1577
761,4926
762,580
762,2968
763,653
763,3577
765,332
765,1100
765,1923
765,2866
765,4966
766,1280
766,1923
768,142
770,35
770,134
770,142
770,253
770,1668
770,2049
770,3441
770,4480
770,4621
772,562
772,2609
773,544
773,1109
773,3289
773,3429
775,471
776,544
776,974
776,1998
776,3374
777,143
777,3197
777,4084
777,4146
777,4245
778,1625
779,142
781,388
781,557
781,1091
781,1405
781,1453
781,2546
781,2587
781,2915
781,2954
781,3123
781,3429
781,3444
781,3489
781,4555
781,4854
781,4919
786,4226
788,134
788,142
788,154
788,2047
788,2196
791,3298
792,143
792,301
792,556
792,1100
792,1250
792,1417
792,1932
792,3560
792,4715
793,1129
793,3202
793,4903
795,1061
795,3208
795,4433
798,1231
798,3723
798,4854
800,379
800,539
800,557
800,1028
800,2474
800,3084
800,3294
800,4010
800,4270
801,4576
802,937
802,1908
802,3039
802,4077
803,1752
803,2054
804,3106
805,722
805,2951
806,2069
807,2552
808,2158
809,4364
810,159
810,1333
811,3769
811,4508
811,4844
812,1377
813,4029
814,784
814,2484
816,363
816,393
816,2129
816,2334
816,2468
817,892
817,4673
818,259
818,427
818,980
818,1273
818,1342
818,1349
818,1417
818,1802
818,1897
818,2348
818,2729
818,3104
818,4644
818,4822
819,693
819,702
821,104
821,210
825,2879
826,42
826,203
826,393
826,944
826,980
826,1267
826,1313
826,1985
826,3381
826,4480
827,412
827,2038
827,3203
827,4715
831,1249
832,2752
834,231
834,2160
834,2705
834,2808
834,3127
834,4922
837,116
837,159
837,623
837,2208
837,2379
838,665
841,496
843,1270
844,4754
845,231
845,307
845,576
845,1884
845,2530
845,3639
845,3808
847,2099
848,4431
849,84
849,459
849,1398
849,4194
849,4464
850,3334
851,920
851,1049
851,1846
851,4084
851,4251
852,1592
854,530
854,820
854,1417
854,2618
854,2734
854,4088
856,85
856,142
856,165
856,169
856,700
856,980
856,1181
856,1305
856,1923
856,2086
856,2860
856,3516
856,3957
856,4226
856,4473
856,4761
857,159
857,929
857,1706
859,109
859,647
859,915
859,1362
859,1384
859,2764
859,4162
861,1008
863,779
863,1753
863,1933
863,2684
863,2762
863,2830
863,3429
863,3492
864,459
864,3003
864,4063
866,2041
869,409
869,700
869,1071
869,1098
869,2783
869,3012
869,4642
869,4974
871,1064
872,49
872,287
872,300
872,356
872,376
872,538
872,557
872,716
872,839
872,1446
872,2850
872,2861
872,3290
872,3524
872,3608
872,3817
872,4869
873,562
873,1167
873,2872
873,3682
873,4233
874,448
874,1569
874,2819
874,4364
877,333
877,550
877,2694
877,4261
877,4278
877,4871
878,2224
878,2262
879,13
881,28
881,113
881,267
881,1132
881,1437
881,1515
881,2949
881,3449
881,3870
882,1678
883,3485
886,601
886,780
886,787
886,1028
886,1398
886,1666
886,1755
886,2467
888,894
888,975
888,1197
888,3440
888,3604
888,4084
889,2430
889,3793
890,233
893,1118
899,352
899,426
899,434
899,532
899,894
899,949
899,1270
899,1588
899,2508
899,3644
900,558
900,2830
901,1279
901,1325
901,2582
901,3437
901,4101
902,3260
902,3992
905,3485
905,3739
909,85
909,2657
909,2833
909,4101
911,332
911,796
916,1543
916,1613
916,4123
919,123
919,168
919,884
919,1991
921,4010
922,84
922,337
922,2446
922,3139
922,4681
922,4854
922,4903
924,4240
925,159
925,1408
925,2441
925,3655
925,4191
925,4933
933,804
933,3685
933,3720
935,701
935,980
936,336
936,531
936,2218
936,3814
936,4912
937,980
938,150
938,3513
939,2717
939,4786
940,669
940,1661
942,327
942,436
942,669
942,1133
942,4323
942,4666
943,116
945,2151
945,4278
947,4284
949,379
949,2298
950,128
950,2912
950,3639
951,159
951,1319
951,1531
953,2903
953,3595
955,557
956,4913
958,675
959,141
959,290
959,332
959,579
959,636
959,1344
959,1898
959,2561
959,3899
959,4428
960,9
960,135
960,159
960,184
960,301
960,307
960,316
960,601
960,653
960,760
960,1700
960,1923
960,2213
960,2245
960,2364
960,2365
960,2573
960,2708
960,2884
960,3197
960,3328
960,3938
960,4576
962,113
962,152
962,2340
962,3951
963,243
963,1240
963,1330
963,3067
966,496
968,976
968,1177
968,1991
968,3385
970,231
970,1991
971,231
971,3707
972,835
972,1137
972,1704
972,2402
972,3316
972,3899
972,4581
976,2164
976,2949
977,363
977,580
977,1500
977,1661
977,1959
977,2479
977,2868
977,3018
977,4926
977,4930
978,1607
978,2714
980,663
980,934
980,2000
980,3303
980,4340
982,13
982,4359
983,1100
983,2740
983,2881
984,3246
984,4009
984,4245
985,2830
985,3223
985,4330
988,1055
988,1764
988,2955
989,1998
989,3499
989,4040
990,128
990,1115
990,3740
991,4769
992,1249
992,1495
992,1527
992,1625
992,2988
995,165
995,1012
995,1189
995,1346
995,1846
995,2104
995,2666
995,4753
996,997
996,4051
997,4493
998,1435
998,1991
998,4260
1000,3971
1001,35
1002,539
1002,1138
1002,2216
1002,2495
1002,2798
1002,3162
1002,4179
1003,2081
1003,2379
1003,3971
1003,4933
1004,76
1004,482
1004,580
1004,746
1004,1120
1004,1631
1004,2231
1004,2486
1004,3651
1004,4999
1005,152
1006,259
1006,538
1006,1074
1006,2054
1006,3135
1006,3182
1006,3746
1007,117
1007,3440
1007,3545
1008,1453
1008,2617
1008,3881
1009,287
1009,1428
1009,2062
1009,4626
1010,104
1011,836
1011,3978
1013,2198
1013,3641
1013,3941
1013,4223
1014,1515
1014,1991
1014,3414
1015,1313
1015,2908
1017,117
1017,259
1017,840
1017,1115
1017,1189
1017,2578
1017,3386
1017,3949
1017,4363
1018,262
1018,287
1018,488
1020,368
1020,867
1020,1453
1020,1882
1020,2694
1020,2775
1020,3558
1020,3848
1022,1546
1022,2477
1022,2529
1022,4968
1023,496
1023,1355
1025,3207
1025,4109
1026,86
1026,100
1026,108
1026,525
1026,1851
1026,1987
1026,1991
1026,4284
1026,4323
1026,4869
1027,477
1027,1689
1029,1748
1032,1712
1034,119
1034,237
1034,327
1034,1664
1034,2582
1034,2870
1034,3716
1037,76
1037,365
1037,532
1037,1119
1037,1652
1037,1667
1037,1811
1037,1882
1037,2048
1037,2484
1037,2504
1037,3534
1037,4426
1038,385
1038,3208
1038,3240
1040,2329
1041,159
1041,1693
1043,3240
1043,3548
1044,488
1044,2682
1045,3809
1048,4944
1050,151
1051,28
1051,54
1051,820
1051,3096
1051,3649
1051,3851
1053,579
1053,3988
1054,4869
1056,424
1056,4425
1057,66
1057,86
1057,159
1057,219
1057,471
1057,656
1057,870
1057,903
1057,1706
1057,2343
1057,2390
1057,2609
1057,2695
1057,2717
1057,2949
1057,3286
1057,3415
1057,4194
1057,4619
1057,4847
1058,640
1058,1818
1058,4280
1059,196
1059,379
1059,1147
1059,1228
1059,1915
1059,3208
1059,3543
1059,4640
1060,3723
1061,3534
1062,4949
1064,194
1064,543
1064,3298
1065,289
1065,1863
1065,1970
1065,4165
1065,4793
1066,735
1066,1579
1066,2825
1066,4084
1067,2717
1068,35
1068,117
1068,337
1068,796
1068,4555
1068,4861
1068,4968
1069,1759
1069,2452
1070,5
1070,22
1070,141
1070,946
1070,1901
1070,4673
1070,4748
1070,4769
1071,2164
1072,1837
1072,2673
1073,515
1073,2086
1073,3294
1073,3993
1073,4222
1074,210
1074,1047
1074,3815
1078,1207
1078,1816
1079,135
1079,345
1079,980
1079,1174
1079,2298
1079,3096
1079,3948
1079,3949
1079,4363
1080,159
1080,2197
1080,2504
1080,3316
1084,2968
1084,3197
1085,97
1085,1473
1085,1944
1087,112
1087,307
1087,1261
1087,1362
1087,2370
1087,2532
1087,4858
1088,491
1088,990
1088,1644
1088,4991
1091,159
1092,324
1093,2022
1095,69
1095,1712
1095,1930
1095,3352
1095,3758
1095,4053
1095,4785
1097,787
1099,159
1100,654
1100,673
1100,999
1100,1355
1100,3018
1101,60
1101,230
1101,284
1101,365
1101,412
1101,915
1101,1008
1101,1232
1101,1369
1101,2307
1101,2448
1101,3214
1101,4222
1101,4291
1101,4754
1107,592
1108,973
1108,3525
1110,897
1110,1959
1110,3130
1111,920
1111,1190
1111,2662
1111,3214
1112,243
1113,748
1113,2038
1113,3274
1113,4968
1114,139
1114,2888
1114,4260
1116,868
1118,1804
1118,1927
1118,2704
1118,3485
1118,3516
1118,3553
1120,3292
1120,3895
1120,3899
1121,113
1123,3516
1125,3808
1125,4222
1126,151
1127,409
1127,2750
1127,2898
1130,2019
1130,3386
1130,4341
1134,191
1134,243
1134,312
1134,910
1134,1156
1134,1292
1134,1608
1134,1773
1134,3455
1134,4844
1136,1453
1136,1533
1136,2968
1140,654
1140,2107
1140,2309
1140,2328
1140,2717
1140,3148
1145,159
1145,938
1146,4699
1149,999
1149,2769
1151,930
1151,1453
1152,601
1152,980
1152,1016
1152,1473
1152,1898
1152,4455
1158,525
1158,1251
1158,2175
1158,2616
1158,3655
1159,260
1163,1505
1166,284
1166,471
1167,1511
1168,143
1168,1234
1168,3655
1169,119
1172,40
1172,562
1172,938
1172,2715
1172,4603
1173,967
1173,1148
1175,722
1175,1160
1175,1180
1175,1932
1175,3870
1175,3932
1175,4584
1181,113
1181,2318
1182,2036
1182,2151
1184,201
1184,929
1184,2898
1185,230
1185,2211
1190,60
1190,656
1190,1393
1190,2550
1190,3601
1190,4159
1190,4818
1191,2026
1191,2100
1191,3525
1191,3983
1191,4715
1193,1180
1194,787
1194,2206
1195,13
1195,86
1195,290
1195,495
1195,592
1195,1698
1195,1715
1195,2073
1195,3819
1195,4455
1195,4970
1198,191
1198,3314
1199,516
1199,4296
1201,143
1201,662
1201,1182
1201,2275
1201,2854
1201,2997
1201,4044
1202,141
1202,165
1202,1519
1203,1144
1203,2826
1204,3299
1207,284
1207,3458
1207,3512
1209,40
1209,184
1209,391
1209,861
1209,1098
1209,1335
1209,1344
1209,1453
1209,1618
1209,1626
1209,1753
1209,2352
1209,2390
1209,2537
1209,2549
1209,3061
1209,3096
1209,3271
1209,3401
1209,3502
1209,3655
1209,3808
1209,4701
1210,2579
1211,142
1211,532
1211,1096
1211,1663
1211,1730
1211,2597
1211,3720
1211,4731
1212,177
1212,1872
1213,1729
1213,2000
1213,3206
1213,4555
1214,1519
1214,2951
1214,3070
1216,1969
1217,1991
1219,2486
1220,301
1220,1712
1220,1846
1220,2578
1221,363
1221,1822
1221,2736
1221,2868
1221,3070
1222,123
1222,253
1222,273
1222,3313
1224,231
1224,2904
1224,4673
1225,560
1225,877
1225,954
1225,1351
1225,1476
1225,1755
1225,2333
1225,4105
1225,4581
1225,4709
1226,119
1226,405
1226,4626
1226,4750
1230,191
1230,247
1230,899
1230,2007
1230,4970
1231,4541
1232,4228
1233,226
1233,1991
1233,2151
1233,3312
1233,4902
1236,3669
1239,544
1239,732
1239,4166
1240,2392
1242,8
1242,356
1242,508
1242,1467
1242,2185
1242,2390
1242,4680
1243,61
1243,365
1243,478
1243,544
1243,629
1243,880
1243,1398
1243,3389
1243,4363
1243,4426
1243,4555
1244,2041
1248,1090
1249,3845
1250,1455
1252,87
1252,165
1252,637
1252,715
1252,1016
1252,1521
1252,1903
1252,1981
1254,1016
1254,2232
1257,477
1259,570
1259,4260
1260,259
1260,1229
1260,2270
1260,2658
1260,3533
1260,3586
1260,4908
1264,69
1264,803
1264,1314
1264,1657
1264,2150
1264,3548
1264,3651
1264,3949
1264,4252
1266,162
1268,1501
1268,1667
1269,580
1269,3233
1269,4968
1270,218
1271,113
1271,1593
1271,1938
1272,42
1272,264
1272,367
1272,2390
1274,2421
1274,3806
1274,4892
1278,3288
1279,539
1281,2
1281,224
1281,281
1281,637
1281,1105
1281,1605
1281,2086
1281,2180
1281,2258
1281,2576
1281,2895
1281,3205
1281,3987
1281,4029
1281,4259
1281,4439
1284,3244
1284,3849
1285,165
1285,691
1285,2826
1285,2969
1287,4555
1288,306
1288,2328
1289,1122
1290,211
1290,3298
1291,334
1291,437
1291,1497
1291,2740
1292,16
1292,1700
1293,1338
1293,3286
1294,3531
1295,152
1295,544
1295,736
1295,2101
1295,2484
1295,2598
1295,4452
1296,119
1296,148
1296,267
1296,384
1296,439
1296,464
1296,671
1296,1016
1296,1035
1296,1592
1296,1866
1296,2107
1296,2316
1296,2379
1296,2521
1296,2775
1296,3100
1296,4098
1298,814
1298,1879
1298,2388
1298,2449
1298,2565
1298,3599
1299,84
1299,531
1299,1332
1299,1991
1299,2130
1299,4715
1299,4970
1300,386
1301,287
1302,1643
1302,3689
1302,3851
1302,4578
1304,135
1305,3021
1306,3651
1306,4909
1308,3751
1308,4123
1309,1064
1309,2590
1309,3224
1310,117
1315,779
1315,3316
1315,3751
1316,111
1316,282
1316,921
1316,2926
1316,3285
1320,505
1320,1015
1320,1064
1320,1197
1320,1822
1320,1840
1320,1846
1320,2151
1320,2577
1320,2682
1320,2703
1320,2955
1320,3214
1320,4027
1320,4909
1321,230
1322,2041
1324,1706
1327,448
1327,1061
1327,1989
1327,1995
1328,159
1329,85
1329,2484
1333,931
1333,3335
1333,3370
1336,86
1336,1046
1337,4968
1338,1263
1340,2005
1340,3321
1343,22
1343,289
1344,1019
1344,3410
1344,4030
1344,4219
1345,952
1345,1497
1346,459
1346,2054
1346,2410
1347,1094
1348,434
1348,2884
1349,1403
1350,142
1350,588
1350,3429
1352,384
1353,253
1355,119
1355,284
1355,813
1356,2717
1356,4231
1356,4673
1358,62
1358,123
1358,1431
1358,2180
1358,2475
1360,143
1360,2395
1360,2484
1360,4146
1361,839
1365,2528
1367,405
1367,2193
1367,2452
1367,3539
1367,4537
1369,4968
1370,656
1372,1543
1375,4030
1376,85
1376,281
1376,351
1376,391
1376,467
1376,723
1376,842
1376,1129
1376,1156
1376,1471
1376,1957
1376,2023
1376,2477
1376,2633
1376,3462
1376,4128
1376,4933
1377,224
1377,3525
1378,65
1378,847
1378,3967
1379,237
1379,640
1379,910
1379,2329
1379,2410
1379,3503
1379,4754
1380,1923
1381,4291
1382,786
1382,3298
1383,1350
1385,2264
1385,2641
1385,4084
1386,363
1386,1639
1386,2375
1386,3851
1386,4146
1386,4860
1387,1174
1388,2724
1389,3899
1390,790
1391,234
1391,2119
1391,2132
1391,2384
1391,3328
1391,3344
1391,3988
1392,271
1392,287
1392,290
1392,409
1392,525
1392,560
1392,1052
1392,2192
1392,2484
1392,3328
1392,3860
1392,4228
1392,4265
1392,4433
1394,2286
1395,1205
1395,1846
1398,1049
1398,1516
1398,2187
1398,2237
1398,2514
1398,3385
1398,3655
1399,10
1399,385
1399,948
1399,1016
1399,1048
1399,1673
1399,1923
1399,2414
1399,2438
1399,2709
1399,3946
1399,4206
1399,4266
1399,4277
1399,4497
1400,2484
1401,580
1402,266
1402,345
1402,532
1402,570
1402,1403
1402,1427
1402,2968
1402,3294
1404,608
1404,1223
1404,1350
1404,3808
1406,13
1406,267
1406,466
1406,3544
1407,351
1410,230
1410,1543
1410,3148
1410,3421
1411,3936
1413,85
1413,180
1413,386
1413,2163
1413,4084
1413,4922
1415,267
1416,878
1416,2609
1417,974
1418,645
1418,868
1418,1067
1418,1841
1418,2717
1418,4029
1419,113
1419,128
1419,1121
1419,1190
1419,3516
1419,4362
1419,4752
1420,444
1420,2618
1420,3048
1420,3409
1420,4169
1421,1059
1421,1501
1421,2291
1421,3319
1422,2717
1422,2755
1423,69
1423,544
1423,973
1425,142
1425,272
1425,675
1425,1048
1425,1091
1425,1595
1425,2727
1425,3855
1425,3966
1425,3988
1427,16
1428,3230
1429,259
1430,465
1431,40
1431,247
1431,469
1431,540
1431,1787
1431,2676
1432,172
1432,3988
1435,113
1436,1281
1436,3140
1436,4455
1436,4619
1437,10
1438,354
1439,38
1439,409
1439,884
1439,946
1439,1651
1439,1845
1439,2634
1439,4646
1439,4881
1441,119
1443,2365
1444,2844
1445,4
1445,1245
1445,1700
1445,3053
1447,81
1447,255
1447,332
1447,702
1447,1064
1447,1196
1447,1368
1447,1541
1447,1581
1447,1969
1447,2581
1447,3498
1447,3734
1447,3833
1447,4213
1447,4226
1447,4905
1448,1991
1449,303
1450,4228
1451,142
1451,1561
1454,382
1454,1291
1454,2037
1455,281
1455,677
1455,941
1455,1161
1455,1183
1455,1359
1455,2747
1455,3298
1455,3540
1456,482
1457,515
1457,3298
1457,4533
1458,508
1458,980
1458,4928
1460,1190
1460,2452
1460,3679
1461,437
1461,3360
1462,243
1462,1998
1463,1690
1463,3067
1465,893
1465,944
1465,3398
1468,4715
1470,904
1472,13
1472,152
1472,384
1472,1196
1472,1283
1472,1617
1472,1991
1472,2490
1472,2500
1472,2673
1472,2864
1472,4081
1472,4166
1472,4517
1473,2107
1475,678
1476,128
1476,194
1476,588
1476,725
1476,895
1476,932
1476,1049
1476,1082
1476,3440
1476,4312
1478,3546
1479,482
1480,386
1480,1304
1480,1991
1480,2101
1481,4084
1482,3214
1485,31
1485,103
1485,159
1485,284
1485,584
1485,675
1485,716
1485,957
1485,1154
1485,1773
1485,2975
1485,4970
1486,222
1486,227
1486,1706
1487,226
1489,2791
1493,412
1493,956
1493,1847
1493,2474
1493,2541
1493,2668
1493,3151
1498,23
1498,771
1498,1449
1498,1883
1500,412
1501,921
1502,508
1503,847
1503,2899
1506,112
1506,1064
1506,3018
1506,3851
1506,4673
1506,4909
1507,1338
1508,259
1508,4318
1509,4944
1511,489
1511,4786
1513,936
1513,1932
1514,287
1518,3429
1519,1256
1520,1272
1522,2107
1523,774
1524,517
1524,981
1528,199
1528,1210
1529,1181
1535,65
1535,128
1535,158
1535,698
1535,974
1535,1154
1535,2003
1535,2102
1535,2216
1535,3197
1535,3808
1535,4013
1536,3489
1537,571
1538,135
1538,176
1538,219
1538,266
1538,918
1538,1008
1538,1328
1538,1436
1538,1643
1538,2996
1538,3484
1538,3817
1538,3946
1538,4184
1538,4803
1539,3854
1542,579
1544,1351
1544,3854
1545,159
1545,3984
1546,1076
1546,1414
1548,312
1548,439
1548,443
1548,1930
1548,2069
1548,3645
1548,3964
1548,4818
1550,1505
1551,88
1551,2390
1551,4453
1554,1719
1554,2151
1556,1148
1557,1064
1557,1707
1557,2328
1557,2355
1557,3072
1558,209
1558,448
1558,926
1558,1270
1559,267
1559,722
1559,1690
1559,2425
1559,3855
1559,4619
1559,4822
1562,3385
1562,3659
1562,3870
1563,653
1563,2740
1568,6
1568,69
1568,142
1568,152
1568,488
1568,539
1568,1162
1568,3444
1568,4896
1571,191
1571,4657
1572,752
1574,66
1575,588
1575,1205
1575,1256
1575,2140
1575,4051
1575,4227
1575,4793
1576,4793
1578,71
1578,1681
1580,116
1580,151
1580,452
1580,496
1580,2262
1580,3208
1580,3287
1580,4110
1583,116
1583,233
1583,247
1583,296
1583,337
1583,380
1583,491
1583,624
1583,631
1583,825
1583,1160
1583,1757
1583,2916
1583,3048
1583,3061
1583,4029
1583,4619
1583,4869
1583,4933
1584,625
1584,732
1584,4051
1584,4510
1585,267
1586,483
1586,1984
1586,2015
1586,2039
1586,4995
1587,1015
1589,3778
1591,3148
1594,1374
1594,1384
1594,2390
1594,2552
1594,3758
1597,85
1597,895
1598,4398
1598,4441
1600,1
1600,151
1600,1569
1600,1625
1600,1661
1600,2034
1600,4413
1601,1923
1604,128
1604,191
1605,227
1605,1713
1605,1998
1606,2402
1606,3659
1606,4880
1606,4968
1607,334
1611,71
1611,243
1611,1753
1612,2813
1612,3214
1616,35
1616,543
1616,1202
1616,2390
1620,2
1620,206
1620,1397
1620,1534
1620,4806
1621,2438
1622,243
1622,848
1622,1497
1622,2830
1622,3621
1623,60
1623,1174
1623,1719
1624,815
1624,1396
1624,1923
1624,2826
1624,2944
1624,3534
1624,4886
1629,222
1629,508
1629,3543
1634,532
1634,2269
1636,363
1637,1031
1640,3148
1640,3462
1640,4555
1641,108
1641,539
1641,3726
1642,2101
1644,49
1645,1685
1645,1865
1646,2830
1646,3419
1646,4212
1646,4485
1647,158
1648,62
1648,100
1648,287
1648,718
1648,880
1648,1323
1648,2086
1648,2280
1648,3930
1648,4054
1648,4284
1648,4455
1650,532
1650,579
1652,87
1652,2379
1652,2906
1653,2
1653,337
1653,1408
1654,179
1654,1147
1654,2176
1655,532
1655,2253
1655,3013
1655,3477
1655,3485
1656,784
1656,2465
1659,1991
1660,4673
1661,181
1661,1133
1661,1208
1661,2152
1661,3242
1666,2450
1669,159
1669,452
1669,2719
1669,4082
1669,4809
1669,4892
1670,707
1674,876
1674,2154
1674,4503
1677,255
1677,448
1678,1923
1678,2505
1683,488
1683,633
1683,1466
1683,2853
1683,4239
1683,4358
1684,40
1684,76
1684,2664
1684,3416
1686,83
1687,235
1687,262
1687,355
1687,448
1687,910
1687,1350
1687,1651
1687,1998
1687,2430
1687,2719
1687,3084
1687,4503
1688,1258
1688,3899
1688,4479
1689,85
1689,191
1689,196
1689,443
1689,713
1689,1148
1689,1336
1689,1452
1689,3870
1691,191
1691,648
1692,3385
1693,191
1693,1473
1693,1777
1693,2474
1693,2814
1694,790
1694,1449
1695,1369
1695,2653
1696,4619
1696,4686
1699,898
1700,715
1700,726
1700,1350
1700,2325
1700,2722
1700,2766
1700,3813
1700,4292
1704,471
1704,1211
1704,1371
1704,1467
1704,1830
1704,2019
1704,2072
1704,2410
1704,2559
1704,2668
1704,3273
1704,3298
1704,3521
1704,3678
1704,3854
1704,3865
1704,4381
1704,4910
1705,700
1705,2598
1705,4745
1705,4915
1709,135
1712,142
1712,143
1712,432
1712,2912
1712,3440
1712,4228
1712,4724
1712,4768
1713,2110
1713,4141
1714,1628
1716,47
1716,1991
1716,2694
1716,3440
1716,4044
1717,2390
1718,2107
1718,2375
1720,2384
1720,3093
1720,4402
1720,4510
1721,135
1721,267
1721,368
1721,640
1721,1256
1721,1980
1721,2100
1721,3845
1721,4899
1721,4968
1722,360
1722,876
1722,4173
1723,1497
1723,2410
1723,3334
1724,162
1724,2587
1724,3314
1724,3636
1724,3657
1726,1051
1726,4131
1728,1165
1731,4933
1732,973
1732,981
1732,2105
1732,4970
1733,822
1733,1094
1733,3444
1734,1841
1734,4787
1736,1349
1739,191
1739,1238
1739,1569
1739,2955
1739,3100
1739,4079
1739,4245
1739,4952
1741,1338
1742,1098
1742,2361
1742,2962
1742,3169
1742,3833
1742,4933
1743,3150
1743,3691
1743,4803
1743,4891
1744,1680
1744,2474
1748,373
1748,508
1748,2613
1748,4108
1748,4392
1749,457
1751,1666
1751,4245
1753,2552
1755,29
1755,356
1755,555
1755,662
1755,1211
1755,1435
1755,1515
1755,2821
1755,2830
1755,3534
1755,4226
1757,231
1758,934
1758,1594
1758,2166
1760,1093
1761,1205
1762,142
1763,35
1763,842
1763,973
1763,2090
1763,2132
1763,2298
1763,3657
1763,3678
1763,4167
1763,4580
1763,4776
1764,2830
1764,3458
1765,2757
1766,3627
1766,3685
1767,90
1768,243
1769,159
1769,1998
1769,3424
1769,3999
1770,76
1770,277
1770,436
1770,1376
1770,1657
1770,1703
1770,2041
1770,3633
1770,3901
1770,3988
1771,716
1772,1478
1772,2695
1775,282
1775,535
1775,3906
1775,4680
1776,1350
1776,4310
1778,1171
1779,3926
1783,3825
1784,1712
1785,125
1785,2943
1785,3385
1786,1148
1788,2101
1789,409
1789,1643
1789,4084
1790,666
1790,2520
1790,2579
1790,3655
1790,4506
1791,478
1791,2757
1792,753
1793,159
1793,787
1793,1519
1794,787
1796,3008
1796,3997
1798,459
1798,3233
1799,1426
1801,4253
1803,3978
1805,60
1805,540
1805,980
1805,1291
1805,1521
1805,2129
1805,4487
1805,4771
1805,4894
1805,4953
1806,1780
1806,2884
1807,894
1810,3440
1812,1712
1812,2730
1813,90
1813,159
1813,206
1813,334
1813,393
1813,410
1813,613
1813,1076
1813,1154
1813,1286
1813,1884
1813,2102
1813,2561
1813,3034
1813,3074
1813,3111
1813,3485
1813,3529
1813,3945
1813,3961
1813,4070
1813,4322
1813,4350
1813,4526
1813,4758
1814,903
1815,35
1815,892
1815,3444
1815,4060
1817,1923
1819,4937
1820,142
1820,4396
1823,861
1824,3458
1825,206
1828,980
1829,83
1829,482
1829,2196
1831,861
1831,1447
1832,135
1832,1397
1834,4364
1836,3444
1839,653
1840,3525
1840,4226
1843,3281
1844,1235
1844,4909
1850,4291
1851,1066
1851,1124
1851,4166
1853,259
1856,282
1857,784
1857,1160
1857,2305
1857,3283
1857,3788
1859,1516
1859,2579
1861,159
1861,2697
1861,2938
1862,2157
1862,2367
1862,3992
1862,4335
1867,316
1867,4284
1867,4468
1867,4968
1869,159
1869,191
1869,334
1869,442
1869,443
1869,839
1869,891
1869,1180
1869,1435
1869,1567
1869,1625
1869,1780
1869,2757
1869,2866
1869,2955
1869,3922
1869,4293
1869,4998
1870,3674
1871,2866
1874,4220
1875,2410
1876,1332
1876,2451
1876,3204
1876,4858
1877,1256
1877,3429
1878,2034
1878,2938
1879,437
1879,496
1879,526
1879,1286
1879,3829
1881,142
1881,2438
1881,2733
1883,41
1885,2086
1885,2832
1885,3940
1885,4772
1886,49
1886,87
1886,379
1886,479
1886,1750
1886,2039
1886,2987
1886,3036
1886,3344
1886,3360
1886,3924
1886,4375
1886,4601
1886,4715
1886,4722
1886,4752
1886,4892
1887,1169
1888,508
1889,386
1889,2515
1891,108
1891,535
1891,897
1891,1156
1891,1759
1891,1947
1891,2236
1891,2757
1891,3148
1891,3437
1891,3814
1891,3887
1891,3956
1891,4940
1892,920
1892,1733
1892,2038
1893,3657
1894,159
1895,2694
1899,1797
1900,83
1900,142
1900,2706
1902,2705
1904,3298
1904,3458
1905,655
1907,1716
1907,1882
1909,2854
1909,4088
1910,4715
1911,1076
1913,260
1915,71
1916,2561
1917,85
1917,142
1917,4506
1918,539
1918,665
1918,1153
1918,1603
1920,442
1920,981
1922,409
1922,941
1925,4084
1926,1286
1928,4455
1929,90
1931,287
1933,3814
1933,4785
1934,1897
1935,1442
1935,2098
1936,176
1937,769
1937,2557
1937,3534
1937,3612
1937,4694
1937,4796
1938,1362
1938,2009
1939,1049
1939,3424
1939,3949
1940,452
1941,724
1941,2486
1941,3236
1941,4937
1942,324
1942,2110
1942,2968
1943,3984
1946,162
1947,1055
1947,1991
1947,2375
1947,4970
1949,1384
1954,825
1954,4968
1955,65
1955,2452
1956,2426
1956,3810
1958,303
1958,1291
1958,4824
1960,1196
1963,172
1963,515
1963,839
1963,2121
1963,3047
1963,3792
1964,672
1964,1843
1965,231
1965,4353
1966,1706
1968,2194
1968,3444
1969,1174
1969,1417
1969,2000
1969,3929
1969,4426
1971,29
1971,67
1971,615
1971,1338
1971,1593
1971,4363
1972,4930
1973,2000
1974,3787
1975,2534
1975,4619
1977,4029
1978,2216
1979,981
1979,4452
1981,3965
1982,1015
1982,2043
1983,86
1983,3284
1984,4084
1986,247
1986,3593
1987,1708
1988,2772
1988,3689
1989,367
1989,1030
1989,1247
1990,1969
1991,409
1991,937
1991,1753
1992,211
1992,1455
1992,4424
1993,3034
1993,3148
1994,1042
1994,1609
1996,981
1996,3674
1999,434
1999,891
1999,1033
1999,4576
2000,47
2000,150
2000,517
2000,1061
2000,1077
2000,1305
2000,1490
2000,1496
2000,2237
2000,2428
2000,2596
2000,4909
2002,1730
2004,189
2004,799
2004,2484
2005,4341
2006,40
2006,1205
2006,4394
2013,570
2013,1210
2013,3298
2013,3992
2013,4223
2016,1543
2017,1019
2017,1467
2017,3789
2018,1614
2018,1809
2018,3593
2019,10
2019,740
2019,2310
2019,2896
2019,3386
2019,3536
2019,4849
2020,3524
2020,4752
2022,301
2022,1205
2023,4793
2024,1644
2025,906
2029,1048
2030,3246
2031,946
2031,1730
2032,179
2032,736
2032,1628
2032,2694
2032,2936
2032,3525
2032,4060
2038,1028
2042,159
2043,150
2043,267
2043,3114
2043,4951
2044,147
2044,4888
2045,222
2049,113
2049,351
2049,987
2049,2343
2049,3209
2049,3995
2050,412
2052,4903
2055,166
2055,2648
2057,3208
2059,887
2060,1501
2062,7
2062,1048
2062,1706
2062,2041
2062,2878
2062,4021
2062,4084
2063,1165
2063,2559
2063,2899
2063,2970
2064,1048
2065,997
2065,3233
2065,3977
2066,1527
2066,4050
2067,1734
2068,1543
2068,4440
2069,4953
2070,929
2070,3148
2070,3808
2070,4105
2073,678
2073,1338
2073,3258
2073,3895
2073,4596
2074,4869
2075,1746
2076,453
2076,3525
2076,4733
2077,2552
2077,2871
2079,1161
2079,2034
2079,3231
2082,725
2082,4206
2083,2752
2084,2100
2085,790
2085,3926
2087,2769
2087,3841
2087,4377
2087,4932
2088,1355
2088,4593
2088,4989
2089,158
2089,4658
2090,1382
2090,1991
2091,35
2091,640
2093,172
2093,980
2093,2951
2093,2968
2093,3829
2093,3923
2093,4231
2093,4455
2095,356
2098,715
2103,1153
2106,439
2108,2428
2108,3214
2109,469
2109,4003
2110,1167
2112,2983
2112,4582
2113,227
2113,335
2113,443
2113,579
2113,880
2113,1048
2113,1650
2113,1843
2113,2580
2113,2717
2113,2856
2113,3812
2115,3416
2115,4370
2115,4930
2116,3660
2116,4010
2117,1549
2117,1633
2118,267
2118,1733
2120,388
2120,1046
2120,1543
2120,2403
2120,2891
2120,3118
2120,4560
2123,1808
2123,4920
2124,515
2124,1098
2124,3003
2124,3104
2125,1138
2126,267
2126,287
2126,532
2127,14
2127,1061
2127,2515
2127,4970
2128,1833
2128,2612
2131,437
2134,224
2134,290
2136,1949
2136,2695
2136,3984
2136,4697
2136,4752
2137,397
2137,764
2137,2825
2137,4693
2138,1748
2138,1991
2139,1048
2139,1235
2139,2152
2139,2826
2140,1435
2140,2515
2141,946
2141,2859
2141,3458
2141,3933
2141,4455
2141,4715
2143,4105
2144,11
2144,290
2144,2838
2145,1644
2145,4898
2146,180
2146,2623
2146,3096
2146,3162
2147,11
2147,2060
2148,143
2150,1590
2150,3141
2150,4374
2153,142
2153,1076
2153,2298
2153,3722
2155,192
2155,327
2158,1730
2158,4110
2158,4617
2159,2730
2159,3629
2159,3789
2160,71
2160,142
2160,640
2160,759
2160,799
2160,819
2160,1350
2160,1774
2160,1948
2160,2104
2160,2158
2160,2213
2160,2656
2160,2736
2160,2826
2160,2858
2160,2937
2160,3655
2160,4390
2160,4922
2161,1031
2161,2096
2161,2241
2161,3328
2162,752
2162,1471
2165,4363
2167,262
2167,335
2167,2000
2168,231
2170,1046
2171,508
2171,2951
2171,3687
2172,3385
2172,3943
2173,184
2173,1609
2173,3433
2173,4049
2174,150
2174,2775
2174,4949
2177,1959
2177,2231
2178,367
2180,2380
2180,2410
2180,4206
2181,4970
2183,647
2184,289
2184,489
2184,640
2184,1435
2184,4843
2188,2
2188,1223
2188,1354
2188,2010
2188,2546
2188,3926
2188,4433
2189,267
2189,1270
2189,1334
2189,1644
2189,1879
2189,2054
2189,2825
2189,3459
2189,4100
2190,1077
2191,379
2192,259
2193,3208
2193,3732
2194,2648
2195,143
2195,1846
2196,65
2196,713
2196,1473
2197,562
2199,119
2199,2069
2199,3191
2199,3407
2199,4673
2200,1284
2201,35
2201,49
2201,123
2201,1398
2201,1569
2201,2806
2201,3298
2201,3482
2203,910
2203,2110
2203,2690
2204,921
2205,1402
2205,2995
2205,4129
2209,879
2209,1371
2211,259
2211,368
2211,496
2211,673
2211,1117
2211,1609
2211,1672
2211,1816
2211,2128
2211,2545
2211,2744
2211,3275
2212,219
2212,3339
2214,640
2214,2158
2214,4211
2216,1644
2216,4159
2216,4603
2219,203
2220,1496
2222,929
2222,1012
2222,3097
2222,3704
2222,4813
2223,159
2223,445
2223,505
2223,1355
2223,2577
2225,1156
2226,1862
2227,4084
2228,3761
2230,69
2230,71
2231,81
2231,192
2231,206
2231,530
2231,601
2231,1630
2231,1649
2231,1754
2231,2878
2231,3808
2231,4506
2231,4721
2231,4828
2234,429
2234,2830
2235,370
2235,4166
2235,4460
2238,159
2238,196
2238,1369
2239,165
2239,903
2239,1644
2239,2114
2239,2277
2239,2410
2240,2122
2240,3793
2243,892
2243,4826
2244,83
2244,624
2244,4041
2245,143
2245,287
2245,289
2245,453
2245,557
2245,1076
2245,1227
2245,1517
2245,1527
2245,1643
2245,2232
2245,2297
2245,2481
2245,3019
2245,3114
2245,3285
2245,3743
2245,3780
2245,3888
2245,4111
2245,4664
2246,2903
2247,2087
2248,535
2248,1698
2249,20
2249,54
2249,579
2249,846
2249,1089
2249,1579
2249,2018
2249,2319
2250,412
2250,1155
2251,62
2251,1291
2251,2428
2251,2716
2251,2724
2251,3158
2251,3288
2252,1455
2253,1141
2253,1338
2253,1991
2253,2858
2253,2904
2254,233
2254,1181
2255,771
2255,4029
2255,4513
2256,1281
2256,3234
2256,3264
2257,191
2257,231
2259,116
2259,1236
2259,2410
2259,3468
2259,3870
2260,3090
2261,1253
2263,203
2264,180
2264,368
2264,2356
2264,4506
2265,1098
2266,69
2266,3657
2266,4241
2267,2107
2267,3549
2268,1733
2269,13
2269,994
2269,1701
2269,2365
2269,2605
2269,3561
2269,3721
2269,3922
2271,2452
2271,4939
2272,4503
2273,13
2273,1048
2273,1049
2273,3235
2274,1417
2276,783
2276,2298
2278,1147
2279,532
2279,1515
2279,1682
2279,1788
2279,1858
2279,2001
2280,4933
2281,2411
2282,1349
2282,2917
2282,2926
2282,3440
2282,3926
2283,640
2284,1064
2284,3124
2284,4291
2285,867
2286,2019
2286,3238
2287,4084
2288,3328
2288,4166
2289,671
2290,40
2290,141
2290,2833
2292,3927
2295,4816
2296,1885
2299,1064
2299,1100
2299,2955
2299,3298
2299,3810
2299,4163
2301,2086
2303,189
2303,277
2303,291
2303,395
2303,1119
2303,1144
2303,1569
2303,2778
2303,3034
2303,3654
2304,784
2306,1870
2306,4675
2308,3444
2310,1849
2310,3633
2311,405
2311,409
2313,317
2315,501
2316,4395
2317,2384
2320,1165
2320,1560
2320,1573
2320,2410
2321,3927
2323,218
2323,532
2323,2591
2323,3328
2324,1015
2324,2164
2325,3678
2326,2262
2326,4467
2327,1804
2327,4555
2328,2912
2329,1335
2330,3458
2331,931
2332,1617
2332,2906
2332,3140
2332,3811
2332,4014
2336,532
2337,231
2339,71
2340,1780
2341,1098
2342,4123
2344,13
2344,366
2344,916
2344,967
2344,1119
2344,1188
2344,1291
2344,1530
2344,3639
2344,4251
2345,3808
2346,1632
2347,476
2347,490
2347,543
2347,631
2347,833
2347,1998
2347,2379
2347,3473
2347,3707
2347,3778
2347,3926
2347,4933
2349,2
2349,405
2349,525
2349,981
2349,1176
2349,2826
2349,3258
2349,4084
2349,4954
2351,3655
2352,679
2353,281
2353,2152
2353,4632
2354,779
2356,1183
2357,152
2357,1501
2357,2689
2357,2838
2357,4684
2358,1156
2358,1536
2358,3277
2361,60
2361,2421
2361,2536
2362,457
2362,661
2362,2623
2365,1015
2365,2392
2365,3717
2367,227
2368,1359
2369,2908
2371,281
2372,4468
2373,4933
2376,2000
2377,159
2378,2329
2379,2410
2381,867
2381,3299
2381,3497
2382,656
2382,1748
2382,1948
2383,235
2384,2140
2385,1083
2386,168
2386,1974
2386,2825
2386,4613
2389,360
2390,128
2390,405
2390,4426
2393,2714
2393,3851
2394,1682
2398,946
2400,1882
2400,3375
2401,87
2401,543
2401,615
2401,768
2401,980
2401,4527
2402,3808
2404,921
2406,3191
2408,1196
2408,1586
2408,2595
2409,4673
2409,4757
2412,159
2412,4968
2413,2053
2413,2245
2415,166
2415,887
2415,4858
2416,2142
2417,770
2417,1048
2417,2440
2419,367
2419,4327
2422,3664
2424,66
2424,722
2424,965
2424,3233
2426,1015
2426,3114
2426,3260
2426,3639
2427,615
2429,2080
2430,1773
2431,208
2431,412
2431,1098
2431,1718
2431,2307
2431,3218
2431,4851
2434,544
2434,1630
2435,1663
2435,2912
2437,524
2439,867
2439,2949
2439,3286
2442,532
2443,2297
2444,796
2444,1680
2450,2919
2452,3034
2453,10
2453,1739
2453,3748
2453,3803
2454,557
2454,2114
2454,3516
2456,284
2456,814
2457,235
2457,327
2457,675
2458,674
2459,538
2459,3350
2462,267
2462,3854
2463,1923
2464,2932
2464,3303
2464,3825
2466,1625
2466,4619
2471,586
2471,1408
2471,1665
2471,3240
2472,128
2473,2441
2474,123
2476,52
2476,277
2476,740
2478,3808
2480,1017
2482,2706
2482,2888
2482,3808
2483,482
2483,1987
2483,2061
2483,4510
2484,1313
2487,4166
2487,4619
2488,147
2488,267
2488,517
2488,3251
2488,3691
2489,267
2492,3288
2493,3031
2493,3097
2493,3523
2494,934
2495,2176
2495,2567
2496,882
2497,482
2502,2484
2503,840
2503,3240
2506,1093
2506,1650
2506,1661
2506,1673
2506,2761
2507,1362
2507,1841
2511,980
2512,713
2512,768
2512,1532
2512,1555
2512,1741
2512,2581
2512,3589
2512,4903
2512,4970
2518,2452
2519,469
2520,1687
2520,2445
2520,3246
2520,3893
2522,150
2523,85
2523,150
2523,379
2523,465
2523,2556
2523,4212
2524,1752
2525,1588
2526,2789
2526,4123
2527,255
2527,4869
2528,214
2528,489
2528,4770
2531,113
2535,3723
2536,1949
2538,113
2539,980
2539,3914
2540,147
2540,532
2540,3200
2540,3970
2540,4140
2543,3208
2544,1162
2544,1625
2548,570
2548,1362
2548,2182
2551,3707
2551,4598
2552,2038
2553,3525
2554,243
2554,1061
2554,4260
2555,1189
2558,3988
2561,243
2562,237
2562,4010
2564,4909
2566,967
2568,1667
2569,166
2569,538
2569,1314
2569,1737
2569,3592
2572,61
2574,387
2574,2703
2574,4423
2577,65
2577,508
2577,2093
2577,4388
2578,306
2578,3223
2578,4892
2579,1841
2580,117
2580,508
2580,1754
2580,1991
2580,3303
2580,3446
2582,2474
2585,2552
2586,81
2586,1196
2586,1198
2586,1305
2586,3552
2586,4875
2588,3267
2592,508
2592,615
2592,2107
2592,4193
2594,307
2596,237
2596,4443
2597,89
2597,352
2597,372
2597,930
2597,1015
2597,1588
2597,1991
2597,2035
2597,2222
2597,2436
2597,4970
2600,971
2600,1669
2600,2695
2600,4212
2601,724
2602,1100
2603,3489
2606,81
2606,458
2606,1698
2606,2090
2606,2329
2606,3103
2606,4094
2606,4243
2607,47
2607,165
2607,379
2607,701
2607,844
2607,912
2607,2262
2607,2280
2607,2403
2607,2868
2607,3018
2607,3444
2608,2469
2608,4540
2609,2826
2610,2334
2614,57
2614,127
2614,169
2614,290
2614,301
2614,1680
2614,1712
2614,2277
2614,2390
2614,4678
2614,4909
2614,4996
2615,1620
2615,2582
2616,145
2616,152
2616,496
2616,1543
2616,1658
2616,2387
2616,3175
2616,3920
2616,4745
2616,4783
2620,501
2620,715
2621,2579
2621,4841
2622,128
2624,0
2624,139
2624,526
2624,1174
2624,3988
2625,700
2626,226
2626,1397
2626,1455
2626,1456
2626,4903
2627,543
2628,2003
2629,412
2629,2361
2629,4694
2630,3680
2632,104
2632,722
2632,1364
2632,1599
2632,1737
2632,3233
2632,3657
2632,4273
2632,4317
2632,4937
2632,4968
2634,85
2634,395
2634,453
2634,570
2634,647
2634,980
2634,2136
2634,2593
2634,3048
2635,2951
2636,1991
2637,543
2637,4207
2638,946
2638,1059
2638,1543
2638,2155
2638,3780
2639,1434
2641,2
2641,69
2641,104
2641,303
2641,495
2641,861
2641,1048
2641,1362
2641,1433
2641,1619
2641,1746
2641,1752
2641,2156
2641,2350
2641,3315
2641,3550
2641,4673
2641,4913
2642,405
2643,4228
2644,779
2645,516
2647,1590
2648,141
2648,142
2648,2286
2648,3067
2648,4530
2649,181
2650,4189
2650,4619
2654,3402
2655,267
2655,1362
2655,3593
2659,49
2659,3361
2660,100
2660,1197
2660,1227
2660,1258
2660,1644
2662,678
2663,3833
2663,4312
2665,226
2665,2668
2666,191
2666,429
2666,439
2666,465
2666,725
2666,759
2666,1613
2666,2135
2666,2230
2666,2589
2666,2952
2666,3559
2666,4114
2666,4226
2666,4619
2666,4735
2667,659
2669,1324
2669,2764
2669,3096
2669,4825
2671,4323
2672,234
2672,770
2672,2817
2672,3181
2672,3215
2675,2950
2678,840
2679,2545
2680,2717
2684,469
2684,2695
2685,3048
2686,84
2686,191
2686,1434
2686,3151
2687,436
2687,579
2688,11
2689,1012
2691,47
2691,471
2691,831
2691,1157
2691,1599
2691,1991
2691,2038
2691,2886
2692,570
2693,2694
2693,3504
2693,3673
2693,4133
2693,4337
2693,4734
2696,2410
2697,379
2697,484
2697,1187
2698,954
2698,3586
2699,1991
2700,601
2701,1549
2702,465
2702,1455
2702,1735
2702,3495
2704,4752
2705,1133
2711,1700
2711,3396
2713,476
2713,2176
2717,18
2717,40
2717,165
2717,212
2717,287
2717,354
2717,548
2717,707
2717,804
2717,884
2717,999
2717,1068
2717,1305
2717,1414
2717,1515
2717,1579
2717,1648
2717,1846
2717,1854
2717,1998
2717,2322
2717,2602
2717,2817
2717,2819
2717,3048
2717,4706
2717,4718
2717,4948
2718,2217
2719,3450
2719,3988
2722,18
2722,789
2722,1094
2722,1515
2722,1754
2722,1802
2722,1998
2722,2470
2722,2587
2722,2908
2722,3104
2722,3861
2722,4351
2724,842
2724,3673
2725,65
2726,42
2728,861
2728,4755
2730,4029
2731,4576
2731,4753
2732,410
2735,231
2735,557
2737,3690
2737,4619
2738,437
2738,579
2738,770
2738,1098
2738,1716
2738,2026
2738,2739
2738,3956
2740,243
2740,1851
2740,3383
2741,287
2741,379
2741,2474
2741,3384
2745,0
2745,495
2745,2186
2745,2280
2745,2916
2746,1651
2746,2919
2746,3035
2746,4123
2746,4968
2747,410
2747,2207
2747,3661
2749,368
2751,4123
2753,11
2753,813
2753,954
2753,1249
2754,2777
2759,3096
2760,3855
2760,3879
2763,788
2764,1100
2765,570
2771,119
2771,141
2773,1183
2774,1048
2777,1667
2777,2185
2777,4739
2779,490
2780,2175
2783,2878
2783,4499
2785,242
2785,356
2785,405
2785,519
2785,1128
2785,1148
2785,1891
2785,1969
2785,2549
2785,3543
2785,3854
2785,3870
2785,4111
2785,4154
2786,1425
2788,573
2790,980
2791,613
2793,86
2793,2716
2794,196
2795,35
2795,137
2795,1317
2795,2577
2796,2504
2796,4670
2797,71
2797,2717
2799,1098
2799,4516
2800,1884
2801,2968
2803,1153
2804,3429
2805,1148
2807,119
2807,367
2808,2736
2809,233
2809,3934
2810,158
2812,2338
2815,379
2816,16
2816,2986
2817,2474
2818,60
2818,165
2818,206
2818,307
2818,354
2818,495
2818,535
2818,663
2818,736
2818,1076
2818,1263
2818,1633
2818,2101
2818,2329
2818,2646
2818,2806
2818,2825
2818,3414
2818,3429
2818,4455
2818,4815
2818,4901
2818,4933
2818,4970
2820,615
2820,640
2821,226
2821,562
2821,2425
2821,3299
2821,4506
2823,40
2823,1837
2823,3735
2824,116
2827,4937
2828,141
2829,1608
2829,2147
2831,847
2833,1160
2833,3963
2834,126
2834,219
2834,260
2834,264
2834,284
2834,314
2834,424
2834,814
2834,904
2834,1106
2834,1246
2834,1617
2834,1921
2834,2168
2834,2474
2834,2582
2834,2719
2834,2757
2834,3023
2834,3043
2834,3322
2834,3440
2834,3561
2834,3685
2834,3689
2834,3794
2834,3868
2834,4278
2834,4572
2834,4678
2834,4715
2834,4922
2834,4933
2835,664
2836,1048
2837,2379
2837,4075
2838,290
2838,532
2838,1325
2838,1987
2838,2748
2838,3347
2840,312
2840,1435
2840,2817
2840,4678
2841,40
2841,387
2842,113
2842,243
2842,290
2842,468
2842,661
2842,1328
2842,2375
2842,2894
2842,3197
2842,4625
2845,83
2845,237
2845,471
2845,1436
2845,1700
2845,1949
2845,2018
2845,2423
2845,2613
2845,2792
2845,3580
2845,3992
2845,4051
2845,4380
2845,4944
2847,4251
2850,527
2850,771
2850,2955
2850,3004
2850,4709
2851,142
2851,3578
2851,4155
2852,262
2853,123
2853,4106
2855,334
2857,119
2857,548
2857,2752
2857,3595
2857,3990
2860,3565
2861,2410
2867,476
2867,1878
2867,2410
2868,822
2869,385
2870,3926
2870,4025
2870,4391
2873,771
2873,1599
2873,4510
2875,3685
2877,1991
2877,2365
2877,3600
2880,1532
2880,3580
2880,3976
2882,4555
2883,1064
2883,3963
2884,1353
2884,1748
2884,2951
2886,1704
2886,3707
2887,116
2887,459
2887,887
2887,1187
2887,1363
2887,1530
2888,2744
2888,4203
2889,615
2889,1141
2889,3243
2890,4220
2892,4741
2897,76
2897,1091
2897,1802
2897,3567
2900,735
2900,1433
2900,1816
2901,156
2903,532
2905,6
2907,57
2907,71
2907,150
2907,669
2907,2573
2907,2846
2907,3097
2907,3657
2907,3736
2907,3820
2907,4535
2907,4633
2907,4970
2908,654
2908,1567
2908,4055
2909,581
2911,179
2911,894
2911,1064
2913,4426
2918,631
2918,2866
2918,3237
2921,3651
2922,1317
2925,233
2925,2619
2927,2107
2928,115
2928,2078
2928,2841
2928,3531
2929,1661
2929,2817
2930,104
2930,1156
2930,3233
2933,2322
2935,62
2939,640
2940,1991
2940,2644
2941,2168
2942,2968
2945,362
2946,84
2946,142
2946,3208
2946,4595
2947,345
2947,4933
2948,166
2948,429
2948,647
2948,1880
2948,4882
2949,42
2949,1679
2949,2107
2949,4379
2950,41
2950,170
2950,1328
2950,4477
2951,2262
2952,1328
2953,794
2953,2135
2953,3682
2954,2339
2955,4177
2957,453
2957,1440
2958,1246
2958,1486
2958,3720
2959,931
2960,770
2961,2158
2961,3017
2963,4753
2964,1706
2965,11
2965,893
2966,994
2966,4872
2967,936
2967,3222
2967,4084
2968,2216
2972,501
2972,1353
2972,2970
2972,2975
2973,156
2973,1231
2974,84
2974,262
2974,312
2974,1962
2977,1196
2978,35
2978,4346
2978,4753
2979,2968
2979,4928
2980,601
2980,1031
2980,3437
2980,4915
2981,1102
2982,2176
2983,165
2985,4673
2986,379
2990,3992
2991,226
2991,1584
2992,722
2992,3669
2993,3285
2994,2107
2998,31
2998,728
2998,1033
2998,1311
2998,1526
2998,1846
2998,2717
2998,3548
2998,4029
2998,4715
2998,4761
2999,2451
3000,579
3002,1098
3005,653
3006,4468
3007,2822
3010,2180
3010,3971
3011,162
3011,662
3011,770
3011,2571
3012,35
3012,3183
3013,1343
3014,181
3014,656
3014,725
3014,1064
3014,2341
3015,2269
3016,108
3016,142
3016,233
3016,436
3016,637
3016,665
3016,761
3016,1750
3016,1950
3016,1995
3016,2018
3016,2019
3016,2262
3016,2270
3016,2582
3016,2598
3016,2677
3016,2717
3016,3657
3016,3875
3016,3971
3016,4239
3016,4523
3016,4600
3018,2581
3020,334
3020,1987
3020,2312
3020,2484
3020,2486
3022,60
3022,1209
3022,3303
3023,1676
3024,105
3024,2034
3025,3510
3026,1453
3027,887
3029,107
3030,90
3030,1921
3030,2705
3030,3899
3031,1919
3032,7
3032,317
3032,2177
3032,2218
3032,2430
3033,85
3035,1698
3036,815
3036,1064
3036,1976
3037,2579
3038,3851
3040,4752
3044,4260
3046,47
3046,2452
3046,4619
3049,2598
3050,1343
3051,107
3051,243
3051,1160
3051,2986
3052,768
3054,426
3054,2717
3055,35
3055,172
3055,519
3055,538
3055,1028
3055,1344
3055,3208
3055,4699
3055,4978
3056,11
3056,245
3056,409
3056,785
3056,876
3056,962
3056,1188
3056,1262
3056,1372
3056,1582
3056,1633
3056,2104
3056,2181
3056,2410
3056,2505
3056,3808
3056,3992
3056,4334
3056,4487
3059,2969
3062,206
3064,898
3064,1197
3064,1405
3067,2086
3069,2541
3069,2830
3069,4807
3071,820
3074,2
3074,356
3074,980
3074,1355
3074,2080
3074,3385
3074,3691
3074,4291
3074,4816
3074,4970
3075,3726
3076,40
3076,290
3076,440
3076,2577
3076,2717
3076,4084
3078,2772
3078,3661
3078,4903
3079,4948
3081,746
3083,539
3084,488
3085,539
3085,544
3087,47
3088,159
3088,412
3088,555
3088,673
3088,965
3088,981
3088,984
3088,1860
3088,1948
3088,2132
3088,2168
3088,2571
3088,2873
3088,3235
3088,4084
3088,4548
3089,113
3090,3703
3095,570
3095,906
3095,997
3095,1064
3095,2302
3095,2931
3095,4351
3095,4444
3097,85
3098,40
3098,165
3098,172
3098,499
3098,779
3098,1026
3098,1100
3098,3162
3098,3525
3098,3747
3098,4029
3099,496
3101,4854
3105,1515
3106,1752
3106,4503
3107,2605
3108,1629
3109,352
3115,3707
3116,4084
3117,47
3117,929
3117,1633
3117,2392
3117,2579
3119,2971
3121,2725
3121,3058
3121,3244
3121,3543
3121,4146
3121,4166
3122,47
3122,4491
3124,2410
3124,2477
3126,2298
3128,916
3129,2129
3131,2872
3132,1609
3134,489
3134,4968
3135,3458
3136,242
3136,3516
3136,3978
3137,2946
3138,3045
3140,2474
3141,60
3142,931
3142,2744
3142,3018
3143,35
3143,980
3143,1015
3144,1196
3146,143
3146,2086
3147,28
3148,1517
3149,60
3149,395
3149,434
3149,478
3149,769
3149,957
3149,993
3149,1048
3149,1725
3149,3061
3149,3204
3149,3322
3149,3913
3149,4267
3149,4615
3150,640
3150,969
3150,3852
3153,1453
3155,780
3156,86
3156,116
3157,2341
3158,2122
3160,4843
3161,3440
3161,3448
3163,3655
3164,898
3167,296
3167,2579
3167,3491
3167,3643
3168,1182
3169,1842
3169,4620
3170,434
3170,771
3170,954
3170,980
3170,1205
3170,3021
3170,3298
3170,3440
3170,4249
3170,4555
3171,256
3172,387
3173,206
3173,333
3173,450
3173,1016
3173,1179
3173,2432
3173,3328
3173,3485
3173,4830
3174,1629
3175,379
3177,2026
3178,2107
3178,3267
3179,332
3179,3871
3180,159
3180,388
3182,2695
3183,14
3183,568
3183,3531
3183,3583
3184,4226
3185,227
3187,557
3188,3120
3189,379
3190,143
3190,1837
3190,2748
3191,4876
3192,842
3193,1892
3196,4968
3197,4673
3198,424
3199,233
3201,1039
3201,1431
3201,2912
3201,3471
3201,4987
3202,364
3202,434
3202,1573
3202,1740
3202,3190
3206,4469
3208,62
3209,113
3209,123
3209,334
3209,510
3209,910
3209,921
3209,1567
3209,1713
3209,2679
3209,2694
3209,2848
3209,3043
3209,4230
3209,4556
3209,4651
3209,4673
3209,4944
3211,387
3211,770
3211,4159
3212,920
3212,946
3212,1064
3212,1377
3212,4091
3213,60
3213,1453
3213,1569
3213,4428
3214,191
3214,1206
3217,640
3219,4968
3221,3133
3222,814
3222,861
3222,875
3222,1048
3222,1115
3222,1651
3222,2515
3222,2631
3222,2896
3222,3652
3226,918
3227,929
3228,4503
3232,1536
3235,335
3235,656
3238,3655
3240,2231
3241,1744
3244,76
3244,123
3244,532
3244,538
3244,579
3244,1033
3244,2086
3244,2619
3244,3433
3244,4753
3245,267
3247,2961
3248,141
3248,344
3248,1465
3248,4892
3249,108
3249,3918
3250,444
3252,3525
3253,86
3254,71
3254,3685
3254,4112
3254,4664
3255,2931
3256,367
3257,1759
3257,4968
3259,42
3259,1160
3259,2481
3259,3594
3261,166
3261,230
3262,18
3262,532
3262,1384
3262,1690
3262,2036
3262,3114
3262,4424
3263,16
3263,3073
3264,231
3264,934
3264,1540
3264,2440
3264,2830
3264,2849
3264,3692
3264,4491
3265,3792
3266,846
3267,2510
3268,1816
3268,2086
3268,3267
3268,3534
3268,4026
3269,2721
3269,3531
3270,226
3272,2157
3276,1276
3276,1492
3276,1816
3276,3203
3276,3208
3276,4034
3278,1613
3280,562
3280,2092
3280,3935
3280,4603
3282,3723
3285,700
3286,108
3286,2583
3288,3104
3290,2707
3291,47
3291,262
3291,276
3291,673
3291,846
3291,1350
3291,4498
3293,770
3294,66
3294,113
3294,672
3294,2782
3294,4116
3294,4455
3294,4664
3295,117
3297,468
3299,3997
3300,2917
3300,4417
3301,1734
3302,267
3303,477
3303,575
3303,3096
3303,3493
3304,2520
3305,2792
3306,1154
3308,2266
3309,65
3309,372
3309,2581
3309,3279
3309,4141
3309,4752
3311,4084
3312,1328
3312,1753
3312,2194
3313,47
3313,296
3313,532
3313,1682
3313,2907
3317,3165
3319,212
3319,3382
3323,3932
3324,20
3324,85
3324,113
3324,165
3324,180
3324,240
3324,290
3324,770
3324,814
3324,1154
3324,1598
3324,1685
3324,1851
3324,1870
3324,1913
3324,1995
3324,2110
3324,2161
3324,2169
3324,2335
3324,2365
3324,2418
3324,2452
3324,2630
3324,2750
3324,2830
3324,2995
3324,3300
3324,3774
3324,3963
3324,3988
3324,4090
3324,4351
3324,4364
3324,4568
3324,4639
3325,578
3325,4364
3326,2405
3330,42
3330,558
3330,740
3330,1180
3330,3705
3332,281
3332,508
3332,2817
3333,81
3333,142
3336,361
3336,1033
3336,1171
3336,1395
3336,2149
3336,3223
3336,3984
3338,372
3340,1015
3340,3545
3340,3615
3342,237
3343,3876
3348,2302
3349,412
3350,151
3350,361
3350,1171
3350,1808
3350,3409
3350,3479
3350,4944
3351,562
3351,2049
3351,2054
3351,3240
3351,3928
3353,287
3355,2280
3356,1748
3357,2335
3358,4245
3359,429
3362,3344
3363,3416
3364,3833
3365,579
3366,194
3367,1607
3369,345
3369,3018
3369,3090
3370,2242
3370,3120
3370,3651
3372,715
3372,1040
3373,251
3376,736
3377,60
3377,412
3377,3361
3378,1522
3380,113
3383,306
3383,532
3383,930
3383,2110
3384,1261
3384,1989
3384,2842
3384,4305
3387,2104
3388,2602
3390,303
3393,2681
3393,4561
3394,770
3395,192
3398,2458
3399,532
3399,1912
3399,2028
3399,2552
3399,2694
3399,4075
3399,4245
3402,235
3402,1109
3402,3808
3402,4970
3403,1804
3404,3208
3406,231
3408,561
3408,1182
3408,1417
3408,2158
3411,360
3411,490
3411,1334
3411,2725
3411,4715
3413,1754
3414,1435
3417,90
3418,831
3419,2998
3420,159
3420,724
3420,1930
3421,191
3421,1315
3421,4036
3421,4641
3422,3385
3423,393
3425,224
3425,372
3425,412
3425,508
3425,545
3425,715
3425,752
3425,1160
3425,1914
3425,1962
3425,2000
3425,3980
3425,4322
3426,804
3427,409
3428,116
3428,469
3428,926
3430,1102
3430,3108
3432,473
3432,3927
3433,142
3433,156
3433,310
3433,405
3433,815
3433,896
3433,1015
3433,1515
3433,1635
3433,1782
3433,1991
3433,2207
3433,2573
3433,2577
3433,2613
3433,2761
3433,3042
3433,3429
3433,3508
3433,3597
3433,3671
3433,3707
3433,3752
3433,4278
3433,4442
3433,4603
3434,1100
3434,1465
3435,301
3435,656
3435,1446
3435,1883
3435,2403
3435,4201
3442,371
3442,570
3442,1912
3442,2955
3443,135
3443,287
3443,548
3443,1076
3443,1768
3443,1998
3443,2316
3443,3400
3443,3429
3443,4206
3443,4426
3443,4616
3443,4792
3445,927
3446,713
3447,149
3447,4046
3452,351
3454,732
3454,1456
3454,2752
3456,312
3456,1932
3456,3516
3456,3526
3456,3651
3456,4909
3456,4944
3456,4970
3457,965
3458,508
3458,1156
3458,1328
3460,90
3460,2744
3463,4920
3465,303
3465,331
3465,526
3465,715
3465,1160
3465,1951
3465,1991
3465,2924
3465,3429
3465,4166
3465,4349
3465,4510
3466,1625
3466,1843
3467,4097
3467,4968
3469,4909
3470,2932
3472,892
3475,854
3475,4117
3476,3812
3478,2140
3480,368
3481,2154
3481,4730
3482,3535
3486,1117
3486,3076
3486,4008
3486,4640
3486,4885
3488,3548
3489,444
3490,2245
3492,562
3492,1148
3492,2576
3492,4103
3494,477
3494,2384
3494,4829
3495,973
3495,3956
3496,81
3496,86
3496,123
3496,134
3496,393
3496,720
3496,886
3496,1150
3496,1164
3496,1174
3496,1371
3496,1672
3496,1882
3496,2237
3496,3050
3496,3176
3496,4799
3498,908
3500,20
3500,29
3500,67
3500,113
3500,290
3500,489
3500,496
3500,540
3500,557
3500,971
3500,980
3500,1464
3500,1737
3500,1847
3500,1921
3500,1956
3500,2182
3500,2390
3500,2411
3500,2450
3500,2695
3500,2717
3500,2863
3500,3197
3500,3285
3500,3543
3500,3545
3500,3778
3500,3780
3500,4010
3500,4455
3500,4473
3500,4593
3500,4755
3500,4857
3500,4892
3500,4909
3500,4970
3501,4166
3505,384
3505,3441
3505,4291
3506,1372
3507,921
3509,4722
3510,1898
3514,1451
3515,117
3516,4382
3516,4699
3518,770
3519,2056
3520,2086
3520,3687
3520,4127
3524,3737
3525,128
3525,159
3525,3084
3525,3768
3525,4722
3527,3927
3528,971
3530,2355
3531,113
3531,483
3531,492
3531,496
3531,1784
3531,2844
3531,2887
3531,3102
3531,4675
3532,1898
3532,3267
3533,981
3533,2695
3533,3899
3535,226
3535,1200
3535,1319
3535,1543
3535,1633
3535,1802
3535,2218
3535,2694
3535,2874
3535,3240
3535,3876
3535,4753
3537,2822
3538,2833
3538,4320
3541,104
3542,3286
3542,4256
3545,379
3545,1754
3545,2717
3545,4398
3546,930
3546,1565
3546,1838
3546,2233
3546,2293
3546,2411
3546,4607
3546,4989
3550,331
3551,941
3552,2585
3553,304
3553,2874
3553,4762
3553,4968
3556,255
3558,86
3560,40
3561,631
3561,4889
3563,71
3564,290
3566,720
3566,1015
3569,413
3571,2515
3571,3778
3572,980
3573,3015
3574,1305
3574,1349
3575,864
3580,2618
3581,1148
3584,273
3585,2043
3585,3593
3587,1055
3588,3444
3590,615
3590,1098
3591,301
3592,307
3592,508
3592,1353
3592,1473
3592,2087
3592,2920
3592,3208
3592,3428
3592,3440
3592,4687
3593,2694
3598,2086
3602,1071
3604,1247
3605,135
3605,1098
3606,1630
3607,259
3607,382
3607,656
3607,971
3607,1055
3607,2135
3607,3048
3608,211
3608,1501
3608,1781
3608,2903
3608,3593
3608,4166
3609,1408
3610,732
3610,3531
3611,601
3615,2339
3615,2705
3615,2904
3615,2940
3615,3995
3616,432
3616,543
3616,828
3616,1354
3616,1961
3619,1932
3620,2596
3623,391
3624,3516
3625,40
3626,2866
3627,1473
3627,2474
3628,1398
3628,1712
3628,1730
3628,1757
3628,3133
3628,3524
3628,4084
3628,4426
3628,4626
3630,2896
3632,2673
3632,4070
3634,2750
3637,746
3639,3429
3642,2613
3643,262
3643,4937
3646,512
3646,1170
3646,1491
3646,2796
3646,3612
3646,3723
3646,4674
3647,113
3647,715
3647,1648
3648,90
3651,980
3652,69
3652,239
3652,725
3652,830
3652,2681
3653,3318
3654,1716
3656,2670
3657,980
3658,3499
3659,1737
3659,4455
3662,4455
3663,525
3663,4661
3664,273
3664,540
3664,2014
3664,2756
3664,2884
3665,49
3666,872
3667,1183
3667,1197
3667,2049
3667,2984
3667,3926
3668,2916
3668,4178
3670,113
3670,535
3670,544
3670,578
3670,2237
3670,3788
3671,1148
3671,1997
3671,2578
3671,3135
3671,4863
3672,2806
3673,3158
3675,870
3675,2135
3676,128
3676,267
3677,345
3678,636
3678,746
3678,2710
3678,3015
3678,3661
3680,3231
3680,4503
3681,6
3681,4585
3685,4455
3686,387
3686,1146
3686,1759
3686,4599
3686,4970
3687,3386
3688,116
3688,158
3688,592
3688,723
3688,965
3688,1182
3688,1919
3688,2509
3688,3190
3688,3298
3688,4387
3688,4395
3688,4702
3688,4711
3693,1238
3693,4881
3694,13
3694,224
3694,301
3694,679
3694,930
3694,1644
3694,1706
3694,1730
3694,1991
3694,2198
3694,3436
3694,3437
3694,3791
3694,4245
3694,4291
3694,4944
3695,1134
3695,2180
3695,3441
3695,3586
3695,4816
3696,973
3697,71
3698,346
3698,760
3698,1930
3698,1954
3698,3657
3699,47
3699,86
3699,1000
3699,1319
3699,1754
3699,1991
3699,2056
3699,2379
3699,2553
3699,2821
3699,2986
3699,3385
3700,87
3700,143
3700,304
3700,466
3700,641
3700,1048
3700,1138
3700,1335
3700,1451
3700,1773
3700,1870
3700,2602
3700,2694
3700,2949
3700,3673
3700,3851
3700,4067
3700,4216
3700,4673
3702,8
3702,511
3702,4019
3703,672
3703,4243
3704,2871
3705,3719
3705,3723
3707,1991
3709,3870
3710,2908
3711,640
3712,405
3712,1569
3713,1651
3714,2968
3715,1117
3716,2814
3717,74
3717,579
3717,588
3717,1228
3717,1510
3717,2141
3717,2237
3717,4784
3718,2599
3719,548
3719,1500
3722,128
3722,355
3722,356
3722,473
3722,570
3722,961
3722,981
3722,1086
3722,1100
3722,1105
3722,1117
3722,1898
3722,3148
3722,3159
3722,3441
3722,3531
3722,3833
3722,3937
3722,3992
3722,4084
3722,4645
3723,1930
3724,4645
3725,1991
3726,2579
3726,3316
3727,496
3727,615
3727,678
3727,1528
3728,2885
3729,954
3730,1200
3733,142
3737,1049
3738,150
3738,516
3738,570
3738,1630
3738,1752
3738,3576
3738,3664
3740,69
3740,640
3740,713
3740,1386
3740,2552
3741,2026
3742,368
3742,928
3742,1651
3742,2071
3742,2110
3742,4228
3742,4368
3744,2484
3745,662
3747,71
3747,496
3747,614
3747,3270
3748,224
3748,508
3748,562
3748,1293
3748,2384
3748,2390
3748,2423
3748,2479
3748,2717
3748,2754
3748,2920
3748,3328
3748,3522
3748,4575
3748,4675
3749,119
3749,412
3749,414
3749,1286
3749,1341
3749,3114
3749,3898
3751,934
3751,3485
3751,4468
3753,2717
3755,558
3756,1685
3759,453
3759,3933
3760,3926
3760,4184
3761,2826
3763,3329
3764,2844
3764,3158
3764,4558
3764,4855
3766,2661
3767,1737
3768,3783
3769,2742
3770,211
3771,2428
3772,262
3772,434
3772,1330
3772,1987
3772,2609
3773,65
3773,2975
3773,4423
3773,4874
3775,1849
3776,3255
3777,2736
3779,1644
3780,478
3780,1030
3780,1596
3780,2786
3780,2854
3780,3026
3780,3133
3780,3458
3780,3708
3780,3971
3780,4084
3780,4345
3780,4808
3781,316
3781,4730
3784,1923
3785,3356
3786,1205
3786,2061
3786,2107
3786,3050
3786,3687
3789,1262
3790,108
3790,3240
3790,4581
3792,100
3795,4047
3797,994
3798,512
3800,49
3801,3267
3803,4308
3804,30
3804,113
3804,159
3804,219
3804,282
3804,544
3804,700
3804,1008
3804,1568
3804,2446
3804,2619
3804,2907
3804,2908
3804,3096
3804,3208
3804,3288
3804,3548
3804,4675
3805,1680
3807,242
3807,663
3807,2426
3809,736
3810,303
3812,2822
3814,1384
3816,2646
3816,4235
3820,496
3820,648
3820,3385
3821,113
3823,992
3824,3935
3825,858
3826,2161
3827,1471
3830,3004
3830,4663
3831,2403
3832,2969
3833,2762
3834,219
3835,4603
3836,1353
3837,1667
3838,926
3838,4206
3839,557
3839,892
3839,1817
3839,3303
3840,3899
3841,1308
3842,1281
3843,1609
3844,150
3844,393
3844,532
3844,538
3844,787
3844,825
3844,923
3844,1016
3844,1138
3844,1318
3844,1350
3844,1707
3844,2058
3844,2086
3844,2721
3844,3068
3844,3100
3844,3195
3844,3926
3844,4323
3844,4503
3844,4747
3844,4863
3844,4933
3845,1730
3845,2830
3845,2903
3845,3802
3847,1232
3847,3525
3848,1610
3848,2294
3848,4838
3850,3440
3853,429
3853,842
3853,1174
3853,1322
3853,1697
3853,1801
3856,2559
3857,113
3859,3751
3865,2781
3867,2673
3867,3214
3869,345
3873,1752
3874,948
3877,2694
3877,3899
3878,3398
3880,2934
3881,4206
3881,4245
3882,2411
3883,2514
3883,3122
3884,544
3885,1748
3886,1076
3886,3554
3886,3705
3886,4094
3886,4481
3889,147
3889,159
3889,715
3890,2279
3891,653
3891,878
3891,934
3891,1774
3891,3485
3892,1343
3893,206
3894,291
3894,1754
3897,1912
3901,409
3901,1081
3901,1497
3901,1753
3901,3409
3902,334
3902,675
3902,1012
3902,1371
3902,2832
3902,4228
3902,4757
3902,4930
3904,3687
3905,4245
3907,2736
3908,145
3908,584
3908,3799
3908,4351
3908,4953
3909,363
3909,861
3909,3583
3909,4220
3909,4475
3911,387
3912,1091
3915,3319
3916,2430
3917,3074
3919,1501
3919,1619
3921,700
3921,1156
3921,4675
3925,384
3926,2902
3926,2984
3927,954
3932,148
3933,379
3933,790
3933,1122
3933,1328
3933,3853
3933,4290
3933,4628
3933,4754
3936,474
3937,1841
3938,2039
3939,2122
3942,453
3944,2048
3945,1270
3947,2605
3950,2787
3952,2515
3953,119
3953,2577
3955,1862
3956,85
3958,1019
3959,4637
3960,141
3961,532
3962,3657
3964,231
3964,1130
3964,2262
3964,2704
3968,427
3968,614
3968,1019
3968,1379
3968,1712
3968,4335
3969,47
3969,135
3969,625
3969,796
3969,997
3969,1286
3969,1350
3969,1442
3969,1667
3969,2210
3969,4844
3970,282
3972,716
3973,3746
3974,3546
3975,4110
3981,1906
3982,290
3984,536
3985,363
3986,1754
3986,3707
3986,4434
3989,1016
3991,532
3991,1167
3992,3988
3993,84
3993,3678
3994,489
3994,2298
3996,3872
3997,3525
3997,3923
3997,4151
3998,2343
3998,3133
4000,140
4000,931
4001,732
4002,1284
4006,3337
4007,86
4007,4039
4008,145
4008,159
4008,263
4008,678
4008,907
4008,1672
4008,2410
4008,2655
4008,3922
4008,4243
4011,842
4011,3651
4012,2864
4014,4378
4015,30
4015,142
4015,413
4015,980
4015,2100
4015,2411
4015,2968
4015,4555
4017,42
4017,71
4017,88
4017,307
4017,361
4017,397
4017,1128
4017,1142
4017,1163
4017,1501
4017,2104
4017,2740
4017,3707
4017,3750
4017,4051
4017,4279
4018,47
4018,2908
4018,3084
4019,557
4019,858
4019,1355
4019,1923
4019,1998
4019,2652
4019,2989
4020,2694
4022,2888
4022,3429
4023,2559
4024,159
4024,408
4024,471
4024,1033
4024,1138
4024,1174
4024,2519
4024,2798
4024,4005
4024,4555
4026,2468
4026,4364
4027,83
4027,162
4027,267
4027,981
4027,1455
4027,2390
4027,2402
4027,2570
4027,3087
4027,3335
4027,3489
4027,4117
4027,4816
4028,69
4029,264
4030,2101
4030,2825
4031,10
4031,40
4031,164
4031,379
4031,761
4031,1142
4031,1162
4031,1246
4031,1855
4031,2266
4031,2916
4031,3151
4031,3152
4031,3242
4032,2822
4033,1667
4035,445
4037,1868
4037,2471
4037,3264
4037,3408
4037,3866
4037,4492
4037,4673
4038,0
4038,3441
4042,2038
4047,716
4047,1077
4047,1780
4047,4956
4048,2375
4050,1350
4052,740
4052,2158
4054,3757
4057,1033
4058,4752
4059,231
4059,656
4059,1453
4061,69
4061,224
4061,231
4061,547
4061,621
4061,796
4061,880
4061,1082
4061,3334
4061,3485
4061,3707
4061,3762
4061,3765
4061,3808
4061,4673
4061,4788
4062,424
4063,3966
4063,4503
4063,4930
4065,3833
4066,1137
4066,1753
4068,397
4068,822
4068,1137
4068,2954
4068,3517
4068,3720
4068,4009
4069,439
4070,2328
4071,4659
4071,4928
4072,675
4072,861
4072,4788
4073,846
4074,3983
4076,2944
4077,2092
4077,2899
4077,4922
4079,1146
4079,1759
4079,2086
4079,2414
4079,3655
4082,67
4083,4088
4084,2340
4087,787
4087,1138
4087,1153
4087,1396
4087,2093
4087,2440
4087,2825
4087,2992
4087,4708
4088,1991
4089,3444
4092,1451
4092,3516
4093,388
4095,2885
4099,2748
4102,4223
4105,134
4105,1233
4105,3437
4105,4973
4107,2
4113,3097
4114,761
4117,409
4119,2
4119,84
4119,1638
4119,4655
4120,1643
4121,2917
4122,231
4122,2147
4122,2662
4122,3362
4123,1075
4123,1326
4123,1379
4123,1940
4123,2343
4123,2648
4123,2712
4123,2881
4123,2903
4123,3509
4123,4868
4123,4909
4125,2231
4127,3051
4127,4931
4130,1098
4131,2046
4132,247
4132,525
4132,1625
4132,1846
4132,2185
4132,2318
4132,2719
4132,3727
4132,4161
4134,406
4134,445
4137,1712
4138,117
4139,245
4139,1134
4139,1265
4139,1357
4139,1651
4139,2069
4139,2743
4139,2768
4139,2830
4139,3657
4139,3858
4139,4027
4140,1519
4140,1998
4140,4359
4140,4752
4141,113
4141,517
4141,525
4141,536
4141,654
4141,887
4141,896
4141,1012
4141,1031
4141,1115
4141,1297
4141,2040
4141,2451
4141,3487
4141,3543
4141,3570
4141,4086
4141,4422
4142,1923
4143,147
4143,3018
4144,2955
4145,2277
4146,159
4147,1196
4148,1396
4149,4909
4149,4933
4150,894
4150,979
4150,3230
4150,3656
4150,4203
4150,4619
4152,4715
4153,4
4153,345
4153,558
4153,723
4153,842
4153,980
4153,1122
4153,2152
4153,4752
4155,2458
4156,100
4157,887
4158,116
4160,2101
4160,2107
4160,2730
4160,4555
4161,9
4161,13
4161,50
4161,116
4161,238
4161,333
4161,477
4161,640
4161,870
4161,931
4161,964
4161,986
4161,1657
4161,1737
4161,2286
4161,2316
4161,2328
4161,2510
4161,2795
4161,2908
4161,3019
4161,3335
4161,3440
4161,3525
4161,3684
4161,3808
4161,4345
4164,4854
4166,471
4167,2
4167,434
4167,875
4167,2817
4167,3543
4167,4853
4168,1396
4170,1451
4171,735
4172,245
4174,98
4174,2158
4175,2410
4176,2218
4177,1249
4180,165
4180,1049
4180,2971
4180,3328
4181,1843
4182,368
4183,284
4183,661
4183,1614
4187,159
4188,303
4188,3245
4192,324
4192,700
4192,2579
4192,2862
4192,3385
4192,4302
4193,142
4193,165
4193,312
4193,393
4193,496
4193,861
4193,1156
4193,1483
4193,2384
4193,4352
4193,4603
4193,4980
4195,2030
4195,3458
4196,1098
4196,4755
4197,1031
4197,3893
4198,2682
4199,3671
4202,867
4202,4466
4203,525
4204,3487
4205,3208
4206,3562
4208,3429
4209,1528
4214,1272
4215,678
4216,85
4216,980
4217,258
4217,4451
4218,1213
4221,2384
4223,3285
4224,488
4225,388
4228,3100
4228,3525
4228,4846
4229,1702
4230,552
4230,1903
4230,4471
4232,3854
4234,656
4235,1997
4236,1297
4237,117
4237,1402
4238,992
4238,2955
4238,3936
4238,4360
4240,306
4242,2486
4242,2509
4244,1644
4247,344
4247,473
4248,1712
4249,61
4249,355
4249,1247
4249,1346
4249,1677
4249,2989
4254,2428
4257,678
4257,2576
4258,4358
4260,1923
4262,135
4262,290
4262,820
4262,2476
4264,2329
4264,4181
4266,1533
4266,2886
4267,128
4267,2229
4267,3851
4267,4212
4268,3657
4272,579
4272,3028
4272,4426
4272,4895
4274,60
4274,515
4274,617
4274,675
4274,1211
4274,2217
4274,2499
4274,3485
4274,4406
4276,846
4278,142
4281,237
4281,954
4281,1710
4281,1991
4281,4581
4282,4100
4283,1715
4285,61
4285,113
4285,1748
4285,2579
4285,3031
4285,4135
4286,1146
4287,259
4287,2605
4287,4226
4288,618
4288,2399
4288,3167
4288,3220
4288,4016
4288,4820
4289,570
4293,84
4293,3446
4294,2123
4295,337
4295,1991
4295,3062
4295,3396
4298,4226
4299,85
4299,779
4299,2000
4300,562
4300,4753
4301,405
4303,23
4303,194
4303,405
4303,1338
4303,1592
4303,1727
4303,1835
4303,1985
4303,2363
4303,2775
4303,2912
4303,2923
4303,2995
4303,3429
4303,3487
4303,3754
4303,3935
4304,409
4305,517
4305,4652
4308,1497
4308,3706
4309,2995
4311,8
4311,69
4311,100
4311,113
4311,240
4311,352
4311,409
4311,517
4311,524
4311,586
4311,732
4311,2149
4311,2712
4311,2740
4311,2744
4311,3018
4311,3036
4311,3369
4311,3678
4311,3685
4311,4246
4311,4284
4311,4323
4311,4541
4311,4575
4311,4985
4312,661
4312,1141
4312,2027
4313,3324
4314,893
4316,496
4317,1923
4318,3809
4318,4119
4318,4212
4319,333
4319,864
4319,2474
4321,224
4322,1712
4324,86
4324,4424
4325,2528
4325,2882
4328,442
4328,558
4328,592
4328,825
4328,1991
4328,4578
4328,4603
4328,4921
4329,47
4329,60
4329,465
4329,484
4329,2268
4329,3543
4329,3851
4329,4222
4329,4544
4333,570
4335,1747
4335,2334
4335,2858
4335,3026
4336,159
4337,1442
4337,1727
4339,3935
4343,65
4343,1451
4343,1753
4343,3030
4343,3507
4343,4915
4347,18
4347,345
4347,544
4348,345
4353,1865
4354,3685
4356,465
4357,3992
4358,1000
4358,1138
4358,3236
4358,3751
4360,3597
4361,113
4361,184
4361,787
4361,876
4361,1202
4361,2811
4361,4009
4366,260
4366,4970
4367,978
4369,4270
4370,4395
4371,2110
4372,351
4373,1048
4374,2619
4376,2
4376,142
4376,150
4376,206
4376,386
4376,526
4376,1267
4376,1923
4376,2105
4376,2289
4376,2712
4376,2826
4376,3650
4378,2717
4378,4141
4381,786
4381,980
4381,1129
4381,1187
4381,3854
4382,2589
4382,3245
4383,3255
4384,853
4384,1247
4384,1281
4384,2180
4384,2391
4384,2561
4384,2854
4384,2908
4384,3534
4385,287
4385,345
4385,647
4385,862
4385,1435
4385,1846
4385,1891
4385,2182
4385,2379
4385,2474
4385,3018
4385,3391
4385,3441
4385,3561
4385,4084
4385,4364
4385,4393
4385,4579
4385,4914
4386,4029
4390,986
4397,1998
4397,4870
4399,3242
4400,3267
4401,2403
4403,1350
4404,539
4405,145
4405,155
4405,839
4405,1414
4405,4044
4407,476
4409,783
4411,691
4412,40
4412,571
4412,613
4412,1804
4412,4251
4412,4968
4413,3656
4414,142
4414,290
4414,3229
4414,3405
4415,927
4416,166
4418,2111
4420,3525
4421,693
4424,824
4424,3747
4424,4094
4424,4555
4426,152
4426,602
4427,1951
4429,1344
4430,4166
4432,4094
4435,11
4436,669
4438,916
4439,2486
4445,2040
4446,980
4447,181
4448,11
4448,142
4448,2579
4449,1293
4450,1270
4452,2577
4454,2097
4456,471
4457,80
4458,2577
4459,971
4462,3440
4463,2329
4463,2561
4465,4353
4466,4078
4468,4452
4469,284
4470,156
4472,436
4473,1181
4473,1651
4473,2619
4473,4930
4474,76
4474,489
4474,1160
4474,1676
4474,4260
4474,4757
4476,176
4476,872
4478,60
4478,767
4478,3385
4479,71
4479,83
4479,206
4479,259
4479,267
4479,1315
4479,1649
4480,104
4480,570
4480,2752
4480,3497
4480,3808
4480,4051
4480,4948
4482,1991
4484,2004
4485,4593
4486,3050
4488,1305
4490,2379
4494,247
4494,532
4494,1019
4494,3539
4495,1231
4496,1379
4505,40
4505,192
4505,254
4505,560
4505,1100
4505,2129
4505,3058
4505,3644
4505,4146
4506,1614
4507,3857
4508,957
4509,2303
4509,2648
4510,4722
4511,2904
4512,64
4512,87
4512,119
4512,141
4512,142
4512,287
4512,444
4512,814
4512,1042
4512,1386
4512,1568
4512,1795
4512,2142
4512,2279
4512,2420
4512,2513
4512,2955
4512,2988
4512,3073
4512,3638
4512,3689
4512,3705
4512,3810
4512,4071
4512,4142
4512,4203
4512,4389
4512,4544
4515,2218
4516,477
4516,550
4516,779
4516,914
4516,920
4516,938
4516,1452
4516,3277
4516,3660
4518,386
4519,3458
4520,4284
4521,2
4521,113
4521,153
4521,482
4521,937
4521,1026
4521,4909
4524,2912
4525,260
4525,580
4525,2097
4528,3707
4529,2833
4530,2222
4531,243
4531,1667
4532,580
4534,147
4536,3984
4536,4710
4537,2623
4538,28
4542,468
4542,550
4542,1362
4543,2708
4544,2
4544,352
4544,3049
4545,2
4546,4222
4547,116
4549,3067
4550,60
4551,1129
4552,2262
4553,2679
4554,1064
4555,1246
4557,3924
4562,861
4562,4909
4563,1165
4563,1729
4563,4615
4563,4673
4564,861
4565,2092
4567,1991
4568,3692
4569,4228
4571,3383
4573,515
4573,1187
4573,1515
4573,4433
4574,1617
4576,224
4576,761
4576,1155
4576,1241
4576,1302
4576,1478
4576,1780
4576,3027
4576,3096
4576,4699
4576,4737
4577,3687
4578,3893
4578,4516
4580,579
4581,290
4586,119
4587,921
4588,2232
4589,2280
4590,1710
4591,496
4591,3013
4592,4672
4593,1923
4594,1991
4599,2
4601,2440
4602,980
4603,458
4604,281
4605,4464
4606,3731
4608,337
4608,736
4608,1147
4610,2380
4611,85
4613,135
4614,1759
4615,3728
4616,40
4616,825
4616,917
4616,2092
4616,3294
4616,4166
4617,3846
4618,1650
4620,527
4620,2838
4620,3593
4622,3509
4624,60
4624,489
4626,4909
4627,539
4629,3808
4630,2593
4631,784
4631,1497
4631,2676
4631,2830
4631,4673
4632,301
4632,1103
4632,1698
4632,3255
4632,3596
4632,3751
4632,4177
4632,4858
4632,4869
4634,1305
4635,60
4635,578
4635,3851
4642,980
4643,3328
4643,3796
4645,2710
4647,4570
4647,4970
4648,1012
4648,4710
4653,954
4654,88
4654,267
4654,1586
4654,1737
4654,2560
4654,3437
4654,4342
4655,89
4655,543
4655,2220
4656,2086
4660,2856
4661,233
4661,1040
4661,1064
4661,1453
4661,2047
4661,2111
4661,2547
4661,2822
4661,4638
4662,3509
4665,102
4665,4881
4667,108
4667,530
4667,4003
4667,4183
4668,831
4668,3267
4669,1064
4669,4514
4672,2451
4672,2757
4674,11
4676,3651
4677,159
4678,11
4678,860
4683,530
4685,1098
4685,2053
4685,3789
4688,3595
4689,1617
4691,362
4692,134
4695,2452
4698,3104
4699,2402
4700,128
4700,1042
4702,4077
4703,4473
4704,84
4704,119
4704,466
4704,482
4704,615
4704,687
4704,770
4704,787
4704,833
4704,944
4704,1713
4704,1912
4704,2078
4704,2486
4704,2533
4704,2745
4704,3158
4704,3288
4704,3464
4704,4623
4704,4682
4705,526
4706,2011
4706,4933
4707,2192
4713,303
4714,16
4714,615
4714,987
4714,1339
4714,4111
4715,1908
4716,3851
4716,4566
4717,379
4717,1148
4719,2708
4723,2662
4725,4752
4726,2275
4727,3437
4727,4903
4730,1668
4736,2410
4740,3941
4741,412
4742,155
4743,2019
4744,1154
4746,2775
4746,3763
4749,1903
4750,16
4750,180
4750,434
4750,2063
4750,4909
4751,4666
4752,2100
4756,184
4759,262
4760,3260
4762,3988
4763,4909
4766,379
4766,429
4766,723
4766,1932
4766,2898
4766,3158
4766,3870
4766,3899
4766,4166
4766,4933
4767,1291
4767,1901
4767,1991
4767,2202
4767,2358
4767,4423
4767,4576
4767,4909
4769,85
4773,4663
4774,3531
4775,2848
4776,530
4776,2262
4776,3112
4777,2262
4778,46
4778,84
4778,117
4778,142
4778,237
4778,264
4778,424
4778,512
4778,570
4778,1264
4778,1307
4778,1501
4778,1943
4778,2147
4778,3308
4778,3502
4778,4043
4778,4239
4778,4753
4779,1930
4781,3041
4781,4111
4781,4909
4782,4715
4784,47
4784,656
4784,2147
4789,3814
4790,2107
4794,1713
4797,3175
4798,165
4800,2708
4802,538
4805,675
4807,352
4807,814
4807,1138
4807,1969
4807,2950
4807,4892
4810,1250
4811,3593
4812,69
4812,70
4812,1735
4812,2086
4812,3371
4812,4452
4814,2027
4816,1396
4817,615
4819,1196
4823,116
4825,2129
4827,1752
4832,3292
4833,980
4834,3539
4835,829
4835,2207
4836,3429
4838,4506
4839,2194
4840,85
4842,86
4843,4291
4845,1103
4846,80
4846,861
4846,1690
4846,2267
4848,290
4848,1154
4850,3285
4851,840
4852,1077
4852,3525
4853,88
4853,465
4853,965
4853,4615
4856,540
4859,2582
4862,2237
4863,355
4863,957
4863,1197
4863,1453
4863,2438
4863,3851
4863,4247
4863,4344
4863,4494
4864,530
4865,2871
4865,3899
4865,4455
4866,656
4866,672
4867,954
4869,1943
4876,1930
4877,637
4878,496
4878,941
4878,1543
4878,1685
4878,2577
4878,2595
4878,3328
4878,4027
4879,477
4879,2043
4880,116
4880,538
4880,648
4882,253
4882,1881
4882,2086
4883,194
4883,267
4883,515
4883,532
4883,927
4883,1019
4883,1553
4883,1752
4883,1753
4883,1950
4883,2151
4883,2328
4883,2501
4883,2515
4883,2561
4883,2830
4883,3354
4883,3845
4883,3863
4883,3879
4883,3971
4883,4619
4883,4673
4883,4944
4885,66
4887,1016
4889,3285
4890,525
4893,230
4893,3430
4895,290
4895,517
4895,868
4895,941
4895,1102
4895,1426
4895,2220
4895,2410
4895,2894
4895,3255
4895,3789
4897,142
4897,1093
4897,2851
4899,920
4900,1579
4904,1960
4905,155
4905,230
4905,764
4905,964
4905,2216
4906,640
4907,104
4907,2752
4907,4968
4908,1178
4908,1708
4909,2129
4911,3459
4913,992
4913,4455
4914,992
4914,1627
4914,1651
4914,3911
4914,4673
4916,3484
4917,969
4917,2071
4917,3597
4918,3122
4922,352
4922,4146
4923,42
4923,86
4923,251
4923,259
4923,508
4923,556
4923,570
4923,867
4923,1590
4923,1661
4923,2307
4923,2346
4923,2609
4923,3028
4923,3992
4923,4568
4924,1852
4925,117
4925,135
4925,568
4925,1602
4925,2040
4927,1713
4929,3547
4930,281
4930,4950
4933,29
4933,108
4933,2053
4933,2581
4933,3618
4933,3924
4933,4250
4934,562
4934,1098
4934,4690
4935,3233
4936,203
4936,243
4936,312
4936,349
4936,2963
4936,3239
4936,3862
4936,3891
4938,3922
4941,4892
4942,782
4942,1138
4944,2410
4945,2023
4946,740
4947,159
4947,4673
4953,736
4955,251
4956,60
4956,165
4956,189
4956,560
4956,4468
4957,2227
4958,262
4959,2390
4960,301
4960,547
4960,861
4960,1033
4960,1133
4960,2878
4962,2101
4963,253
4964,1512
4965,4816
4967,168
4970,530
4970,3158
4971,2
4972,1561
4972,4954
4974,2430
4974,2976
4975,1096
4976,4109
4977,971
4977,1328
4979,3704
4981,312
4982,231
4982,334
4982,474
4982,1098
4982,1187
4982,1276
4982,1362
4982,2051
4982,2521
4982,2639
4982,2786
4984,1873
4992,676
4992,922
4992,981
4992,1029
4992,1320
4993,861
4994,1453
4995,779
4997,2707
