src,dst
0,1
0,547
1,255
1,331
1,409
1,725
1,949
1,1294
1,1300
1,2073
1,3151
1,3401
1,4324
1,4398
1,4638
1,4963
1,4987
2,916
2,1283
6,142
6,230
6,620
6,2021
6,3673
9,1197
9,2715
10,2726
11,1555
11,2006
11,3174
11,3990
11,4949
13,659
13,1993
14,345
14,1245
14,1270
14,1637
14,1943
14,2081
14,3124
14,4640
15,296
15,810
15,1379
15,2423
15,2557
15,3062
15,3362
15,4423
16,236
16,335
16,397
16,445
16,610
16,660
16,722
16,2251
16,3074
16,4023
16,4033
16,4928
17,664
17,1263
17,1504
17,1526
17,1700
17,1980
17,2454
17,3184
17,3561
17,4026
18,262
18,443
18,464
18,567
18,662
18,738
18,741
18,818
18,1304
18,1678
18,1880
18,2358
18,2395
18,3438
19,801
19,821
19,1832
19,2614
19,3024
19,3077
20,195
20,342
20,414
20,473
20,947
20,1115
20,1379
20,1492
20,2914
20,3046
20,3211
20,4398
20,4701
21,319
21,638
21,1314
21,1554
21,2664
21,2828
21,3708
25,54
25,448
25,824
25,1574
25,2460
25,2803
25,3698
25,4071
25,4788
26,402
26,462
26,480
26,620
26,706
26,1424
26,1564
26,2297
26,4384
29,3257
29,4727
30,224
30,319
30,380
30,512
30,1222
30,3084
30,3719
30,4095
30,4634
31,51
31,230
31,786
31,2701
31,3899
34,1076
34,1160
34,1609
34,2078
34,2359
34,2523
34,3857
35,239
35,611
35,825
35,1560
35,3174
35,4431
35,4807
36,328
36,329
36,3388
36,3978
36,4286
36,4569
36,4753
36,4943
37,57
37,1479
37,1700
37,1774
37,1836
37,2215
37,2627
37,2774
37,3874
38,1152
38,1833
38,2430
38,3364
38,4735
40,1250
40,3054
41,1147
41,1448
41,1591
41,1841
41,3123
41,3714
42,609
42,717
42,2266
42,2425
42,3300
43,4816
44,319
44,332
44,1842
44,2813
44,3889
44,4446
44,4576
46,4514
47,1941
48,4444
49,406
50,81
50,544
50,628
50,669
50,1054
50,1273
50,1629
50,2607
50,2929
50,3935
50,4213
50,4573
51,4506
52,206
52,430
52,490
52,1713
52,2478
52,2834
52,4742
55,104
55,163
55,222
55,348
55,370
55,694
55,770
55,992
55,1419
55,2000
55,2139
55,2365
55,3569
55,3918
55,4191
55,4932
58,64
58,2725
59,12
59,2421
61,693
61,701
61,781
61,1034
61,1625
61,3004
61,4209
61,4739
62,17
63,239
63,1382
63,2873
63,3388
63,4653
65,1048
65,3699
65,4115
67,620
67,778
67,1048
67,1050
67,2074
67,2412
67,3084
67,3174
67,4036
70,196
70,934
70,1530
70,1543
70,3413
70,4078
71,76
71,183
71,284
71,461
71,513
71,1492
71,1609
71,2168
71,2797
71,3244
73,4
73,124
73,126
73,410
73,600
73,658
73,758
73,1883
73,1988
73,2177
73,2257
73,2579
73,2713
73,2813
73,2941
73,3648
73,4742
74,1403
74,1820
74,2190
75,3332
77,85
77,180
77,340
77,507
77,1332
77,1424
77,1654
77,1691
77,2560
77,3705
77,3876
77,4205
77,4273
78,219
78,496
78,744
78,837
78,1139
78,3188
78,3804
78,4236
78,4280
78,4843
82,8
82,256
82,3672
83,66
83,1332
83,2058
83,3435
86,240
86,557
86,722
86,877
86,2891
86,3863
88,3990
92,126
96,364
96,1470
96,2399
97,334
97,792
97,1360
97,1866
97,2876
97,3215
97,3217
97,4494
98,421
98,706
98,988
98,1681
98,1704
98,1781
98,1808
98,2020
98,2387
98,2455
98,2832
98,3131
98,3240
98,3857
98,4343
98,4362
99,1382
99,4775
100,23
100,108
100,159
100,338
100,461
100,662
100,1700
100,1842
100,1910
100,1941
100,2032
100,2143
100,2154
100,2412
100,3471
100,4203
100,4648
103,1573
103,2671
103,4753
106,121
106,146
106,421
106,648
106,695
106,715
106,1570
106,2373
106,2848
106,3358
106,4488
107,1
107,141
107,364
107,1470
107,2725
107,2923
107,3397
107,4814
108,24
108,661
108,1929
108,4012
109,367
109,919
109,3006
111,574
111,842
111,1379
113,3401
115,93
115,1273
115,2813
115,3659
116,22
116,128
116,181
116,340
116,441
116,465
116,491
116,686
116,1018
116,1081
116,1225
116,2142
116,2517
116,2579
116,3826
116,3869
117,361
117,435
117,1356
117,1628
117,2181
117,2660
117,2795
117,3476
117,3749
117,3766
117,4308
118,23
118,66
118,194
118,282
118,329
118,364
118,406
118,435
118,507
118,548
118,675
118,691
118,786
118,1045
118,1119
118,1360
118,1419
118,1461
118,1587
118,2277
118,2527
118,2588
118,2731
118,2789
118,2803
118,3012
118,3237
118,3289
118,3756
118,4078
118,4209
118,4509
118,4535
118,4915
120,1270
120,2194
120,2366
120,2914
120,3081
120,4142
120,4552
122,648
122,2995
122,3158
122,4008
123,156
123,474
123,1117
123,1669
123,2036
123,3354
123,3517
123,3585
123,3633
123,4430
125,3182
127,180
133,24
133,2074
134,2750
136,3455
144,108
144,2739
147,410
147,787
147,1183
147,1798
147,3586
149,2660
149,3671
152,51
152,455
152,1678
152,2169
152,2226
152,4078
153,394
153,743
153,1147
153,2895
154,105
155,1813
155,2751
155,2823
158,182
158,474
158,743
158,862
158,1145
158,1152
158,1546
158,1896
158,1911
158,1934
158,2240
158,2813
158,3092
158,3338
158,3711
158,3858
161,1326
161,2517
161,3097
161,4119
162,447
162,1037
162,1391
162,1530
162,2781
162,3206
162,4870
164,706
164,2801
164,3538
164,4384
166,1932
166,2521
166,4257
166,4350
169,1993
169,2872
169,4871
171,101
171,2249
171,4727
172,180
172,336
172,1022
172,1475
172,2033
172,2745
172,3015
172,3512
172,4112
172,4168
172,4286
172,4435
175,303
175,2743
175,3124
175,3207
175,3410
175,4989
176,28
176,177
176,686
176,730
176,1135
176,2103
176,2295
176,2607
176,2774
176,3097
176,3410
176,3591
176,3974
176,4357
178,3159
178,3592
179,814
179,837
179,1720
179,1898
179,2603
179,2897
179,3410
179,4115
179,4440
179,4695
180,60
180,239
180,567
180,1554
180,1770
180,2795
180,2810
180,2825
180,2908
180,3923
180,4115
180,4135
180,4885
182,4310
186,23
186,241
186,482
187,366
187,406
187,440
187,523
187,792
187,816
187,1752
187,1826
187,2561
187,2662
187,2868
187,3487
187,3530
187,3890
187,4398
188,364
188,747
188,3528
188,3985
189,151
189,844
189,1320
189,1401
189,1545
189,2818
189,3332
189,3693
189,3828
189,4446
190,779
190,2920
190,2981
190,4501
190,4730
191,445
191,486
191,596
191,2608
191,3520
191,3592
191,3638
191,3830
191,4124
192,4
192,23
192,185
192,207
192,409
192,782
192,1379
192,1844
192,2593
192,2978
192,3088
192,3141
192,3333
192,4128
192,4557
192,4977
193,1495
193,1700
193,3525
197,485
197,1698
197,2472
197,2708
197,4207
198,33
198,324
198,326
198,380
198,387
198,451
198,867
198,1196
198,1571
198,1737
198,1821
198,1833
198,1838
198,3072
198,3310
198,3526
198,3577
198,4252
198,4427
198,4757
199,292
199,2664
200,17
200,27
200,230
200,520
200,729
200,864
200,1698
200,2045
200,2518
200,3628
200,4475
204,219
204,482
204,652
204,1135
204,1153
204,1292
204,1361
204,3803
205,713
205,1091
205,1303
205,2399
205,2565
205,2695
205,2756
205,2996
205,3076
208,399
208,2190
208,3449
208,4577
209,89
209,194
209,399
209,1050
209,1698
209,1837
209,2893
209,4384
209,4861
210,1135
210,3425
211,57
211,92
211,1646
211,1697
211,2074
211,3238
212,460
212,641
212,2242
212,2247
212,3379
213,57
214,919
214,1112
214,1325
214,1343
214,1530
214,1832
214,1959
214,3046
214,3347
214,3672
214,4036
219,157
219,901
219,980
219,1129
219,1396
219,2006
219,2825
219,3001
219,3357
220,406
220,1412
220,1470
220,2041
221,1326
221,2441
221,2857
221,3746
223,441
223,1768
223,4577
225,54
225,385
225,958
225,1394
225,1685
225,1800
225,3097
225,3725
225,3749
225,4088
225,4430
225,4893
226,917
227,525
227,632
227,1138
227,1809
227,2269
227,2517
227,3149
227,3672
228,284
228,1492
228,4767
230,4377
231,683
231,701
231,765
231,795
231,1245
231,1468
231,1474
231,1551
231,1852
231,1941
231,2216
231,2514
231,2750
231,3776
231,3793
231,4088
231,4114
231,4727
231,4751
231,4982
234,512
234,1988
235,629
235,927
237,532
237,1541
237,3886
238,18
238,1158
238,1407
238,1630
238,1682
238,2555
238,3113
238,4440
238,4822
241,540
241,1018
241,2167
241,3507
242,1988
242,2945
242,3178
242,4765
244,1695
244,2662
244,3109
244,3870
244,4720
245,770
245,1382
245,3413
245,4014
245,4203
245,4226
245,4557
246,219
246,1700
246,2227
246,3301
248,717
248,1463
248,1735
248,1878
248,2082
248,3810
250,512
250,1937
250,3388
250,4109
250,4510
251,119
251,140
251,328
251,340
251,1452
251,1517
251,2100
251,3461
252,2247
253,847
253,939
253,2434
253,3835
253,4018
253,4209
253,4431
254,1269
254,3244
255,394
255,396
255,1269
255,1280
255,2211
255,3137
260,1495
260,4742
261,108
261,399
261,445
261,706
261,825
261,979
261,1376
261,1777
261,3156
261,4090
262,1445
264,423
264,1407
264,2707
264,2745
264,2753
264,3197
264,3216
264,4113
265,104
265,207
266,2523
266,2593
266,4624
268,1028
268,1810
269,414
269,1530
269,2916
269,4394
270,94
270,186
270,770
270,2094
270,2593
270,2859
270,3634
272,3537
273,102
273,232
273,329
273,331
273,340
273,408
273,448
273,513
273,806
273,837
273,1125
273,1160
273,1304
273,1379
273,1446
273,1523
273,1559
273,1578
273,1842
273,2199
273,2247
273,2463
273,2848
273,3061
273,3097
273,3156
273,3178
273,3421
273,3633
273,3877
273,4109
273,4177
273,4322
273,4848
274,957
275,118
275,394
275,795
275,1154
275,1772
275,2078
275,2934
279,4226
279,4870
281,2757
283,81
283,448
283,1149
283,1479
283,1698
283,2461
283,2660
283,4119
283,4203
285,24
285,1526
285,1807
285,1961
285,2203
285,2506
286,4557
287,844
287,3428
287,3780
287,3848
288,22
288,394
288,470
288,1140
288,1387
288,4509
288,4823
288,4905
290,585
290,766
290,1204
290,1326
290,1476
290,2517
290,2730
290,3301
290,3678
290,3693
294,18
294,22
294,537
294,1899
294,2725
294,4078
294,4445
294,4517
295,1135
295,1312
295,1403
295,2120
295,2579
295,3326
295,3701
297,207
297,2298
298,240
298,340
298,2475
298,2797
298,2980
298,3388
298,3819
298,4248
299,4209
300,2074
302,81
302,482
302,1043
302,1140
302,3032
302,3053
304,27
304,314
304,469
304,523
304,655
304,694
304,936
304,2014
304,2989
304,3389
304,3598
304,4165
305,3874
306,822
306,895
306,1492
306,2517
307,3097
310,2088
310,2461
311,1004
311,1054
311,1503
312,2073
312,2333
312,3257
313,436
313,2813
313,4440
315,399
315,985
315,2813
315,4031
317,32
317,3410
318,10
318,23
318,110
318,484
318,710
318,1579
318,1804
318,1901
318,2251
318,2813
318,3033
318,3804
320,2589
320,2607
320,2733
320,4727
321,399
321,611
321,890
321,934
321,1145
321,2955
321,3301
321,4071
321,4786
322,2593
322,2643
322,2912
322,3680
322,4357
322,4436
323,701
323,1160
323,1732
323,1814
323,2635
323,2948
323,3621
323,3744
323,4982
324,7
324,751
324,887
324,1181
324,1403
324,1574
324,1589
324,1700
324,1725
324,1878
324,3433
324,4657
324,4742
325,110
325,2677
325,3613
327,1180
327,2067
327,2340
327,2527
327,3401
327,4064
328,216
328,409
328,2711
328,3726
328,4908
330,3050
330,3183
330,3797
330,3820
332,17
332,141
332,151
332,207
332,317
332,416
332,444
332,508
332,523
332,553
332,584
332,603
332,886
332,970
332,1300
332,1344
332,1438
332,1931
332,2074
332,2330
332,2596
332,2971
332,3137
332,3650
332,3883
332,3885
332,4035
332,4221
332,4331
332,4484
337,145
337,207
337,952
337,3788
337,3937
337,4665
338,3447
341,277
341,1037
341,2725
343,83
346,651
346,1530
346,2684
346,3924
347,4701
348,1909
348,2516
348,2898
349,262
349,267
349,1059
349,1973
349,1988
349,2629
349,3879
352,541
352,3430
352,4742
352,4839
353,243
353,1833
353,3546
353,3713
354,10
354,1127
354,1180
354,3243
357,178
357,1452
357,1530
357,1582
357,1717
357,1934
357,3340
357,4068
357,4428
357,4557
357,4992
358,2586
360,10
360,264
360,659
360,2328
360,2555
360,3893
362,85
363,399
363,1083
363,1161
363,1283
363,3978
363,4153
363,4209
363,4295
363,4353
363,4703
363,4905
365,893
365,1620
365,4115
368,1492
369,380
369,1403
371,335
371,995
371,1432
373,447
373,958
373,1496
373,1578
373,1813
373,2018
373,2166
373,2884
375,4364
376,101
376,457
376,580
376,603
376,1231
376,1560
376,1596
376,2579
376,3976
376,4124
376,4962
377,529
377,1846
377,2015
378,2715
378,4887
379,119
379,1300
379,1672
379,1777
379,4600
380,10
380,394
380,862
380,3402
380,3710
380,4261
381,2082
381,2128
381,2895
381,3715
381,3804
382,4823
383,652
383,701
383,1997
383,3053
386,109
386,186
386,282
386,859
386,1297
386,1521
386,1849
386,1896
386,3116
386,3131
386,3430
386,4518
386,4719
386,4956
388,3301
388,4144
388,4977
392,996
392,2108
392,2660
392,3310
397,2311
398,183
398,410
398,944
398,1709
398,2226
398,2517
398,4427
399,383
399,444
399,564
399,643
399,946
399,1143
399,1229
399,1583
399,1642
399,1743
399,2436
399,2606
399,2788
399,3118
399,3900
400,1325
400,4614
401,128
401,384
401,394
401,1197
401,3565
401,4084
401,4324
401,4469
404,1
404,443
404,634
405,3097
407,85
407,1552
407,4693
409,2244
409,2833
409,2937
409,3384
409,4989
411,641
411,775
411,1593
411,1914
411,1921
411,1982
411,2316
411,2573
411,2607
411,3685
411,4770
411,4815
412,268
413,236
413,2720
413,3461
413,3726
413,4431
413,4830
413,4878
415,1612
417,1326
417,3053
418,126
418,207
418,447
418,512
418,596
418,1145
418,1235
418,1430
418,1789
418,1801
418,3648
420,339
420,1070
420,2974
420,4860
425,80
427,934
427,1379
427,1698
427,2579
427,2725
427,3115
427,3309
427,4167
427,4170
427,4451
427,4971
428,1199
428,1939
428,2297
428,3211
428,3382
428,4932
429,1151
432,4956
433,584
433,1340
437,22
437,2984
437,3672
437,3922
437,4226
438,1574
438,2192
438,3490
439,422
439,3249
439,4387
442,28
445,2190
445,4124
446,474
446,909
446,2233
446,3401
446,3583
446,3632
449,1055
449,1607
450,564
450,779
450,1594
450,2346
450,2942
450,3045
450,4934
452,1654
452,1713
452,2418
452,4701
453,1258
454,284
454,2454
454,4661
455,87
455,1521
455,2147
455,2216
455,4057
455,4362
456,1478
456,2437
458,131
462,652
462,1612
462,1696
462,1832
462,2267
463,138
463,3035
464,102
464,994
464,1191
464,1582
464,4509
465,8
465,455
465,1428
465,1510
465,2872
466,24
466,57
466,104
466,109
466,145
466,215
466,426
466,440
466,444
466,469
466,523
466,697
466,844
466,962
466,1004
466,1028
466,1045
466,1075
466,1126
466,1318
466,1547
466,1665
466,1832
466,1870
466,2946
466,3301
466,3505
466,3533
466,3617
466,4261
466,4262
466,4398
466,4528
466,4727
467,104
467,108
467,1530
467,1957
468,717
468,2077
468,4407
471,328
471,2406
472,1629
474,1138
475,394
478,180
478,460
478,680
478,1055
478,1523
478,2555
478,2660
478,2704
478,3672
478,3712
478,3937
478,4038
479,128
479,852
479,961
479,4992
483,339
486,2066
487,429
487,430
487,512
487,1695
487,3388
487,4757
488,119
488,1878
488,2317
488,3424
488,4117
488,4653
489,420
489,4203
492,2268
492,3053
495,1565
495,3412
497,45
497,132
497,207
497,331
497,540
497,702
497,1253
497,1591
497,1618
497,1700
497,2210
497,2247
497,2506
497,2582
497,2905
497,3004
497,3211
497,3410
497,3588
497,3636
497,3857
497,3870
497,4707
497,4943
498,72
498,1211
498,1382
498,1846
498,3406
498,4509
499,414
499,436
499,2364
499,2479
499,2876
499,3724
501,276
501,2803
503,89
503,1078
503,4518
504,64
504,4946
505,329
505,861
505,2803
506,219
509,2582
509,4556
510,267
510,2676
510,3410
510,4864
511,243
511,1001
511,1386
511,3308
513,813
514,33
514,183
514,512
514,862
514,1680
514,2436
514,2498
514,2995
514,3174
514,4011
514,4114
514,4550
514,4870
517,1382
517,2013
517,2700
517,2844
517,4122
519,1156
519,4775
521,2373
522,1431
522,4248
523,410
523,1492
523,1698
523,2034
523,3716
524,2813
526,141
526,1314
526,1862
526,3175
530,2412
530,3118
531,188
531,1361
532,138
533,183
533,1479
534,1028
536,277
536,429
536,1977
536,3793
536,4509
537,56
537,584
537,1573
537,2258
537,2835
537,2986
537,3359
537,4124
538,1197
538,1602
538,2460
538,2607
538,4735
539,785
539,2165
539,2587
539,4742
540,4712
542,108
542,2962
542,3592
542,3905
542,4259
543,958
543,1431
543,2803
543,4710
544,85
544,124
544,177
544,293
544,390
544,584
544,592
544,733
544,849
544,1463
544,1492
544,2385
544,2513
544,2871
544,4509
544,4634
544,4701
545,845
545,4847
546,3332
549,2803
550,3118
551,1594
551,2424
551,2664
551,3706
552,440
552,1732
552,2673
553,529
553,4212
554,56
554,2756
555,1136
555,1532
556,206
556,316
556,445
556,576
556,839
556,1023
556,1032
556,1059
556,1238
556,1335
556,1558
556,3773
557,282
557,673
557,926
557,2584
557,2790
557,3158
557,3487
557,4555
558,173
558,441
558,2827
558,4423
559,381
560,522
560,652
560,1578
560,2505
560,3154
560,3580
560,3622
560,3940
560,4079
560,4109
560,4956
561,536
561,605
561,617
561,792
561,935
561,1171
561,1365
561,1540
561,1909
561,1924
561,2137
561,2216
561,2328
561,2507
561,2535
561,2593
561,4209
561,4812
562,2803
563,1492
563,1525
563,2777
565,410
566,461
566,648
566,1015
566,1030
566,1481
566,1539
566,1605
566,2082
566,2212
566,2479
566,2660
566,2964
566,3553
566,4362
566,4635
568,443
569,447
570,435
570,958
570,1129
570,1398
570,1415
570,1685
570,1698
570,1761
570,1812
570,1846
570,2113
570,2116
570,2638
570,3930
570,3938
570,4199
571,2289
571,4115
572,2074
573,3406
575,76
575,195
575,685
575,2272
575,2813
575,3253
575,3343
575,3881
575,4052
575,4611
577,4637
578,2125
579,3410
580,659
580,2075
580,2673
580,3270
581,985
581,1444
581,1833
581,2410
582,486
582,1070
582,1403
582,1646
582,2579
582,3004
582,4551
583,525
583,1125
583,1521
583,2448
583,2713
583,2765
583,3154
583,4977
586,32
589,186
589,250
589,1646
589,1981
589,2371
589,2486
589,2579
589,2668
589,2848
589,2962
589,4254
589,4259
590,4115
594,18
594,93
594,128
594,409
594,1178
594,1322
594,1376
594,1518
594,1613
594,1640
594,4084
594,4727
594,4870
595,435
595,485
595,1152
595,1229
595,1629
595,3425
595,3779
597,429
598,540
598,1747
598,2191
598,2662
598,2760
598,3281
598,4115
600,2074
600,2644
601,76
601,1125
602,4384
603,1258
604,1515
606,159
606,1522
606,1573
606,2779
607,464
607,665
607,4308
607,4484
608,482
608,676
608,1614
608,2664
608,3542
610,90
610,780
610,1466
611,381
611,478
611,2756
611,4349
611,4619
611,4801
612,1530
612,2420
612,2712
613,188
616,180
616,553
616,1262
616,1287
616,3461
621,243
621,879
622,1700
623,183
623,910
623,1673
623,2942
623,3826
624,1963
624,2000
624,2221
624,2739
624,3538
625,4739
626,1332
629,177
629,188
629,194
629,247
629,266
629,332
629,461
629,508
629,564
629,1312
629,1522
629,1578
629,2273
629,2479
629,2806
629,2813
629,3104
629,3118
629,3135
629,3944
629,4430
629,4780
630,610
630,867
630,1533
630,2583
630,3460
630,3666
630,4440
631,172
633,112
633,124
633,476
633,1077
633,1861
633,4509
635,536
635,636
635,690
635,1459
635,1640
635,1927
635,2251
635,2828
635,3401
635,4304
636,2365
637,474
637,728
637,1425
637,2139
637,3413
639,12
639,1833
639,3148
639,3225
639,4055
640,128
640,1388
640,2109
640,2765
640,2958
640,3552
642,342
642,529
642,1445
642,2112
642,3091
642,4216
643,8
643,56
643,726
643,1801
643,1822
643,2014
643,3027
643,3121
643,4095
644,239
645,216
645,2247
645,2940
645,4363
646,1181
646,1578
646,1788
646,1988
646,2871
646,3854
646,4440
647,2602
649,1698
653,174
653,683
653,728
653,1340
653,1468
654,1918
654,2941
656,447
656,870
656,879
656,1024
656,2247
656,2479
656,3822
657,54
657,542
657,1698
657,2276
657,3071
658,3802
661,4712
663,777
663,1104
663,1846
663,2241
663,4661
666,800
666,1578
667,683
667,2756
667,3523
669,4870
670,2948
671,464
672,1129
672,3301
674,180
674,1583
674,3937
679,119
679,690
679,854
679,1757
679,2399
679,3282
679,3756
681,138
681,347
681,1222
681,1444
681,2597
681,3761
682,3356
682,4870
684,182
684,584
684,694
684,2161
684,2623
684,3240
684,3653
684,3937
684,4124
688,93
688,342
688,3410
689,60
689,81
689,129
689,184
689,222
689,474
689,510
689,512
689,774
689,1053
689,1229
689,1287
689,1465
689,1526
689,1697
689,1776
689,1900
689,1908
689,2158
689,2503
689,2593
689,2760
689,3146
689,3214
689,4140
689,4203
689,4306
689,4720
690,76
690,876
690,1480
690,3672
690,3713
692,1033
692,3348
700,451
700,2021
703,94
703,216
704,1713
704,2803
705,1403
705,1573
705,1698
705,3285
705,4629
706,512
707,101
707,430
707,1417
707,1589
707,3104
707,4209
707,4730
708,750
708,1772
710,1382
710,2474
711,207
711,3189
711,3388
711,4057
712,2205
712,2247
714,4937
716,124
716,340
716,1430
716,2146
716,2617
716,3012
716,3054
718,648
719,4078
721,1988
721,2857
721,3410
723,1521
723,1857
723,2358
723,4430
724,24
724,537
724,662
727,180
727,1478
727,2517
731,32
731,344
731,510
731,1422
731,2245
731,2517
731,3591
732,114
732,824
732,1885
732,2211
734,2993
734,4739
736,1612
737,390
737,4115
737,4362
737,4660
739,131
739,1766
739,3423
742,2493
742,4622
745,3476
746,523
746,2619
747,94
747,1518
747,2412
748,792
749,148
749,1485
749,2167
749,3542
752,584
752,1094
752,1100
752,1104
752,1410
752,1514
752,1682
752,2293
752,3458
752,3573
752,4281
753,3401
754,81
754,246
754,3731
755,56
755,124
755,224
755,834
755,1612
755,2959
757,2950
757,3990
758,1894
758,2715
760,331
761,32
761,939
762,440
763,2194
764,660
764,1030
764,1121
764,1293
764,1523
764,1999
764,3911
764,4567
767,128
767,329
768,32
768,180
768,1588
768,2579
772,4742
776,1859
783,3
783,980
783,3558
783,3574
783,4209
783,4475
784,167
784,443
784,2599
785,101
785,104
785,641
785,748
785,842
785,974
785,1161
785,1201
785,1249
785,1532
785,2921
785,2976
785,3039
785,3118
785,3683
785,3850
785,3989
785,4092
785,4780
786,1048
788,4030
788,4041
788,4177
790,328
790,465
790,795
790,877
790,1443
790,1532
790,1698
790,1831
790,2661
790,2778
790,2827
790,2978
790,3149
790,3161
790,3238
790,3314
790,4440
791,474
791,1385
791,2176
798,1379
798,2620
798,4492
799,445
799,2352
802,529
804,186
804,701
804,1530
804,1643
804,2756
804,2990
805,64
805,822
805,862
805,1896
805,4943
807,201
807,3982
807,4673
808,4266
811,2607
811,2638
811,3097
811,3162
811,4571
812,109
812,1424
812,2312
812,3749
815,3672
816,522
816,797
816,803
816,930
816,1184
816,1365
816,1386
816,1433
816,1531
816,1553
816,2021
816,2078
816,2124
816,3211
816,3873
817,2479
817,4470
818,618
818,4685
823,459
823,503
823,3177
823,3325
827,3301
828,4440
831,424
831,482
831,584
831,2910
831,3538
833,91
833,1152
833,2086
833,2411
835,486
835,493
835,620
835,678
835,1109
836,448
838,194
838,2168
840,1223
840,3089
843,503
843,1788
843,1880
846,54
846,2008
846,2669
846,2851
846,3289
846,3804
846,4369
848,4115
849,416
849,1673
849,1729
849,2718
850,822
850,1181
850,1446
850,2387
850,4138
851,4018
853,293
854,394
854,1429
854,3563
855,1790
855,2803
855,3826
856,85
856,241
856,314
856,701
856,1565
856,2652
856,3264
856,4499
857,152
857,981
857,1040
857,4398
857,4945
858,46
858,1362
858,2220
858,3596
861,523
861,2267
861,2962
863,132
863,1720
863,2074
863,4261
866,208
866,2848
866,4672
869,2663
871,167
871,3347
872,276
872,482
872,1822
872,2463
873,203
873,576
873,2365
875,236
875,1012
875,3301
875,3487
875,3672
877,424
877,886
877,1708
877,3672
878,2872
878,4362
878,4802
880,393
880,1691
880,4856
881,5
881,46
881,193
881,1574
881,1846
881,2884
881,2954
881,3640
882,2040
882,2962
882,3257
882,4122
886,3116
887,3552
888,104
888,1613
888,1865
888,1896
888,3282
888,4018
889,482
889,726
889,1185
889,3386
889,3995
889,4702
890,2532
890,3749
891,92
891,697
891,731
891,911
891,1306
891,1789
891,1883
891,2277
891,2715
891,2954
891,3193
891,3565
892,416
892,1756
894,2107
894,4866
896,4
896,414
896,795
896,1052
896,1198
896,1698
896,2137
896,2755
896,4495
897,486
897,547
897,884
897,997
897,2932
897,3393
897,3501
897,4018
897,4149
897,4700
898,1589
898,1764
898,2593
899,537
899,1358
899,3021
899,4723
901,22
901,2247
902,416
902,1457
902,1529
902,2774
902,2862
903,474
903,567
903,2085
903,2921
903,3397
903,4170
903,4994
904,380
904,2759
905,1573
905,3413
906,2074
907,773
907,1058
907,1587
908,18
908,109
909,2803
909,3421
912,481
912,2222
912,4161
913,350
913,650
913,1050
913,2724
914,1
914,2422
915,168
915,452
915,2438
915,2723
915,2899
915,3102
918,685
920,91
920,143
920,182
920,773
920,1360
920,1579
920,3214
920,3798
920,4342
921,4786
922,79
922,179
922,282
922,325
922,1160
922,1334
922,1498
922,2124
922,2745
922,3297
922,4549
922,4562
923,3053
924,1548
924,3358
925,2503
925,3220
925,3583
927,7
927,3098
928,709
928,1127
928,1293
928,2255
928,3131
928,3586
929,658
929,2298
931,1747
931,2816
931,3220
931,3285
933,141
933,537
933,652
933,750
933,1646
933,1698
933,1757
933,1839
933,2629
933,3257
933,3642
933,3657
933,4396
937,181
938,329
938,1191
940,2082
940,3567
942,2579
945,497
945,717
945,2063
945,2652
945,4442
945,4727
945,4742
946,2752
946,4213
948,2026
948,2517
948,3905
950,492
950,2043
950,2123
953,72
953,85
953,331
953,443
953,593
953,1121
953,1475
953,1509
953,1534
953,1890
953,2143
953,2153
953,2577
953,3343
953,3616
953,3858
953,4823
954,1169
954,3858
955,109
955,1871
956,459
957,2021
957,2813
957,3116
957,3683
959,1677
959,3401
959,3734
960,27
960,485
960,662
960,744
960,1379
960,1517
960,1594
962,340
962,1646
962,3482
962,3725
963,406
963,3413
963,4470
964,1270
964,3118
964,4482
965,188
966,18
966,104
966,2330
966,2502
966,4182
967,910
967,1114
967,2815
967,3542
967,3984
967,4307
968,652
968,3232
969,110
970,167
971,409
971,690
971,861
971,1179
971,1235
971,1570
971,1719
971,2756
972,105
973,105
973,4946
975,435
975,701
975,992
975,1578
975,1995
975,3670
975,4509
976,547
977,335
977,2001
981,3747
984,27
984,786
986,503
986,4370
987,128
987,1566
987,4158
988,366
988,2470
989,364
989,4356
990,33
990,2277
990,3890
990,4606
991,319
991,1578
991,2689
993,76
993,1163
994,3275
994,3298
994,3554
994,3817
994,4259
994,4543
997,1339
997,1653
997,2134
998,2439
998,3410
998,3826
999,598
999,801
999,864
999,1169
999,2376
999,2674
999,4789
1000,1560
1000,2702
1000,2810
1000,4058
1000,4364
1002,167
1002,1576
1002,4164
1003,834
1003,1181
1003,1382
1003,3894
1003,4729
1003,4753
1004,163
1004,1077
1004,1445
1005,1760
1005,2057
1005,4793
1006,2087
1006,4484
1007,1867
1007,2086
1007,2756
1008,512
1009,366
1009,491
1009,1400
1009,1534
1009,1674
1009,2142
1009,2989
1009,3301
1012,4969
1013,3806
1013,4090
1014,809
1016,512
1017,1856
1019,701
1020,864
1020,3118
1020,3861
1020,4747
1022,845
1023,979
1023,1552
1023,1614
1023,3184
1023,3401
1023,3410
1023,3805
1023,4277
1025,917
1025,1881
1026,4203
1027,701
1027,3662
1030,1415
1030,2459
1031,126
1031,1388
1031,4115
1031,4775
1033,4775
1034,2222
1034,2677
1034,4786
1035,701
1035,3385
1036,870
1038,144
1038,372
1038,3166
1039,4394
1040,2619
1041,3097
1042,1758
1042,2298
1042,3412
1042,3886
1042,4115
1042,4318
1042,4394
1042,4623
1042,4665
1044,957
1044,1272
1044,4162
1046,854
1046,950
1046,1073
1046,2499
1046,3641
1046,3651
1046,3739
1047,2641
1047,3211
1047,3614
1049,444
1049,620
1049,1666
1049,3097
1049,4867
1051,837
1052,3397
1052,3809
1053,777
1055,826
1057,454
1057,527
1057,1573
1057,2295
1057,4384
1059,1191
1061,792
1061,4484
1062,4431
1063,88
1063,2579
1063,3056
1063,3167
1063,3241
1063,4652
1064,833
1065,364
1065,1320
1065,2007
1065,2847
1067,585
1067,4651
1068,3785
1068,3802
1068,4508
1069,1048
1069,1278
1069,2638
1069,4124
1071,659
1071,2103
1071,4342
1071,4727
1074,440
1074,864
1075,184
1075,690
1075,1293
1075,3507
1075,4509
1079,532
1079,1573
1079,3372
1079,4502
1080,620
1080,1614
1080,4727
1082,17
1082,676
1082,1445
1084,529
1084,537
1084,2607
1084,2762
1084,3348
1084,4932
1085,207
1085,746
1085,1240
1085,2994
1085,3052
1085,4124
1085,4218
1085,4611
1087,605
1089,1720
1090,3388
1090,3652
1091,308
1091,436
1091,1021
1091,1123
1091,1141
1091,1445
1091,1585
1091,1843
1091,2606
1091,3665
1091,4036
1091,4766
1092,651
1093,860
1093,1751
1093,3403
1095,864
1095,995
1095,1246
1096,331
1098,957
1098,3189
1098,4369
1102,837
1103,834
1103,1350
1103,1498
1103,4509
1104,267
1105,1461
1105,2871
1105,4943
1106,958
1106,1382
1106,3713
1106,4467
1107,239
1107,351
1107,399
1107,1335
1107,1554
1107,1940
1107,2221
1107,2967
1108,1646
1111,731
1111,1425
1111,3477
1111,3984
1111,4951
1113,326
1113,507
1113,884
1113,1154
1113,1300
1113,1593
1113,1594
1113,2131
1113,4983
1116,267
1116,3665
1117,89
1117,250
1117,356
1117,490
1117,1238
1117,1639
1117,2905
1117,2941
1117,4972
1118,1883
1118,2267
1122,890
1123,105
1123,240
1123,309
1123,482
1123,2139
1123,2579
1123,3089
1123,3182
1123,4661
1125,662
1125,2247
1128,844
1128,2614
1128,3800
1130,206
1130,364
1130,1700
1130,3494
1130,4701
1131,3114
1131,4806
1134,10
1134,585
1134,1213
1134,1280
1134,2277
1134,3441
1134,4982
1135,18
1135,76
1135,2583
1135,4431
1135,4598
1137,587
1137,1842
1137,3097
1138,3874
1140,3301
1141,104
1141,383
1141,1242
1141,1760
1141,2039
1141,4014
1141,4742
1142,18
1144,2848
1144,3828
1144,4870
1146,4870
1147,1024
1147,1119
1147,4090
1148,308
1148,4286
1150,507
1150,1568
1150,2082
1150,2313
1150,2828
1150,4662
1152,89
1153,186
1153,644
1153,2107
1154,10
1154,32
1154,159
1154,243
1154,465
1154,648
1154,750
1154,770
1154,1374
1154,1393
1154,1831
1154,1991
1154,2430
1154,2508
1154,2593
1154,2614
1154,2674
1154,3053
1154,3498
1154,4290
1154,4331
1154,4423
1154,4742
1155,1332
1159,448
1162,3672
1164,1083
1164,2765
1164,4088
1166,4213
1167,1720
1169,247
1169,293
1169,1502
1169,4484
1170,2423
1172,2395
1172,3874
1172,4976
1173,477
1173,1593
1173,2366
1174,170
1176,64
1176,331
1176,3846
1176,4429
1177,1761
1177,2545
1177,3556
1177,4869
1182,180
1183,1445
1183,3097
1184,7
1186,2077
1186,4286
1187,370
1187,1223
1187,2227
1188,2100
1188,3892
1189,686
1189,2328
1189,4727
1192,266
1192,1427
1192,3097
1193,1700
1193,2875
1194,1236
1194,4138
1194,4454
1195,1554
1196,1582
1196,2363
1196,3042
1203,701
1204,207
1204,2001
1204,2108
1205,32
1205,3211
1205,4507
1205,4635
1205,4644
1205,4965
1206,1149
1206,1218
1206,1536
1206,2194
1206,4872
1206,4979
1208,207
1208,795
1209,751
1209,1760
1209,1878
1210,8
1210,2018
1210,3138
1212,1185
1213,4430
1214,529
1215,409
1215,1370
1215,4805
1217,4394
1219,314
1219,1487
1219,1700
1219,3435
1219,4115
1219,4124
1219,4366
1220,92
1220,316
1220,1223
1220,2959
1220,3142
1220,3676
1221,988
1221,4045
1224,329
1224,465
1224,2191
1224,2835
1226,1672
1226,3049
1227,1076
1227,2623
1227,3289
1229,1473
1229,2813
1229,4384
1230,174
1231,218
1231,243
1231,1559
1231,1989
1231,4109
1231,4637
1233,390
1233,1808
1233,2416
1234,207
1234,2409
1234,2505
1234,3300
1234,4539
1234,4927
1237,982
1238,4828
1239,219
1241,1537
1243,862
1243,1117
1244,372
1244,447
1244,3672
1245,218
1245,1526
1245,1720
1245,2596
1245,3064
1247,384
1247,459
1247,1989
1247,4380
1248,414
1248,2184
1251,780
1252,974
1253,203
1253,2895
1254,1045
1254,3097
1255,23
1255,206
1255,1897
1255,3399
1255,4063
1256,4168
1257,28
1257,916
1257,2192
1257,4463
1258,3747
1259,94
1260,861
1261,4394
1264,3714
1265,2100
1266,229
1266,451
1266,1375
1266,1640
1266,2594
1266,2882
1266,4504
1267,651
1267,2895
1268,482
1269,1158
1269,4023
1270,224
1270,2684
1270,3187
1271,397
1271,1585
1274,433
1274,535
1274,650
1274,4391
1275,239
1275,350
1275,431
1275,1332
1275,3858
1275,3919
1277,422
1277,1991
1277,2725
1281,340
1281,2224
1282,5
1282,1571
1282,1858
1285,3452
1288,56
1288,2458
1288,2480
1288,3053
1288,3252
1288,3803
1288,4611
1295,886
1297,1465
1298,537
1298,792
1298,3240
1299,4449
1301,4727
1302,93
1302,461
1302,2130
1304,2329
1304,3311
1304,3665
1304,3693
1305,786
1305,2582
1305,2662
1305,3012
1307,4757
1308,347
1308,402
1308,1490
1308,2385
1308,3087
1309,436
1310,726
1311,709
1315,587
1315,2337
1316,862
1319,219
1319,4857
1320,3027
1321,1859
1321,2460
1321,4078
1322,3118
1324,32
1324,80
1324,167
1324,402
1324,443
1324,557
1324,1467
1324,1992
1324,3299
1325,22
1325,81
1327,1222
1327,3179
1328,406
1328,3470
1328,4177
1330,874
1330,1076
1330,1171
1330,1793
1330,2953
1330,3990
1330,4112
1331,650
1331,1028
1333,128
1333,518
1333,544
1333,1216
1333,1249
1333,2271
1333,2737
1333,4199
1333,4925
1334,188
1335,2353
1336,967
1336,2941
1337,792
1337,3781
1338,910
1341,276
1342,391
1345,299
1345,476
1345,528
1345,916
1345,1276
1345,1538
1345,1665
1345,1667
1345,4979
1347,131
1347,207
1347,1223
1347,1611
1347,2925
1347,3528
1347,4131
1347,4935
1351,574
1352,126
1352,706
1352,4103
1353,27
1353,92
1353,826
1353,2998
1353,3021
1353,3713
1353,3858
1354,1496
1355,139
1355,207
1357,391
1357,2357
1357,2977
1357,3412
1357,3487
1357,4399
1358,343
1358,1111
1359,328
1359,3748
1361,1125
1361,1847
1361,3348
1363,1530
1363,2876
1363,2923
1363,4930
1364,600
1366,3567
1367,10
1367,482
1368,544
1368,3343
1370,725
1371,4138
1372,4406
1375,2395
1375,4440
1376,3524
1377,170
1377,444
1377,3885
1378,2527
1378,3672
1380,236
1380,660
1380,4012
1381,1782
1381,2684
1383,1693
1383,3300
1389,478
1389,497
1389,2014
1389,2191
1389,3665
1389,4775
1389,4990
1389,4999
1390,4509
1392,23
1392,308
1393,145
1393,717
1393,919
1393,1055
1393,1539
1393,1621
1393,1996
1393,1997
1396,4532
1397,2146
1399,614
1399,1712
1399,4018
1399,4155
1400,701
1400,2418
1400,3270
1401,4470
1402,1760
1403,443
1403,1125
1403,2056
1404,23
1405,3583
1406,615
1406,3562
1408,340
1411,1507
1411,1720
1413,96
1413,173
1413,1889
1413,2399
1414,102
1414,383
1414,447
1414,661
1414,778
1414,1119
1414,1376
1414,1468
1414,1614
1414,2119
1414,2139
1414,3160
1414,3311
1414,4483
1414,4523
1414,4819
1415,46
1415,1537
1415,1590
1416,745
1418,3002
1418,3104
1420,994
1421,267
1423,409
1424,1883
1425,2921
1426,409
1426,1468
1428,4
1428,4742
1429,1612
1430,1764
1433,39
1433,1461
1433,1558
1433,2038
1434,2632
1435,410
1436,271
1436,1454
1440,2555
1441,159
1441,1695
1441,1846
1441,2204
1441,3148
1441,3567
1441,3593
1442,747
1442,1698
1442,2418
1442,3576
1442,3833
1449,380
1449,1091
1449,1579
1450,159
1450,399
1450,824
1450,830
1450,1504
1450,2884
1450,3132
1450,3796
1450,4310
1450,4595
1452,832
1452,1120
1454,885
1454,1860
1454,4224
1455,1578
1456,4727
1460,3488
1461,535
1462,32
1462,474
1462,1386
1462,3098
1462,3851
1464,2463
1464,2813
1464,3584
1469,598
1469,1200
1469,2074
1471,2463
1471,3410
1472,17
1472,678
1475,3747
1477,1786
1478,982
1479,269
1479,706
1479,758
1479,774
1479,1859
1479,1925
1479,2871
1479,4334
1482,936
1482,1800
1482,2478
1482,3672
1483,770
1483,1045
1484,507
1484,596
1484,2108
1484,3053
1486,484
1488,96
1488,308
1488,3878
1488,4209
1491,150
1491,493
1491,1659
1491,1761
1491,2418
1491,2804
1491,2869
1491,4518
1493,4727
1499,4875
1500,895
1500,1857
1501,121
1502,781
1505,537
1505,2276
1506,4018
1507,2039
1508,540
1513,223
1519,1004
1519,1231
1519,4518
1520,101
1520,3796
1522,101
1522,123
1522,525
1522,936
1522,1001
1522,1048
1522,2267
1522,2445
1522,2634
1522,3991
1523,2418
1527,1382
1527,1954
1528,159
1528,183
1528,2682
1528,3377
1535,2139
1535,2159
1535,2708
1536,1988
1536,2033
1537,4286
1542,2074
1544,1278
1545,49
1545,1440
1545,1492
1545,2890
1545,3401
1545,4070
1545,4138
1545,4858
1548,91
1548,426
1548,435
1548,826
1548,867
1548,1037
1548,2725
1548,4203
1548,4603
1549,156
1549,592
1549,1798
1549,2963
1550,2376
1550,3786
1556,1085
1558,319
1558,399
1558,1335
1558,2118
1558,3406
1561,23
1561,2420
1561,4484
1562,1334
1562,2664
1562,3099
1562,4350
1562,4992
1563,2014
1566,105
1566,1223
1566,1573
1566,3349
1566,4209
1567,2447
1567,2563
1567,4205
1567,4509
1567,4631
1568,2607
1568,3097
1569,72
1569,1151
1569,2006
1569,2059
1569,4780
1572,18
1572,27
1572,770
1572,1221
1572,1612
1572,2074
1572,4141
1572,4350
1572,4653
1572,4879
1574,308
1575,1290
1575,3747
1576,943
1576,1132
1576,1369
1576,1820
1576,3623
1576,4092
1576,4209
1576,4532
1576,4812
1576,4982
1577,4472
1578,615
1580,54
1581,89
1582,248
1584,448
1586,746
1586,1831
1590,268
1590,325
1590,409
1590,1269
1590,2013
1591,1573
1592,2211
1592,2489
1592,3574
1593,770
1594,4540
1598,770
1599,27
1600,108
1600,523
1600,978
1600,2323
1600,2660
1601,101
1603,72
1604,92
1606,3300
1607,2003
1607,3705
1607,4503
1607,4509
1608,4394
1615,180
1616,1652
1616,2109
1616,2132
1616,2542
1616,2771
1616,3280
1617,328
1617,338
1617,4757
1617,4943
1622,68
1622,340
1622,776
1622,2075
1622,2119
1622,2247
1622,4259
1622,4509
1622,4932
1623,596
1624,110
1626,861
1626,3913
1627,741
1627,1144
1627,2282
1627,4115
1627,4200
1628,22
1628,512
1628,701
1628,1154
1628,1573
1628,2100
1628,2189
1628,2711
1628,2814
1628,3689
1628,3886
1628,4544
1628,4747
1631,27
1631,79
1631,170
1631,236
1631,328
1631,1004
1631,1700
1631,1874
1631,2399
1631,3482
1631,3523
1631,3672
1631,4254
1631,4663
1631,4928
1632,1685
1632,4775
1633,1401
1633,2529
1633,2847
1634,1232
1636,207
1636,4440
1637,2191
1637,4727
1639,859
1639,1480
1640,292
1640,861
1640,1331
1640,1695
1640,2418
1640,2748
1640,4989
1642,109
1642,2073
1642,4633
1644,1222
1645,4823
1646,629
1646,773
1646,1629
1646,3346
1647,2555
1649,1835
1649,3645
1650,193
1650,461
1652,862
1656,775
1657,1832
1658,1883
1658,3589
1660,192
1660,957
1660,1720
1660,3544
1660,3857
1660,4119
1660,4275
1662,2898
1662,4958
1664,3097
1668,1686
1668,2227
1669,443
1669,3421
1671,1069
1671,3406
1675,690
1676,207
1676,284
1676,3380
1677,207
1677,512
1677,824
1677,1231
1677,1280
1677,2287
1677,2758
1677,3289
1677,3527
1677,3552
1677,4398
1677,4996
1679,685
1679,2376
1684,186
1684,1635
1684,2154
1686,1748
1686,4943
1687,4786
1688,135
1689,5
1690,436
1690,1181
1692,268
1694,1129
1694,4121
1696,4470
1700,97
1700,169
1700,792
1700,1028
1700,1157
1700,2547
1701,745
1703,2607
1705,1037
1706,3159
1707,697
1707,1152
1707,1313
1707,2235
1707,3097
1707,3885
1711,4341
1711,4571
1711,4669
1712,266
1712,2293
1716,1334
1716,1832
1718,1105
1718,1849
1719,464
1719,3345
1719,3518
1719,3655
1719,3858
1719,4279
1720,4623
1723,367
1723,610
1723,3558
1724,402
1724,1635
1726,194
1726,1700
1728,1045
1728,1054
1729,2014
1729,4648
1730,547
1730,876
1730,2357
1730,2420
1730,2890
1730,3045
1731,743
1731,4173
1733,491
1734,108
1734,1968
1736,94
1736,1030
1736,3956
1736,4455
1736,4979
1739,845
1739,4158
1741,3693
1742,85
1742,2185
1744,108
1744,478
1744,2880
1745,849
1745,1667
1745,3427
1749,1732
1749,3990
1749,4367
1750,364
1752,461
1752,935
1752,1133
1752,2227
1752,4172
1752,4674
1753,101
1753,140
1753,207
1753,596
1753,958
1753,4197
1753,4289
1754,46
1755,397
1755,1802
1755,2002
1759,726
1759,2816
1759,3248
1759,4087
1759,4206
1762,1652
1763,1481
1763,2298
1763,3131
1764,23
1764,3104
1764,3800
1764,3840
1765,661
1767,2492
1769,8
1771,314
1771,949
1771,1382
1771,2424
1771,2848
1771,2889
1771,2948
1771,3461
1771,3974
1771,4299
1771,4557
1771,4671
1771,4939
1773,4870
1775,1135
1777,2822
1778,268
1778,2194
1779,356
1779,2813
1781,90
1781,659
1781,1439
1781,1747
1781,2107
1781,2286
1781,2614
1781,4177
1782,2221
1783,3713
1784,296
1785,2227
1787,464
1787,4100
1791,3119
1791,3264
1791,3555
1791,4615
1792,46
1792,3460
1792,4339
1794,1468
1794,1547
1794,2846
1795,85
1795,2081
1795,3054
1796,180
1803,620
1806,1526
1806,4209
1808,2871
1811,960
1811,1037
1811,1698
1811,4962
1815,2125
1815,4023
1816,57
1816,102
1816,229
1816,1072
1817,186
1818,857
1819,2251
1824,2715
1825,23
1825,105
1825,605
1825,620
1825,1124
1825,1573
1825,3012
1825,3104
1825,4321
1825,4866
1826,1946
1827,1
1827,250
1827,1045
1827,1379
1828,2803
1828,3516
1828,3875
1829,1578
1831,1698
1832,2128
1833,1780
1835,27
1835,56
1835,104
1835,1228
1835,3741
1838,3410
1838,4958
1840,436
1840,1314
1843,3348
1845,3097
1849,64
1849,262
1849,605
1849,1202
1849,1955
1851,331
1853,51
1854,1496
1854,2703
1854,4810
1855,3651
1856,1542
1856,4711
1862,620
1863,3289
1864,795
1864,1091
1864,1349
1864,1403
1864,1780
1864,1886
1864,2130
1864,2558
1864,2638
1864,2892
1864,3732
1864,3950
1864,4081
1866,588
1866,4006
1866,4484
1866,4640
1868,1427
1868,2559
1868,4115
1869,33
1869,316
1869,3426
1869,3489
1869,3745
1870,1257
1870,2139
1870,2935
1870,3261
1872,3560
1873,1613
1873,2784
1874,1125
1874,2115
1874,2995
1874,4320
1875,2210
1875,2527
1877,167
1877,4346
1877,4784
1879,786
1879,834
1879,1560
1879,1574
1879,2100
1879,3066
1879,3563
1881,8
1882,1531
1882,1638
1882,2247
1883,105
1884,1258
1887,216
1887,436
1887,958
1887,1541
1887,2848
1887,3105
1887,4181
1891,4701
1892,17
1892,272
1892,3300
1892,3713
1894,186
1894,584
1894,1522
1894,3323
1896,139
1896,416
1896,1444
1897,735
1897,1021
1897,3097
1897,3331
1897,3755
1902,1149
1903,901
1905,4461
1905,4780
1906,293
1906,1954
1906,3889
1907,2074
1908,101
1908,701
1912,465
1912,2247
1913,2394
1915,1332
1916,1293
1916,1365
1919,664
1920,516
1920,2345
1921,1812
1922,416
1923,1551
1923,2490
1926,140
1926,4873
1930,910
1931,2596
1932,96
1932,4209
1933,1021
1933,3097
1935,1097
1935,4932
1936,3104
1937,2298
1937,3552
1938,2082
1940,109
1940,124
1940,668
1940,1270
1940,1314
1940,4398
1943,464
1943,1559
1943,2803
1943,3097
1943,4813
1944,53
1944,2981
1944,4460
1944,4910
1945,2607
1946,1893
1946,2662
1947,503
1947,4870
1948,14
1950,7
1950,17
1950,465
1950,701
1950,883
1950,1129
1950,1169
1950,1587
1950,2363
1950,2399
1950,2418
1950,2540
1950,3060
1950,3257
1950,3779
1950,3862
1950,4064
1950,4079
1950,4285
1950,4474
1950,4729
1951,3565
1952,1379
1952,2247
1956,1145
1956,1269
1956,1609
1956,4972
1960,8
1960,366
1960,970
1960,974
1960,2662
1960,4352
1961,2280
1962,2914
1964,544
1964,1865
1964,2255
1965,2664
1966,1157
1967,4761
1969,32
1972,512
1973,167
1973,461
1973,516
1973,962
1973,1238
1973,2684
1973,2894
1973,3259
1973,3336
1973,3747
1973,3777
1973,3803
1973,4288
1973,4519
1973,4991
1974,1222
1974,4115
1974,4214
1975,3116
1976,267
1976,386
1976,693
1976,1379
1976,2346
1976,4209
1978,2523
1983,109
1983,3504
1983,4271
1984,17
1984,837
1984,2517
1984,4423
1985,3397
1986,849
1987,1029
1987,1297
1987,3661
1988,2286
1988,2579
1988,4509
1994,85
1994,512
1994,1574
1996,64
1996,3118
1996,3336
2001,893
2001,2900
2002,159
2002,186
2002,232
2002,267
2002,372
2002,1816
2002,2692
2002,2715
2002,4138
2004,18
2004,2835
2005,1332
2005,2817
2006,3717
2008,1834
2008,2441
2009,4158
2010,547
2011,787
2011,1958
2011,4852
2012,2065
2012,4906
2016,512
2017,207
2017,2286
2019,2436
2019,3189
2021,1412
2022,367
2022,1403
2023,394
2023,482
2023,2397
2023,3924
2024,476
2024,477
2024,2332
2025,46
2027,12
2027,523
2027,1085
2027,2181
2027,2436
2027,3030
2027,3289
2028,747
2029,576
2030,1432
2030,2071
2030,2336
2030,3802
2031,4331
2034,350
2035,167
2035,661
2035,2869
2035,2921
2037,183
2037,3414
2040,129
2040,824
2040,2819
2040,3238
2040,4753
2042,825
2044,2807
2046,701
2046,1764
2047,168
2047,416
2048,459
2048,3796
2049,163
2049,686
2049,1997
2050,733
2051,85
2052,677
2053,701
2053,1332
2053,4004
2055,101
2060,2074
2061,2568
2061,4115
2064,701
2065,1708
2068,1479
2069,88
2069,350
2069,441
2069,536
2069,1888
2069,2014
2069,3081
2069,3802
2069,3920
2072,1655
2074,2728
2074,4509
2076,1895
2076,3260
2076,4148
2076,4756
2079,535
2082,464
2082,3688
2082,4735
2083,4342
2088,4078
2090,773
2091,4189
2092,372
2092,765
2092,1076
2095,474
2095,1156
2096,1747
2097,436
2097,665
2097,1440
2097,2517
2098,391
2098,482
2098,603
2098,770
2098,1719
2098,2532
2098,2773
2099,2256
2101,1678
2102,4757
2103,1037
2103,2899
2104,677
2104,1141
2104,2345
2105,1888
2105,3247
2106,101
2106,690
2106,3225
2106,4163
2106,4569
2108,1777
2108,2725
2110,3097
2111,610
2111,624
2111,644
2111,1028
2111,1698
2111,3482
2111,3834
2111,3886
2111,4727
2114,1075
2114,1502
2114,2813
2114,3858
2114,4384
2117,3826
2121,3828
2121,3995
2124,1858
2125,753
2125,2607
2126,661
2126,4877
2127,3158
2127,4440
2129,2078
2132,605
2132,2813
2133,593
2133,4987
2135,706
2135,934
2136,1157
2138,794
2138,4394
2139,1340
2140,1197
2141,1398
2141,2494
2141,2607
2141,2756
2145,508
2146,81
2146,1168
2146,1720
2147,466
2147,720
2147,1289
2147,2756
2147,3147
2147,3373
2147,3399
2148,334
2150,3
2151,624
2151,1865
2151,1979
2151,1999
2151,3537
2151,4987
2152,1403
2152,1521
2152,4364
2155,786
2157,523
2160,142
2162,22
2162,949
2162,3352
2164,84
2164,145
2164,730
2165,13
2165,292
2165,319
2165,525
2165,660
2165,1181
2165,1285
2165,1362
2165,1721
2165,1735
2165,1761
2165,3802
2165,4331
2165,4963
2170,2880
2171,361
2171,510
2171,1382
2173,668
2173,741
2173,4509
2174,683
2175,3220
2175,3464
2178,206
2179,4
2180,864
2180,1119
2180,3949
2180,4608
2182,389
2182,1655
2182,2736
2182,2871
2182,3567
2185,1125
2185,1504
2185,2395
2185,2950
2185,3485
2185,4572
2186,142
2186,745
2187,3116
2188,23
2188,434
2188,2805
2188,4956
2190,207
2191,2555
2195,3
2195,859
2195,983
2195,1628
2195,4213
2196,3661
2197,54
2198,1467
2198,3388
2198,3767
2198,3874
2200,2247
2200,2627
2200,3118
2201,445
2202,5
2202,1467
2202,2657
2205,427
2206,146
2206,2168
2206,3845
2206,4434
2207,1171
2207,2759
2207,3337
2207,4090
2208,1091
2209,2490
2209,2593
2213,394
2213,1332
2214,1554
2214,1814
2214,4329
2216,4735
2218,1398
2218,2555
2219,1145
2219,4109
2223,3705
2224,141
2224,1267
2224,4514
2225,196
2225,319
2225,2660
2225,3288
2225,4274
2226,1700
2226,1846
2227,4431
2228,3097
2228,3819
2229,56
2229,57
2229,167
2229,454
2229,2248
2230,32
2231,1698
2231,2147
2231,2614
2231,2666
2232,1495
2234,2492
2236,1382
2238,142
2238,803
2238,1157
2238,3171
2239,544
2239,4735
2242,57
2242,2679
2243,22
2243,1159
2246,76
2246,845
2247,215
2248,1286
2248,1646
2248,1842
2248,3217
2248,3225
2248,3488
2248,4577
2249,1088
2249,1761
2249,2070
2249,3110
2250,397
2250,1183
2253,3024
2253,4203
2254,1539
2259,239
2260,2655
2260,4701
2261,1379
2261,3564
2261,4518
2262,163
2263,943
2263,2757
2264,610
2266,1167
2268,328
2270,4
2270,284
2270,338
2270,436
2270,868
2270,1200
2270,1453
2270,2269
2270,2301
2270,2809
2270,2908
2270,3388
2270,3401
2270,3754
2270,4901
2271,51
2271,4162
2272,1529
2273,741
2273,1761
2274,1015
2274,3410
2275,690
2278,1721
2279,620
2279,916
2279,3918
2284,95
2284,331
2284,2222
2285,267
2285,773
2286,224
2286,308
2286,778
2286,841
2286,1303
2286,1557
2286,1821
2286,2004
2286,2216
2286,2330
2286,2446
2286,2579
2286,3114
2286,3173
2286,3515
2286,4363
2286,4485
2286,4676
2288,4468
2289,4286
2290,430
2291,2120
2291,4209
2292,4568
2296,181
2296,787
2298,57
2298,1279
2298,1878
2298,2756
2298,4376
2299,123
2302,982
2303,1280
2304,4427
2305,54
2305,201
2305,236
2305,786
2305,2294
2305,2440
2305,2701
2305,3496
2305,4812
2306,85
2306,267
2306,713
2306,3104
2307,414
2307,2000
2307,2251
2308,4509
2309,102
2309,338
2309,592
2309,1125
2309,1899
2309,3636
2309,4454
2310,3097
2310,3494
2314,18
2314,329
2314,792
2314,1880
2314,2210
2314,3097
2314,3990
2314,4001
2315,409
2315,1698
2315,2517
2318,3097
2319,443
2319,1406
2319,3053
2319,3358
2319,3979
2319,4238
2319,4332
2319,4496
2320,1538
2320,2706
2321,3038
2322,1516
2322,4078
2324,344
2324,2176
2325,5
2325,1379
2326,1322
2327,4431
2327,4820
2328,60
2328,4018
2329,604
2330,604
2330,1114
2331,1459
2332,502
2332,895
2334,1883
2335,76
2338,53
2339,4806
2340,4823
2341,3684
2342,2823
2342,3742
2344,1154
2347,101
2348,69
2348,84
2348,87
2348,782
2348,824
2348,1077
2348,1086
2348,1360
2348,3483
2348,4331
2348,4742
2349,2611
2349,4629
2350,258
2350,598
2350,1573
2350,2184
2350,3931
2350,4209
2354,2981
2355,1334
2356,3289
2356,3343
2360,3289
2361,698
2361,1526
2361,2676
2361,3596
2362,293
2363,1083
2363,1503
2365,2006
2365,2210
2367,383
2367,2247
2367,4579
2368,269
2368,1145
2368,3672
2369,201
2369,383
2369,979
2369,1382
2369,2784
2369,3390
2369,4213
2369,4721
2370,3773
2370,3841
2372,3996
2373,773
2373,859
2374,4633
2375,1846
2377,461
2378,1320
2378,4170
2379,247
2379,3399
2381,3081
2381,3803
2383,105
2384,109
2388,1048
2388,1444
2388,4701
2389,1028
2389,3899
2390,12
2391,962
2392,1655
2393,4648
2395,23
2395,229
2396,328
2396,608
2398,350
2400,4927
2401,2913
2401,2980
2402,465
2402,2525
2403,1850
2405,1050
2405,4371
2406,167
2406,207
2406,355
2406,729
2406,1011
2406,1179
2406,1589
2406,1898
2406,2105
2406,2358
2406,3289
2407,4
2407,1127
2408,366
2408,465
2410,2194
2411,1578
2411,1895
2412,564
2412,773
2413,2726
2415,1055
2416,3713
2417,1573
2418,32
2418,101
2418,119
2418,356
2418,474
2418,1018
2418,1395
2418,1635
2418,2437
2418,2503
2418,3937
2418,4775
2419,409
2420,1284
2423,1591
2423,1770
2426,1410
2426,3857
2426,4966
2427,201
2427,1578
2428,4900
2429,142
2429,165
2429,824
2429,2701
2429,4633
2431,109
2431,2786
2431,4181
2432,393
2433,441
2435,389
2435,1048
2435,1526
2435,1536
2435,2826
2436,3097
2438,22
2438,180
2438,224
2438,414
2438,532
2438,588
2438,599
2438,1997
2438,2300
2438,2827
2438,3095
2438,3246
2438,3990
2438,4036
2442,747
2442,2165
2442,2281
2442,2586
2442,4761
2443,180
2443,3044
2444,258
2444,599
2444,1028
2449,2664
2450,350
2453,293
2456,2020
2459,224
2459,278
2459,782
2459,1367
2459,3232
2459,4237
2459,4345
2460,356
2460,429
2460,4253
2463,1879
2464,730
2464,826
2464,1494
2464,1557
2465,397
2465,693
2466,743
2466,2871
2467,215
2468,482
2469,3826
2469,4932
2471,1955
2471,3219
2473,236
2473,4384
2474,66
2476,962
2481,1802
2482,85
2482,934
2482,1578
2482,2340
2482,2441
2482,3097
2482,3540
2482,3763
2482,4211
2482,4935
2482,4943
2483,464
2484,4712
2485,284
2487,1138
2487,1492
2488,587
2488,2358
2489,780
2489,3097
2491,267
2492,2000
2492,4192
2492,4762
2495,399
2497,4742
2500,119
2501,3826
2503,95
2504,660
2509,1048
2509,3888
2510,1329
2510,1850
2510,2842
2510,3679
2511,1382
2511,3645
2515,2608
2517,319
2517,770
2517,2108
2519,1573
2519,2074
2519,4379
2520,8
2522,686
2523,4115
2524,1334
2524,1524
2524,1934
2524,2074
2524,2756
2524,4115
2524,4535
2525,1789
2525,2924
2525,4329
2526,409
2526,1223
2526,2109
2526,3825
2527,1075
2527,1579
2528,8
2529,4742
2530,1283
2531,485
2532,1786
2533,114
2534,194
2534,981
2534,3518
2536,364
2536,1698
2536,4077
2537,1269
2537,2938
2538,895
2539,536
2541,224
2544,626
2544,2286
2545,23
2545,1055
2545,2170
2546,23
2546,2199
2548,110
2548,974
2549,1276
2550,366
2551,4362
2552,180
2552,1955
2552,2959
2553,1379
2553,4827
2554,860
2558,1139
2562,1573
2565,1637
2565,4317
2565,4342
2566,236
2566,1578
2566,3981
2567,2103
2570,1514
2571,939
2571,943
2571,2227
2571,2566
2571,3453
2571,4427
2572,342
2572,381
2572,409
2572,477
2572,1398
2572,1458
2572,1487
2572,3301
2572,3591
2572,4279
2574,1914
2574,4599
2576,169
2576,2242
2578,1585
2578,3729
2580,4114
2580,4134
2581,1165
2581,2532
2583,328
2585,786
2585,1018
2585,2879
2586,725
2587,2516
2590,803
2591,27
2591,1209
2591,2517
2592,1037
2592,2100
2594,334
2595,128
2595,4408
2598,1110
2600,529
2600,2194
2600,2688
2601,789
2601,980
2601,1054
2601,1076
2601,2412
2601,4992
2602,2338
2604,241
2604,4049
2604,4905
2605,3180
2608,4224
2609,2663
2610,1350
2613,3119
2615,1534
2615,2190
2615,3388
2615,3988
2616,497
2616,1320
2618,822
2622,1897
2623,2376
2623,4115
2625,384
2625,786
2625,4701
2626,102
2626,2698
2628,2241
2630,80
2631,2075
2633,1379
2634,3096
2635,2211
2636,1522
2636,4360
2637,3890
2639,81
2639,1492
2639,1950
2640,4
2640,3006
2641,2163
2642,3039
2645,641
2647,338
2648,54
2648,81
2648,1761
2649,1101
2650,3
2650,1076
2650,2215
2650,2267
2650,3138
2651,94
2651,1640
2654,366
2656,728
2656,1276
2657,394
2657,2463
2657,3669
2657,4812
2658,792
2658,2870
2659,431
2659,786
2659,1415
2659,3849
2659,4509
2660,610
2660,3583
2661,137
2661,4607
2663,4088
2664,389
2664,864
2665,1579
2666,333
2668,2445
2668,4222
2670,4509
2671,1137
2671,1379
2671,2074
2671,2593
2671,3802
2672,2823
2675,741
2676,145
2677,101
2678,451
2678,1982
2680,780
2682,444
2682,735
2683,3672
2683,4124
2685,4630
2686,845
2686,1274
2686,1360
2687,2420
2690,1757
2690,4377
2691,364
2693,482
2693,1990
2694,340
2697,3665
2699,2803
2699,3028
2700,316
2700,1593
2700,3924
2701,210
2707,308
2709,2607
2710,1085
2710,1574
2714,5
2715,2948
2716,3045
2717,12
2717,3857
2719,673
2721,255
2721,4444
2722,85
2722,399
2722,1940
2725,598
2725,1503
2725,1955
2726,140
2727,860
2728,27
2728,932
2728,2078
2728,2163
2728,2731
2729,3089
2729,4115
2732,2893
2734,1710
2734,2247
2735,2283
2735,2733
2735,3182
2735,3693
2738,1133
2740,250
2740,544
2740,1095
2740,1434
2740,1870
2740,2084
2740,2414
2740,2555
2740,2607
2740,3639
2741,328
2742,1430
2742,1604
2742,3655
2744,3097
2744,4124
2746,185
2747,3243
2747,4823
2749,548
2749,624
2749,943
2749,1125
2749,1137
2749,2125
2749,2386
2751,424
2751,860
2751,1479
2751,4970
2754,1129
2755,1760
2755,3211
2755,3796
2755,4106
2756,196
2757,2526
2757,3568
2760,249
2760,435
2760,2363
2761,3097
2762,4194
2763,410
2763,885
2763,3829
2764,1303
2766,770
2767,83
2767,291
2768,2679
2769,1981
2771,447
2771,540
2771,769
2771,3619
2772,22
2775,1698
2776,4935
2779,678
2779,717
2779,1157
2779,1396
2779,1832
2779,2399
2779,2867
2779,3584
2779,4107
2782,2153
2783,455
2785,317
2785,3875
2787,216
2789,311
2789,2227
2791,57
2792,1317
2792,4079
2792,4400
2793,4
2793,482
2793,2841
2794,4905
2795,1127
2798,1152
2799,2923
2799,3713
2800,1583
2800,3234
2800,4115
2800,4147
2802,183
2802,2144
2802,2825
2802,2962
2802,3762
2802,4418
2802,4469
2807,974
2808,2797
2811,1394
2811,1610
2811,1635
2811,1805
2811,3154
2811,3611
2812,447
2815,1163
2815,4088
2817,2748
2818,2653
2820,1401
2820,2283
2820,4823
2821,3552
2822,4653
2823,163
2823,4003
2824,1522
2828,3097
2829,949
2830,584
2830,957
2830,2074
2830,2364
2830,2953
2830,3329
2830,3759
2830,3947
2830,4558
2831,1346
2834,2230
2835,4850
2836,5
2836,845
2836,1010
2836,1133
2836,1876
2836,3279
2836,3627
2836,4675
2837,735
2837,1468
2837,1612
2837,3290
2837,4526
2838,701
2840,1011
2840,3155
2840,4818
2842,4014
2843,399
2843,2082
2845,860
2845,4423
2846,842
2848,482
2849,2013
2849,3059
2853,685
2854,8
2854,756
2854,1545
2854,1911
2854,2902
2854,3202
2855,22
2855,424
2855,3890
2857,949
2857,1934
2857,3647
2858,241
2858,2698
2860,2641
2860,4484
2861,1591
2861,4520
2863,2192
2864,1385
2866,1327
2870,2626
2872,1696
2874,1050
2877,79
2877,794
2877,2180
2878,4078
2880,508
2880,1498
2880,2464
2880,3157
2880,3889
2880,4124
2880,4347
2881,544
2881,3322
2881,4648
2883,1526
2885,224
2886,1879
2887,3932
2888,2247
2888,4515
2896,1076
2896,1133
2896,4440
2898,143
2898,557
2898,580
2898,740
2898,2000
2901,890
2902,3401
2903,207
2903,3041
2903,3413
2904,104
2906,182
2906,4759
2909,1899
2909,3195
2911,1610
2915,1459
2915,1574
2915,1746
2915,2047
2915,2227
2915,2251
2915,2629
2915,2736
2915,2806
2915,2962
2915,3370
2915,4739
2915,4949
2916,699
2917,2000
2918,706
2918,1720
2919,2517
2920,1097
2921,1004
2921,3769
2921,4577
2922,394
2922,399
2922,1183
2922,4532
2923,1700
2923,3401
2925,2328
2926,2282
2927,4014
2928,151
2930,3432
2931,4661
2933,2126
2936,1897
2936,2056
2936,4014
2937,2625
2939,3054
2939,4521
2947,677
2947,3053
2947,3231
2947,3344
2947,3674
2948,919
2950,4209
2951,713
2952,884
2956,2103
2959,2982
2960,3560
2961,1715
2961,2114
2961,2351
2963,3027
2965,1772
2965,4019
2966,4
2968,180
2968,384
2969,3113
2969,3584
2970,659
2972,267
2972,2934
2973,1045
2975,1468
2975,2941
2976,445
2976,3469
2976,3516
2978,4209
2981,2479
2981,3357
2982,2045
2982,2134
2983,2267
2984,263
2984,301
2984,614
2984,2013
2984,2190
2985,974
2987,3373
2988,741
2991,183
2991,482
2991,2149
2991,2579
2991,3240
2991,3346
2991,3406
2991,3412
2991,3937
2991,4896
2992,2001
2992,3802
2992,4546
2997,2813
2998,88
2998,110
2998,735
2998,1812
2998,3817
2998,4224
2999,355
3000,659
3000,3522
3003,2555
3004,146
3004,367
3005,3555
3007,2898
3007,4812
3008,1807
3008,3400
3010,2403
3010,4201
3011,102
3011,599
3011,1530
3011,4630
3013,3802
3014,619
3014,1352
3014,2373
3014,3319
3014,3321
3014,3347
3016,482
3016,974
3016,1140
3016,1767
3016,2247
3016,3689
3018,706
3018,3304
3018,3942
3018,4051
3019,173
3019,1054
3020,1382
3022,289
3022,1934
3022,4088
3023,1119
3025,2603
3026,1579
3027,587
3027,2750
3029,701
3029,4825
3031,974
3031,1390
3033,94
3033,196
3033,384
3033,486
3033,713
3033,746
3033,1348
3033,1540
3033,2477
3033,2795
3033,3265
3033,3358
3033,3445
3033,4014
3033,4525
3033,4956
3034,258
3036,1643
3036,4166
3037,795
3038,3401
3038,3874
3039,2086
3040,1055
3040,2014
3041,661
3042,394
3042,430
3042,1463
3042,2289
3042,2696
3042,3312
3043,399
3043,4158
3046,68
3046,141
3046,409
3046,1510
3046,2283
3046,4294
3047,1269
3048,2856
3050,4743
3054,1379
3055,610
3055,690
3055,1140
3055,1272
3055,1765
3055,2289
3055,2373
3055,3212
3056,104
3056,267
3056,364
3056,673
3056,1066
3056,1125
3056,1346
3056,1743
3056,2719
3056,2907
3056,3398
3056,4213
3057,214
3058,230
3058,293
3058,3632
3063,328
3063,383
3063,1757
3063,2770
3063,3078
3063,3401
3063,4029
3063,4096
3063,4792
3063,4935
3065,180
3067,1158
3068,523
3069,394
3069,693
3069,2080
3069,3285
3070,414
3073,184
3073,2247
3079,180
3079,2876
3079,3752
3080,520
3080,994
3081,2478
3081,4870
3082,191
3082,247
3082,440
3082,3170
3082,3579
3082,3946
3083,53
3084,461
3084,547
3084,949
3084,1152
3084,4191
3085,3308
3086,1273
3088,194
3090,3061
3093,3826
3094,685
3094,2462
3094,4443
3097,1175
3099,46
3099,167
3099,267
3099,522
3099,865
3099,974
3099,1403
3099,1846
3099,1958
3099,2188
3099,2846
3099,2981
3099,3836
3099,4283
3099,4932
3100,1886
3102,512
3102,3135
3103,124
3104,2848
3106,1054
3107,604
3108,949
3111,4989
3112,1313
3112,3440
3113,1133
3116,72
3117,472
3117,542
3117,1028
3117,2399
3117,2780
3117,2825
3117,3175
3117,3308
3118,112
3118,1670
3118,2211
3120,701
3122,4823
3125,410
3125,4266
3126,17
3126,540
3126,1184
3126,1883
3126,2828
3126,4625
3127,1680
3127,2638
3128,3282
3128,3388
3128,4151
3129,2962
3130,329
3130,676
3130,826
3130,1833
3130,2923
3131,1880
3133,2669
3134,763
3136,1802
3139,1052
3139,1646
3139,3075
3139,3413
3139,4753
3144,1461
3145,3410
3146,1284
3146,3448
3146,3885
3149,17
3149,1482
3150,2664
3152,1245
3152,4076
3154,1521
3159,8
3165,4265
3165,4928
3166,12
3168,2505
3168,4444
3169,230
3169,1832
3170,80
3170,2358
3170,3509
3171,114
3171,1157
3172,7
3172,1283
3174,1521
3174,3265
3182,1086
3182,1635
3184,329
3184,1158
3186,3666
3186,4041
3186,4209
3190,293
3192,4769
3194,81
3194,3143
3196,2298
3197,985
3198,1498
3199,23
3199,139
3199,217
3199,329
3199,1534
3201,4124
3203,114
3203,1379
3204,54
3204,1532
3204,1836
3204,2111
3204,3143
3204,3713
3204,4248
3205,1403
3205,2751
3205,3302
3206,1982
3206,4509
3208,2298
3209,1152
3211,119
3211,523
3211,1846
3213,300
3216,32
3216,94
3216,1181
3216,1698
3216,1848
3216,1971
3216,2190
3216,2376
3216,2425
3216,2607
3216,3388
3216,3570
3216,3739
3216,4014
3216,4209
3216,4357
3216,4894
3218,2227
3218,4761
3221,101
3222,1463
3222,2333
3223,735
3224,2755
3224,2825
3225,1151
3225,1786
3225,2265
3225,2404
3226,85
3226,170
3226,267
3226,390
3226,650
3226,1207
3226,1242
3226,1369
3226,1874
3226,2168
3226,2276
3226,3051
3226,3097
3226,4634
3226,4659
3226,4696
3226,4739
3226,4785
3227,652
3228,4491
3230,2980
3233,2365
3235,1725
3236,1105
3236,2994
3236,3857
3239,985
3242,2137
3245,537
3245,1635
3248,1651
3248,3054
3250,4446
3251,2517
3253,13
3253,364
3253,1201
3253,1894
3253,2257
3253,2564
3253,2607
3253,2848
3253,4359
3253,4585
3253,4932
3254,3097
3254,4975
3255,1878
3256,587
3256,4286
3259,4559
3259,4754
3259,4958
3262,1652
3263,2770
3263,4020
3264,366
3265,85
3265,101
3265,797
3265,2653
3266,1175
3266,2168
3266,3328
3266,4395
3266,4870
3267,1606
3267,4253
3268,1573
3269,1055
3271,2295
3272,779
3274,2701
3276,2146
3277,935
3277,4654
3278,2014
3278,3446
3278,3796
3278,4079
3279,414
3279,596
3280,493
3280,717
3280,2247
3280,4649
3284,1844
3285,101
3287,177
3287,372
3288,706
3291,180
3291,1222
3291,2014
3293,1558
3293,1896
3293,3378
3293,3502
3294,102
3294,167
3294,180
3294,650
3294,770
3294,1760
3294,1997
3294,3104
3294,3714
3294,3790
3295,652
3296,2451
3296,4182
3300,2664
3302,3301
3306,101
3307,2373
3307,2810
3308,2244
3308,3725
3312,2014
3312,3187
3312,3984
3313,1076
3313,1105
3315,83
3315,257
3315,861
3315,1028
3315,1403
3315,1682
3315,2475
3315,2478
3315,3181
3316,2137
3317,183
3317,580
3317,1350
3317,1880
3317,3615
3317,3749
3317,4337
3318,2803
3319,1144
3320,84
3320,822
3320,2111
3320,2760
3320,3164
3320,4253
3320,4401
3320,4701
3324,3672
3327,1725
3330,8
3333,1557
3334,2825
3335,219
3335,4503
3339,1574
3341,2074
3342,23
3342,201
3342,393
3342,652
3342,673
3342,759
3342,773
3342,1799
3342,2131
3342,2241
3342,2496
3342,2575
3342,2660
3342,2813
3342,2941
3342,3369
3342,3739
3342,4571
3342,4679
3342,4916
3342,4982
3343,301
3343,730
3350,1578
3350,3080
3350,3932
3350,4427
3351,916
3353,2445
3355,773
3356,4870
3360,10
3361,1249
3362,3097
3363,2445
3365,410
3365,464
3365,1050
3365,1320
3365,3951
3365,4899
3366,93
3367,159
3368,1788
3370,233
3370,308
3370,1530
3370,1937
3370,2412
3370,2569
3370,2624
3370,2646
3370,3853
3370,4325
3370,4407
3370,4509
3371,239
3371,495
3371,1988
3374,1379
3375,3747
3376,1054
3376,1468
3379,3163
3379,4146
3380,291
3381,319
3383,3298
3387,207
3388,2813
3388,4209
3388,4868
3388,4876
3391,130
3392,1191
3392,3765
3392,3945
3394,1367
3395,3289
3396,2825
3397,240
3400,1699
3404,2803
3405,45
3405,94
3405,1245
3405,1291
3405,1851
3405,2154
3405,2193
3405,3101
3405,4853
3407,1242
3408,2941
3410,409
3410,731
3410,773
3410,1579
3410,1940
3410,2203
3410,2452
3410,3053
3410,3113
3410,3889
3411,3061
3411,3584
3412,96
3412,109
3412,174
3412,1578
3412,2543
3412,2556
3412,3323
3412,3703
3412,4215
3412,4217
3412,4989
3413,45
3414,94
3414,709
3416,3135
3417,85
3418,1812
3418,3808
3419,247
3419,1129
3419,3301
3420,753
3421,2502
3421,2543
3421,2581
3422,1758
3429,995
3429,4014
3429,4880
3430,694
3431,4411
3432,2257
3433,1958
3434,3666
3436,2423
3437,2137
3438,822
3438,2871
3438,4741
3439,935
3441,1518
3442,1056
3442,1516
3442,1714
3442,3045
3442,3738
3443,126
3443,3183
3444,2002
3445,932
3445,3539
3447,620
3447,1997
3450,180
3454,345
3454,3369
3456,54
3456,1797
3457,1890
3459,114
3460,770
3461,1152
3461,2750
3462,17
3462,685
3462,1048
3463,196
3463,2638
3463,2995
3465,1437
3466,792
3466,1814
3468,356
3470,3048
3470,4138
3472,694
3473,1412
3474,580
3474,4078
3478,91
3479,3977
3479,4248
3480,709
3484,3273
3486,2039
3492,22
3492,409
3492,771
3492,864
3492,910
3492,1382
3492,1530
3492,1710
3492,1720
3492,2144
3492,2394
3492,3475
3492,3672
3492,4078
3492,4646
3492,4923
3495,1842
3497,792
3499,854
3500,2652
3501,1379
3503,1129
3503,2013
3504,2865
3505,216
3506,1073
3506,4316
3506,4463
3506,4947
3507,4992
3508,435
3508,842
3510,64
3511,4509
3513,2674
3514,101
3518,1340
3518,1708
3518,1832
3518,2803
3518,3305
3518,3323
3518,3672
3518,4251
3518,4755
3519,1582
3521,2518
3529,486
3531,8
3534,1270
3535,2677
3536,536
3537,2671
3537,4258
3541,3505
3542,1597
3542,3282
3542,4535
3543,267
3545,3286
3545,4992
3546,1688
3546,2412
3546,3409
3547,4775
3548,3301
3548,4502
3549,3455
3549,3777
3550,57
3550,2059
3551,2312
3552,1996
3552,4623
3555,660
3557,1312
3557,1360
3559,1468
3560,3329
3560,4836
3563,465
3563,720
3563,1437
3563,3275
3563,3672
3565,2077
3566,3211
3567,4259
3568,3672
3568,4642
3571,10
3571,816
3571,2852
3571,2946
3572,518
3572,3903
3575,799
3578,140
3578,374
3578,424
3578,1998
3581,861
3582,3053
3582,4554
3582,4817
3585,131
3585,414
3585,576
3585,2002
3587,1157
3588,130
3588,627
3588,3401
3590,8
3591,4660
3593,3138
3593,3309
3594,1526
3595,1989
3596,409
3596,1152
3596,1970
3596,3656
3597,934
3598,328
3599,4742
3600,2047
3601,110
3601,620
3601,2725
3601,3794
3601,3886
3602,837
3603,465
3603,4831
3604,816
3605,102
3606,1480
3607,331
3608,443
3609,328
3610,2074
3612,1888
3614,96
3618,2657
3620,108
3623,85
3623,167
3623,465
3623,2797
3626,803
3629,2803
3631,3388
3631,3676
3631,3725
3631,3730
3632,46
3632,350
3632,1129
3632,2494
3632,2850
3632,2857
3632,3494
3632,4727
3634,2176
3635,792
3636,4018
3639,2905
3643,3583
3644,183
3645,188
3645,395
3645,1641
3645,2898
3646,364
3646,4115
3649,3163
3650,809
3650,4992
3654,1294
3658,2181
3658,3665
3658,4129
3660,3219
3663,284
3663,3739
3664,2713
3666,482
3667,2669
3667,4411
3668,3648
3672,726
3675,2941
3675,4757
3676,4509
3677,12
3678,2252
3681,591
3681,1191
3681,2380
3681,4066
3682,2986
3684,3027
3684,3110
3686,935
3687,4727
3688,2593
3690,3360
3691,430
3691,4394
3692,2363
3694,1346
3694,1390
3694,1445
3694,1930
3695,2006
3695,4838
3696,350
3696,2082
3696,4740
3697,157
3697,1836
3697,3594
3698,1356
3700,173
3700,202
3700,335
3700,665
3700,935
3700,1526
3700,3113
3700,4479
3700,4808
3700,4887
3704,949
3706,1904
3707,2074
3708,85
3709,148
3709,934
3710,1149
3710,2700
3712,1833
3718,3839
3718,4213
3718,4806
3720,17
3721,284
3721,4691
3722,1579
3723,943
3726,1360
3726,4453
3727,1727
3728,4887
3728,4942
3733,2247
3734,92
3734,422
3734,665
3735,1379
3736,2921
3737,3862
3737,4061
3739,148
3739,481
3739,1382
3739,1463
3739,2082
3739,3009
3739,3092
3739,3159
3739,3176
3739,3672
3739,3858
3740,186
3741,91
3744,1085
3747,1487
3748,167
3748,4752
3749,3300
3750,2424
3751,308
3752,474
3752,4014
3752,4209
3752,4530
3753,17
3756,1276
3756,1821
3757,542
3758,85
3758,478
3758,1121
3758,4667
3759,311
3759,949
3759,1258
3760,1573
3760,4977
3763,85
3763,169
3763,402
3763,1417
3763,2089
3763,2602
3763,2891
3763,3676
3763,4115
3764,3027
3768,1573
3768,4003
3768,4560
3770,1698
3771,598
3771,1304
3772,3570
3774,4394
3774,4451
3774,4479
3775,51
3777,3200
3777,4226
3778,1029
3780,1578
3781,1360
3781,1425
3781,1991
3781,2756
3781,4775
3782,2184
3783,215
3784,2582
3785,1290
3787,3231
3789,444
3791,2605
3792,2081
3792,3838
3795,2908
3797,1060
3797,2847
3799,1590
3802,2074
3804,1578
3805,4661
3809,822
3809,1610
3809,2701
3811,2247
3812,1547
3813,206
3814,1821
3814,3097
3814,4522
3814,4611
3815,870
3818,1125
3820,114
3820,276
3820,374
3820,1045
3820,1346
3820,1417
3820,2338
3820,2436
3820,3675
3821,138
3821,502
3821,4935
3822,1029
3822,2752
3822,3045
3822,3676
3823,1640
3824,770
3824,1054
3824,1382
3824,2731
3824,4285
3826,605
3828,1804
3828,3104
3831,194
3832,1678
3837,786
3837,1896
3842,1589
3843,3097
3844,12
3846,317
3846,698
3846,887
3846,1573
3846,1774
3846,2045
3846,2054
3846,4490
3846,4584
3847,2516
3847,2605
3848,23
3848,1928
3848,3135
3848,3301
3848,3538
3848,3803
3848,4072
3848,4764
3849,770
3851,464
3852,1382
3855,4550
3856,4088
3859,4509
3862,2224
3863,2682
3864,3566
3865,481
3866,3
3866,465
3866,2192
3866,4874
3867,1628
3868,3116
3869,1760
3870,177
3870,983
3870,1842
3870,2047
3870,3210
3870,4834
3872,3406
3876,713
3876,746
3876,1232
3876,1439
3876,1479
3876,1489
3876,1989
3876,2277
3876,3934
3876,4578
3879,2216
3879,4423
3880,2082
3882,4253
3882,4264
3882,4634
3884,441
3885,3140
3886,3494
3891,3984
3891,4237
3891,4864
3895,852
3896,3583
3897,941
3897,3544
3898,2959
3899,3398
3901,331
3901,1312
3902,2669
3904,2395
3906,293
3906,1140
3906,2813
3907,93
3907,2517
3907,3095
3908,796
3908,3332
3908,4363
3909,2112
3910,3345
3912,8
3912,542
3912,3672
3914,172
3915,818
3916,406
3916,1231
3916,1538
3916,3672
3918,1105
3918,3301
3919,641
3921,22
3923,1052
3924,4440
3925,795
3926,1947
3926,2210
3927,3666
3928,328
3928,610
3929,895
3933,4823
3936,1412
3937,224
3939,27
3939,206
3939,3244
3941,2795
3943,1430
3947,1937
3948,4036
3952,18
3953,2032
3954,2664
3955,2505
3955,4118
3957,5
3958,1772
3960,4232
3960,4509
3963,4932
3964,1953
3966,2507
3967,2130
3967,4294
3968,3401
3969,687
3969,820
3969,2237
3969,2503
3969,2594
3969,2949
3970,717
3971,1764
3972,482
3974,2770
3975,393
3977,1698
3978,2054
3980,2399
3983,180
3986,2728
3987,2660
3990,1798
3990,4120
3992,81
3992,2074
3992,3312
3993,2513
3994,1077
3996,180
3997,2125
3998,2871
3999,264
3999,2593
3999,3388
4000,3298
4002,10
4002,229
4002,291
4002,758
4002,1476
4002,1949
4005,1340
4005,1486
4007,85
4007,515
4007,793
4007,2139
4008,356
4008,2001
4009,4503
4010,183
4010,1698
4011,824
4012,259
4012,331
4012,632
4012,3455
4012,4224
4012,4329
4013,2674
4014,934
4015,22
4015,1489
4015,3460
4015,3828
4016,1628
4017,85
4018,2013
4019,46
4019,367
4019,2662
4019,4855
4020,861
4021,10
4021,2352
4021,2836
4022,22
4022,502
4022,1112
4022,1663
4022,2015
4023,548
4025,105
4027,150
4027,545
4027,1076
4027,1352
4027,1451
4027,1521
4027,1738
4027,2013
4027,2091
4027,2094
4027,2603
4027,4401
4027,4440
4028,859
4028,4480
4030,66
4031,262
4032,2108
4034,482
4035,350
4039,3701
4040,2977
4042,3358
4043,194
4043,4291
4043,4775
4044,651
4044,1191
4044,3104
4044,3461
4044,3467
4044,3702
4044,4177
4044,4239
4044,4751
4045,864
4046,895
4047,2386
4048,4916
4049,860
4049,4095
4050,1360
4050,1604
4053,414
4053,1556
4053,4117
4054,844
4056,1200
4059,340
4059,356
4060,282
4060,447
4060,1272
4060,3097
4060,3567
4061,5
4061,181
4061,224
4061,677
4061,922
4061,1054
4061,1384
4061,2839
4061,2979
4061,3221
4061,3412
4061,3435
4061,4213
4062,2298
4065,1629
4067,17
4069,516
4070,818
4073,4431
4074,150
4074,1010
4074,1445
4074,1512
4074,1700
4074,2074
4074,3053
4074,4633
4074,4882
4075,1801
4078,94
4080,188
4082,3154
4083,1612
4083,1682
4085,184
4085,1578
4085,3273
4085,4550
4086,4286
4087,3796
4088,8
4088,2957
4088,3243
4088,3482
4089,409
4089,1889
4091,3098
4092,2227
4093,995
4094,138
4097,1201
4098,2108
4099,982
4101,85
4102,2756
4104,10
4104,532
4104,1313
4104,1554
4104,2898
4104,3494
4104,3962
4104,4746
4104,4943
4104,4954
4105,2387
4108,241
4110,2146
4111,686
4114,4770
4115,4072
4116,1881
4119,3624
4123,2125
4124,1808
4125,4117
4126,1313
4130,2637
4132,2233
4133,108
4133,206
4133,685
4134,443
4134,2750
4136,2851
4137,618
4138,1114
4139,4014
4143,108
4145,549
4145,1276
4145,1879
4147,27
4148,8
4148,652
4148,1722
4148,2492
4148,3970
4148,4890
4150,3413
4152,3097
4154,1530
4154,4902
4156,3798
4157,2147
4158,96
4159,1054
4160,2199
4161,17
4161,2403
4161,3053
4161,3296
4161,3973
4162,2797
4168,2891
4168,4335
4169,1532
4172,27
4172,1514
4172,1538
4172,2856
4174,1447
4174,3640
4175,982
4175,1409
4175,1667
4175,1691
4175,4127
4176,2245
4178,270
4178,911
4178,1077
4178,2117
4178,2870
4178,3273
4178,3747
4178,3887
4178,4259
4178,4503
4179,729
4179,2902
4180,3922
4183,1635
4183,2191
4184,409
4184,3639
4185,3244
4186,2014
4186,2465
4186,3346
4187,4120
4188,1332
4190,12
4190,2123
4190,2436
4190,4837
4193,1028
4193,4171
4195,4965
4196,2871
4198,1496
4202,1928
4203,32
4204,181
4207,8
4208,1180
4209,1165
4210,3848
4218,735
4219,751
4223,4972
4225,673
4226,3552
4227,1954
4227,4353
4228,743
4228,1816
4228,2582
4228,4018
4229,2725
4230,3675
4231,408
4233,4209
4234,1934
4235,1127
4235,2703
4235,4362
4238,1578
4238,3283
4238,3978
4238,4865
4238,4943
4240,2700
4240,3410
4241,17
4243,2154
4244,1574
4245,402
4245,4632
4246,2227
4247,1332
4247,2440
4248,3937
4249,4059
4250,461
4250,1909
4250,2192
4255,452
4256,2091
4256,2170
4256,3816
4259,482
4260,619
4263,2745
4264,347
4264,380
4264,2251
4264,2712
4266,2572
4267,680
4269,339
4272,447
4274,3140
4274,3270
4274,3285
4274,3491
4274,3807
4275,2667
4275,2989
4276,3174
4278,18
4278,3401
4278,3826
4278,4162
4282,4935
4284,359
4284,476
4286,22
4287,182
4288,461
4288,4598
4289,141
4289,389
4289,1396
4289,1555
4289,1727
4289,1740
4289,1830
4289,2770
4289,2929
4289,3185
4290,163
4291,2651
4291,3301
4292,2835
4293,3301
4293,4311
4295,291
4295,4491
4296,3412
4297,844
4297,4668
4298,91
4298,1101
4298,1299
4298,2422
4298,2621
4298,2895
4298,3153
4298,3300
4298,4353
4298,4416
4300,3773
4301,1479
4302,465
4305,1141
4305,2001
4305,4598
4308,4633
4309,1883
4312,3282
4313,3796
4313,4518
4314,3360
4315,2289
4317,1761
4319,160
4319,584
4319,628
4319,2074
4319,2199
4319,2825
4319,4284
4323,2891
4324,3956
4325,1958
4326,1888
4327,2962
4328,1129
4330,180
4331,935
4333,4928
4336,2765
4337,1190
4337,1497
4337,2093
4337,2256
4337,2579
4337,2757
4337,2803
4337,2943
4337,3990
4337,4701
4338,23
4338,1138
4338,2880
4340,87
4340,348
4340,936
4340,1099
4340,1139
4340,1628
4340,2440
4341,1823
4342,1578
4342,2523
4344,57
4344,119
4344,339
4344,444
4344,781
4344,995
4344,1056
4344,1140
4344,1198
4344,2122
4344,2293
4344,2612
4344,2962
4344,3104
4344,3258
4344,3592
4344,3672
4344,3961
4344,4242
4344,4477
4344,4503
4348,69
4351,364
4354,3481
4355,447
4356,1619
4356,4978
4358,1396
4360,3841
4361,2786
4365,3826
4367,262
4367,2962
4367,4066
4368,4162
4372,1604
4374,1058
4378,131
4378,180
4378,693
4378,829
4378,2386
4378,3493
4381,1018
4381,3481
4381,4557
4382,22
4383,512
4385,340
4385,3583
4386,1498
4388,3385
4389,1158
4390,46
4390,91
4390,951
4390,1492
4390,3933
4390,4205
4391,4196
4392,394
4393,2385
4394,267
4396,3333
4396,4448
4397,795
4397,4618
4399,2512
4401,2503
4402,4943
4403,3871
4404,1629
4405,4761
4406,641
4409,2233
4410,600
4411,1326
4412,32
4412,497
4412,500
4412,1181
4412,1382
4412,2122
4412,2123
4412,2412
4412,2458
4412,3693
4412,3702
4412,4037
4413,72
4413,441
4413,795
4413,2249
4413,2944
4413,4900
4414,2373
4415,512
4417,660
4418,430
4418,2343
4419,2607
4420,1099
4421,1461
4424,90
4424,1139
4424,3871
4425,3793
4426,269
4426,1180
4426,2666
4426,2706
4426,3039
4426,3743
4426,3836
4426,4432
4427,2660
4428,255
4428,610
4428,715
4428,1076
4428,1683
4428,2147
4428,2183
4428,2216
4428,2858
4428,3413
4428,3432
4428,4518
4428,4739
4428,4955
4428,4992
4431,3713
4433,3413
4437,465
4438,4451
4439,3184
4440,1417
4441,1007
4444,443
4446,2224
4447,510
4449,124
4449,207
4449,293
4449,374
4449,460
4449,1332
4449,1417
4449,1644
4449,2062
4449,2357
4449,2660
4449,3071
4449,3218
4449,4115
4449,4375
4450,267
4452,314
4454,195
4454,340
4454,958
4454,2074
4456,3118
4457,2013
4458,3583
4459,1554
4459,1611
4459,4589
4462,1058
4462,4222
4464,2087
4465,3138
4466,523
4466,1622
4468,232
4468,3747
4470,482
4471,177
4471,183
4471,394
4471,1812
4471,3182
4471,3279
4472,1135
4472,4536
4473,1138
4474,2805
4475,1141
4476,3894
4477,2608
4478,1293
4484,465
4485,1625
4486,2827
4487,12
4487,1058
4489,94
4489,834
4489,3224
4489,3446
4491,4018
4493,4362
4494,4303
4497,2109
4498,4968
4499,414
4499,3017
4499,4444
4500,3828
4504,2914
4505,3382
4508,3098
4509,706
4509,2416
4511,191
4512,751
4513,900
4513,3594
4513,4648
4515,1432
4515,1833
4515,2227
4515,3583
4515,3860
4515,4929
4516,3270
4521,1942
4524,1573
4524,4850
4527,1814
4529,1805
4531,2499
4532,1838
4532,2194
4533,126
4533,232
4533,1492
4533,1648
4533,1883
4533,2669
4533,4261
4533,4373
4534,146
4535,1955
4537,345
4538,331
4538,936
4538,1522
4538,1886
4538,2673
4538,3301
4538,3866
4541,4216
4542,1083
4542,4594
4545,183
4547,1538
4547,3552
4548,1752
4549,8
4549,184
4549,696
4550,1004
4553,1388
4555,2253
4558,403
4558,1058
4558,1934
4558,2074
4558,3965
4558,4957
4559,1323
4559,1511
4559,2156
4559,3518
4561,540
4563,316
4564,3001
4565,2247
4566,150
4568,4660
4569,1992
4570,956
4571,620
4571,664
4571,1937
4571,3630
4574,4012
4575,1517
4580,3402
4581,2247
4582,181
4583,414
4584,2382
4586,4283
4587,2071
4588,3596
4589,1595
4591,2247
4592,3555
4593,22
4593,416
4593,1761
4594,128
4594,140
4594,151
4594,236
4594,267
4594,424
4594,482
4594,741
4594,743
4594,781
4594,818
4594,854
4594,910
4594,1185
4594,1253
4594,1476
4594,1646
4594,1942
4594,1953
4594,2607
4594,2681
4594,2715
4594,3178
4594,3532
4594,3959
4594,4088
4594,4220
4594,4666
4596,255
4597,522
4601,1943
4602,394
4603,207
4603,2457
4604,792
4604,1156
4605,2506
4612,23
4612,76
4613,1379
4613,4647
4615,654
4616,2891
4617,394
4617,3054
4619,319
4619,547
4619,819
4619,1373
4619,1802
4619,3786
4619,3917
4620,219
4620,796
4621,4480
4622,1262
4623,1409
4623,2431
4623,4343
4626,4020
4627,744
4628,887
4628,3415
4629,4823
4630,2082
4633,1127
4633,1798
4633,2217
4633,3191
4633,3338
4633,3987
4633,4636
4633,4942
4634,958
4635,2506
4639,163
4640,3177
4641,4972
4643,1587
4645,844
4645,2004
4645,2247
4646,3841
4648,291
4648,2479
4650,685
4652,449
4655,1574
4656,482
4658,3273
4659,1403
4660,4306
4661,56
4661,243
4661,652
4661,1648
4661,4248
4661,4992
4661,4995
4664,80
4664,393
4664,421
4664,860
4664,1555
4664,1589
4664,1713
4664,4209
4664,4342
4664,4701
4665,284
4668,673
4668,1304
4668,1979
4668,2289
4668,3886
4669,2560
4670,3777
4672,203
4672,522
4672,1382
4672,3217
4677,3676
4678,203
4678,280
4678,2272
4679,1814
4680,2666
4680,4781
4681,1953
4682,22
4683,340
4683,494
4683,1332
4683,1403
4683,3586
4683,4509
4683,4609
4684,8
4686,364
4687,1332
4688,2805
4689,3102
4689,3308
4689,4660
4690,3053
4692,1574
4694,770
4697,2241
4698,2021
4699,1492
4704,652
4705,224
4706,3672
4708,4972
4709,3740
4710,1296
4712,773
4712,1457
4712,1772
4712,3017
4712,4796
4713,230
4714,1982
4715,3858
4716,56
4717,345
4718,340
4719,1045
4721,4870
4722,2093
4723,1280
4724,389
4725,3801
4726,4124
4727,208
4727,1909
4728,3773
4729,4422
4730,879
4730,4992
4731,1612
4732,1735
4733,620
4734,3397
4736,84
4736,243
4736,271
4736,610
4736,2603
4736,2796
4736,3625
4736,3726
4736,4024
4736,4498
4736,4937
4737,1530
4738,3097
4738,4769
4739,419
4739,3878
4740,449
4740,537
4740,874
4740,1940
4740,2739
4740,3109
4740,3292
4742,1283
4743,1982
4743,2416
4743,2671
4744,232
4745,3319
4746,1002
4747,4273
4748,512
4749,1076
4750,1551
4751,340
4751,544
4751,1841
4751,3361
4751,4221
4753,529
4758,3356
4760,4273
4761,3676
4763,2813
4768,445
4771,4041
4772,4362
4773,916
4774,605
4775,3874
4776,1198
4777,1273
4777,1530
4777,2593
4777,3105
4777,4816
4778,32
4779,3253
4782,4088
4783,1440
4784,128
4786,773
4786,2267
4786,4972
4787,673
4790,1490
4791,2954
4791,4960
4794,1982
4795,81
4795,537
4795,3435
4797,27
4798,4615
4799,399
4799,3712
4800,523
4803,3583
4804,2555
4806,109
4809,1127
4811,18
4811,56
4811,186
4811,230
4811,725
4811,967
4811,974
4811,1180
4811,1536
4811,1648
4811,1917
4811,3098
4811,4261
4811,4590
4811,4610
4812,701
4812,2962
4813,4270
4815,618
4815,3143
4816,4932
4818,2172
4821,2825
4824,207
4824,2458
4826,226
4826,3438
4829,2033
4832,585
4832,818
4832,1179
4832,2013
4833,1028
4834,4560
4835,3713
4838,1542
4839,262
4840,1004
4841,4115
4842,604
4844,1610
4844,1925
4844,2143
4844,2242
4844,3220
4844,3826
4844,4634
4844,4868
4845,1058
4846,66
4846,1035
4846,3451
4849,4
4851,332
4854,445
4856,1720
4859,1928
4859,3672
4861,3637
4862,1900
4863,3705
4866,157
4869,1713
4870,1248
4870,1589
4872,4268
4875,2606
4877,464
4881,4088
4882,17
4882,2705
4882,4445
4883,2938
4884,1180
4886,1821
4888,3542
4889,2673
4890,66
4890,619
4890,1612
4890,4780
4891,284
4891,934
4891,1216
4891,1352
4891,1412
4891,3142
4892,1644
4895,564
4897,23
4897,35
4897,399
4897,474
4897,745
4897,795
4897,1735
4897,3018
4897,4109
4897,4870
4897,4956
4898,608
4903,340
4903,536
4903,911
4903,1574
4904,4755
4907,414
4907,1886
4907,2671
4907,4674
4909,969
4911,2241
4912,177
4913,1702
4913,3796
4914,4935
4915,901
4916,219
4917,856
4918,1579
4919,1360
4920,394
4921,786
4922,4005
4922,4989
4924,4138
4926,4727
4927,2273
4928,2086
4930,4286
4931,3785
4933,792
4934,2756
4935,523
4936,3049
4938,448
4938,1110
4939,4648
4940,4427
4941,409
4944,895
4946,2725
4947,490
4947,2671
4948,2559
4949,1642
4950,1434
4952,512
4953,4502
4958,4585
4959,4138
4961,3068
4962,422
4964,4319
4966,302
4966,786
4966,1052
4966,2008
4966,2108
4966,2813
4966,3303
4966,3801
4966,4972
4967,2364
4972,4248
4972,4528
4973,2423
4974,4
4977,699
4977,1524
4977,1661
4977,2021
4977,2869
4977,3301
4980,2662
4981,22
4981,430
4981,1934
4981,2898
4984,241
4984,316
4984,347
4984,650
4984,917
4984,1406
4984,2039
4984,2167
4984,2593
4984,2696
4984,3229
4984,3827
4984,4470
4984,4689
4985,786
4986,2803
4988,3477
4990,4481
4992,770
4992,1895
4993,470
4994,3442
4997,567
4998,3113
