src,dst
0,1
0,2457
2,95
2,339
2,459
2,461
2,462
2,2087
2,2089
2,2331
2,3008
2,3284
2,3727
2,3908
2,4034
2,4207
4,259
4,444
4,1364
4,2216
4,2558
4,2559
4,3283
4,3853
5,3757
6,1742
6,2487
9,8
9,3171
9,3790
9,4486
10,471
11,342
11,550
11,1447
11,2266
11,2429
11,2669
11,3737
11,4197
11,4381
15,2233
15,2294
15,3940
17,3701
17,3878
18,2259
18,2384
19,1708
19,2634
19,3433
19,4338
19,4656
19,4721
21,1686
21,1838
21,2026
21,2560
21,2680
21,2987
21,3482
21,4641
22,178
22,472
22,779
22,886
22,1264
22,1702
22,2134
22,2641
22,3489
22,3788
24,400
24,431
24,689
24,1023
24,1045
24,1283
24,1312
24,1472
24,3857
25,178
26,4683
30,178
30,300
30,358
30,360
30,588
30,1408
30,1412
30,1496
30,1550
30,3473
30,3796
30,3943
30,4069
30,4331
30,4494
30,4991
31,821
31,3247
31,4837
32,1180
32,1414
32,3943
33,200
33,867
33,3399
35,761
35,3098
36,106
36,430
36,2253
36,2498
37,94
37,400
43,3080
43,3425
44,14
44,20
44,71
44,95
44,134
44,610
44,648
44,793
44,908
44,1041
44,1112
44,1265
44,1796
44,1878
44,2066
44,2200
44,2510
44,2727
44,2732
44,2742
44,2845
44,2986
44,3601
44,3667
44,3720
44,4042
44,4395
44,4594
44,4912
45,2931
48,1126
48,2026
48,2892
48,2923
48,3881
48,4616
51,894
52,296
52,325
52,1022
52,1090
52,1244
52,2949
52,3767
53,42
53,49
53,108
53,761
53,976
53,1114
53,1316
53,1715
53,1940
53,2170
53,2349
53,2549
53,3334
53,4163
53,4171
53,4175
53,4178
53,4316
53,4318
53,4351
53,4493
54,1192
55,536
55,665
55,1417
55,1576
55,2609
55,3306
55,3614
55,3777
57,159
57,620
57,804
60,3005
61,41
61,4558
62,43
62,3978
63,115
63,178
63,301
63,397
63,690
63,1412
63,1522
63,1546
63,1778
63,3108
63,3735
63,4350
63,4978
64,423
64,870
64,2026
68,16
68,335
68,433
68,1044
68,1258
68,2530
68,2883
68,2931
68,3475
68,3758
69,300
69,369
69,551
69,572
69,894
69,1060
69,1100
69,3114
69,3712
69,4331
69,4515
70,581
70,894
70,1839
70,3789
70,4325
70,4739
72,165
72,345
72,1605
72,2354
72,2967
72,4493
72,4561
75,475
75,914
75,1668
75,1759
75,2012
75,3396
75,3424
75,3541
75,3651
75,3913
75,4229
75,4709
76,429
76,4717
77,686
77,1526
77,1780
77,3448
77,3649
77,4494
78,14
78,400
78,521
78,1091
78,1525
78,4017
78,4946
81,1668
84,113
84,120
84,217
84,704
84,1114
84,1425
84,1769
84,1827
84,1991
84,2933
84,4063
84,4299
84,4346
86,3
86,7
86,156
86,300
86,355
86,358
86,569
86,706
86,1067
86,1102
86,1241
86,1269
86,1320
86,1358
86,1864
86,1878
86,1887
86,1893
86,1950
86,2549
86,2804
86,2864
86,2909
86,2989
86,3006
86,4167
86,4205
86,4209
86,4377
86,4634
86,4806
86,4826
88,13
88,429
88,626
88,635
88,737
88,889
88,1055
88,1449
88,1502
88,1748
88,1861
88,2196
88,2662
88,3186
88,3522
88,4686
90,711
90,1412
90,1510
90,1767
90,3364
90,3975
90,4233
91,2634
93,761
93,1866
93,2775
93,2777
93,4813
95,4893
96,178
96,515
96,1117
96,1526
96,1981
96,2464
96,3099
96,3293
96,4070
96,4316
96,4535
97,1877
97,3399
98,46
98,47
98,651
98,1162
98,1164
98,1510
98,1519
98,1940
98,2655
98,3267
98,3509
98,4973
99,85
99,4818
100,76
100,692
100,936
100,1047
100,1129
100,2096
100,2101
100,4103
100,4580
100,4902
101,76
101,3306
105,171
105,427
105,1485
105,2942
105,3757
105,4147
105,4398
105,4880
107,80
107,208
107,891
107,1894
107,3042
108,20
108,405
108,1135
108,1460
108,4118
108,4209
110,42
110,1002
110,4863
113,225
113,581
113,1826
113,2132
113,3145
113,4850
114,120
114,355
114,1626
114,1961
114,3815
114,4557
114,4953
116,183
116,427
116,2527
116,3044
116,3120
116,3896
116,4347
118,453
118,478
118,761
118,783
118,2026
118,2073
118,2377
118,2600
118,2752
118,2931
118,2965
118,3370
118,3635
118,3775
118,3839
119,28
121,163
121,1371
121,2634
122,39
122,245
122,1770
122,1821
122,3052
122,3667
122,3995
122,4547
122,4625
123,417
123,672
123,1337
123,1472
123,1673
123,1721
123,2992
123,4537
124,2150
126,4312
127,632
127,3476
127,3641
127,4388
127,4537
128,253
128,288
128,361
128,408
128,770
128,1259
128,1419
128,1715
128,1768
128,3050
128,3306
130,1055
130,1526
130,3881
130,4721
132,178
132,651
132,1331
132,1895
132,2087
136,2
136,3
136,80
136,369
136,461
136,2662
136,2841
136,3055
136,3297
136,3899
136,4678
137,223
138,4022
143,901
143,1022
143,1113
143,1492
143,1821
143,1974
143,3306
144,1265
144,1772
144,1774
144,3192
144,3965
145,3064
146,178
146,293
146,413
146,896
146,969
146,2668
146,2781
146,3350
147,38
147,325
147,423
147,592
147,639
147,1307
147,1729
147,1855
147,2010
147,2665
147,2981
147,3121
147,3129
147,3587
147,3601
147,3604
147,4700
148,800
148,1914
148,4074
151,577
151,830
151,918
151,1866
151,4744
152,220
152,1283
152,1288
152,1350
152,1884
152,2166
152,2181
152,2253
152,3574
152,4566
155,1147
155,2298
157,571
157,1357
157,1695
157,2704
157,2860
157,3191
157,3213
157,4233
157,4986
160,50
160,331
160,1615
160,2489
160,3102
160,3339
161,310
161,795
161,1355
161,1381
161,2326
161,2954
161,3818
161,4473
161,4778
162,1218
162,1383
162,1829
162,2179
162,2237
162,3105
162,3379
162,3444
162,3563
162,4145
162,4716
162,4906
163,208
167,1067
170,146
170,787
170,1395
170,1492
170,4812
172,50
172,76
172,112
172,674
172,717
172,882
172,1562
172,1814
172,1992
172,3511
172,4388
175,1338
175,4594
176,47
176,319
176,686
176,720
176,721
176,992
176,1167
176,1193
176,1708
176,2214
176,2530
176,3071
176,4112
176,4286
176,4348
176,4541
176,4701
178,3102
179,49
179,370
179,481
179,1175
179,1272
179,1305
179,2558
179,3231
179,3845
179,4493
179,4494
179,4725
180,47
180,146
180,2804
183,34
183,178
183,208
183,3625
183,3881
184,762
184,966
184,1117
184,1299
184,1612
184,2880
184,3370
184,4592
185,817
186,1872
186,2625
186,4327
186,4537
188,408
188,1120
188,1183
188,2011
188,2087
188,2253
188,2829
188,3904
188,4373
192,22
192,494
192,501
192,686
192,1347
192,1415
192,1617
192,1668
192,1840
192,2306
192,2554
192,2759
192,2945
192,3146
192,3666
192,3901
192,4249
195,178
195,346
195,1040
195,4331
196,277
196,2290
196,3284
196,4110
196,4405
197,2841
197,3185
198,262
198,1036
198,1852
198,2561
198,2606
198,2731
198,3378
198,3567
198,3801
198,4046
198,4107
198,4197
198,4417
199,1095
199,1574
199,2134
199,2284
199,2539
199,3234
199,3255
199,3637
199,3878
199,4046
199,4533
200,693
200,1022
200,1645
200,1801
200,1993
200,3102
200,3302
200,4144
201,325
201,361
201,1142
201,1867
201,2515
201,2721
201,2819
201,3188
202,140
202,857
202,1446
202,3160
202,4183
202,4622
203,329
203,681
203,2055
203,4683
204,3080
204,3861
205,41
205,463
205,2074
205,2789
205,4696
206,545
206,992
206,1281
206,1364
206,1398
206,1640
206,2766
206,3078
206,3263
206,3846
206,4462
206,4837
206,4860
211,2190
211,4096
213,1396
213,3255
213,3726
213,3737
213,4160
213,4458
214,174
214,1894
214,4547
215,208
215,1174
215,2514
215,2582
215,2616
215,4731
217,1001
218,291
218,293
218,867
218,3064
219,8
219,49
219,58
219,183
219,202
219,301
219,749
219,1025
219,1074
219,1218
219,1405
219,1592
219,2256
219,2598
219,3385
219,4427
219,4937
221,449
221,1293
221,1405
221,1738
221,1892
221,2073
221,2533
221,2819
221,4510
221,4684
222,701
222,4640
222,4837
222,4906
226,446
226,1510
226,1715
226,2179
226,3828
226,3863
228,1837
228,3855
229,34
229,92
229,283
229,437
229,1492
229,4065
229,4402
234,830
234,1164
234,2096
234,2767
234,4046
235,150
235,527
235,840
235,881
235,913
235,1380
235,2188
235,3373
235,3380
235,3677
235,3717
235,4209
235,4610
236,141
236,465
236,705
236,954
236,1185
236,1252
236,1568
236,1855
236,2017
236,2349
236,2931
236,3274
236,3419
236,4545
237,545
237,747
237,3143
238,216
240,968
240,1290
240,1526
240,1580
240,2123
240,2419
240,2620
240,2697
240,3334
240,3426
240,4389
240,4797
241,444
241,4772
243,1981
247,7
247,166
247,225
247,739
248,388
248,659
248,1260
248,3968
248,4171
248,4548
248,4801
249,14
249,80
249,544
249,1252
249,2610
249,4047
250,73
250,2652
251,3981
251,4806
252,1326
254,4537
256,342
256,2556
257,3652
259,47
259,156
259,814
259,908
259,1812
259,2732
259,4069
259,4905
260,1083
262,726
262,1158
262,1457
262,1868
262,4408
262,4739
263,14
263,2779
263,2947
263,4544
264,318
264,1285
264,1739
264,2016
264,3551
264,4087
266,80
266,103
266,164
266,325
266,2195
267,2572
268,178
268,310
268,925
268,1127
268,1209
268,1331
268,1675
268,2057
268,3040
268,3577
268,3680
269,150
269,208
269,382
269,438
269,894
269,1144
269,1167
269,1224
269,1330
269,1626
269,1835
269,3038
269,3098
269,3299
269,3597
269,4388
269,4723
269,4878
270,679
270,867
272,208
272,730
272,805
278,159
278,975
278,2402
279,258
279,3801
280,2772
281,342
281,574
281,633
281,3481
285,519
285,674
285,876
285,927
289,1230
289,3969
289,4063
289,4245
289,4546
290,200
290,437
290,457
290,611
290,1055
290,2652
290,3080
290,3758
292,203
292,208
292,232
292,262
292,640
292,817
292,835
292,981
292,1074
292,1115
292,1261
292,1323
292,1484
292,1526
292,1670
292,1685
292,3052
292,3108
292,3180
292,3534
292,3821
292,3881
292,4147
292,4567
292,4605
292,4809
294,787
294,2972
294,3562
294,3762
294,4544
294,4649
295,282
295,659
295,1263
295,1748
295,1977
295,2449
295,3336
295,4537
299,1166
299,1388
299,2301
299,3489
299,3787
303,1339
303,1423
303,3334
304,3667
306,325
306,1139
309,1129
309,1234
309,2770
309,3447
311,458
311,474
311,1022
311,1566
311,3387
311,3477
311,4443
312,200
312,405
312,511
312,570
312,1368
312,3489
313,480
313,610
313,1442
313,2960
313,3043
313,3489
313,4318
316,150
316,832
316,929
316,983
316,1329
316,1332
316,1940
316,3053
316,3336
316,3748
316,4316
316,4336
317,4197
320,225
320,1346
320,1351
320,2976
320,3425
320,3522
320,4242
320,4377
320,4898
323,146
324,450
324,451
324,1686
324,2010
326,3129
327,8
327,3059
327,4034
327,4196
328,3824
328,4039
328,4494
330,388
330,2304
330,4331
332,3308
333,1249
333,1580
333,1668
334,4666
336,4537
337,1089
337,3108
338,3683
340,325
340,659
340,3878
340,3958
340,4082
340,4348
340,4930
341,3828
347,4537
348,989
348,3438
348,3627
349,1039
349,4233
350,225
350,1159
350,1310
350,1332
351,85
351,1012
351,2066
351,4578
353,689
353,1892
353,2258
355,85
355,178
355,398
355,458
355,581
355,894
355,979
355,1843
355,2615
355,3108
355,3503
355,4009
355,4120
355,4180
355,4469
355,4547
359,3464
362,8
362,39
362,82
362,225
362,398
362,411
362,482
362,554
362,581
362,805
362,1064
362,1827
362,2039
362,2326
362,2392
362,2987
362,3464
362,3649
362,3867
362,3949
362,4294
362,4609
362,4864
364,490
364,774
364,1768
365,3255
365,4467
365,4911
368,13
368,1944
368,3284
368,3933
372,225
372,1344
372,1673
372,2449
372,3464
372,3731
372,3916
373,80
373,146
373,325
373,438
373,977
373,1002
373,1542
373,1856
373,2247
373,2253
373,2803
373,2931
373,3180
373,3595
373,3927
373,4060
373,4469
373,4662
375,1269
375,1380
375,1526
375,3558
375,3932
378,3302
379,71
379,342
381,1084
381,1526
381,4102
383,222
383,301
383,1055
384,810
384,2879
384,3618
386,569
387,208
387,2539
387,2772
389,164
389,3867
390,1206
390,1258
390,2349
390,2744
390,2767
390,3970
390,4873
391,1412
391,3110
392,1218
393,7
393,3896
393,4813
394,2487
395,345
395,545
395,607
395,1329
395,1442
395,2336
395,2747
395,3991
395,4403
396,94
396,2026
398,231
398,2548
399,50
399,82
399,185
399,277
399,357
399,400
399,438
399,586
399,673
399,681
399,767
399,971
399,1129
399,1214
399,1512
399,1837
399,1912
399,1958
399,1967
399,1989
399,2427
399,2572
399,2767
399,2827
399,2848
399,3051
399,3277
399,3458
399,3733
399,3890
399,4022
399,4039
399,4680
399,4710
401,162
401,3432
402,380
402,2602
403,296
403,4739
404,2313
407,283
407,284
407,325
407,475
407,700
407,853
407,990
407,1354
407,1479
407,1619
407,1861
407,2884
407,2931
407,3506
407,4502
407,4647
407,4659
407,4662
409,934
409,979
409,2539
410,158
410,3251
410,3961
410,4030
412,756
412,969
412,3464
414,4720
415,1
415,2
415,380
415,479
415,594
415,872
415,954
415,1180
415,1461
415,1581
415,1829
415,2795
415,3111
415,3284
415,4294
416,3896
419,3330
419,3549
419,4690
420,305
420,753
420,765
420,1356
420,2305
420,2493
420,2670
421,1198
421,4120
425,408
426,1742
426,4793
431,2931
431,2937
432,457
432,1690
432,2371
432,3323
432,4469
434,817
435,1940
435,3031
436,450
436,627
436,840
436,847
436,1019
436,2373
436,2376
436,3199
436,3881
437,1536
438,408
440,2018
440,3896
441,208
441,427
441,764
441,772
441,1064
441,1438
441,1742
441,1834
441,1857
441,1893
441,2155
441,2204
441,2650
441,2809
441,3496
441,3607
441,3821
441,4978
442,3102
447,203
447,742
447,840
447,1510
447,2149
447,3128
448,2810
450,7
450,611
450,718
450,904
450,948
450,1283
450,4074
452,1840
452,2026
452,2426
452,2977
452,3129
453,1114
453,4906
454,4377
455,89
455,569
455,631
455,3909
455,4467
455,4609
456,4721
461,2949
461,4712
464,1526
464,2177
464,3640
464,4200
464,4520
466,252
466,319
466,519
466,1725
466,2301
466,4114
467,2010
468,1829
468,4537
470,66
470,827
470,1024
470,1623
470,3520
470,4647
472,1867
473,756
473,1341
473,2311
473,2352
473,2463
476,200
476,471
476,903
476,1274
476,1338
476,2872
476,3669
476,3681
476,4693
483,38
483,178
483,729
483,2453
483,2807
483,4209
483,4237
484,1050
484,1386
484,1444
485,4458
486,1296
486,1731
486,2981
487,47
487,177
488,2062
489,311
489,429
489,777
489,1009
489,1012
489,1156
489,1218
489,1321
489,1478
489,1532
489,1560
489,1678
489,2035
489,2102
489,2810
489,2864
489,3370
491,3123
491,3474
491,3626
492,529
492,3124
492,3725
492,3867
492,4833
493,1019
493,2606
493,2709
493,3780
493,3907
495,391
496,2253
498,284
498,1176
498,2129
498,2345
498,2548
498,4146
498,4375
501,371
501,3015
502,50
502,233
502,782
502,992
502,4074
502,4955
504,80
505,66
505,669
505,809
505,2247
505,3374
505,4837
506,388
506,2729
506,2945
506,4930
507,140
507,3464
508,140
508,627
508,807
508,1269
508,2440
508,2668
508,2795
508,2860
508,2921
508,3090
508,3255
508,3302
508,3867
508,4072
508,4098
508,4624
508,4887
508,4916
512,1878
513,3256
513,4880
514,1889
514,3965
515,4779
516,2931
518,174
518,202
518,225
518,526
518,1534
518,3468
519,643
519,1564
519,1686
519,2064
519,2237
519,3404
521,772
521,1337
521,4022
522,76
522,559
522,674
522,2073
522,4316
523,380
523,437
523,594
523,969
525,56
527,1086
527,1320
527,4785
528,1203
528,1790
528,1857
528,1868
528,2861
528,3662
528,4502
530,303
530,2864
531,325
531,1287
531,1917
531,3460
531,4060
531,4623
532,471
532,2066
532,2770
532,3040
533,898
535,1779
535,2428
535,2452
535,3395
535,4388
535,4693
536,209
536,877
536,894
536,954
536,2722
536,4662
537,1269
537,3956
539,3012
539,3855
539,4195
540,189
540,337
540,570
540,2203
540,2645
540,2770
540,3134
540,3281
540,3439
540,3567
540,4158
541,2330
542,71
542,283
542,354
542,696
542,738
542,1064
542,1350
542,1426
542,1831
542,2042
542,3005
542,3115
542,3177
542,3227
542,3680
542,3778
542,4608
542,4758
546,638
547,927
547,2972
548,46
548,163
548,222
548,368
548,627
548,2160
548,3750
548,4873
549,2855
549,4546
550,3667
550,3765
551,679
551,1526
551,2477
551,2890
551,3925
551,4164
551,4224
551,4956
552,888
552,891
552,1449
552,3742
552,3768
555,1249
557,1497
557,2288
558,2026
562,2931
564,774
564,1373
565,1646
565,2383
565,2554
565,3596
565,4348
565,4629
566,1651
566,4517
567,4403
568,1600
568,1878
568,4652
570,1487
570,4662
573,1519
573,3886
574,1827
574,2175
574,2259
574,4069
576,1686
576,2715
580,137
580,1974
583,1780
584,1668
584,2841
585,2935
587,47
587,80
587,1447
587,1840
587,4377
589,129
589,1603
591,345
593,80
593,193
593,208
593,969
593,2811
593,3318
595,1067
595,1301
595,2860
596,305
596,933
596,3966
597,4926
598,377
598,380
598,690
598,1129
598,1185
598,1254
598,1338
598,1380
598,1443
598,2036
598,2776
598,2958
598,3590
598,3625
598,4493
598,4640
598,4940
599,1083
600,8
600,751
600,1412
600,1835
600,3274
604,1563
604,2845
604,3909
604,4209
604,4651
606,339
606,2567
606,3274
606,3484
606,3549
608,4876
609,3129
609,4063
615,296
615,2388
615,2652
615,3091
618,156
619,29
619,2289
619,2369
621,613
622,102
622,1031
622,2402
622,3011
622,3080
622,3481
622,3881
622,4598
623,173
623,319
623,406
623,413
623,414
623,666
623,674
623,682
623,776
623,880
623,925
623,2600
623,2906
623,3108
623,3801
623,3881
624,209
625,159
625,200
625,686
625,1527
625,1592
625,1626
625,1837
625,1940
625,3020
625,4210
625,4537
625,4738
629,203
629,224
629,380
629,457
629,520
629,712
629,721
629,810
629,830
629,913
629,995
629,1411
629,1789
629,1917
629,2021
629,2067
629,2244
629,2901
629,3186
629,3336
629,3583
629,3702
629,4105
629,4354
630,3559
630,3950
630,4467
631,537
634,471
634,788
634,1083
634,2348
634,2433
634,2558
634,3008
634,3326
634,4798
636,800
636,3284
637,511
637,3895
638,1686
638,4432
640,286
640,830
640,1708
640,2282
640,3011
640,3247
640,4662
642,380
642,681
642,2326
642,2931
644,208
644,2259
644,4484
646,361
647,1412
647,4233
649,684
649,767
649,2089
649,3005
650,1164
650,4316
650,4864
652,342
652,2228
656,674
656,3473
657,383
657,481
657,4063
657,4919
658,303
660,344
661,2829
661,4464
662,1319
662,3808
662,4733
663,8
663,4494
664,8
664,39
664,193
667,200
667,1159
667,2386
667,2517
667,4541
667,4931
668,586
668,920
668,947
668,1561
668,2674
668,2699
671,1283
673,258
673,363
673,2169
673,2558
673,2666
673,3080
673,3421
673,3448
673,4071
673,4458
674,29
674,1526
674,2866
675,2024
676,551
676,1437
676,3343
680,592
680,2612
683,579
683,937
683,1089
683,1386
683,1732
683,2063
683,3380
683,3888
684,2149
687,686
687,1067
687,1840
688,2
688,76
688,686
688,733
688,777
688,933
688,1172
688,1494
688,1748
688,1813
688,2894
688,3920
688,3927
694,156
694,225
694,406
694,430
694,681
694,784
694,1041
694,1205
694,1296
694,1442
694,1605
694,1710
694,2073
694,2253
694,2375
694,2665
694,2788
694,3418
694,3919
694,4197
697,2561
697,4377
697,4513
698,38
698,787
698,872
698,949
698,1146
698,1668
698,1892
698,3478
698,4197
699,95
699,207
699,2210
699,3464
699,4529
700,647
700,2294
703,190
703,737
703,975
703,4327
704,52
705,193
705,1794
705,4209
707,655
707,2497
709,149
710,495
710,2677
710,4640
711,2340
711,2554
714,793
714,1131
714,2206
714,3397
714,3399
714,3614
716,203
716,336
716,339
716,620
716,1042
716,1149
716,2571
721,1889
721,2630
723,503
723,517
723,1071
723,3005
723,3909
723,4164
723,4862
724,411
724,482
724,1117
724,3233
724,3867
724,4453
725,1577
725,1991
725,4494
725,4528
731,977
731,2581
732,125
732,189
732,1420
732,2073
732,2190
732,2225
734,140
734,308
734,511
734,670
734,877
734,2352
734,2717
734,2920
734,2968
734,3180
734,3624
734,4176
734,4278
734,4718
735,3489
735,3844
735,4720
736,995
736,4458
737,102
737,588
737,690
737,1064
737,2625
737,2727
737,3098
737,3122
737,3965
740,3180
741,423
741,2860
741,3102
741,3801
741,3824
741,4175
743,1312
744,2
744,429
744,1878
744,4066
745,156
745,1331
750,46
750,178
750,613
750,1389
750,3252
750,4593
752,4734
753,3711
755,3280
757,190
758,156
758,891
758,2333
758,3152
758,3334
758,4485
760,34
762,56
762,58
763,8
763,405
763,833
763,1488
763,1759
763,1789
763,2009
763,2362
763,3557
763,4377
763,4463
763,4631
763,4657
768,708
768,927
770,41
771,42
771,1410
771,1457
771,1769
771,1869
771,1931
771,2110
771,2715
771,3284
771,3811
771,4653
771,4793
773,894
775,295
775,2823
780,880
780,2600
785,40
785,1187
785,1621
785,2351
786,2358
789,13
790,353
790,1050
791,1129
791,3426
792,4209
792,4240
794,140
796,2269
796,2475
797,225
798,2481
798,2690
798,4662
799,1699
799,2806
799,3933
800,156
800,999
800,2058
801,162
802,2370
802,2558
803,509
805,767
805,1407
805,1850
805,3613
805,3700
805,4235
806,355
806,914
806,962
806,1164
806,1364
806,1380
806,2578
808,2947
809,3890
811,190
811,991
811,1327
812,203
812,2237
813,1177
813,1708
813,2889
815,47
815,737
815,896
815,2039
815,3129
815,3341
815,3746
815,4099
815,4293
815,4494
815,4537
816,1188
816,2087
816,2396
816,4267
816,4482
816,4656
817,342
817,767
818,50
818,178
818,1424
818,4233
818,4739
819,34
820,1685
820,2301
821,3549
823,1981
824,4662
825,2822
825,3080
826,612
826,1064
826,1344
828,16
828,481
828,4362
829,674
829,1214
829,2771
829,3315
829,3693
831,835
831,1320
832,3380
832,3405
834,239
834,325
834,2093
837,429
837,1457
837,1566
837,1589
837,2103
837,2584
837,3102
837,3201
837,3315
837,4537
838,477
838,1198
838,1753
838,4518
838,4870
841,720
841,2602
842,155
842,263
842,3614
844,1686
845,203
845,249
845,894
845,1118
845,1768
845,2323
845,2831
845,3005
845,3923
845,4060
845,4264
846,4558
848,2149
848,2451
848,3680
848,4494
849,2872
849,3993
850,7
850,325
850,655
850,1526
850,1936
851,106
854,1039
854,1623
854,2710
855,2795
855,4403
856,3261
856,3704
856,3790
856,4691
856,4739
859,4155
859,4623
860,645
860,705
860,1236
860,1454
860,2858
860,3339
863,156
864,457
864,1041
864,1064
864,1873
864,4382
865,1981
865,2392
866,4233
867,66
867,1997
868,245
868,345
868,355
868,418
868,461
868,3474
868,3904
869,793
869,3381
869,3568
869,3839
869,3896
870,50
870,1598
870,1715
870,3354
871,3909
873,40
873,329
873,4517
874,1131
875,2126
875,3053
875,3790
878,737
878,3445
878,4696
879,325
880,174
880,1932
883,209
884,2539
890,1111
890,3732
890,4270
891,1386
891,1513
891,1642
891,2073
891,3005
892,47
893,8
893,1562
895,2556
897,4060
898,606
898,2871
898,4515
898,4541
899,649
899,1209
899,1383
899,1764
899,2289
899,3370
899,3483
899,4764
900,434
904,524
905,477
906,339
906,2039
911,496
911,686
911,1145
911,1893
911,1918
911,2565
911,3308
911,4060
911,4760
912,894
913,1317
915,3129
916,638
916,2622
916,3108
916,3277
917,94
917,380
917,767
918,34
918,190
919,4060
920,59
920,2253
920,2477
920,2990
920,4987
921,3247
923,3073
923,3385
923,3417
923,4254
926,4622
930,2221
931,908
932,1269
932,2409
933,342
933,2105
934,38
938,817
938,952
938,1931
938,2426
938,3171
939,3493
940,3
940,500
940,1205
940,3797
941,4721
942,621
942,1768
943,231
943,1839
944,80
944,277
945,1
945,4425
953,4544
955,969
955,1526
955,3149
955,3651
955,4126
956,414
956,3533
956,4421
957,514
957,1429
957,2642
957,3381
957,4164
957,4500
958,3
958,517
958,3474
958,4240
958,4768
959,159
959,1293
959,4234
959,4403
961,2933
964,3267
964,4461
965,817
965,2439
965,3370
966,482
967,342
967,1485
967,1541
968,187
968,200
968,310
968,927
968,2828
968,2986
968,3044
969,13
969,1354
971,2701
972,438
974,284
976,3190
977,183
977,1347
977,1767
977,4288
978,2931
978,3909
979,880
980,14
980,1526
982,443
983,71
983,817
983,1719
983,1853
983,2614
983,3117
983,3302
983,3747
986,249
986,383
986,1144
986,4491
987,353
987,1721
988,162
988,550
988,927
988,1473
988,1943
988,3108
988,3312
994,4666
996,305
997,244
997,2558
997,2949
997,4327
998,727
998,1566
1000,2904
1000,3052
1003,551
1003,1505
1003,2091
1003,2554
1003,3175
1003,3890
1005,3227
1005,3646
1006,1249
1006,2479
1006,3927
1007,817
1007,971
1007,1218
1007,1287
1007,2931
1007,3512
1007,4208
1007,4716
1010,3474
1011,50
1011,178
1011,262
1011,363
1011,1228
1011,1348
1011,1650
1011,1954
1011,3102
1011,4677
1013,807
1013,2554
1016,4260
1017,908
1017,1520
1017,1654
1018,782
1021,1015
1026,722
1026,2710
1026,4467
1026,4581
1027,3464
1027,4448
1028,355
1028,902
1028,1062
1028,1178
1028,2218
1030,339
1030,1840
1030,2313
1031,3094
1032,216
1032,668
1032,2386
1032,3259
1032,3511
1032,4396
1033,242
1033,665
1033,668
1034,4537
1035,1172
1035,1729
1035,2039
1035,2821
1036,156
1036,2189
1037,659
1037,896
1037,1612
1037,1687
1038,1415
1039,108
1039,2026
1039,3474
1040,577
1043,231
1044,4342
1046,345
1046,2929
1046,3574
1048,66
1049,690
1049,1324
1050,58
1050,450
1050,527
1050,2535
1050,3438
1050,4515
1051,975
1051,1280
1053,14
1053,913
1057,1508
1058,3402
1059,80
1061,2
1063,286
1063,904
1063,2319
1066,800
1066,2087
1066,3251
1066,3980
1069,1679
1069,2316
1069,2699
1069,3435
1070,94
1070,612
1070,1004
1070,1992
1070,4151
1073,1827
1073,2373
1073,2704
1073,4850
1074,1768
1075,649
1076,14
1077,112
1077,453
1077,1536
1078,1871
1078,2304
1078,2629
1079,282
1079,457
1079,1279
1079,2071
1079,2134
1079,3066
1079,3443
1080,691
1080,772
1080,1327
1080,1642
1080,3284
1081,793
1081,911
1081,1041
1081,4470
1082,240
1083,164
1083,339
1083,817
1083,1472
1083,1844
1083,1921
1083,3634
1083,3875
1087,142
1087,1305
1087,1371
1087,1465
1087,1723
1087,2677
1089,1493
1089,2892
1089,3284
1089,3918
1089,4215
1090,1791
1090,2134
1090,2195
1090,2551
1090,2822
1090,3175
1090,3489
1090,4060
1090,4739
1091,38
1091,1623
1091,2464
1091,3244
1091,3842
1092,3102
1092,3238
1092,3370
1093,400
1093,438
1093,2022
1095,274
1095,960
1095,1840
1095,4930
1096,311
1096,2839
1096,4729
1099,2841
1100,553
1100,2623
1101,720
1101,4316
1101,4978
1103,360
1103,655
1103,2532
1104,368
1104,1862
1105,632
1105,1343
1105,1849
1105,3438
1107,4209
1108,4732
1109,1153
1110,499
1110,1237
1112,240
1112,694
1112,1247
1112,1715
1112,2304
1116,208
1116,1264
1116,2212
1116,2554
1117,2892
1117,3464
1118,3570
1119,200
1119,2775
1119,3104
1121,105
1121,545
1121,1394
1121,3086
1121,4476
1122,203
1122,1679
1122,2064
1123,1089
1123,3546
1123,3943
1124,1767
1124,2858
1124,3167
1124,4537
1125,329
1125,627
1125,718
1125,830
1125,1175
1125,2221
1125,2299
1125,2916
1125,4063
1128,16
1128,135
1128,1091
1128,1568
1128,4815
1132,975
1132,1757
1132,1893
1133,39
1133,204
1133,4240
1134,7
1134,545
1134,2041
1134,2352
1134,2505
1134,2636
1135,4524
1138,481
1138,867
1138,2600
1140,1361
1140,3896
1140,4906
1141,588
1141,2715
1141,4637
1143,1278
1143,4537
1146,133
1146,208
1146,637
1146,1198
1146,3953
1146,4640
1151,631
1151,2214
1152,3567
1154,1185
1155,429
1155,497
1155,1439
1155,1636
1157,142
1157,1039
1157,3022
1157,3058
1160,2693
1162,2112
1163,830
1163,3288
1163,3552
1163,4215
1164,3833
1165,3011
1165,4052
1166,4656
1170,414
1170,1474
1170,2896
1170,3473
1171,89
1171,918
1171,928
1171,2253
1171,4659
1173,1067
1173,1485
1173,1878
1177,76
1177,249
1177,325
1177,4060
1179,182
1181,302
1181,3790
1182,293
1184,178
1184,1086
1184,1338
1184,1592
1184,2134
1184,2280
1184,2599
1184,3284
1185,475
1190,3896
1191,342
1191,809
1191,1177
1191,1208
1191,1987
1191,2375
1191,4000
1191,4868
1194,3896
1197,742
1197,2034
1199,58
1199,208
1199,319
1199,1126
1199,1203
1199,1320
1199,1389
1199,1811
1199,2106
1199,2149
1199,2220
1199,2342
1199,3876
1200,4656
1201,1129
1201,2237
1204,342
1204,690
1204,3271
1204,3834
1206,156
1206,466
1206,478
1206,789
1206,909
1206,1017
1206,1126
1206,1320
1206,1330
1206,1430
1206,1485
1206,2552
1207,1114
1207,2073
1207,4336
1209,322
1209,1468
1209,4891
1210,787
1210,4446
1210,4537
1211,212
1211,3651
1211,3826
1213,788
1213,2189
1214,537
1214,3072
1214,3565
1216,4445
1217,422
1218,112
1219,244
1220,1342
1220,2336
1220,2821
1220,3073
1220,4906
1221,1679
1221,4292
1221,4630
1222,3710
1223,1217
1223,3381
1224,2179
1224,3687
1225,140
1226,31
1226,3914
1227,894
1228,113
1228,751
1228,2972
1228,3343
1228,3457
1228,4117
1229,223
1231,156
1231,852
1231,1129
1231,1838
1231,2416
1231,4864
1232,1768
1232,2233
1233,3664
1233,4537
1235,817
1237,894
1238,232
1238,1129
1238,3646
1238,3944
1239,409
1239,1275
1239,1526
1240,1312
1241,1526
1242,1112
1243,286
1243,2931
1243,2940
1243,3155
1246,766
1246,1017
1246,1263
1246,1673
1246,2083
1246,3066
1246,3464
1246,4838
1249,156
1249,1255
1249,2046
1249,3175
1250,1122
1251,239
1253,46
1253,263
1253,1874
1253,2301
1253,2877
1253,3181
1253,3737
1253,4219
1256,418
1256,690
1256,1114
1256,3516
1257,1925
1257,2039
1257,4060
1258,1014
1258,3486
1259,1085
1260,337
1260,497
1260,778
1260,1266
1260,3107
1260,3795
1260,3953
1260,4819
1261,1106
1261,1192
1261,2986
1263,977
1265,156
1267,1778
1268,632
1269,76
1271,47
1271,166
1271,209
1271,244
1271,520
1271,569
1271,627
1271,719
1271,759
1271,818
1271,830
1271,1145
1271,1364
1271,1526
1271,2026
1271,2051
1271,2473
1271,2674
1271,3175
1271,3304
1271,3343
1271,3892
1271,4046
1271,4594
1271,4656
1273,380
1273,691
1273,3474
1275,3685
1276,887
1276,1836
1276,2049
1276,4539
1277,1577
1277,4240
1277,4506
1281,385
1281,499
1281,1140
1281,1369
1281,1741
1281,2461
1281,2554
1281,2931
1281,2941
1281,3722
1282,131
1282,1794
1282,2997
1282,4276
1283,146
1283,1031
1283,1469
1283,1601
1283,3370
1286,344
1286,570
1286,1353
1287,3326
1289,1715
1291,908
1292,47
1292,1377
1292,1737
1292,1932
1292,2850
1294,177
1295,2328
1295,4060
1295,4537
1297,178
1297,1371
1297,3177
1297,3180
1297,3336
1299,191
1299,204
1299,276
1299,611
1299,910
1299,1791
1299,1799
1299,2087
1299,2371
1299,3513
1299,3955
1299,4586
1300,471
1302,1642
1302,2551
1303,1685
1304,2933
1306,2623
1306,4505
1307,2306
1307,4992
1308,91
1308,651
1308,1604
1308,1859
1309,222
1309,363
1309,526
1313,83
1313,368
1313,369
1313,1526
1313,2226
1313,2466
1313,2973
1314,1556
1314,1946
1314,2607
1314,3255
1315,39
1315,178
1315,303
1315,2301
1315,2370
1315,3343
1315,4071
1315,4568
1315,4693
1317,400
1319,2860
1319,3637
1322,696
1322,2450
1322,3274
1322,3380
1323,1849
1325,1433
1328,2078
1329,2002
1329,2525
1330,3227
1330,4331
1334,635
1334,1642
1334,2807
1334,3334
1334,3391
1335,409
1336,393
1336,1329
1336,2560
1337,146
1337,1934
1337,3074
1338,156
1338,1039
1338,1717
1338,1742
1340,674
1340,1192
1346,27
1346,4479
1349,1566
1352,1742
1352,2004
1352,2378
1352,4101
1353,314
1353,649
1353,722
1353,2102
1353,2323
1353,2335
1353,2986
1353,3209
1353,3267
1353,4590
1359,1089
1359,1310
1359,2190
1359,2410
1360,461
1362,140
1362,2598
1362,3267
1363,135
1363,1193
1363,3695
1366,457
1367,115
1367,1020
1367,2349
1371,413
1371,1497
1371,1814
1371,2131
1372,718
1372,1293
1372,4613
1374,102
1374,164
1374,478
1374,1042
1374,1064
1374,1210
1374,1860
1374,2906
1374,3710
1374,4200
1375,672
1375,2906
1375,3195
1378,992
1378,4154
1379,181
1379,321
1379,1532
1379,2121
1379,3219
1379,3261
1379,3951
1384,4889
1385,56
1387,2301
1388,41
1388,928
1388,1179
1388,2338
1388,2457
1388,3036
1388,4974
1390,252
1391,2670
1392,339
1392,517
1392,1735
1392,1868
1393,363
1393,573
1393,1715
1393,3683
1397,1175
1397,1831
1397,3180
1397,3536
1397,4805
1399,1866
1399,3326
1399,4718
1400,305
1400,1623
1401,761
1403,39
1406,584
1406,1742
1406,4040
1409,1039
1411,2259
1411,3537
1412,8
1412,38
1412,182
1412,2039
1412,2213
1412,4000
1412,4385
1412,4727
1413,4610
1415,1597
1415,3443
1415,4047
1415,4732
1416,310
1416,1389
1416,4591
1417,254
1417,302
1417,851
1417,1055
1417,1264
1417,3080
1418,586
1418,674
1418,2233
1418,2918
1418,3183
1418,3211
1418,4600
1419,631
1419,3464
1421,742
1422,461
1422,1350
1426,92
1426,3952
1428,1169
1428,1819
1428,3176
1428,3380
1431,708
1431,718
1431,911
1431,1065
1431,1377
1431,2731
1431,2819
1431,2947
1431,4954
1432,295
1432,1344
1432,1750
1433,203
1434,173
1434,457
1434,692
1434,817
1434,1186
1434,2312
1434,2721
1434,3052
1434,3180
1434,4761
1434,4829
1435,1067
1436,989
1436,3333
1439,3317
1439,3927
1440,178
1440,612
1440,1510
1440,2998
1441,360
1441,4316
1441,4917
1444,47
1444,103
1444,2399
1444,4890
1445,174
1448,47
1448,322
1448,405
1448,588
1448,752
1448,2404
1448,2733
1448,3047
1448,4541
1450,282
1450,4451
1452,164
1452,428
1452,3401
1453,342
1453,594
1453,1715
1457,633
1457,1382
1457,1389
1457,3011
1457,3148
1457,3683
1457,3753
1458,1126
1458,1893
1461,239
1462,76
1462,310
1462,651
1462,858
1462,1339
1462,1815
1462,2026
1462,2150
1462,2200
1462,2295
1462,2617
1462,2770
1462,2931
1462,3726
1462,4885
1462,4899
1464,2770
1464,3251
1465,40
1465,894
1465,1023
1465,1578
1466,27
1466,1767
1466,2477
1466,4955
1466,4972
1467,979
1467,3370
1470,47
1470,162
1470,187
1470,363
1470,380
1470,393
1470,607
1470,679
1470,686
1470,692
1470,872
1470,992
1470,1047
1470,1177
1470,1329
1470,1778
1470,2043
1470,2108
1470,2149
1470,2622
1470,2660
1470,2727
1470,2812
1470,2828
1470,2841
1470,3281
1470,3295
1470,3454
1470,3647
1470,3841
1470,3909
1470,4051
1470,4116
1470,4142
1470,4494
1470,4541
1470,4595
1472,954
1472,1813
1472,3540
1473,840
1473,3481
1473,4052
1475,245
1475,1368
1475,4025
1476,82
1477,141
1481,977
1482,200
1482,781
1482,1316
1482,1333
1482,1651
1482,1715
1482,1778
1482,2102
1482,2312
1482,3102
1482,3619
1482,4022
1482,4362
1486,1020
1486,1068
1486,1744
1486,3251
1486,3554
1486,3791
1489,1180
1489,3326
1490,936
1490,1312
1491,4469
1494,601
1494,1040
1494,1117
1494,1263
1494,2318
1494,2784
1494,2978
1495,867
1495,4851
1496,1715
1498,948
1498,3007
1499,959
1500,2237
1501,1036
1501,1148
1502,2873
1505,511
1505,2837
1507,3251
1508,1632
1511,4662
1512,3047
1514,3779
1515,8
1515,354
1515,632
1515,1275
1515,3319
1515,4157
1517,1111
1517,2937
1518,677
1518,1084
1518,2229
1520,3890
1521,966
1523,1139
1524,2829
1529,612
1529,1159
1529,1293
1530,400
1530,1091
1530,2139
1533,52
1533,76
1533,92
1533,150
1533,719
1535,1919
1536,3474
1536,4876
1538,156
1538,262
1538,322
1538,507
1538,523
1538,597
1538,796
1538,908
1538,1036
1538,1312
1538,1431
1538,1516
1538,1637
1538,2026
1538,2097
1538,2664
1538,3370
1538,4410
1538,4544
1538,4662
1538,4693
1538,4921
1539,1872
1539,3569
1540,991
1541,1323
1543,3284
1544,80
1544,984
1544,2141
1544,2503
1544,2991
1544,3507
1544,3667
1544,3904
1545,843
1545,3199
1545,3416
1545,3921
1547,672
1547,1542
1547,1736
1547,2842
1547,3053
1547,3790
1547,4292
1548,1039
1548,1570
1548,1626
1548,2349
1548,2397
1548,3443
1548,3723
1548,4163
1549,427
1549,2074
1551,3473
1552,400
1552,2278
1552,2342
1552,3637
1552,4873
1553,2821
1554,554
1555,129
1556,409
1556,800
1556,1738
1556,3889
1557,695
1557,2247
1557,3737
1557,3978
1558,1729
1559,3790
1559,3944
1561,310
1561,477
1561,1502
1561,4877
1563,1008
1565,761
1567,2704
1567,4633
1568,1064
1569,1004
1575,1686
1576,212
1578,2832
1579,4196
1582,38
1582,41
1582,1492
1584,640
1584,1799
1585,352
1585,507
1585,1921
1585,2048
1585,4732
1585,4799
1586,1215
1586,1767
1586,3095
1586,4352
1587,635
1587,2969
1587,3597
1587,4494
1588,3927
1590,94
1590,1510
1591,1789
1591,4337
1592,102
1592,422
1592,477
1592,685
1592,759
1592,836
1592,839
1592,1760
1592,1778
1592,2999
1592,3156
1592,3511
1593,1350
1594,926
1594,1976
1594,2831
1594,3248
1594,3348
1594,3801
1595,1330
1595,3545
1595,3739
1596,997
1596,1260
1599,851
1599,1546
1599,4645
1602,43
1602,76
1602,95
1602,109
1602,272
1602,457
1602,551
1602,651
1602,989
1602,1064
1602,1665
1602,1700
1602,2087
1602,3280
1602,3668
1602,3849
1605,4880
1606,1091
1606,2619
1607,1662
1607,4739
1608,342
1609,1293
1609,3713
1610,7
1610,27
1610,156
1610,311
1610,529
1610,764
1610,1095
1610,1196
1610,1212
1610,1299
1610,2467
1610,4038
1611,417
1611,888
1611,2649
1612,742
1613,322
1613,2861
1613,3284
1613,3401
1613,4660
1614,1893
1616,1736
1617,38
1617,210
1617,966
1617,1055
1617,1483
1617,2255
1617,2264
1617,2321
1617,2371
1617,3088
1617,3758
1617,4310
1617,4537
1618,527
1618,2986
1620,8
1620,3464
1621,695
1621,830
1621,1803
1621,3576
1621,4930
1621,4985
1622,993
1622,3186
1624,8
1624,210
1624,1743
1624,1839
1624,3334
1624,3826
1624,4569
1625,2572
1627,274
1627,1708
1627,1994
1628,149
1630,4233
1631,545
1632,1275
1632,2156
1632,3827
1632,3974
1633,1565
1633,3637
1633,4547
1634,154
1634,376
1634,4503
1635,66
1635,3426
1635,3867
1639,2770
1641,614
1644,80
1644,590
1644,3444
1647,178
1647,1065
1647,2087
1648,1502
1649,2259
1649,3609
1650,91
1650,408
1650,1520
1650,3267
1650,4233
1650,4773
1653,3188
1653,3370
1653,3511
1653,4726
1655,690
1656,310
1656,1164
1656,1820
1656,4347
1657,482
1657,1214
1657,1768
1657,4118
1657,4251
1657,4474
1658,85
1658,3199
1658,4087
1659,458
1659,924
1659,4901
1660,990
1660,3369
1660,3552
1660,4147
1661,894
1661,4566
1663,20
1663,135
1663,1065
1663,1459
1663,2073
1663,2345
1663,2349
1663,2775
1663,2810
1663,2972
1663,4849
1663,4896
1664,1065
1665,200
1666,1939
1666,4183
1667,611
1667,4718
1669,7
1669,669
1669,2634
1671,7
1672,1102
1674,4377
1676,1273
1676,1598
1676,1778
1676,2177
1676,3004
1677,1296
1679,2390
1679,4022
1680,2492
1681,572
1681,2664
1682,367
1683,3102
1683,3323
1684,225
1684,4000
1685,111
1685,1042
1685,4312
1688,398
1688,2349
1688,4930
1689,981
1689,2653
1689,3651
1691,1269
1693,3380
1693,4202
1694,3233
1694,3426
1696,66
1696,509
1696,3336
1696,4663
1696,4789
1696,4841
1698,651
1698,2275
1698,3227
1698,3385
1698,3786
1698,4839
1699,4046
1699,4858
1700,1768
1700,3067
1701,1670
1701,1984
1701,2134
1701,2415
1701,3511
1704,8
1704,4777
1705,38
1705,1480
1705,1823
1705,2535
1705,4462
1706,1064
1706,1368
1706,1895
1708,4996
1709,50
1709,1365
1709,2632
1709,4984
1710,4064
1711,76
1711,293
1712,466
1712,1296
1714,40
1716,1150
1717,203
1717,242
1717,653
1717,989
1717,1042
1717,1050
1717,1255
1717,2185
1717,3151
1717,3604
1717,4348
1718,120
1718,1003
1718,1768
1718,4437
1720,314
1722,4377
1724,1065
1726,174
1727,1617
1728,908
1728,1192
1728,2773
1728,3251
1729,1320
1732,4039
1733,342
1734,4876
1739,288
1740,2631
1740,3064
1741,190
1741,348
1741,360
1741,611
1741,719
1741,840
1741,1131
1741,1214
1741,1526
1741,2026
1741,2678
1741,3334
1741,3410
1741,3426
1741,3537
1741,3836
1741,3896
1741,4045
1741,4294
1742,3334
1742,4060
1746,2947
1747,3474
1749,3306
1749,3331
1750,1768
1752,830
1752,1947
1753,538
1753,2984
1754,1050
1754,1465
1754,2799
1754,3302
1754,3758
1755,890
1755,4594
1758,200
1758,545
1758,3426
1758,4904
1760,122
1760,2735
1760,3237
1761,2406
1761,2823
1762,59
1762,103
1762,718
1762,1293
1762,1506
1762,2036
1763,1925
1765,1504
1766,494
1771,2819
1773,1389
1773,4074
1775,616
1778,50
1778,784
1778,1526
1778,1850
1778,3485
1781,1139
1782,1605
1784,4108
1785,830
1785,2908
1785,4164
1786,2283
1786,3801
1787,383
1787,861
1787,3247
1791,39
1792,706
1793,574
1795,369
1795,1741
1797,1439
1798,1410
1798,3904
1799,693
1799,1708
1800,1017
1800,1526
1801,1893
1804,208
1805,481
1805,2444
1805,4591
1806,804
1806,1707
1806,2224
1807,981
1807,3705
1808,1012
1809,4467
1810,47
1810,2060
1816,210
1816,293
1816,611
1816,1307
1816,3310
1817,1050
1818,171
1818,674
1818,830
1818,2104
1818,2363
1818,3852
1818,4502
1818,4674
1825,2315
1825,2829
1825,4061
1825,4586
1828,3790
1830,1347
1830,1626
1830,2345
1832,645
1833,139
1833,579
1833,935
1833,1145
1833,1172
1833,1447
1833,1643
1833,2134
1833,2232
1833,2235
1833,2305
1833,2820
1833,2840
1833,3801
1833,3845
1833,3890
1833,4624
1833,4739
1834,2804
1834,2981
1834,2992
1836,380
1836,3953
1840,1269
1840,1980
1840,3199
1840,3227
1840,3896
1842,42
1842,125
1842,3805
1844,1849
1844,3423
1845,52
1845,1930
1845,2838
1845,3904
1845,4008
1845,4703
1846,58
1846,569
1846,3281
1847,190
1848,1023
1848,2949
1851,482
1855,450
1855,1637
1855,2658
1855,2704
1855,3464
1855,4463
1860,335
1860,1064
1860,2931
1860,3710
1861,208
1867,1164
1867,4046
1871,38
1871,4217
1871,4623
1874,87
1874,208
1874,1502
1874,2075
1874,2707
1874,2906
1874,3199
1874,3537
1874,3737
1874,4594
1875,4493
1876,4331
1876,4476
1876,4903
1878,573
1878,2305
1878,2312
1878,3296
1878,3423
1878,3500
1878,3540
1880,355
1881,371
1881,2170
1881,2931
1881,3068
1881,3302
1883,3326
1883,3918
1886,3909
1888,2819
1889,3758
1890,983
1890,1715
1890,4301
1893,94
1893,3464
1896,873
1897,1266
1897,1307
1897,1451
1897,1919
1897,2326
1900,203
1901,1290
1901,3909
1902,85
1903,1621
1903,2208
1903,2246
1904,1269
1904,1859
1904,4060
1905,414
1905,461
1906,42
1906,262
1906,471
1906,914
1906,1047
1906,1161
1906,4022
1906,4988
1908,3306
1909,1386
1909,1612
1909,3334
1910,3904
1911,142
1913,71
1913,367
1913,696
1913,1835
1913,2570
1913,2634
1913,3178
1913,3249
1913,3726
1914,1388
1915,14
1915,141
1915,2408
1915,2831
1915,3473
1916,16
1916,28
1916,47
1916,303
1916,343
1916,615
1916,692
1916,1056
1916,2750
1916,2986
1916,3522
1916,4049
1916,4662
1917,315
1917,924
1917,2986
1917,4358
1919,716
1919,1380
1920,439
1920,1404
1920,3154
1920,3284
1920,3842
1920,3955
1920,4060
1922,954
1923,2634
1924,103
1924,2152
1924,4207
1924,4872
1926,1055
1926,3175
1927,301
1928,1323
1928,4288
1929,208
1929,437
1932,4403
1933,1485
1933,1840
1933,3907
1933,4336
1934,42
1934,79
1934,700
1934,1278
1934,4262
1934,4555
1934,4793
1935,1838
1937,1017
1937,1117
1937,2374
1937,3734
1938,208
1945,1651
1945,2448
1945,4259
1946,355
1946,453
1946,1496
1946,2395
1948,129
1949,1192
1952,43
1953,4662
1955,550
1957,2189
1960,25
1960,3357
1962,3499
1962,4448
1963,761
1964,142
1964,1187
1964,2056
1964,3759
1964,4609
1965,1768
1966,3777
1966,4930
1969,3959
1970,76
1970,249
1970,2727
1970,3476
1970,4097
1970,4164
1970,4812
1971,969
1971,2665
1972,902
1972,3859
1973,38
1975,497
1975,2662
1975,3277
1976,2674
1977,767
1977,1756
1977,3343
1977,3464
1977,3699
1978,2
1978,984
1978,1023
1978,1164
1978,1483
1978,1715
1978,1863
1978,2289
1978,3965
1979,374
1979,3817
1982,4210
1983,66
1983,4550
1984,4564
1985,614
1985,1425
1985,1556
1985,2305
1985,3114
1986,1780
1986,3866
1987,286
1987,674
1990,1598
1995,355
1995,1004
1996,384
1996,433
1996,546
1996,627
1996,1526
1996,2146
1996,2470
1996,3993
1997,602
1997,780
1997,1951
1997,4377
2000,106
2001,87
2001,1013
2003,478
2003,665
2003,2828
2003,4930
2006,1015
2006,1813
2007,227
2007,2247
2007,3751
2008,1919
2010,756
2014,383
2015,282
2015,322
2015,3053
2015,3973
2016,3896
2017,877
2017,3392
2019,424
2023,142
2024,339
2025,171
2027,4482
2028,877
2028,1858
2028,2164
2028,2268
2028,2675
2028,3545
2029,47
2029,2783
2029,3023
2030,1850
2032,3080
2033,66
2033,861
2033,926
2034,1528
2037,3909
2038,71
2038,2821
2038,2972
2040,2704
2044,3251
2045,7
2045,50
2045,1269
2045,3615
2045,4555
2046,140
2046,355
2046,2458
2049,181
2049,466
2049,1442
2049,3169
2049,4549
2049,4960
2050,193
2050,262
2050,2374
2052,1019
2053,391
2053,582
2053,2010
2054,1089
2055,41
2055,1536
2061,342
2061,1566
2062,352
2062,594
2062,2566
2062,4865
2063,2462
2065,3568
2066,2654
2069,1386
2072,152
2072,2852
2073,208
2073,311
2073,342
2073,496
2073,826
2073,877
2073,2218
2073,2371
2073,2922
2073,3567
2073,3936
2073,4012
2073,4290
2074,423
2076,1376
2076,1896
2077,1492
2079,1423
2079,2583
2080,2009
2080,2683
2080,4755
2081,471
2082,142
2082,926
2082,1670
2082,1917
2082,4075
2082,4587
2083,200
2083,296
2083,636
2083,728
2083,1072
2083,1106
2083,1218
2083,1260
2083,1449
2083,1760
2083,1783
2083,3070
2084,669
2084,2326
2084,2375
2084,2817
2085,1331
2085,2066
2086,2690
2086,3108
2088,2727
2090,1068
2092,156
2092,954
2092,983
2092,2026
2092,2741
2094,1668
2095,950
2095,3159
2098,781
2098,3109
2098,3269
2099,787
2099,3426
2099,4791
2101,47
2101,621
2101,742
2101,817
2101,1447
2101,1925
2101,2031
2101,2614
2101,2998
2101,3284
2101,3355
2101,4857
2104,95
2104,4829
2105,293
2105,795
2105,3148
2105,3388
2107,3180
2109,1025
2110,319
2110,556
2110,1067
2110,1227
2110,2551
2110,2766
2110,2986
2110,3669
2110,4876
2111,296
2111,1896
2111,3475
2111,3567
2111,3851
2111,4599
2113,156
2113,3489
2114,4259
2115,761
2116,252
2116,643
2116,2066
2117,3380
2118,4130
2119,1269
2120,1299
2122,156
2122,400
2122,3089
2127,342
2134,1884
2134,2568
2137,4458
2138,4559
2140,2831
2142,83
2142,749
2142,999
2143,202
2143,1447
2143,3027
2143,3902
2143,4063
2144,665
2144,1036
2144,1562
2144,2791
2144,3739
2144,4311
2145,720
2145,3820
2146,460
2146,1768
2146,2197
2146,2233
2146,2652
2146,4228
2146,4456
2147,2986
2148,181
2148,1131
2149,2066
2151,8
2151,46
2151,344
2151,356
2151,511
2151,830
2151,852
2151,908
2151,2906
2151,3171
2151,3371
2151,3446
2151,3808
2151,4594
2151,4974
2152,713
2153,242
2153,263
2153,325
2153,471
2153,1338
2153,1430
2153,1974
2153,2334
2153,3139
2153,3282
2153,3465
2153,3602
2153,3825
2153,4312
2153,4652
2154,3380
2154,3904
2157,3652
2158,990
2159,2259
2159,2330
2159,3675
2160,1068
2162,58
2162,1091
2162,1342
2162,4209
2163,3896
2167,748
2167,4236
2167,4494
2168,1601
2169,787
2169,1112
2169,4139
2169,4501
2171,1725
2171,2611
2172,2986
2173,8
2174,41
2174,1626
2175,695
2178,1085
2179,718
2179,1651
2179,3941
2179,4959
2180,200
2182,2193
2182,3102
2182,3301
2182,3614
2183,1447
2183,2246
2183,3149
2183,4209
2184,1415
2184,2259
2184,2402
2186,2802
2187,1685
2187,4164
2194,282
2194,443
2194,594
2194,1311
2194,2013
2194,2026
2194,3178
2194,3683
2194,4303
2194,4642
2198,2558
2199,146
2199,1131
2199,1153
2199,1686
2199,2616
2199,2694
2199,3264
2199,4705
2201,3401
2202,1039
2202,2654
2205,150
2207,385
2207,1767
2209,231
2211,161
2211,307
2213,1274
2213,1350
2213,1376
2215,1768
2215,1793
2215,3683
2217,174
2217,787
2217,1759
2219,120
2219,146
2219,719
2219,1131
2219,2399
2219,4675
2222,4120
2223,611
2224,3612
2224,4323
2225,1772
2227,1039
2227,1742
2227,3064
2227,3247
2227,4541
2229,4930
2230,1206
2232,4458
2233,659
2234,761
2239,1017
2241,925
2242,527
2242,1388
2242,2810
2243,47
2243,4793
2245,301
2245,3764
2248,2931
2249,2225
2249,2306
2249,4147
2250,1796
2250,3063
2251,2997
2251,4819
2252,482
2252,4052
2253,305
2253,2309
2254,737
2255,445
2257,263
2257,681
2257,1376
2257,2026
2257,3637
2259,95
2259,3247
2260,730
2261,677
2261,1249
2263,38
2263,2326
2263,4403
2264,3176
2265,12
2265,39
2265,59
2265,748
2265,907
2265,1023
2265,1541
2265,1562
2265,2200
2265,2295
2265,3242
2265,3643
2267,102
2267,262
2267,674
2267,1215
2268,2796
2269,1039
2269,1768
2269,2568
2269,4209
2269,4943
2270,59
2270,2796
2270,3114
2270,3319
2273,2864
2274,635
2275,383
2275,1892
2276,3464
2279,47
2281,149
2281,296
2281,355
2281,2096
2282,1611
2285,2634
2286,2819
2287,1994
2291,1813
2292,627
2296,66
2296,1940
2296,2613
2298,329
2298,3053
2300,409
2300,1311
2300,2121
2301,363
2302,4292
2303,261
2303,329
2303,400
2303,427
2303,611
2303,690
2303,926
2303,1307
2303,2561
2303,2662
2303,2706
2303,2862
2303,2986
2303,3607
2303,4318
2303,4458
2303,4940
2305,701
2305,975
2305,1338
2305,4003
2305,4297
2307,674
2307,4266
2307,4623
2308,4851
2310,718
2310,720
2310,4233
2310,4721
2314,1878
2315,203
2315,230
2315,391
2315,1651
2315,2073
2315,2323
2315,2448
2315,2739
2315,3538
2315,4331
2315,4544
2316,428
2316,1131
2317,2933
2320,545
2320,1040
2320,3326
2322,3758
2324,781
2324,4768
2325,82
2325,560
2327,638
2327,3699
2329,4209
2330,2256
2330,4928
2331,58
2331,275
2331,422
2331,1001
2331,2729
2331,4377
2332,3370
2334,3790
2337,307
2337,655
2337,1438
2337,2678
2337,3124
2337,3267
2337,4066
2339,3343
2339,4047
2341,2052
2343,230
2344,178
2346,4537
2347,1570
2347,3875
2347,4941
2349,28
2349,4163
2350,1127
2350,1615
2355,424
2356,263
2356,1472
2356,2276
2357,2434
2357,2612
2357,3782
2359,641
2359,877
2360,156
2360,519
2360,2152
2361,1393
2361,4993
2363,322
2364,2370
2364,2550
2364,3709
2364,4674
2364,4883
2365,3737
2366,767
2366,2922
2367,1504
2368,1742
2371,3651
2372,230
2379,2244
2380,807
2380,2949
2381,58
2382,342
2382,519
2382,2819
2384,1118
2384,3651
2384,4652
2385,1966
2386,193
2386,431
2386,561
2386,852
2386,1621
2386,1968
2386,3052
2386,4666
2387,1981
2389,358
2389,471
2389,2411
2391,2833
2391,4060
2393,1218
2394,4072
2396,140
2396,1036
2396,1052
2396,2605
2396,4127
2396,4216
2396,4656
2396,4795
2398,14
2398,20
2398,222
2398,409
2398,737
2398,830
2398,1113
2398,1164
2398,1700
2398,1942
2398,2313
2398,3229
2398,3302
2398,3306
2398,3376
2398,3640
2398,3801
2398,4177
2398,4739
2399,1447
2400,339
2401,3647
2403,2931
2403,3504
2405,3334
2407,2169
2407,2455
2407,4543
2413,16
2414,66
2414,141
2414,168
2414,342
2414,354
2414,1054
2414,1129
2414,2195
2414,2271
2414,2694
2414,3108
2414,3452
2414,4285
2414,4347
2417,3108
2417,3401
2417,4480
2418,617
2420,458
2420,1753
2421,1263
2421,3970
2421,4482
2421,4574
2422,613
2422,2819
2423,761
2423,2721
2425,363
2425,414
2425,570
2425,2572
2430,4906
2431,586
2431,717
2431,1270
2435,867
2436,3316
2436,3540
2436,4762
2437,1715
2438,50
2438,227
2438,234
2438,319
2438,1269
2438,1318
2438,1999
2438,4397
2441,2374
2442,927
2445,208
2447,38
2447,2419
2448,3327
2449,2933
2454,581
2454,3115
2456,216
2456,246
2456,1989
2456,2565
2456,2575
2456,3049
2456,3079
2456,3860
2459,38
2459,181
2459,665
2459,1317
2459,1767
2459,2238
2459,2374
2460,112
2460,1503
2460,3596
2461,4207
2461,4537
2463,388
2463,400
2463,804
2463,995
2463,1642
2463,1840
2463,2231
2463,2268
2463,2311
2463,2687
2465,1364
2465,2771
2466,919
2466,1598
2468,719
2468,3875
2469,1364
2469,1424
2469,1638
2469,2935
2471,995
2472,1939
2474,7
2474,918
2476,162
2477,2481
2477,2727
2478,200
2478,973
2478,1365
2478,2121
2478,4547
2478,4728
2478,4780
2480,621
2480,632
2482,767
2484,2214
2484,2844
2484,3496
2485,193
2485,475
2485,651
2485,1822
2485,2853
2486,1036
2486,2334
2487,76
2487,177
2487,182
2487,747
2487,821
2487,955
2487,1354
2487,1940
2487,2073
2487,2130
2487,2760
2487,3696
2487,4095
2487,4383
2488,2087
2488,2686
2490,1002
2491,503
2491,894
2491,2667
2491,2931
2491,3080
2491,3108
2491,3251
2491,3322
2491,4436
2492,73
2492,1474
2492,1526
2494,1994
2495,3375
2495,3575
2495,3904
2496,8
2496,271
2496,1764
2496,3060
2497,761
2497,1318
2497,3490
2497,4285
2497,4377
2499,427
2499,2179
2500,154
2500,4403
2500,4458
2501,616
2502,385
2502,4488
2504,2697
2505,300
2505,3284
2506,1055
2507,3135
2507,4709
2507,4736
2509,310
2509,534
2509,2073
2509,3180
2512,355
2512,659
2512,3750
2513,50
2513,288
2513,3504
2515,954
2515,990
2516,1919
2518,76
2518,4384
2519,7
2519,2931
2519,4910
2520,1994
2521,142
2522,519
2522,3896
2523,4541
2524,355
2524,2026
2524,3250
2524,3684
2524,4184
2526,2190
2528,210
2528,3599
2529,4196
2530,223
2530,2818
2530,4414
2531,1574
2534,1389
2535,914
2535,1065
2536,1875
2536,4614
2537,2807
2537,4889
2538,95
2538,225
2538,1388
2538,1510
2538,1686
2542,164
2542,314
2542,3986
2542,4662
2543,1180
2543,3119
2544,1526
2545,1562
2546,927
2546,2928
2547,274
2548,13
2548,2305
2548,2328
2550,21
2550,1270
2550,1969
2550,2294
2550,2426
2550,3125
2550,4332
2550,4538
2553,926
2553,3498
2555,990
2555,1015
2556,3767
2556,4388
2557,1736
2560,450
2561,1263
2561,2867
2561,3821
2561,4212
2561,4915
2562,325
2562,2770
2563,76
2563,104
2563,216
2563,1057
2563,2313
2563,3178
2563,3817
2564,717
2564,3284
2564,3473
2567,1813
2569,1301
2571,3466
2573,3810
2573,3927
2574,737
2576,437
2577,1354
2577,1605
2579,1036
2580,8
2580,208
2582,2066
2583,1425
2585,1776
2585,1959
2585,2451
2586,1338
2587,641
2588,2999
2589,2
2590,92
2590,212
2590,922
2590,2972
2590,3226
2590,3819
2591,674
2592,645
2592,727
2592,2444
2593,706
2593,2768
2593,3522
2594,1330
2594,1354
2594,2011
2595,460
2595,556
2596,761
2596,1089
2596,3280
2596,3953
2596,3982
2596,4844
2596,4944
2597,1775
2597,2272
2597,4297
2597,4880
2600,685
2601,1120
2601,3625
2603,274
2608,1778
2611,1260
2611,1898
2611,4175
2611,4440
2611,4544
2612,471
2612,1829
2614,3
2614,282
2614,1008
2614,3769
2614,4826
2618,2204
2619,178
2619,523
2619,611
2619,677
2619,1301
2619,2073
2619,3529
2619,3534
2619,3705
2619,4256
2619,4797
2619,4809
2621,2237
2623,471
2623,1064
2623,1839
2624,2138
2625,1377
2626,150
2626,1019
2626,1164
2626,1668
2626,2517
2626,3798
2627,973
2628,817
2628,3011
2633,39
2633,1778
2633,2155
2635,590
2637,1214
2638,1925
2639,1212
2640,2732
2640,3005
2643,3380
2644,2694
2648,1412
2651,1272
2651,3720
2651,4875
2652,76
2652,142
2656,1815
2657,1510
2659,227
2661,730
2662,47
2662,197
2662,305
2662,963
2662,991
2662,1164
2662,1509
2662,1670
2662,2036
2662,2062
2662,2277
2662,2434
2662,3138
2662,4133
2662,4693
2665,150
2665,216
2665,581
2665,1348
2665,1598
2665,1651
2665,1768
2665,1777
2665,1813
2665,1992
2665,2497
2665,2539
2665,2819
2665,2821
2665,3380
2665,3464
2665,3667
2665,3767
2667,4131
2668,1439
2668,4022
2670,244
2670,1547
2670,2026
2670,2073
2671,2253
2671,2762
2673,137
2673,310
2673,556
2673,654
2673,756
2673,786
2673,975
2673,1882
2673,2179
2673,3024
2673,3177
2673,3995
2673,4302
2673,4317
2673,4796
2673,4837
2674,3534
2676,627
2676,4039
2678,366
2678,408
2678,873
2678,1739
2678,2646
2678,3522
2678,3574
2679,3758
2680,481
2681,342
2682,173
2684,2539
2684,3038
2685,3129
2688,805
2689,383
2689,1142
2689,1208
2689,3399
2691,611
2691,1565
2691,2068
2691,2373
2691,2916
2691,3587
2692,208
2693,224
2693,286
2693,645
2693,1504
2693,3277
2693,4233
2694,1748
2695,761
2695,1447
2695,2204
2695,2922
2695,3199
2695,3801
2696,47
2696,249
2696,668
2696,3092
2696,4159
2696,4596
2697,3890
2698,1283
2698,4517
2699,546
2699,1412
2699,1791
2699,1854
2699,1919
2699,2059
2699,2139
2699,2231
2699,2595
2699,3228
2701,255
2702,1474
2702,4220
2702,4797
2704,817
2704,4467
2705,519
2705,572
2711,3274
2712,25
2713,8
2713,877
2713,1931
2713,3917
2713,4280
2715,1089
2718,3178
2719,47
2720,1056
2721,3180
2723,3509
2724,867
2725,1457
2726,840
2728,550
2728,1721
2730,1813
2730,3464
2730,3602
2730,3779
2730,4051
2734,413
2734,807
2734,4196
2736,27
2736,2922
2736,3035
2736,3418
2737,551
2738,2675
2738,2800
2740,4318
2740,4517
2740,4532
2743,1827
2745,684
2745,2049
2746,4739
2749,1265
2749,4259
2751,2009
2753,2326
2754,2
2754,4537
2756,1345
2756,2764
2757,1022
2758,2770
2760,2100
2761,1389
2762,614
2762,3642
2763,212
2765,2866
2769,1062
2769,2464
2774,7
2774,80
2774,95
2774,181
2774,293
2774,358
2774,569
2774,770
2774,1386
2774,1940
2774,2020
2774,2098
2774,2116
2774,2353
2774,2487
2774,2897
2774,3334
2774,3464
2774,4271
2778,665
2779,117
2779,3313
2781,2978
2782,502
2782,4412
2785,960
2786,242
2786,686
2786,2363
2787,632
2787,1174
2787,1919
2787,2073
2787,3540
2787,4327
2787,4768
2790,1526
2790,4076
2792,345
2792,380
2792,1940
2792,4040
2793,611
2793,2935
2794,380
2801,711
2802,4199
2805,990
2807,536
2807,1566
2807,2125
2808,1454
2808,4197
2809,46
2809,181
2809,561
2809,692
2809,793
2809,840
2809,3468
2809,4063
2810,1258
2810,1715
2813,1708
2814,742
2815,578
2815,3899
2816,3098
2822,342
2824,178
2825,3330
2826,34
2826,58
2826,3867
2826,3966
2830,1989
2831,1504
2836,718
2841,651
2841,1249
2842,58
2842,1249
2842,1838
2842,1907
2842,2930
2842,3502
2842,4100
2842,4442
2843,1599
2846,1721
2847,1274
2849,1293
2849,4223
2849,4279
2850,200
2850,1619
2851,50
2851,331
2851,423
2851,1974
2851,4458
2851,4954
2852,4963
2854,66
2854,200
2854,240
2854,408
2854,493
2854,632
2854,1067
2854,3679
2854,4656
2855,49
2855,631
2855,983
2855,2085
2855,2237
2856,1188
2857,551
2858,853
2858,1272
2859,830
2859,1572
2859,2051
2860,1577
2860,1642
2861,239
2861,701
2862,2645
2862,2700
2863,2333
2865,2772
2866,342
2866,702
2866,3949
2868,156
2869,3251
2870,1064
2871,1485
2874,80
2875,3481
2875,4364
2876,3511
2878,135
2881,3739
2882,3526
2882,4721
2885,2066
2886,3274
2886,3381
2887,4517
2888,1064
2891,92
2891,141
2891,2493
2891,3651
2891,3856
2891,4238
2893,490
2895,573
2900,321
2902,1550
2905,3904
2906,76
2906,246
2906,1017
2906,1437
2906,1791
2906,1915
2906,1918
2906,2056
2906,2789
2906,2979
2906,3628
2906,4149
2906,4466
2906,4564
2907,1626
2910,720
2910,4531
2911,2466
2912,8
2912,1556
2914,179
2914,1745
2914,2483
2914,3041
2915,209
2915,1560
2917,719
2917,1874
2922,80
2922,1202
2922,3401
2923,2467
2923,3968
2924,58
2925,305
2926,3370
2927,2036
2931,502
2931,1386
2931,1394
2931,1575
2931,1592
2931,3214
2931,3737
2932,2152
2933,4063
2934,935
2936,2374
2937,2161
2937,4458
2937,4619
2938,1768
2939,457
2941,4674
2943,85
2944,1537
2945,164
2945,303
2945,579
2946,355
2946,1064
2946,2106
2948,4163
2950,1252
2950,4537
2952,1002
2953,1668
2955,2609
2956,621
2957,1463
2957,1852
2959,993
2960,7
2960,645
2961,584
2962,208
2964,471
2966,2517
2966,4301
2966,4748
2968,722
2970,200
2971,453
2972,111
2973,178
2973,4129
2974,2083
2975,747
2982,322
2982,2858
2982,3052
2982,4707
2983,263
2983,3186
2985,141
2985,212
2985,926
2986,325
2988,212
2988,594
2988,720
2988,804
2988,959
2988,3057
2988,3255
2993,451
2993,2831
2993,4821
2994,951
2994,3391
2995,3052
2996,1137
2996,4947
2997,3052
2998,2073
3000,2819
3001,840
3002,821
3003,497
3003,722
3003,2860
3006,1715
3008,12
3008,296
3008,635
3008,742
3008,1167
3008,1504
3008,1891
3008,1993
3008,2231
3008,2748
3008,3473
3008,3568
3009,94
3009,894
3010,641
3010,3113
3011,1679
3012,342
3012,551
3012,659
3012,969
3012,1339
3012,1371
3012,2931
3012,4473
3013,990
3013,4495
3014,437
3014,817
3015,47
3015,1284
3016,3052
3017,135
3018,1778
3018,2019
3018,2418
3018,2517
3018,2662
3018,2931
3018,4377
3021,1600
3021,2336
3021,3501
3024,1736
3025,134
3025,3673
3026,437
3026,1209
3026,4903
3028,674
3030,3875
3031,154
3031,158
3031,161
3031,481
3031,952
3031,1249
3031,1583
3031,2721
3031,4001
3032,4937
3033,1623
3033,4014
3039,142
3039,159
3039,465
3039,1064
3039,1344
3039,2191
3039,3277
3041,1214
3045,2138
3046,142
3046,4498
3048,233
3049,8
3049,1193
3049,1830
3049,2614
3049,2938
3053,1801
3055,4537
3056,615
3061,2810
3062,2699
3065,437
3069,2867
3076,2770
3077,614
3080,1164
3080,2233
3081,2408
3082,800
3083,1137
3083,1296
3083,1345
3083,4739
3084,156
3085,544
3087,738
3087,4560
3088,189
3088,830
3088,4751
3090,203
3090,230
3090,296
3090,329
3090,355
3090,371
3090,481
3090,696
3090,926
3090,1189
3090,1373
3090,1438
3090,1788
3090,2149
3090,2694
3090,2899
3090,3102
3090,3115
3090,3267
3090,3456
3090,3511
3090,3770
3090,3776
3090,3904
3090,4879
3090,4906
3092,1893
3093,686
3095,329
3095,686
3095,2963
3095,3313
3096,1485
3096,3801
3097,3156
3099,346
3099,2858
3099,3460
3100,4163
3100,4390
3101,4458
3106,2514
3106,4347
3107,2613
3107,4389
3108,1887
3110,305
3112,3604
3112,4233
3113,346
3113,1599
3113,3434
3114,1004
3116,451
3116,3209
3116,4335
3126,82
3127,1874
3129,3098
3130,58
3131,730
3131,1331
3131,1526
3132,2452
3133,1386
3133,4487
3133,4541
3134,231
3136,1839
3136,2043
3137,1508
3137,2427
3140,935
3140,3719
3141,231
3142,193
3144,240
3147,1270
3148,4873
3150,2517
3152,1547
3153,1531
3153,2588
3157,2043
3157,2741
3157,3801
3158,174
3161,1934
3162,767
3163,1172
3164,187
3164,3801
3166,3108
3167,12
3167,178
3167,216
3167,542
3167,611
3167,1931
3167,3489
3167,4812
3168,1715
3172,898
3173,4937
3174,1564
3176,38
3176,183
3176,477
3176,479
3176,690
3176,730
3176,1172
3176,1212
3176,3394
3177,2121
3179,1457
3180,1715
3181,156
3181,325
3181,818
3181,3954
3182,1526
3184,2605
3185,287
3186,4693
3187,2042
3187,2694
3189,786
3192,821
3192,1442
3192,1862
3192,3640
3192,3758
3192,4081
3192,4092
3192,4519
3193,525
3193,4449
3194,776
3194,1835
3194,3913
3195,203
3195,3139
3196,991
3197,2554
3198,1015
3200,3113
3202,1471
3202,4873
3203,13
3204,1869
3205,4327
3206,2972
3207,1446
3207,1526
3208,2551
3211,2741
3211,3227
3212,53
3213,1605
3213,4817
3215,2349
3216,761
3216,2368
3216,2986
3216,3255
3217,177
3217,178
3217,727
3217,1195
3217,1318
3217,1831
3218,103
3219,2445
3222,54
3222,621
3222,631
3222,1214
3222,2011
3222,2124
3222,2647
3222,2721
3222,3512
3222,3779
3222,3871
3222,4873
3223,4467
3225,1156
3230,767
3230,1376
3230,4986
3232,329
3233,1139
3233,2233
3233,3380
3235,810
3235,3065
3236,551
3239,4691
3240,1412
3240,3459
3240,3618
3240,4013
3240,4403
3241,1741
3243,1031
3245,12
3246,239
3251,156
3251,2951
3253,3489
3254,3
3254,325
3254,927
3254,1502
3254,4541
3255,896
3255,902
3257,1528
3258,177
3258,1269
3260,2330
3260,2487
3262,610
3262,2156
3262,2741
3262,4982
3266,443
3266,2432
3267,2432
3268,2066
3270,46
3272,76
3275,2600
3276,674
3278,2600
3279,3955
3280,200
3280,368
3285,1337
3285,4063
3289,519
3290,3064
3291,1571
3291,2772
3292,3801
3292,4236
3294,3271
3297,111
3297,411
3297,769
3297,1474
3297,3247
3297,4971
3298,7
3298,1203
3298,1263
3298,4046
3300,1064
3300,1147
3302,4461
3303,645
3303,1840
3305,3896
3306,3098
3306,4053
3307,1339
3309,3267
3311,4806
3314,2945
3320,355
3320,1156
3320,3277
3320,3855
3321,2156
3324,3473
3325,187
3325,296
3326,342
3328,85
3328,787
3328,1520
3328,2192
3328,2617
3328,3255
3328,3464
3328,4388
3329,901
3332,227
3333,1732
3334,400
3335,2945
3337,1789
3337,4209
3338,1913
3338,4315
3340,146
3342,2026
3343,47
3344,1274
3345,1987
3346,772
3347,252
3347,726
3347,770
3347,1164
3347,1344
3347,1369
3347,1568
3347,1598
3347,2997
3347,3129
3347,3819
3347,4784
3348,2570
3348,3153
3348,3538
3349,1526
3351,950
3352,1484
3353,2047
3355,1713
3355,2374
3356,3102
3357,2095
3358,1732
3358,2505
3358,2664
3359,1412
3360,1768
3360,3471
3361,3330
3362,1142
3363,3370
3366,1651
3366,2949
3366,3336
3367,1114
3368,665
3370,322
3370,438
3372,761
3377,927
3380,737
3382,4652
3383,519
3383,1180
3383,4541
3384,1940
3384,4950
3386,208
3386,521
3390,1526
3391,7
3391,38
3391,65
3391,210
3391,325
3391,354
3391,471
3391,520
3391,555
3391,628
3391,902
3391,1039
3391,1485
3391,2063
3391,2747
3391,2865
3391,3267
3391,3832
3393,1329
3394,209
3394,2665
3394,3985
3398,800
3399,822
3399,1135
3399,2662
3399,3944
3400,563
3400,1437
3400,4462
3402,1504
3403,453
3403,4093
3405,1064
3407,2600
3408,3801
3409,1824
3409,4389
3411,208
3412,1917
3413,1344
3414,240
3415,242
3417,156
3417,556
3417,4112
3418,13
3418,839
3418,1203
3418,2704
3419,1156
3420,325
3421,2752
3422,3867
3427,249
3427,438
3428,2428
3428,2813
3429,929
3429,2559
3430,2892
3431,193
3431,344
3431,1021
3431,1715
3431,2986
3436,2810
3437,2253
3440,2233
3440,2759
3441,200
3441,1931
3441,4258
3442,31
3448,756
3448,2511
3448,3801
3449,1094
3449,2312
3450,47
3451,1311
3452,3429
3453,1893
3453,3102
3455,3758
3456,1739
3456,2659
3461,92
3461,106
3461,163
3461,1368
3461,1841
3461,3080
3461,3188
3462,653
3463,2036
3467,3075
3468,58
3469,113
3470,4087
3473,3474
3474,2402
3474,2845
3479,1822
3479,3983
3480,140
3480,368
3481,305
3481,563
3481,1423
3487,1004
3488,1330
3489,2294
3490,1347
3490,1795
3491,301
3492,1940
3493,594
3494,2018
3494,4128
3495,146
3497,193
3497,1260
3497,4175
3498,1185
3499,1974
3501,1263
3501,4376
3505,3302
3508,4403
3509,914
3510,110
3510,2430
3510,4602
3512,4403
3514,2493
3515,382
3518,242
3519,3537
3521,242
3521,2258
3522,4026
3522,4534
3522,4674
3523,597
3523,3008
3523,3614
3524,617
3524,4373
3525,380
3526,156
3526,793
3527,200
3527,524
3527,3129
3528,3635
3528,4282
3529,3203
3529,4244
3530,21
3530,3963
3530,4447
3531,227
3531,1662
3532,3385
3534,1055
3534,1572
3535,1702
3537,133
3537,634
3539,159
3539,4693
3542,3970
3543,1091
3544,115
3547,339
3547,408
3547,501
3547,503
3547,1748
3547,3118
3547,4617
3547,4974
3548,1164
3548,3909
3549,230
3549,610
3549,1269
3549,1339
3549,1526
3549,1573
3549,1988
3549,2194
3549,2349
3549,2497
3549,2672
3549,2687
3549,2931
3549,3064
3549,3129
3549,3511
3550,3390
3552,3401
3553,4209
3555,659
3556,602
3558,311
3558,428
3558,692
3560,990
3561,2011
3565,3005
3566,1283
3567,2945
3567,4610
3568,133
3568,4459
3571,1404
3571,1526
3572,319
3572,603
3572,3171
3572,3426
3572,3881
3573,1866
3574,2397
3578,16
3579,1265
3580,2331
3580,3312
3580,4172
3581,2448
3581,3640
3582,3438
3583,189
3583,193
3583,517
3583,721
3583,1868
3583,3102
3583,3506
3583,4465
3583,4623
3584,282
3585,877
3585,2101
3585,3055
3585,3507
3585,4295
3586,615
3586,1269
3588,3011
3589,1623
3591,374
3592,4175
3593,2492
3594,8
3594,13
3594,4691
3595,1497
3597,3020
3598,3943
3600,3355
3603,1469
3605,2299
3606,265
3606,325
3606,603
3606,867
3606,1359
3606,3946
3606,4005
3606,4624
3607,527
3608,1858
3610,581
3610,1932
3611,1917
3612,727
3615,397
3617,325
3620,3306
3621,2299
3622,58
3622,1164
3623,1022
3623,1750
3624,1685
3624,1885
3624,2831
3624,4629
3625,1085
3626,4347
3629,3380
3630,758
3631,1940
3632,1274
3633,1029
3634,3180
3634,3537
3634,4347
3636,187
3636,2135
3636,2259
3638,3281
3639,3
3640,4467
3643,239
3643,985
3643,991
3643,3251
3643,3965
3643,4827
3644,1301
3645,3758
3646,142
3646,273
3646,321
3646,434
3646,590
3646,992
3646,1098
3646,1150
3646,1560
3646,1802
3646,1822
3646,1838
3646,1883
3646,2236
3646,2697
3646,2810
3646,3064
3646,3173
3646,3568
3646,3896
3646,4046
3646,4240
3646,4521
3646,4537
3646,4624
3647,23
3647,1827
3647,4877
3648,1840
3649,367
3650,367
3650,4880
3652,2937
3652,4045
3653,3537
3654,83
3654,3595
3655,2336
3655,4400
3657,437
3657,1319
3657,1456
3657,2721
3657,4591
3657,4747
3658,3473
3659,1488
3661,1156
3663,1605
3663,4493
3665,193
3667,135
3667,3284
3670,1187
3671,1492
3674,2277
3675,11
3675,354
3675,1893
3675,3464
3675,3790
3675,4620
3676,4954
3680,7
3680,315
3682,1068
3686,508
3687,1504
3687,4143
3689,4656
3690,1347
3691,3552
3694,1064
3697,178
3697,3706
3698,242
3699,1354
3699,3597
3699,3840
3701,909
3701,1778
3703,914
3704,499
3704,962
3704,2509
3704,2931
3707,1389
3708,2039
3710,67
3710,2717
3714,345
3714,4403
3714,4473
3716,1320
3718,227
3719,653
3721,1778
3724,3567
3728,1940
3729,1955
3730,3334
3731,610
3732,47
3732,83
3732,156
3732,457
3732,659
3732,962
3732,1893
3732,2448
3732,2831
3732,3115
3736,76
3736,135
3736,287
3736,478
3736,1262
3736,1370
3736,1849
3736,2766
3738,4046
3739,380
3740,1064
3741,405
3742,80
3743,137
3743,612
3743,649
3743,1522
3743,1873
3743,2110
3743,2604
3743,3786
3743,4041
3743,4422
3743,4515
3743,4624
3745,1020
3746,551
3749,2615
3749,2677
3752,1485
3754,611
3755,165
3756,76
3757,1562
3757,3129
3758,3904
3760,1299
3761,3248
3762,17
3762,1791
3763,561
3766,1457
3766,1463
3766,4539
3767,3758
3772,2175
3773,3315
3773,4108
3774,3
3774,674
3776,29
3776,156
3776,4059
3781,990
3781,4407
3781,4976
3782,3227
3782,4207
3782,4267
3783,499
3783,1824
3783,3177
3783,4492
3783,4674
3785,3502
3788,231
3788,575
3788,1177
3788,2773
3788,3020
3788,4517
3790,1777
3790,4097
3790,4224
3792,254
3792,1598
3792,1780
3793,3529
3794,875
3794,4837
3797,120
3797,161
3797,482
3797,665
3797,672
3797,1129
3797,1844
3797,2481
3797,3019
3797,3054
3797,3126
3797,3277
3797,3637
3797,4118
3797,4347
3797,4392
3797,4494
3799,979
3800,34
3800,465
3800,830
3800,991
3800,1097
3800,1471
3800,3286
3800,3570
3800,3838
3801,1741
3802,38
3802,1955
3804,1252
3806,189
3807,2110
3808,214
3808,1605
3808,1838
3808,2012
3808,2704
3808,3154
3808,3927
3808,4209
3808,4603
3809,1114
3809,1562
3809,3464
3809,4316
3811,137
3811,969
3811,993
3811,1017
3811,1412
3811,1504
3811,1642
3811,1813
3811,1913
3811,1917
3811,2133
3811,2262
3811,2457
3811,2535
3811,2540
3811,2548
3811,2559
3811,2742
3811,2749
3811,2853
3811,2997
3811,3037
3811,3103
3811,3504
3811,4029
3811,4546
3812,1002
3812,1652
3812,1768
3812,3302
3813,840
3816,611
3822,1673
3823,3801
3825,1017
3828,3811
3829,2171
3829,4226
3829,4471
3830,2363
3831,1884
3833,3381
3835,3229
3837,1338
3843,2708
3847,142
3847,2777
3848,4388
3850,1492
3852,208
3852,1799
3852,2121
3852,3265
3852,3964
3852,4016
3852,4803
3852,4892
3854,747
3858,717
3858,2089
3861,4494
3862,674
3864,342
3865,1015
3868,3602
3869,3537
3870,3680
3870,3931
3872,200
3873,14
3874,73
3876,543
3876,3365
3877,1039
3879,1472
3880,684
3881,2931
3882,3370
3883,424
3884,164
3884,475
3884,655
3884,737
3884,3210
3884,3678
3885,2026
3888,245
3892,970
3892,4731
3893,1140
3896,16
3897,866
3900,1526
3902,870
3902,2858
3903,310
3903,2349
3905,594
3906,695
3909,2396
3910,1673
3911,376
3911,478
3911,701
3911,993
3911,1482
3911,1970
3911,2634
3911,3287
3911,3370
3912,2930
3912,3129
3912,4092
3912,4864
3915,80
3921,3370
3922,1839
3924,178
3925,877
3925,1604
3926,1328
3926,2466
3928,1419
3929,3917
3929,4067
3929,4089
3930,2374
3934,742
3934,1088
3934,1289
3934,3713
3934,4040
3935,2013
3936,8
3936,471
3936,1004
3936,4037
3937,800
3938,2031
3939,4739
3942,1269
3943,1898
3945,1458
3947,8
3948,4063
3949,4638
3953,2128
3954,4123
3956,3
3960,4166
3962,3052
3966,7
3966,133
3966,300
3967,2276
3968,3052
3968,4173
3968,4411
3971,58
3976,1468
3977,1710
3979,2026
3981,2831
3983,3468
3984,2979
3985,103
3985,1265
3985,1704
3985,2359
3988,1485
3989,2992
3990,224
3990,876
3990,1129
3990,1177
3990,1241
3990,1430
3990,2005
3990,3047
3990,3508
3990,3626
3990,3660
3990,4163
3990,4670
3992,793
3992,896
3993,2124
3994,1264
3995,437
3996,178
3996,1252
3997,981
3999,427
3999,4209
4001,778
4001,1025
4001,1427
4001,2704
4001,2949
4001,3511
4001,4166
4001,4461
4002,59
4002,227
4002,284
4002,1001
4002,1526
4002,1940
4002,2461
4002,3826
4002,4435
4004,47
4004,635
4006,141
4007,1019
4007,1065
4007,3473
4009,1650
4009,3165
4010,212
4011,610
4015,87
4015,231
4015,1617
4015,1768
4015,2424
4015,2797
4015,2931
4015,3043
4015,3406
4017,1388
4017,1472
4018,3523
4019,434
4020,80
4021,902
4023,4060
4024,183
4025,159
4027,38
4027,914
4027,2714
4028,1522
4029,2946
4031,4666
4032,4362
4033,1859
4034,3473
4035,1236
4036,2505
4036,3429
4038,1839
4039,3108
4040,653
4043,546
4043,2767
4044,339
4045,203
4047,161
4047,1455
4048,1870
4048,2432
4050,209
4050,1893
4054,1085
4055,1840
4056,1646
4057,3255
4057,4292
4058,50
4062,793
4063,1415
4064,908
4064,2074
4064,2903
4065,1779
4065,3861
4068,3175
4072,4676
4073,1651
4074,380
4074,4541
4074,4646
4075,3474
4077,872
4078,691
4078,3523
4078,3554
4079,7
4080,138
4080,342
4080,678
4080,746
4080,3034
4080,3744
4083,2073
4084,1536
4084,2451
4085,2622
4085,4163
4086,1956
4087,161
4088,1739
4089,611
4090,1925
4091,718
4091,3385
4091,4413
4094,2979
4095,177
4097,1992
4097,2704
4098,2600
4098,4209
4104,94
4106,59
4109,342
4109,839
4109,1205
4109,1278
4109,1348
4109,1510
4109,2349
4111,8
4111,66
4111,287
4111,594
4111,764
4111,1564
4111,2083
4111,2247
4111,3421
4111,3933
4111,4121
4111,4610
4113,46
4113,659
4113,1380
4115,1768
4116,444
4116,3227
4119,2733
4121,3443
4121,4209
4122,355
4123,104
4123,843
4123,1328
4123,1932
4123,2374
4124,39
4125,2345
4130,2861
4132,916
4134,181
4134,242
4134,307
4134,2301
4134,2375
4134,4564
4135,2218
4136,3791
4137,210
4137,1932
4138,3380
4140,103
4141,2161
4142,244
4144,1703
4145,2541
4148,1777
4151,443
4152,1337
4153,1293
4155,4001
4156,361
4156,366
4156,1463
4156,1510
4156,3474
4156,4434
4156,4493
4156,4652
4161,2660
4165,2095
4166,1350
4168,1686
4168,2828
4168,3616
4168,4304
4169,1566
4170,1014
4170,1526
4170,1889
4171,560
4171,617
4171,1029
4171,3279
4171,4287
4175,3881
4179,1064
4181,3
4181,181
4182,690
4182,894
4182,3745
4182,3891
4182,3895
4184,92
4184,951
4184,1166
4184,1625
4185,2426
4186,46
4186,894
4186,1019
4186,3966
4187,66
4188,973
4189,212
4189,1750
4190,1558
4191,1725
4192,466
4193,1067
4194,1850
4196,751
4198,2
4199,511
4199,1263
4199,4430
4200,409
4200,1209
4200,2510
4201,1064
4203,706
4204,1617
4206,95
4206,4556
4207,194
4211,1386
4213,47
4218,1940
4220,717
4221,39
4222,303
4224,138
4225,959
4226,367
4226,4150
4226,4869
4226,4937
4227,355
4227,718
4227,885
4230,1767
4231,398
4231,3473
4231,4521
4232,1526
4239,2660
4239,4974
4241,553
4241,4836
4242,193
4243,1007
4246,3306
4247,3108
4248,651
4249,918
4250,76
4250,258
4250,274
4250,1383
4252,1526
4253,41
4255,3789
4257,904
4258,478
4261,1438
4262,1050
4263,450
4264,283
4264,2834
4265,222
4268,140
4269,3448
4272,4196
4273,314
4274,85
4274,156
4275,71
4275,95
4275,1589
4275,2089
4275,2571
4277,1328
4281,142
4281,3715
4283,960
4283,4811
4284,1776
4284,3559
4285,2992
4289,3326
4290,1136
4290,1501
4290,4183
4291,902
4291,1465
4294,2554
4296,1715
4296,3284
4297,1874
4298,726
4300,857
4301,2963
4305,187
4306,617
4307,3966
4308,4112
4313,2489
4314,1389
4319,1002
4320,2440
4320,2999
4320,3062
4321,16
4322,146
4324,363
4326,674
4328,615
4329,1940
4330,1260
4330,2095
4330,3614
4331,310
4331,719
4331,1959
4331,2240
4333,3220
4334,4693
4341,1150
4343,4405
4344,2945
4345,339
4348,3601
4349,282
4352,298
4352,2551
4355,40
4355,74
4355,89
4355,203
4355,242
4355,453
4355,477
4355,594
4355,680
4355,867
4355,927
4355,969
4355,1055
4355,1541
4355,2464
4355,2652
4355,3043
4355,3443
4355,3814
4355,4209
4355,4493
4355,4609
4355,4623
4357,2074
4358,817
4359,1319
4360,3080
4360,4623
4361,227
4362,427
4362,669
4362,2464
4362,3075
4362,3102
4362,3669
4362,3758
4362,3801
4363,13
4365,4745
4366,3004
4366,3913
4367,1023
4368,615
4369,3710
4370,733
4371,4623
4372,1350
4372,3972
4372,4974
4374,1344
4378,2
4378,666
4378,817
4378,1145
4378,1162
4379,385
4379,4494
4380,398
4381,129
4381,611
4382,2326
4383,37
4383,47
4383,174
4383,207
4383,284
4383,314
4383,337
4383,885
4383,984
4383,1188
4383,1249
4383,1941
4383,1981
4383,2018
4383,3199
4383,3667
4383,3896
4383,4214
4383,4405
4385,66
4386,3213
4387,1704
4388,4963
4391,4716
4394,2919
4396,674
4396,908
4396,1685
4396,1721
4396,1778
4396,1940
4396,2149
4396,2694
4396,2735
4396,2796
4396,2913
4396,2980
4396,3170
4396,3332
4396,4139
4396,4393
4397,339
4397,1185
4397,1535
4397,1742
4397,3230
4397,4353
4397,4525
4397,4942
4399,80
4401,333
4404,3464
4405,592
4406,2984
4409,4873
4411,328
4411,453
4411,2931
4411,3839
4415,2861
4416,1023
4416,3280
4417,216
4417,311
4418,1829
4419,1504
4419,1992
4420,1208
4423,156
4423,1510
4424,2783
4426,200
4428,2429
4430,2609
4431,3909
4435,1047
4435,1198
4435,4466
4436,1260
4438,3801
4439,4693
4441,3062
4442,1805
4444,2703
4445,519
4450,208
4450,458
4450,761
4450,867
4454,385
4454,756
4454,787
4454,1925
4455,2568
4456,429
4456,1270
4456,1730
4456,1916
4457,764
4459,2009
4459,2412
4460,1212
4461,4259
4462,156
4462,1004
4462,4060
4463,3464
4468,413
4469,3898
4472,95
4475,1272
4475,1465
4477,3385
4478,509
4478,4750
4481,4336
4482,2755
4482,3667
4483,1447
4488,509
4488,872
4489,1002
4490,840
4492,38
4492,92
4493,230
4493,742
4496,429
4497,2192
4497,2897
4499,2732
4500,208
4500,227
4500,321
4500,461
4500,761
4500,778
4500,1323
4500,1629
4500,1697
4500,2179
4500,3887
4500,3999
4501,1419
4501,3981
4502,297
4502,4591
4504,102
4505,82
4505,181
4505,325
4505,748
4505,1168
4505,1899
4505,2708
4505,3212
4505,3656
4505,3909
4506,1326
4507,4145
4508,718
4508,4116
4509,2301
4509,3443
4509,4591
4511,1293
4512,1668
4514,190
4516,615
4517,1735
4518,1129
4521,3474
4522,1192
4523,363
4523,477
4523,1612
4523,4339
4526,1790
4527,665
4527,2433
4529,474
4529,1686
4529,3635
4530,92
4531,2666
4536,38
4536,46
4536,225
4536,296
4536,329
4536,727
4536,1012
4536,1203
4536,1323
4536,1526
4536,2039
4536,2297
4536,2374
4536,2398
4536,2582
4536,2780
4536,2898
4536,3221
4536,3894
4536,4112
4536,4667
4536,4739
4540,311
4541,429
4542,178
4542,1380
4544,3108
4547,1796
4548,2967
4550,66
4550,168
4550,592
4550,1994
4551,651
4551,1153
4551,3585
4551,3896
4551,4377
4552,550
4553,857
4553,4679
4554,1636
4554,2277
4558,1646
4562,1465
4563,4396
4565,3
4565,76
4565,200
4565,265
4565,339
4565,594
4565,627
4565,817
4565,872
4565,2610
4565,3018
4565,3083
4565,3220
4565,3235
4565,3497
4565,3651
4565,4662
4570,1330
4571,2822
4572,3810
4573,4087
4575,2864
4576,1741
4577,1039
4579,2709
4582,635
4583,3052
4584,479
4585,383
4585,494
4585,2098
4585,2293
4586,156
4586,171
4586,1269
4586,2798
4586,3936
4586,3995
4588,2916
4589,135
4591,2331
4591,3228
4594,2998
4594,4818
4595,469
4595,2892
4595,3540
4596,98
4596,946
4601,80
4601,284
4601,291
4601,835
4601,1668
4601,1956
4601,2121
4601,2716
4601,2848
4601,4112
4601,4164
4601,4166
4601,4365
4601,4662
4602,209
4604,73
4604,4502
4607,1788
4611,3949
4612,4463
4615,262
4615,1106
4615,1293
4615,1893
4618,2276
4618,4621
4622,4491
4623,3006
4626,2451
4627,3
4627,635
4627,1161
4627,1169
4627,1484
4627,3426
4628,4240
4629,4652
4632,1249
4635,380
4636,2043
4638,950
4639,668
4639,862
4643,1914
4643,4644
4646,538
4646,715
4646,1085
4646,1583
4646,4548
4647,3801
4648,181
4649,71
4650,3666
4652,380
4654,1449
4655,3476
4658,2892
4661,177
4661,329
4661,537
4661,754
4661,867
4661,888
4661,950
4661,966
4661,1016
4661,1542
4661,1642
4661,1668
4661,1918
4661,2231
4661,2237
4661,2271
4661,2703
4661,3302
4661,3540
4661,4309
4661,4340
4664,2280
4664,2697
4665,1388
4666,3060
4668,954
4669,1177
4671,753
4672,1164
4672,4874
4673,3511
4673,4832
4676,947
4677,1879
4677,3086
4677,4162
4677,4656
4680,875
4680,1029
4680,1330
4680,4937
4681,1887
4681,1917
4682,2052
4685,572
4685,2187
4687,719
4688,4340
4692,822
4693,878
4693,1418
4693,3692
4693,3987
4694,311
4695,3504
4697,3493
4698,3664
4699,891
4700,95
4700,3474
4700,3957
4701,282
4701,360
4701,4797
4702,2277
4704,1994
4706,1526
4706,2331
4708,538
4709,4906
4711,2105
4713,761
4714,767
4715,747
4716,3820
4719,3468
4721,4638
4722,2931
4724,89
4727,142
4727,2185
4727,2821
4727,3273
4727,4880
4729,3175
4729,3350
4730,140
4732,3124
4732,3464
4732,3873
4732,3881
4735,4327
4737,388
4738,178
4738,894
4738,1392
4738,2390
4738,2489
4738,2897
4738,3472
4738,4877
4740,301
4741,1849
4741,2101
4742,502
4743,4739
4746,2466
4749,296
4749,2986
4751,164
4751,315
4752,1169
4752,1274
4754,34
4754,83
4754,632
4754,2572
4754,4544
4755,573
4755,3284
4756,1159
4757,4197
4762,1085
4762,4759
4763,551
4763,627
4763,690
4763,3574
4763,4452
4765,2373
4765,3672
4766,1310
4767,3053
4768,207
4768,382
4768,612
4768,3100
4768,4980
4769,2634
4770,951
4770,3511
4771,25
4771,131
4771,1751
4771,2508
4771,3669
4771,3956
4771,4327
4772,2105
4773,1692
4773,2138
4773,2165
4773,3549
4774,208
4775,314
4775,2134
4776,4594
4779,1485
4781,2135
4782,3520
4783,2106
4786,3227
4786,3380
4787,817
4788,2852
4789,4429
4789,4433
4790,1331
4792,2284
4793,1022
4794,4707
4798,2610
4798,4331
4798,4753
4799,58
4799,479
4800,303
4802,2031
4803,4191
4804,3443
4805,187
4805,194
4805,245
4805,770
4805,902
4805,1275
4805,3029
4807,2575
4808,127
4810,3931
4812,225
4812,465
4812,510
4812,560
4812,605
4812,645
4812,991
4812,1041
4812,1153
4812,1245
4812,1573
4812,1717
4812,1925
4812,2835
4812,2951
4812,3122
4812,3129
4812,3277
4812,3625
4812,3803
4812,3998
4812,4174
4812,4597
4814,1702
4816,3129
4820,2433
4822,2237
4823,1106
4823,1865
4823,1989
4823,2446
4823,2694
4823,2929
4823,3248
4823,3389
4823,4732
4824,1465
4825,181
4828,34
4828,586
4828,4930
4829,726
4830,1715
4831,92
4831,311
4831,519
4831,729
4831,1537
4831,2418
4831,3509
4834,3080
4835,3230
4837,411
4838,141
4838,153
4838,4195
4840,3734
4842,3993
4843,1019
4845,187
4846,47
4847,481
4848,3214
4850,326
4850,4965
4851,908
4851,1562
4851,3464
4852,3421
4853,3725
4854,40
4854,76
4854,1241
4854,2070
4854,3175
4854,4507
4855,4236
4856,252
4858,14
4858,789
4858,877
4858,4914
4859,981
4861,339
4861,352
4861,853
4861,1572
4861,1581
4861,1927
4861,4606
4863,793
4863,857
4863,1551
4864,693
4864,1376
4864,3224
4866,3567
4866,4881
4867,4555
4871,339
4873,722
4877,1450
4880,355
4881,1172
4882,169
4882,374
4882,1940
4882,3175
4882,3564
4884,1710
4886,962
4887,95
4887,342
4887,1298
4888,3881
4889,2036
4894,872
4895,2268
4897,3589
4899,140
4899,441
4899,634
4899,1713
4899,2487
4899,2919
4900,1791
4906,913
4907,1505
4908,1203
4909,1412
4913,1269
4914,466
4914,612
4914,648
4914,1265
4914,1602
4914,1887
4914,2510
4914,3761
4914,4259
4914,4494
4914,4640
4918,76
4920,2864
4922,721
4923,3904
4924,700
4925,2595
4927,2475
4929,1662
4929,2481
4932,345
4933,635
4933,1067
4933,2136
4933,2374
4933,2443
4933,2697
4933,3625
4933,4060
4934,1748
4935,1748
4936,1998
4936,3688
4936,4896
4938,1424
4939,2074
4943,581
4943,894
4943,1248
4943,2176
4943,2493
4943,3180
4944,1330
4945,1144
4946,4137
4948,1697
4948,3493
4949,4402
4951,400
4951,1402
4951,3167
4951,3517
4951,3667
4951,3933
4951,4659
4952,1045
4953,189
4953,209
4953,1887
4953,2487
4953,2694
4953,2922
4953,3353
4953,3710
4953,3784
4953,3909
4953,4532
4953,4770
4954,203
4954,1738
4954,2348
4955,2514
4957,1036
4958,4364
4961,761
4962,433
4963,7
4964,511
4966,8
4966,178
4966,3771
4967,515
4968,4515
4969,1269
4970,4294
4975,200
4977,4693
4979,3334
4981,4980
4983,8
4983,89
4983,190
4983,197
4983,227
4983,310
4983,477
4983,573
4983,800
4983,817
4983,1130
4983,1131
4983,1715
4983,2548
4983,2663
4983,3180
4983,4533
4983,4689
4983,4693
4986,1392
4989,3267
4990,333
4990,482
4990,1089
4990,1789
4990,2721
4990,3537
4990,3898
4990,4356
4994,2652
4994,3667
4995,643
4997,4594
4998,2699
4999,4164
