src,dst
0,1
0,717
0,1846
0,4958
2,2007
2,4177
3,27
3,86
3,405
3,1085
3,1411
3,1555
3,2107
3,2297
3,2897
3,3232
3,4123
3,4185
3,4868
4,825
6,84
6,947
6,1017
6,1380
6,1961
6,2072
6,2177
6,2211
6,2443
6,3582
6,3793
6,4548
6,4960
7,79
7,871
7,2571
11,1806
11,2730
12,1907
12,2980
12,3359
12,4088
15,554
15,764
15,800
15,3964
16,41
16,1519
16,1753
16,3135
16,3622
16,3721
16,4097
16,4391
17,109
17,1552
17,2639
19,211
19,385
19,1129
19,3932
19,4773
19,4940
20,1160
20,1553
20,2953
20,3013
20,3850
21,45
21,884
21,912
21,1069
21,1543
21,1784
21,3469
21,4315
21,4964
23,154
28,4
28,66
28,87
28,206
28,544
28,1004
28,1184
28,2470
31,227
31,610
31,992
31,1516
31,2049
31,2422
31,4108
31,4564
31,4950
32,761
34,98
34,282
35,2075
36,215
36,817
36,1057
36,1876
36,2391
36,2612
36,2846
36,3077
36,4106
36,4513
36,4598
39,69
39,84
39,251
39,772
39,1172
39,1329
39,2524
39,3397
39,3775
39,3901
39,4036
39,4589
39,4822
41,2241
43,14
43,18
46,96
46,2905
49,413
49,698
49,870
49,1196
49,1877
49,2857
49,3288
49,3724
49,4782
50,393
50,557
50,2975
50,3614
50,3785
51,150
51,4130
52,1560
52,2016
52,2144
54,2854
56,1537
56,3889
56,4005
58,361
58,1408
59,921
59,1401
59,1711
59,4872
64,3709
65,1029
65,4211
66,247
66,904
66,1394
66,1413
66,1506
66,1616
66,1687
66,2750
66,4029
66,4998
67,916
67,1048
68,285
68,657
68,1387
68,2040
68,2129
68,2798
68,3214
68,4227
70,240
70,737
70,3182
70,3406
70,3462
70,3751
70,4298
70,4359
73,4394
75,18
75,22
75,80
75,181
75,965
75,1097
75,1180
75,2499
75,2684
75,4534
82,713
82,936
82,969
82,1302
82,2071
82,4521
85,239
85,1789
85,1836
85,3329
85,3423
85,4646
86,1204
90,485
90,3205
90,3654
91,980
91,4124
93,3103
94,655
94,1009
94,4904
95,1606
95,2912
95,3555
97,316
97,474
97,677
97,698
97,868
97,1765
97,2317
97,2772
97,3004
97,3077
97,3327
97,4278
99,313
99,858
99,1511
99,1579
99,2964
99,3707
100,752
100,1458
101,194
102,37
104,262
104,672
104,855
104,3264
104,3416
104,4064
104,4680
105,176
105,727
105,1865
105,2743
107,485
107,923
107,1009
107,3259
107,4412
108,4202
110,124
110,209
110,581
110,1384
110,1762
110,2223
110,2793
110,3095
110,3300
110,3530
111,1965
111,2831
111,2857
111,3871
113,289
113,1023
114,26
114,1036
114,1276
114,2817
114,3649
114,4889
115,534
115,2684
115,3033
116,543
116,711
116,2382
116,3056
116,3360
117,377
117,705
117,1065
117,2358
118,37
118,76
120,204
120,4559
120,4904
121,45
121,1382
122,198
122,420
122,1900
122,2606
122,3151
122,3215
122,4169
122,4272
122,4419
122,4912
123,44
123,162
123,698
123,1089
123,1229
123,1538
123,1725
123,2817
123,3408
123,4202
123,4804
125,19
125,2792
127,69
127,330
127,367
127,519
127,988
127,1132
127,1894
127,2240
127,3759
128,202
128,615
128,4829
128,4874
130,1759
130,1792
130,2181
130,2568
130,2785
130,3494
130,4397
131,4676
132,219
132,278
132,748
132,1146
132,1558
132,1812
132,2195
132,3006
132,3400
132,4506
132,4757
133,1794
133,1959
134,2724
134,3106
135,286
135,1179
135,1223
136,196
136,923
136,2045
136,2138
136,2292
136,4102
136,4932
137,351
137,636
137,1176
137,1600
137,3674
138,44
138,4447
139,32
139,153
139,210
139,375
139,703
139,969
139,1425
139,1519
139,2781
139,3249
142,162
142,2651
142,4804
142,4861
143,2375
143,3837
146,164
146,2519
146,3038
146,4633
147,2455
148,27
148,1220
148,2740
148,3074
151,171
151,684
151,723
151,3417
151,3990
152,3720
158,1421
158,1557
161,75
161,466
161,618
161,714
161,2633
161,2792
161,3332
161,3410
161,3963
163,1661
163,3081
163,3735
163,4743
168,2229
173,843
173,1510
173,1517
173,3124
173,3425
176,2482
177,1952
177,2868
178,1402
178,1661
178,2872
178,3559
178,4156
182,45
182,47
182,109
182,1087
182,1389
182,2559
182,2985
182,2995
182,4904
184,3010
184,3345
187,777
187,1078
187,1624
187,3496
188,965
189,1487
190,2112
193,78
193,264
193,486
193,651
193,663
193,834
193,1122
193,1630
193,2018
193,3057
193,3169
193,3440
193,3493
194,638
194,679
194,847
194,1808
194,2080
194,2155
194,2184
194,4765
195,646
199,4069
200,4411
201,4386
202,1347
203,2096
203,3496
205,1598
205,3099
205,3970
208,183
209,748
209,837
209,2794
209,3402
209,3870
210,1002
210,1097
210,2782
212,159
212,330
212,1009
212,1283
212,1443
212,1458
212,1549
212,2490
212,2702
212,3110
212,4331
213,484
213,921
213,2434
216,1356
217,466
217,531
217,4749
221,3558
221,3667
224,848
224,2036
224,2354
224,2801
224,3151
224,3961
224,4843
228,2707
230,804
233,457
233,1828
233,2859
234,629
234,1579
234,1851
234,2695
234,3189
234,4428
235,219
235,494
235,1776
235,1782
235,2711
235,2929
235,3286
235,3552
236,1917
241,283
241,839
241,854
241,858
241,2285
241,2581
241,2730
241,4003
241,4488
242,517
242,4033
243,367
243,2375
243,3466
245,1867
245,3102
245,3365
245,3503
249,159
249,389
249,747
249,922
249,1500
249,3080
249,4119
250,413
250,1174
250,1599
251,3616
253,938
253,2358
253,3089
256,1684
258,859
258,877
258,1505
259,41
259,345
259,1972
259,3379
261,1290
261,1296
261,2375
263,447
263,3060
263,3923
263,4779
267,1062
268,936
268,2004
268,2636
268,3020
269,109
269,433
270,4417
271,2605
271,4764
272,61
272,414
273,252
274,735
274,4929
275,3751
276,313
276,877
276,1842
276,3441
277,2184
277,2857
278,624
278,838
278,921
278,1400
278,3702
278,3794
278,4912
279,160
279,1306
279,2063
279,2421
279,2914
279,2955
279,4907
280,2857
281,2101
282,22
287,53
287,1484
287,2331
288,2939
290,266
294,2684
294,4546
297,1745
298,3720
299,463
299,865
299,1501
299,2021
299,3541
299,4043
300,254
301,424
301,727
301,810
301,1664
301,3220
301,3469
302,339
302,617
302,2885
304,2097
305,734
305,1227
305,4453
306,748
306,2040
306,2064
306,2362
306,2796
306,4136
307,41
307,672
307,1186
307,1957
307,2378
307,2740
307,3966
309,292
311,303
311,529
314,2029
314,2854
314,3170
314,4275
318,550
318,2418
318,4159
318,4444
319,1223
319,2542
322,219
323,790
325,118
325,303
325,342
325,1180
325,1344
325,1568
325,1642
325,1730
325,2229
325,2375
325,2655
325,3833
328,174
331,1207
331,1454
331,1568
331,4007
332,1382
332,2470
332,4593
334,790
334,799
334,3091
334,3790
335,676
335,822
335,1706
335,2883
335,3037
336,1131
336,1277
336,4398
337,183
337,1651
338,1071
343,727
343,1081
343,1202
343,1845
343,2633
343,3911
343,4775
344,4043
346,984
347,371
347,1254
347,1517
347,3217
348,513
348,652
348,1048
348,1488
348,1548
349,2422
349,2857
349,4588
350,714
350,2066
350,3674
350,4260
353,1127
353,2592
353,3698
354,172
354,368
354,432
355,145
356,479
356,1087
356,1326
357,211
357,809
357,1173
357,1180
357,1368
357,1880
357,2340
357,3050
357,3867
360,1227
360,4671
361,792
361,2474
363,701
363,3809
364,530
364,1035
364,1205
364,1937
364,2818
365,26
365,449
365,775
366,2156
369,172
369,2508
369,3638
370,2043
370,2392
370,3083
370,4531
373,118
373,3630
374,3236
376,374
376,956
376,1150
378,623
378,1206
378,4363
379,232
380,1498
380,1917
381,89
381,493
382,232
382,883
383,156
386,1071
386,1505
387,174
387,2720
388,1
388,2654
391,185
391,317
391,2477
391,3181
391,4503
391,4515
392,431
392,904
392,1858
392,2030
392,2716
392,3469
392,3792
392,4099
394,1487
394,4672
395,375
395,2294
396,2905
396,2918
397,175
397,789
397,1968
397,2088
397,4921
398,1281
401,910
401,2132
401,4417
402,433
402,1673
402,3549
404,3287
405,106
405,581
405,2416
406,262
406,1050
406,1482
406,3902
406,4560
406,4791
407,453
407,2899
407,4418
408,3431
408,3608
411,1132
411,1139
411,2773
411,2810
415,852
417,60
417,1609
417,2106
417,2469
417,3740
418,727
418,753
418,961
418,2384
418,2712
418,3573
419,1547
421,842
421,1530
422,582
422,1134
422,1624
422,4323
422,4519
422,4870
423,375
423,1664
425,464
425,2337
425,3537
425,4289
427,1530
429,3762
432,227
432,711
432,1579
432,1690
432,2233
432,3796
432,3942
434,174
434,4004
435,321
438,1883
438,2007
438,4481
438,4814
440,157
440,259
440,659
440,785
440,2032
440,4344
440,4685
443,761
443,1940
443,3566
444,4487
445,1554
445,1689
445,3703
445,3837
446,403
446,3125
447,109
447,433
448,981
448,3751
448,4093
448,4198
450,3258
450,4196
451,436
451,3160
451,3973
452,359
452,2209
452,3907
452,4448
455,1917
455,3720
456,159
456,204
456,239
456,293
456,355
456,701
456,976
456,1335
456,1397
456,1456
456,1750
456,1885
456,2774
456,3394
456,3400
456,3564
456,4855
458,1458
459,53
459,612
459,2408
460,1923
460,2299
462,651
465,2901
465,2960
466,2531
466,2859
467,487
467,802
467,2857
470,194
471,949
471,1071
471,1481
471,1883
471,2133
471,3390
471,3769
471,3818
472,4034
475,814
475,4034
477,726
477,1556
477,1572
477,2411
477,2755
477,3254
477,4976
478,349
478,868
478,2229
478,2558
478,2686
478,3085
478,3785
483,384
483,1281
483,1371
484,739
484,1248
484,1278
484,1434
484,1468
484,3067
484,3292
484,3921
484,4976
488,2466
488,4762
489,4214
491,1396
491,4009
491,4493
492,2434
492,2984
493,979
495,3107
495,3385
496,468
496,4699
499,2898
499,3429
499,3989
500,45
500,483
500,646
500,1004
500,1158
500,1467
500,1979
501,180
502,603
502,615
502,2004
502,3087
502,4821
502,4823
503,608
503,962
503,3667
504,3788
504,4144
504,4764
506,713
506,727
506,2905
506,4468
507,894
507,1107
507,1187
507,1246
507,4078
507,4330
508,4440
509,377
509,609
509,2247
511,497
511,4209
512,1237
512,2290
512,2932
514,220
515,375
515,1204
518,4202
523,107
523,2480
523,3211
525,201
525,3359
525,3452
526,486
527,828
527,1460
527,2299
527,3706
530,2760
531,206
531,4976
532,1223
535,413
535,2998
537,185
537,670
537,3287
538,4933
541,513
542,1311
545,185
546,320
546,3970
547,443
549,1092
549,2905
549,4034
550,252
550,434
550,668
550,1557
550,1574
550,1873
550,3890
550,4692
551,1481
551,2854
552,1048
555,296
555,428
555,824
555,1601
555,1715
555,1873
555,1908
555,2901
555,2973
555,3596
555,3661
556,727
556,4462
559,987
559,3773
559,3852
559,4481
560,171
566,593
566,3730
566,4049
567,495
567,1760
567,2144
567,2502
567,3098
570,464
570,4117
571,679
571,833
571,1023
571,1300
571,1860
571,4682
572,558
572,2824
572,3348
572,3424
572,3427
572,3652
575,4513
576,1768
576,2304
577,2037
577,3785
579,434
579,1865
579,1918
583,1568
583,1975
583,4667
584,554
585,617
585,1517
585,4446
587,1129
588,851
588,1276
588,1559
588,1944
588,2330
589,188
589,1080
589,1250
589,3462
589,4393
591,41
591,186
591,265
591,522
591,792
591,1336
591,2526
591,3260
591,3731
591,4151
591,4460
591,4484
591,4675
594,41
594,1417
594,2213
595,4764
596,2768
596,4904
597,266
598,663
598,707
598,1525
598,1760
598,2262
598,2607
598,2998
598,4714
598,4969
599,463
600,32
600,3094
601,172
601,1535
601,2351
601,2719
603,285
603,2162
604,1450
605,303
605,1878
605,2380
607,61
607,320
607,1249
607,1333
607,1483
607,2361
613,149
614,63
614,1617
614,2042
614,2119
615,317
615,934
615,1212
615,1836
615,2713
615,4396
615,4575
616,479
619,469
619,2819
619,3617
621,794
621,942
621,2813
621,4034
621,4650
622,25
622,752
622,4170
626,3309
627,18
627,778
627,1183
627,2268
627,3306
627,4835
628,4764
631,2622
632,71
632,1075
634,292
638,321
638,2707
638,3101
638,4164
639,204
639,262
639,1271
639,1313
639,1440
639,1962
639,2923
639,3333
639,3784
640,1144
642,439
642,1236
642,3229
643,4
643,1383
643,2117
643,3927
643,4095
643,4162
644,61
644,4439
647,529
647,827
647,860
647,959
647,1233
647,1649
647,1813
647,2642
647,2937
647,3347
647,3363
647,3656
648,3938
648,4801
650,606
650,877
654,1584
658,483
658,2437
661,68
661,1180
661,1660
661,3522
669,377
669,826
669,1023
669,4325
671,75
671,89
671,727
671,1017
671,1088
671,1252
671,1430
671,1925
671,2561
671,2734
671,3359
671,3512
671,3644
672,2005
675,40
678,246
680,167
680,2901
680,4510
681,2666
682,1481
682,3944
683,349
683,641
683,667
683,1703
683,2496
683,2776
685,41
685,109
685,2558
685,3168
687,4536
688,439
688,1735
689,48
689,1574
693,481
693,2760
693,4336
695,659
695,920
695,1163
697,393
697,952
697,1705
697,2278
697,2924
701,212
702,202
702,1247
702,1463
702,2063
702,3467
702,4734
704,826
704,1125
708,2431
709,623
710,160
710,218
710,788
710,977
710,1223
710,1521
710,2321
710,2684
712,1323
712,2282
713,554
715,135
715,4899
716,1276
716,1404
716,2817
718,29
718,3815
721,384
721,748
721,3346
721,3409
722,70
722,4242
724,706
724,759
724,2236
724,2403
724,2890
725,1552
728,1175
728,2603
728,3245
728,3316
728,3738
730,413
730,864
730,1284
730,1338
730,1836
730,1913
730,2886
730,3686
730,3823
730,4735
731,1557
731,2627
732,443
733,1864
736,4119
736,4731
737,2333
738,5
738,927
738,1507
738,4442
740,1537
740,2045
740,2144
740,4833
742,292
742,4034
746,1698
746,2568
746,3691
750,2375
751,1012
751,1708
751,4451
752,293
752,938
752,1593
752,4536
752,4885
755,416
755,1527
756,27
757,1241
757,4425
758,1658
758,4324
759,4147
760,903
760,2150
760,3006
760,4034
762,1917
765,1012
765,2434
766,159
766,4815
767,427
767,3735
768,4463
769,384
769,3283
769,3600
770,211
771,176
771,593
771,1264
771,2228
771,3276
771,4175
773,1168
774,219
777,284
780,252
780,540
780,667
780,886
780,1209
780,2305
780,4846
781,3200
781,4826
782,3254
782,3279
782,3720
784,1023
786,684
786,1448
787,484
787,1499
787,1659
787,1691
787,1748
787,3657
790,61
791,958
791,2642
791,2921
791,4529
791,4602
795,179
795,1578
796,624
796,2699
796,3732
797,703
797,1987
799,2624
801,1401
801,1749
803,2981
803,3099
805,3942
806,4427
807,174
807,2728
808,476
811,427
811,452
811,2658
811,4897
811,4937
811,4940
812,179
812,2558
812,3247
816,767
816,1740
816,2506
816,4624
816,4929
818,3399
819,616
819,916
820,60
820,186
820,1071
820,1276
820,1332
820,1337
820,1349
820,4622
820,4985
821,26
821,324
821,452
821,2246
821,3485
823,27
823,476
823,1145
825,519
825,3619
829,2629
830,761
830,799
830,1524
831,430
831,4626
832,41
832,1095
834,915
835,481
839,3933
840,1185
841,1276
841,1912
841,2327
841,2847
841,3709
841,4202
841,4600
845,3507
845,4296
846,4471
846,4958
848,4490
849,204
850,581
850,624
850,923
850,1273
850,1503
852,1626
852,3401
853,3428
853,3872
854,2741
854,4321
861,211
861,1148
861,1934
861,2939
861,4379
863,2145
863,3369
863,4034
865,676
867,877
867,1793
867,2893
869,649
874,878
874,1790
874,3410
877,4494
879,623
880,3616
881,25
882,1048
889,157
890,454
890,540
890,1337
890,1585
890,2796
890,4034
891,1276
891,3966
892,285
893,1917
895,1336
895,4236
896,1400
897,19
897,1055
898,748
898,954
898,1281
898,1760
898,2515
898,2675
898,3785
899,570
899,1480
899,2264
901,3066
904,437
904,1737
905,727
905,931
905,1000
905,1315
905,1694
906,226
906,313
906,1864
906,2104
906,2783
906,4929
907,1708
909,539
909,3103
909,4662
913,1343
913,2600
913,4948
914,508
914,2885
917,1067
918,1336
919,813
919,2729
919,2854
919,3800
919,4611
924,480
924,1067
924,1143
924,1436
924,1457
924,4130
928,1645
929,1771
929,2113
929,2266
929,4969
930,617
930,752
930,1695
930,2537
930,3275
930,4282
930,4641
930,4687
931,1409
932,517
933,41
933,185
933,3383
933,3667
935,2240
937,2730
937,4918
938,1821
939,22
939,1334
939,4527
940,1499
940,3785
940,4145
942,215
943,160
943,1111
943,2411
943,3346
943,4732
944,4679
944,4987
945,3596
946,638
946,3761
946,3796
946,3823
946,3844
946,3984
946,4394
946,4728
948,519
948,520
948,1033
948,1624
948,2213
948,3874
950,941
950,3436
952,172
952,1038
952,3029
952,4609
953,828
955,2247
956,744
956,1315
956,3340
957,1836
963,212
963,923
963,1664
963,3169
963,4225
964,530
964,1557
964,1929
966,466
967,516
967,1312
967,3367
967,4180
967,4727
969,776
970,63
971,2250
971,4463
972,154
974,406
974,1417
975,533
975,3805
978,118
978,2192
980,3943
982,463
983,877
983,3838
984,3967
986,745
987,232
987,848
987,1890
988,1197
988,1478
988,2157
989,624
990,717
990,1570
990,4104
991,296
993,2076
993,2229
995,1568
995,3498
996,3630
997,2163
997,3035
997,3687
998,1494
998,1676
998,2070
998,4776
999,992
999,1900
999,2014
999,3869
1001,2432
1002,1000
1003,1574
1003,4999
1004,4872
1005,47
1005,1523
1005,2983
1005,3721
1005,4110
1007,1836
1008,362
1008,2478
1008,3319
1010,75
1010,4284
1011,164
1013,2651
1014,719
1014,3913
1015,1517
1015,2352
1018,157
1018,1234
1019,266
1021,348
1021,2434
1021,3077
1021,3345
1021,3669
1022,826
1022,2812
1022,2873
1024,941
1024,4735
1025,4995
1028,342
1028,1127
1031,159
1031,557
1031,911
1033,3675
1039,838
1039,1939
1039,2920
1039,3449
1039,3845
1039,4886
1040,1380
1043,239
1044,2268
1045,2075
1045,3364
1045,3699
1046,1935
1047,3159
1049,1568
1051,779
1053,540
1053,2789
1056,3630
1058,3468
1060,667
1062,720
1062,4314
1063,3258
1064,186
1064,2485
1066,593
1067,76
1067,925
1067,1255
1067,2355
1067,4571
1067,4725
1068,2912
1070,126
1072,517
1072,1292
1072,1879
1072,2557
1072,2808
1072,3751
1073,62
1073,167
1073,188
1073,367
1073,594
1073,699
1073,1138
1073,1517
1073,2023
1073,2038
1073,2082
1073,2972
1073,3363
1073,3849
1074,2770
1076,169
1076,206
1076,1054
1078,2862
1082,4202
1083,574
1084,762
1084,1756
1090,80
1093,487
1093,1283
1093,1927
1094,1881
1098,2246
1100,3735
1101,174
1101,676
1101,1748
1101,4664
1102,1710
1102,3805
1103,308
1103,554
1103,4793
1103,4912
1104,1901
1104,4022
1104,4355
1105,3023
1106,923
1109,405
1109,1861
1109,1953
1109,3885
1113,610
1113,1281
1113,2113
1113,3191
1113,4930
1114,252
1115,493
1116,2087
1116,2260
1116,2549
1116,3345
1117,630
1117,1181
1117,2455
1117,4617
1118,1116
1118,4388
1120,711
1120,1136
1120,1334
1120,2040
1120,2573
1120,3958
1120,4949
1123,1079
1123,2379
1126,625
1129,14
1130,377
1131,2930
1133,321
1134,266
1135,618
1135,1212
1135,1621
1135,1756
1135,2544
1135,2617
1135,4149
1135,4660
1137,792
1137,1502
1137,1905
1137,3783
1141,88
1141,1804
1141,2630
1141,4058
1144,185
1145,79
1145,4671
1147,326
1147,437
1149,862
1151,2641
1151,3103
1152,759
1154,412
1155,98
1157,3952
1159,3395
1161,2651
1164,3188
1165,8
1165,1240
1165,1619
1165,2203
1166,462
1166,3596
1169,1284
1169,2284
1169,2310
1170,979
1170,1697
1170,4581
1173,1006
1173,2011
1173,4066
1178,1568
1189,4912
1190,800
1190,4765
1191,438
1192,4219
1193,176
1194,3751
1195,324
1198,713
1198,1020
1198,1341
1198,2660
1198,3176
1198,4087
1199,185
1199,1071
1199,1297
1202,47
1202,194
1202,2389
1202,2869
1202,2961
1202,3042
1202,3557
1202,3583
1202,4830
1205,180
1205,522
1205,1327
1206,949
1208,1324
1208,3044
1208,3200
1210,317
1210,2736
1211,156
1213,3083
1214,4391
1216,3597
1216,4143
1216,4148
1216,4195
1217,86
1217,484
1217,2076
1218,1368
1218,1642
1218,2116
1219,2074
1219,3118
1221,2427
1221,3376
1221,3468
1221,4398
1221,4968
1222,452
1222,603
1222,2308
1222,2994
1223,412
1223,2657
1223,3048
1224,30
1225,66
1225,170
1225,562
1226,449
1227,174
1228,1047
1229,813
1229,3630
1230,4589
1231,714
1232,179
1232,1050
1232,4179
1232,4912
1235,374
1238,662
1238,4866
1239,131
1239,1778
1239,2339
1242,3486
1242,3807
1243,543
1243,1364
1243,2787
1244,174
1244,840
1244,1819
1245,1629
1245,3228
1245,3691
1245,4574
1251,720
1251,4131
1255,856
1255,2114
1255,2120
1255,3138
1257,2613
1257,2926
1257,3554
1258,553
1260,476
1261,723
1261,4513
1262,2375
1263,1334
1263,1494
1263,2386
1265,987
1265,1305
1266,346
1266,2701
1267,2869
1268,794
1268,2405
1269,513
1269,558
1269,1791
1269,2367
1269,3551
1269,4271
1271,4692
1274,112
1274,179
1274,222
1274,701
1274,741
1274,1346
1274,1485
1274,1931
1274,2161
1274,3028
1274,3243
1274,3631
1274,4277
1274,4458
1274,4473
1275,1223
1279,2938
1279,3250
1279,4183
1282,711
1285,1631
1286,227
1287,894
1288,2112
1288,2254
1288,3674
1291,1548
1293,2026
1294,743
1295,3641
1299,22
1302,2684
1303,109
1304,3860
1307,746
1309,24
1309,26
1309,1473
1310,903
1310,1403
1314,557
1317,1608
1317,2912
1318,592
1319,2012
1319,4742
1320,375
1320,1537
1320,1576
1320,4634
1321,2684
1322,1241
1323,645
1323,737
1323,1552
1323,2185
1323,3394
1323,4207
1323,4308
1327,2226
1327,2281
1327,4247
1327,4824
1331,875
1337,1200
1337,4229
1338,4360
1340,420
1342,169
1342,3056
1342,4228
1342,4522
1343,1419
1343,1734
1343,2386
1343,3149
1343,3393
1343,4257
1345,580
1345,1461
1347,1209
1348,1121
1348,3294
1351,25
1351,2207
1352,75
1353,13
1353,1297
1353,2558
1353,2707
1353,3105
1353,3620
1353,4274
1353,4589
1354,2912
1356,4709
1358,2642
1359,3761
1360,4742
1361,4490
1362,315
1365,1380
1366,1887
1366,4255
1367,4538
1370,3496
1372,2157
1373,321
1374,927
1374,979
1375,3458
1376,2157
1377,980
1377,1720
1377,3497
1378,1038
1378,4085
1379,2817
1380,2105
1381,4403
1385,1116
1386,1277
1386,4068
1388,4839
1390,8
1390,1812
1390,2785
1391,316
1391,3630
1392,157
1392,4774
1394,776
1394,862
1394,1893
1394,3757
1394,4359
1395,2539
1395,3249
1395,3527
1395,4370
1399,763
1399,1681
1399,3263
1400,480
1403,255
1403,1458
1403,3679
1403,4368
1405,829
1407,1180
1410,3529
1412,453
1412,2429
1414,1095
1414,2065
1416,320
1416,987
1416,1857
1418,3872
1418,4350
1422,1400
1424,981
1424,2944
1424,3268
1424,4504
1425,2370
1425,2709
1425,2797
1425,3545
1426,484
1426,1969
1426,3398
1426,3853
1426,4160
1426,4945
1427,3156
1427,3864
1428,1969
1428,4728
1432,443
1435,129
1435,3754
1437,2669
1437,4202
1438,1
1438,437
1439,4544
1439,4995
1441,811
1441,1338
1441,1618
1441,3630
1442,829
1442,1200
1444,171
1444,1456
1445,2901
1445,4032
1446,2868
1449,4493
1451,1079
1451,3277
1453,1673
1454,2252
1456,2785
1457,367
1457,1142
1459,3630
1459,4132
1462,71
1465,1501
1465,1696
1466,3151
1469,2274
1470,877
1471,2901
1472,926
1472,4074
1474,145
1475,772
1475,1160
1475,1587
1475,1730
1475,4562
1476,3970
1477,2569
1477,4079
1477,4403
1478,4354
1479,3151
1479,3356
1480,1079
1481,1507
1481,3784
1486,2895
1487,4330
1489,2429
1489,3417
1491,2607
1498,399
1498,494
1498,1048
1498,1239
1498,1325
1498,1431
1498,1495
1498,1758
1498,2201
1498,2336
1498,3418
1498,4182
1498,4589
1498,4856
1498,4858
1504,517
1504,1946
1505,1540
1505,2572
1505,2899
1505,3180
1508,321
1508,4589
1509,2099
1509,2700
1509,4838
1511,1033
1515,1097
1515,3388
1517,1604
1518,3859
1520,1313
1520,2315
1520,3878
1522,2042
1522,2859
1526,2792
1526,4493
1528,4872
1529,3970
1530,707
1531,379
1531,3545
1533,23
1533,33
1533,78
1534,554
1534,1415
1534,2245
1534,2673
1534,3508
1535,524
1536,462
1536,794
1536,1955
1536,2357
1536,2596
1536,3261
1536,3539
1536,4827
1539,817
1542,327
1544,706
1544,2562
1545,481
1546,454
1546,2305
1546,3301
1551,941
1556,1699
1561,719
1562,3667
1563,60
1563,4728
1564,2090
1564,2951
1566,985
1567,1184
1567,2892
1569,86
1571,565
1573,342
1575,2455
1576,691
1576,822
1576,1205
1576,1779
1576,1835
1576,2373
1576,3248
1576,3710
1576,4313
1576,4401
1576,4481
1576,4900
1576,4976
1580,1337
1582,3151
1586,2681
1586,2790
1587,214
1588,2603
1589,1430
1590,430
1590,941
1591,4826
1594,592
1594,2055
1594,3266
1594,4042
1594,4595
1594,4657
1595,4493
1596,154
1596,1317
1596,1780
1596,3002
1596,3970
1597,2247
1601,2765
1602,4259
1603,4324
1603,4380
1609,875
1609,4623
1610,734
1611,211
1611,632
1612,674
1613,282
1613,2358
1613,4335
1613,4801
1614,330
1614,1905
1615,2434
1620,405
1622,84
1623,4783
1625,25
1627,979
1628,3445
1629,2411
1631,159
1632,1450
1632,2736
1633,838
1633,1547
1633,4723
1635,358
1635,1568
1635,2484
1635,3941
1635,4024
1636,1020
1637,259
1637,1704
1637,2174
1637,2216
1637,3321
1637,3969
1637,4371
1638,1430
1640,1092
1640,2704
1640,3468
1640,4379
1641,368
1643,3735
1645,452
1645,2901
1648,45
1648,2141
1648,4680
1652,252
1652,2694
1653,1276
1655,2790
1656,2007
1657,1328
1661,462
1661,4591
1662,630
1662,2868
1663,699
1663,4034
1664,1414
1664,3475
1665,126
1665,1049
1666,386
1668,1565
1669,330
1670,3751
1670,4391
1671,1543
1671,3285
1672,362
1672,1281
1672,1481
1672,2529
1672,3992
1672,4703
1674,4288
1675,74
1675,1129
1675,1281
1675,1411
1677,37
1678,2716
1678,3747
1679,3099
1680,26
1682,1926
1682,4538
1683,667
1685,206
1686,159
1686,1200
1686,2049
1686,2949
1686,4304
1686,4549
1688,1642
1690,4288
1692,22
1696,1156
1701,167
1701,2957
1702,2684
1702,2922
1702,3066
1707,827
1708,413
1708,554
1708,1059
1708,1717
1708,1997
1709,145
1709,643
1709,2392
1712,2434
1713,4904
1714,1050
1718,714
1718,1357
1718,2731
1719,2854
1719,4341
1722,1745
1724,443
1724,1415
1724,2130
1726,430
1726,466
1726,2594
1726,2899
1726,4091
1728,1023
1728,2436
1728,2738
1728,3751
1728,4180
1728,4226
1729,1656
1729,2481
1732,1553
1732,2899
1732,4063
1733,2933
1736,495
1736,568
1736,776
1736,1481
1736,4154
1736,4589
1738,7
1738,45
1738,225
1738,436
1738,1415
1738,1568
1738,3974
1741,1414
1741,1917
1744,1264
1745,180
1750,660
1750,2650
1751,362
1752,1131
1753,113
1753,1240
1753,3641
1753,4109
1754,1151
1754,2199
1754,4505
1755,727
1763,2366
1763,2498
1763,3785
1763,4550
1764,1742
1767,2912
1769,204
1770,517
1770,2871
1772,1708
1772,3588
1773,2539
1773,3723
1774,4756
1775,107
1775,2572
1777,524
1777,3115
1781,3435
1783,227
1783,524
1783,2461
1783,3783
1785,169
1785,610
1785,4742
1786,3630
1787,126
1787,1954
1787,3603
1792,2642
1792,4901
1794,1656
1795,107
1795,232
1795,735
1795,2623
1795,3872
1795,4255
1795,4778
1796,965
1797,1748
1800,519
1800,663
1800,1475
1800,2249
1800,2723
1800,3695
1801,1012
1802,1080
1803,696
1805,2448
1805,4964
1807,4684
1809,2075
1809,2311
1810,425
1810,3729
1811,3161
1811,4692
1812,238
1812,3116
1812,3546
1812,4122
1812,4190
1814,2247
1815,1606
1815,2716
1815,3606
1816,2269
1816,2375
1817,1866
1817,2853
1817,3210
1817,3429
1820,753
1822,4247
1823,4533
1824,4493
1827,4545
1828,667
1828,1012
1828,2128
1828,3312
1828,3749
1828,3868
1829,1790
1830,22
1830,2115
1830,4186
1830,4500
1831,1047
1831,1110
1832,3126
1833,1886
1833,2516
1833,2629
1834,813
1834,877
1834,941
1834,1501
1834,1911
1834,3392
1834,4016
1837,554
1838,2793
1839,86
1841,3099
1844,33
1847,3446
1848,4010
1850,2432
1850,4286
1852,690
1853,1557
1853,4418
1854,3794
1856,4603
1859,1047
1863,109
1867,745
1867,1481
1867,1492
1867,1552
1867,2441
1867,3171
1867,4043
1868,713
1869,4249
1869,4634
1870,1160
1870,3847
1871,657
1872,4764
1873,517
1873,1646
1873,3740
1874,754
1874,4982
1875,1694
1875,1890
1881,103
1881,186
1881,1825
1881,2169
1881,2636
1881,3857
1882,3545
1884,789
1885,1452
1885,3645
1888,4764
1889,562
1889,4931
1891,719
1892,2796
1896,1186
1898,1071
1899,1607
1899,2261
1899,3463
1899,4329
1902,377
1902,4494
1903,2539
1904,186
1906,206
1909,1402
1909,1458
1909,4893
1914,3939
1915,1336
1915,3123
1915,3596
1916,1455
1919,259
1919,328
1919,479
1919,2528
1919,2790
1920,1501
1921,2157
1921,3626
1921,4094
1922,837
1924,554
1928,3192
1928,4188
1929,1167
1929,1507
1930,1180
1931,1259
1932,1880
1933,156
1933,180
1933,207
1933,220
1933,403
1933,719
1933,785
1933,866
1933,4210
1934,4964
1935,1697
1937,346
1940,757
1940,4369
1942,1730
1944,60
1947,1858
1948,1905
1948,2565
1949,2707
1949,4554
1949,4681
1950,1430
1951,2236
1953,33
1953,768
1956,1020
1958,330
1958,906
1958,2501
1958,3720
1961,62
1961,341
1961,633
1961,742
1961,1095
1961,1970
1961,2165
1961,2190
1961,2694
1961,2705
1961,3955
1961,4646
1963,711
1966,1849
1967,1091
1968,211
1968,462
1968,2748
1968,4197
1969,166
1969,2371
1971,45
1972,324
1973,1498
1974,2785
1976,1223
1976,1550
1976,4232
1976,4538
1977,1289
1977,3168
1978,3592
1978,3835
1980,480
1983,1693
1984,667
1986,1121
1986,1883
1986,4796
1988,1654
1988,3184
1989,1052
1990,838
1990,3529
1990,4514
1991,315
1992,1646
1992,3165
1993,608
1993,2104
1993,4223
1995,884
1996,160
1997,1941
1997,3942
1998,817
1999,517
2000,840
2000,1364
2000,3255
2000,3627
2001,2539
2002,3179
2002,3751
2002,4674
2003,1880
2003,3092
2006,27
2006,763
2006,1384
2006,1581
2006,3212
2006,3645
2006,3834
2006,4072
2007,1660
2009,413
2009,4536
2013,2432
2014,1757
2015,524
2019,1302
2019,4604
2020,41
2020,83
2020,437
2020,497
2020,744
2020,777
2020,960
2020,1151
2020,1168
2020,2392
2020,2932
2020,4977
2022,865
2023,2514
2025,14
2025,26
2025,119
2025,260
2025,673
2025,840
2025,1127
2025,1540
2025,1721
2025,1964
2025,2138
2025,3045
2025,3114
2025,3580
2026,159
2026,859
2026,3357
2026,4753
2027,438
2027,4171
2028,3380
2028,3468
2031,1433
2031,1447
2031,1605
2031,1849
2031,2587
2031,2672
2033,1430
2033,3127
2033,3596
2033,3673
2034,55
2034,4420
2035,439
2035,4737
2038,888
2041,1574
2042,3548
2043,81
2043,2369
2043,2859
2043,3185
2043,3324
2044,194
2044,561
2044,2986
2046,517
2047,317
2047,3945
2048,3151
2050,3630
2051,53
2051,4755
2052,4969
2053,2483
2053,3095
2053,4940
2054,788
2054,1092
2056,468
2056,1654
2056,3755
2057,462
2059,219
2059,2247
2059,3377
2059,3665
2059,4107
2059,4722
2060,877
2061,1970
2065,2160
2067,1333
2068,41
2068,554
2069,454
2069,2098
2072,3000
2073,2066
2074,474
2074,4512
2075,590
2077,1962
2078,1735
2078,2361
2079,33
2081,498
2081,574
2081,625
2081,1071
2081,3677
2081,3692
2081,4495
2081,4591
2081,4698
2083,985
2084,159
2085,1316
2085,2744
2085,3360
2086,896
2086,1006
2086,2070
2086,2452
2086,3787
2086,4273
2086,4760
2089,2618
2089,4933
2090,14
2091,4748
2092,79
2092,1281
2093,272
2094,436
2094,3129
2097,4985
2100,2017
2102,794
2102,2105
2102,2884
2108,1917
2108,3655
2110,45
2110,3741
2112,979
2112,2587
2112,3689
2112,4121
2116,951
2116,4111
2116,4217
2120,941
2121,1836
2123,261
2123,1483
2123,1794
2123,2455
2123,4295
2124,701
2125,180
2125,1176
2127,278
2127,1865
2130,3645
2131,412
2132,763
2132,1270
2132,1581
2132,2857
2135,529
2137,1467
2139,1415
2139,1486
2140,480
2140,1092
2140,1110
2140,1684
2140,2929
2140,3151
2140,4533
2142,367
2142,3348
2143,659
2146,166
2146,2512
2146,3052
2146,4569
2147,586
2148,22
2151,3630
2153,3095
2153,4869
2154,1493
2156,3643
2159,297
2159,315
2159,2591
2162,1172
2163,2187
2164,479
2166,1739
2167,479
2168,4034
2170,981
2170,4293
2171,461
2172,902
2172,2986
2173,2145
2175,412
2175,1897
2175,3986
2176,3210
2178,1062
2179,1092
2179,2687
2179,2867
2180,1593
2182,1306
2183,3596
2183,4933
2184,871
2184,1238
2184,1684
2184,2875
2186,1180
2188,159
2189,1023
2191,209
2191,2575
2191,3521
2193,1532
2194,405
2196,48
2196,86
2196,118
2196,239
2196,4039
2197,204
2198,4021
2199,952
2200,1455
2202,1281
2205,1185
2205,2214
2206,612
2208,2576
2208,4589
2210,1842
2210,2221
2212,1593
2212,4474
2215,3735
2215,4926
2217,2007
2217,3550
2218,1291
2219,77
2219,923
2219,2366
2220,2921
2220,2955
2222,558
2222,612
2224,698
2224,1229
2224,3954
2224,4669
2225,885
2225,3596
2225,4377
2227,78
2227,3258
2227,3605
2228,3024
2229,164
2230,3751
2230,4531
2231,476
2233,1007
2235,13
2237,4288
2239,4180
2243,2912
2244,179
2244,3628
2245,80
2245,368
2245,887
2245,1855
2245,1898
2245,2288
2245,4774
2245,4888
2247,763
2248,1033
2253,324
2253,3479
2255,426
2255,941
2257,416
2257,4186
2258,748
2258,1607
2259,1079
2259,2242
2263,1067
2265,1292
2269,2176
2269,2312
2270,1092
2271,2161
2271,2433
2272,3431
2274,1855
2276,603
2277,13
2278,1450
2280,2420
2282,695
2283,2074
2285,494
2285,1433
2285,2939
2285,4735
2286,4296
2287,540
2287,719
2287,4771
2287,4807
2289,443
2289,2411
2293,3155
2293,3431
2295,3529
2296,3584
2299,3956
2300,201
2300,1742
2300,3379
2301,2120
2301,4984
2302,1483
2303,234
2303,372
2303,530
2303,844
2303,1647
2303,2062
2303,3210
2303,4176
2304,239
2306,484
2307,29
2307,454
2307,554
2307,1108
2307,1417
2309,1229
2313,433
2313,635
2313,708
2313,1256
2313,1779
2313,4445
2313,4710
2313,4859
2314,4774
2316,1127
2318,2631
2319,3736
2319,4130
2322,77
2323,1281
2324,2247
2325,1077
2328,2686
2328,3361
2329,2204
2332,3785
2334,1048
2335,179
2336,342
2336,3981
2341,340
2342,1969
2342,3317
2343,1547
2344,4933
2345,1765
2345,2547
2346,1330
2348,317
2348,1507
2348,2455
2349,37
2349,1765
2349,3018
2349,3342
2350,941
2353,553
2353,3204
2356,2429
2356,2512
2358,74
2358,202
2358,673
2358,941
2358,3045
2358,3875
2358,4372
2359,1054
2360,483
2361,145
2361,156
2361,582
2361,3826
2361,4490
2362,1579
2364,714
2365,2203
2366,206
2366,590
2366,1264
2372,941
2374,244
2374,1727
2376,1805
2376,3338
2377,876
2383,4288
2383,4572
2385,744
2385,3178
2386,157
2387,1574
2388,109
2388,968
2388,1023
2388,2312
2388,3963
2388,4092
2389,4206
2390,4502
2391,22
2391,752
2391,1124
2391,1393
2391,2732
2391,3116
2391,3752
2391,3862
2391,4992
2393,1048
2394,4391
2395,2105
2396,1642
2397,3872
2398,1512
2398,2204
2398,3490
2401,562
2401,3131
2401,4302
2402,40
2404,3171
2407,4391
2408,578
2408,1016
2408,1483
2408,1799
2408,1864
2408,1881
2408,2144
2408,2735
2409,2157
2409,3883
2410,2088
2411,2027
2412,45
2413,1961
2414,45
2414,1317
2415,828
2417,1401
2419,2466
2420,2321
2422,711
2423,3151
2423,4829
2424,941
2425,2264
2426,651
2428,667
2429,329
2429,4250
2430,2122
2432,4053
2432,4904
2435,623
2438,674
2439,2501
2441,1836
2441,4733
2442,326
2442,1239
2442,1284
2442,1912
2442,2027
2442,2152
2442,2421
2442,3088
2442,3451
2442,3491
2442,4678
2443,330
2443,569
2443,1317
2443,2672
2443,3743
2443,4487
2443,4864
2444,1229
2444,1981
2445,722
2446,19
2446,342
2446,793
2446,2724
2446,4942
2447,230
2447,4195
2449,954
2449,2745
2450,2201
2451,1382
2451,2525
2451,2730
2453,1196
2453,2648
2454,761
2454,3710
2457,2392
2457,3102
2457,3454
2458,4592
2460,517
2460,1476
2460,4875
2460,4883
2462,25
2462,653
2462,1966
2464,2027
2464,2552
2465,875
2466,2042
2467,1792
2468,2965
2468,3090
2468,4763
2471,1905
2473,2760
2475,714
2476,2382
2476,3750
2480,155
2486,521
2486,4904
2487,516
2488,3141
2489,1205
2492,479
2493,259
2493,2612
2493,3998
2494,540
2495,2946
2495,4195
2495,4596
2497,57
2497,1186
2497,3382
2498,358
2498,1116
2498,1455
2498,1994
2498,2600
2498,2903
2498,3205
2498,4851
2498,4961
2500,1530
2501,962
2501,2101
2503,393
2504,2273
2504,4043
2505,48
2505,1357
2507,686
2509,62
2509,107
2509,4806
2511,2101
2511,2252
2516,2907
2516,4563
2517,209
2518,4589
2520,3258
2520,4650
2521,3105
2522,252
2523,1292
2526,1661
2526,2157
2526,2537
2526,3097
2526,3331
2528,10
2528,1276
2528,1490
2528,4533
2529,793
2529,1167
2529,1176
2529,2346
2530,1033
2530,1540
2530,2997
2532,2043
2533,1507
2534,342
2534,3943
2535,623
2535,743
2535,1650
2535,3994
2535,4443
2535,4764
2536,617
2536,3770
2538,2114
2538,3453
2538,4568
2539,368
2539,528
2539,794
2539,1592
2540,727
2541,1684
2545,838
2546,2885
2548,2476
2550,430
2551,1847
2553,592
2553,643
2553,1464
2554,2885
2555,180
2556,436
2558,1957
2560,1205
2563,362
2563,437
2564,3899
2566,4904
2567,3408
2567,4774
2570,41
2570,430
2570,694
2574,251
2574,659
2574,792
2574,1350
2574,1792
2574,1812
2574,2812
2574,2988
2574,2996
2574,3183
2574,3993
2577,1423
2579,439
2580,1276
2582,565
2583,2703
2583,3776
2584,1338
2585,2038
2586,3908
2588,790
2589,529
2589,735
2589,1924
2589,3713
2589,4927
2590,321
2591,167
2591,2058
2593,553
2593,979
2593,1240
2597,776
2598,4904
2599,3267
2601,1813
2601,2756
2601,4069
2602,285
2603,1351
2603,2268
2604,2064
2606,793
2607,2408
2608,2763
2609,4247
2610,1766
2610,3102
2610,4509
2611,3260
2612,371
2612,1061
2612,1292
2613,384
2613,2846
2614,2462
2614,3113
2615,2380
2616,3395
2619,1239
2619,2090
2619,4619
2620,2312
2620,4343
2620,4640
2621,25
2622,574
2625,1660
2625,3599
2625,3900
2625,4785
2626,296
2630,38
2630,40
2630,297
2630,340
2630,649
2630,1182
2630,1316
2630,1380
2630,2111
2631,1176
2635,941
2635,4954
2636,433
2636,1140
2638,3095
2640,649
2642,3571
2643,1004
2644,1836
2645,1467
2645,2701
2646,1404
2647,4650
2649,42
2649,3404
2649,4589
2649,4872
2651,612
2652,2481
2653,4215
2655,981
2655,3066
2658,2504
2658,2956
2659,742
2661,941
2661,1050
2661,2400
2661,2510
2661,3262
2662,1789
2663,3616
2665,877
2666,328
2667,735
2668,1684
2669,896
2670,1553
2671,1530
2671,4055
2671,4634
2673,4680
2674,286
2676,1176
2677,4034
2678,166
2679,2790
2679,4430
2680,1027
2680,1108
2680,1119
2680,2134
2680,4297
2681,41
2681,624
2681,1188
2681,4423
2682,494
2682,2826
2683,2321
2684,1574
2685,2354
2685,4359
2688,3535
2688,3943
2689,2912
2689,3980
2690,1910
2691,159
2691,877
2692,919
2693,3030
2693,4436
2693,4692
2696,167
2697,53
2698,45
2698,1347
2698,3217
2703,384
2703,3429
2706,340
2706,4849
2707,4659
2710,628
2710,1818
2710,2587
2710,3370
2710,4541
2711,312
2715,1400
2717,300
2718,1605
2721,794
2722,53
2722,4795
2725,987
2726,479
2727,317
2727,4281
2728,3209
2732,624
2732,1794
2733,3936
2733,4034
2737,4394
2742,2007
2744,2513
2744,3727
2744,3935
2744,4993
2746,1502
2747,2760
2749,2455
2751,885
2752,2654
2753,1204
2754,1918
2758,282
2759,739
2762,1917
2762,2340
2764,985
2766,2126
2766,3272
2767,2071
2769,1693
2770,676
2771,335
2771,1705
2775,1237
2777,3103
2778,1127
2779,41
2779,2008
2780,1177
2786,748
2788,1
2789,4749
2790,4379
2791,1229
2791,4702
2793,692
2794,13
2794,60
2794,668
2794,1201
2794,1398
2794,1970
2794,2714
2794,3158
2794,3763
2794,4157
2796,215
2798,416
2798,2411
2799,452
2799,1961
2800,3896
2802,668
2802,2024
2803,624
2803,4357
2804,2321
2806,1812
2807,223
2807,2302
2807,3106
2807,3589
2809,219
2809,425
2809,1339
2811,2730
2814,484
2815,77
2815,430
2815,1052
2815,1356
2815,2470
2815,4216
2816,792
2816,2830
2819,1124
2820,624
2821,3044
2822,1264
2823,2063
2825,289
2828,2628
2829,2149
2832,368
2832,4408
2833,78
2833,536
2833,1357
2833,2708
2834,3872
2834,4472
2835,674
2835,1335
2835,2784
2835,3944
2836,2043
2836,2684
2836,4833
2837,77
2838,2528
2839,692
2840,1316
2841,1078
2842,452
2843,4247
2844,1116
2845,2818
2848,1568
2849,320
2850,828
2851,774
2851,2095
2851,2466
2852,965
2852,4738
2854,1335
2855,457
2857,903
2858,371
2858,410
2858,646
2858,1541
2858,1570
2860,4529
2863,611
2864,4742
2866,194
2868,296
2870,296
2874,923
2877,1631
2877,3949
2878,2763
2879,1184
2880,412
2881,2209
2882,4513
2885,425
2885,3578
2887,468
2887,586
2887,1153
2887,2026
2887,2628
2887,3529
2887,3596
2887,3635
2887,4068
2887,4579
2887,4650
2888,45
2889,1404
2889,2229
2889,2363
2889,3617
2889,3858
2889,3999
2889,4523
2891,1828
2891,4879
2894,889
2894,4449
2896,1335
2896,3654
2899,1302
2900,2899
2901,2490
2902,231
2902,2795
2902,3229
2902,4929
2904,519
2904,3582
2904,4316
2906,4463
2907,1429
2908,1579
2909,2418
2910,900
2910,1955
2911,777
2912,4589
2913,437
2913,4567
2915,692
2915,4552
2917,4904
2919,1644
2925,2144
2927,4589
2928,413
2932,9
2932,2963
2933,2432
2933,3591
2934,384
2934,4477
2935,89
2936,107
2937,3337
2940,166
2941,320
2941,2291
2941,3556
2943,859
2943,2074
2945,74
2947,2029
2947,4347
2947,4584
2947,4589
2948,3751
2952,719
2954,557
2954,4481
2958,430
2962,4589
2965,1415
2967,1543
2968,2479
2968,3985
2969,1116
2971,375
2971,4661
2974,45
2974,1112
2974,4236
2974,4680
2975,3360
2976,1226
2977,717
2985,433
2987,635
2989,223
2990,149
2990,443
2990,1042
2990,4768
2990,4812
2991,3112
2991,3830
2992,201
2993,231
2993,1832
2993,2474
2993,3458
2998,637
2998,1798
2999,1346
3001,4215
3003,1186
3003,4862
3003,4887
3005,1415
3005,4407
3007,1742
3008,1860
3009,1837
3011,1180
3012,633
3014,5
3014,248
3014,324
3014,1646
3014,2608
3015,652
3015,3104
3015,3813
3016,4940
3017,2455
3019,2562
3021,384
3021,662
3021,4141
3022,763
3023,1099
3025,706
3026,474
3026,3569
3026,4457
3027,1085
3031,2476
3032,1483
3033,1574
3034,1524
3034,4536
3035,2007
3036,60
3036,4244
3039,2996
3040,4933
3041,484
3041,2741
3041,3584
3043,45
3044,1962
3044,4231
3046,1061
3046,2371
3046,4978
3047,1645
3047,4002
3051,834
3052,40
3052,1180
3052,2221
3052,3796
3052,4394
3052,4480
3053,651
3054,169
3054,1389
3054,3193
3054,4680
3055,1241
3058,1557
3058,2795
3058,4952
3058,4981
3059,2819
3061,1168
3061,1417
3061,1746
3061,3182
3061,4639
3062,2130
3063,308
3063,701
3063,857
3063,3825
3064,2042
3065,762
3066,1167
3068,4033
3069,2246
3070,2268
3070,4395
3071,164
3071,876
3072,323
3073,4263
3073,4650
3075,1530
3075,4400
3076,118
3076,3246
3076,3595
3076,3897
3078,157
3079,342
3082,87
3082,251
3082,345
3082,1086
3082,1570
3082,2805
3084,1507
3086,1483
3087,2234
3092,4497
3093,1240
3096,902
3098,1982
3100,829
3100,1012
3100,2440
3100,3822
3102,13
3108,1071
3109,2485
3109,3864
3111,651
3111,3601
3114,3026
3117,2867
3118,3608
3119,2064
3119,3509
3120,324
3121,2723
3122,2666
3126,2406
3128,1196
3130,3816
3130,3832
3130,3839
3130,4202
3132,342
3132,4683
3133,717
3133,3683
3133,4433
3134,1617
3135,564
3136,2798
3137,701
3137,1398
3137,1805
3137,3576
3140,45
3141,2519
3142,346
3142,4296
3143,2622
3144,1124
3145,1384
3145,4180
3145,4452
3146,1746
3147,3430
3148,333
3148,1345
3148,1636
3148,1936
3148,2040
3148,3286
3148,3808
3148,4025
3150,244
3152,439
3153,384
3157,1553
3161,3842
3162,936
3163,2049
3164,53
3164,2895
3165,2760
3166,3330
3166,3751
3167,3812
3167,4536
3173,533
3173,3827
3174,2242
3174,4367
3175,3751
3177,1970
3186,1748
3186,4287
3187,3944
3187,4978
3188,1
3190,2203
3192,1455
3192,3437
3193,3739
3194,26
3195,377
3196,92
3196,3516
3196,4222
3197,219
3199,257
3201,2573
3201,4853
3202,2371
3203,729
3203,3596
3203,4902
3205,1657
3206,761
3206,3807
3207,320
3207,3353
3208,464
3212,2432
3213,1138
3216,1862
3216,4589
3218,109
3218,1604
3218,3781
3218,4828
3219,1981
3221,8
3221,176
3221,1493
3221,1557
3221,1938
3221,2251
3221,3021
3221,3343
3221,3351
3221,3432
3221,4513
3221,4810
3222,606
3222,3200
3223,1336
3223,4237
3224,942
3224,4214
3226,574
3227,153
3230,170
3231,2762
3233,871
3234,1049
3235,877
3236,476
3236,667
3236,2338
3237,2184
3237,4305
3237,4456
3238,2027
3239,1840
3240,9
3240,310
3240,2132
3240,3861
3240,4718
3240,4912
3241,442
3241,638
3241,1128
3241,3797
3242,2636
3244,1313
3244,4174
3248,71
3248,87
3248,1026
3248,1315
3248,2279
3248,2347
3248,2628
3249,1848
3249,2320
3249,4102
3250,2400
3251,862
3252,462
3252,3179
3253,387
3253,1077
3253,1821
3253,4692
3257,633
3260,443
3260,782
3261,900
3263,1016
3265,1568
3265,2159
3265,4565
3265,4797
3267,61
3269,1112
3270,53
3271,2868
3273,384
3274,690
3276,375
3276,850
3276,1517
3276,1860
3278,1806
3279,293
3279,749
3279,1272
3279,1673
3279,3384
3280,3216
3281,2138
3282,4756
3284,4202
3289,2128
3290,519
3291,1430
3293,493
3295,474
3296,346
3297,41
3297,3715
3297,4201
3298,221
3299,1818
3301,2160
3302,1124
3303,995
3304,317
3305,1605
3307,1606
3308,1119
3308,1517
3309,1739
3310,1127
3311,3529
3311,4536
3313,2340
3314,3468
3314,4967
3315,3785
3315,3876
3318,1740
3320,1604
3320,2632
3322,744
3322,865
3322,2578
3322,4915
3323,1502
3325,1284
3326,3169
3328,2512
3329,1945
3334,137
3335,251
3336,45
3339,37
3341,3217
3343,2592
3343,2761
3344,4774
3346,726
3349,4493
3350,10
3350,129
3350,204
3350,435
3350,798
3350,872
3350,1087
3350,1723
3350,1831
3350,2008
3350,3722
3352,201
3354,211
3354,3529
3355,772
3357,1355
3358,2089
3359,1411
3362,2529
3363,592
3363,1107
3363,3785
3363,4033
3366,840
3368,2470
3371,137
3371,2422
3372,593
3373,254
3374,4351
3374,4379
3375,52
3378,367
3386,2045
3386,3267
3386,4112
3386,4427
3387,2739
3389,623
3389,4873
3391,635
3391,1496
3391,1790
3391,2371
3391,2990
3391,4155
3394,752
3395,4589
3396,1788
3396,2982
3399,246
3399,3519
3399,3844
3401,442
3403,3942
3407,2308
3410,1177
3411,2831
3412,159
3413,27
3414,339
3414,928
3415,2134
3417,80
3417,761
3417,864
3417,1203
3420,1409
3421,27
3426,894
3430,3296
3434,385
3434,3237
3435,1204
3439,3254
3439,3594
3439,4595
3441,3515
3441,4813
3442,4933
3443,1660
3445,799
3447,3228
3448,574
3448,3486
3449,18
3449,838
3449,2298
3449,2982
3449,3438
3449,3530
3450,2149
3450,2519
3450,4334
3451,2869
3452,175
3452,308
3452,1037
3452,4811
3455,873
3455,1380
3455,1607
3455,2045
3455,2267
3456,2785
3457,1292
3458,2181
3460,987
3461,735
3464,41
3470,26
3471,377
3472,686
3473,1537
3473,3520
3474,1327
3476,45
3476,3436
3477,371
3477,466
3477,483
3477,690
3477,843
3477,1284
3477,3568
3477,3725
3477,4244
3477,4590
3477,4781
3478,183
3478,202
3478,1059
3478,2368
3478,2739
3478,3198
3478,3836
3479,3682
3480,41
3480,1560
3480,4035
3481,1487
3481,2712
3482,169
3483,2245
3483,4794
3484,3360
3486,2112
3487,1537
3487,2966
3488,3473
3488,3685
3488,4833
3489,1593
3492,33
3495,170
3496,212
3496,1951
3496,2031
3496,4184
3499,2434
3500,2090
3501,3645
3501,4081
3502,4498
3504,1087
3505,1186
3506,1016
3506,2275
3509,2656
3510,517
3510,4928
3511,1430
3513,164
3513,908
3513,994
3514,172
3517,1423
3518,838
3521,505
3521,1215
3521,2381
3521,4070
3523,2066
3524,1368
3524,3182
3525,180
3526,2501
3526,2760
3528,1351
3528,1512
3528,1917
3528,2097
3528,4077
3529,987
3529,1127
3530,885
3530,4701
3531,517
3531,1276
3532,4692
3533,246
3534,1507
3536,479
3538,3429
3540,107
3540,582
3540,1276
3542,107
3543,1864
3544,107
3547,1289
3548,483
3548,1196
3548,1874
3555,1430
3560,1202
3560,1253
3560,1280
3560,2802
3560,3397
3560,3465
3560,3593
3560,4704
3561,713
3561,1414
3562,4188
3563,159
3565,2011
3565,4871
3566,55
3567,292
3567,4748
3570,2376
3571,3103
3572,367
3574,3216
3574,3637
3575,3479
3577,4034
3578,1747
3579,691
3581,2027
3584,384
3584,646
3584,2637
3584,3397
3584,4481
3585,4716
3586,131
3587,2562
3590,973
3590,1849
3601,400
3601,739
3602,2113
3603,42
3603,1054
3603,1229
3603,3406
3604,1804
3604,4871
3607,828
3608,3026
3609,657
3610,1383
3611,1547
3612,2203
3613,3249
3614,3210
3615,510
3617,384
3617,1654
3618,3209
3619,405
3619,637
3619,3256
3619,4073
3621,1270
3622,1034
3622,1985
3623,2320
3624,618
3625,22
3630,484
3632,1365
3634,3872
3635,48
3635,284
3635,1618
3635,3405
3636,1141
3639,834
3640,3596
3642,2226
3643,252
3644,2861
3646,941
3647,4490
3648,1799
3650,3638
3651,2007
3653,2375
3658,664
3658,1368
3658,1888
3658,2462
3658,2491
3658,3636
3659,4684
3660,1527
3662,41
3663,1273
3664,767
3665,1837
3665,4707
3666,262
3668,2931
3668,3681
3670,234
3670,1895
3670,2931
3670,3399
3670,3672
3671,1505
3676,432
3678,2226
3680,3468
3684,476
3684,1873
3684,2204
3684,2729
3685,157
3685,1071
3685,1096
3685,1369
3685,1404
3685,1450
3685,1577
3685,1644
3685,1700
3685,1742
3685,2326
3685,2337
3685,2463
3685,2664
3685,2827
3685,3444
3685,3748
3685,4513
3685,4651
3685,4839
3688,2701
3690,1177
3691,1649
3692,404
3692,3612
3692,4206
3692,4576
3693,1828
3694,2703
3697,27
3700,2760
3701,3512
3702,1510
3704,103
3705,464
3705,1240
3708,188
3708,3987
3709,53
3711,1840
3711,4594
3712,45
3714,53
3714,1917
3717,1533
3718,1172
3719,244
3720,2739
3721,3963
3725,84
3725,4213
3726,289
3728,1336
3728,3916
3728,4431
3731,202
3733,1059
3734,1183
3735,1532
3737,45
3737,4772
3742,3459
3743,563
3744,296
3745,2086
3745,4780
3746,3394
3746,4724
3747,741
3751,3357
3753,3458
3755,1513
3755,3960
3755,4049
3756,443
3758,3584
3760,4493
3761,558
3761,1826
3761,1842
3761,2010
3761,3139
3761,3419
3761,4457
3762,2238
3764,2242
3764,2931
3765,1107
3766,1926
3767,2113
3768,78
3768,1448
3771,2469
3772,1430
3774,191
3774,2290
3777,964
3777,1673
3778,141
3778,539
3778,548
3778,1430
3778,1557
3778,1599
3778,2826
3778,3216
3778,3422
3778,4050
3778,4247
3779,941
3780,1264
3781,2798
3782,333
3784,4680
3786,1297
3788,989
3789,296
3789,3225
3790,2648
3791,2784
3794,726
3795,3077
3796,60
3796,327
3797,1243
3797,1565
3797,2757
3797,2957
3797,3831
3797,4650
3798,2087
3799,651
3799,4309
3801,1465
3801,1693
3802,252
3803,633
3804,520
3804,1537
3804,2472
3804,3842
3804,4494
3805,165
3805,463
3805,885
3805,1223
3805,2876
3805,2977
3806,229
3810,2857
3811,2204
3813,140
3814,710
3814,941
3814,4911
3817,4929
3819,345
3820,219
3821,300
3821,875
3821,902
3821,1480
3821,2012
3821,4374
3824,3692
3828,30
3828,45
3828,160
3828,826
3828,2856
3828,3742
3829,894
3830,75
3835,4969
3839,3823
3839,4165
3839,4415
3840,72
3840,1535
3841,2876
3842,2468
3842,4754
3843,70
3843,1736
3846,1905
3848,33
3848,251
3848,4291
3851,1468
3851,4800
3854,1087
3855,865
3855,4761
3856,1565
3859,1156
3860,3699
3863,2045
3865,443
3866,1935
3867,229
3867,1840
3867,2086
3867,4836
3873,1012
3876,790
3876,3172
3877,1666
3879,1002
3880,553
3880,3667
3881,2238
3882,118
3884,686
3886,3807
3887,2587
3888,1584
3888,4787
3891,1960
3892,3000
3893,1766
3894,179
3895,2392
3897,4488
3898,3045
3899,3741
3899,4086
3903,3172
3904,1202
3905,1125
3908,3153
3909,3057
3910,86
3910,252
3910,430
3910,759
3910,1328
3910,1698
3910,1843
3910,3095
3910,4867
3910,4910
3912,4359
3914,903
3914,1291
3914,3539
3914,4627
3914,4643
3915,204
3917,2501
3918,533
3918,2892
3918,3629
3919,3359
3921,4455
3922,2321
3924,345
3924,2305
3924,4328
3924,4360
3925,1467
3926,2901
3928,1537
3929,215
3929,4030
3930,1557
3931,2321
3934,838
3934,2634
3934,3751
3934,4311
3936,216
3936,565
3936,941
3936,1032
3936,1091
3937,1177
3939,1368
3946,2997
3947,44
3947,4655
3948,2221
3950,3645
3951,643
3952,3099
3953,3521
3954,1649
3954,2854
3956,630
3957,3338
3959,3035
3962,180
3963,1654
3965,1240
3968,1097
3970,145
3970,1201
3970,4625
3970,4819
3971,433
3972,2038
3975,180
3976,1579
3977,171
3978,2113
3979,3232
3982,1866
3987,321
3987,367
3987,665
3987,1847
3987,3140
3988,41
3989,4004
3990,3584
3991,389
3994,2374
3995,285
3995,663
3996,259
3997,582
3998,510
3998,761
3998,2865
4000,1200
4001,822
4005,345
4005,375
4005,1182
4005,1363
4005,2109
4005,2403
4005,3433
4006,521
4006,906
4008,3655
4012,3113
4013,4180
4014,3286
4015,4929
4016,1270
4017,3445
4018,2042
4019,1122
4020,92
4020,684
4020,1071
4021,2723
4022,4421
4022,4633
4023,4
4026,454
4027,1487
4027,2434
4028,437
4031,1276
4034,938
4037,2957
4038,339
4040,297
4041,2916
4041,3077
4044,313
4045,227
4045,313
4045,4181
4045,4587
4046,1406
4047,4062
4048,416
4049,351
4051,2796
4052,1636
4054,194
4056,1975
4056,4941
4057,735
4059,246
4060,246
4061,2562
4062,2063
4062,4969
4064,1926
4065,2551
4065,4296
4065,4420
4067,2856
4069,2252
4071,149
4071,221
4071,1885
4075,540
4076,469
4076,1041
4076,1972
4076,4011
4079,1497
4079,2371
4079,3431
4082,461
4082,637
4082,789
4082,985
4082,2932
4082,3049
4083,2642
4084,14
4087,553
4087,720
4087,822
4087,883
4087,4393
4089,414
4090,878
4094,3287
4096,1116
4098,1333
4100,4188
4101,829
4103,315
4103,4387
4105,1176
4113,624
4114,2340
4115,859
4115,4501
4116,2299
4116,3458
4118,452
4120,3660
4120,3741
4123,3360
4124,483
4124,829
4124,4996
4125,385
4125,4166
4126,223
4126,1315
4126,2442
4127,3699
4128,1464
4129,180
4129,4878
4130,2074
4133,167
4134,2527
4134,2854
4135,762
4135,3630
4137,1690
4138,89
4139,1087
4140,41
4142,371
4142,1583
4142,1693
4142,3423
4146,1316
4148,1540
4150,2312
4152,1398
4153,320
4158,2474
4161,4513
4163,1468
4164,2468
4167,877
4168,1281
4172,479
4173,822
4175,2374
4178,22
4180,2812
4182,2978
4186,63
4188,2073
4191,2033
4191,4647
4192,2789
4193,2058
4194,2473
4199,3210
4199,4230
4200,1201
4200,2089
4201,3154
4202,705
4202,4373
4204,1799
4205,2185
4207,1162
4207,3103
4207,4649
4208,684
4209,4774
4211,1729
4212,2073
4215,1209
4215,1557
4215,1671
4218,296
4220,231
4220,524
4221,3066
4224,45
4233,1634
4233,4642
4235,594
4238,3458
4238,4356
4239,340
4240,3647
4243,840
4245,211
4246,592
4247,1248
4248,734
4251,3345
4252,225
4253,979
4254,916
4256,979
4258,3992
4259,4671
4261,342
4261,351
4261,4902
4262,3405
4264,346
4265,174
4265,1308
4265,4222
4266,24
4266,2116
4267,1837
4268,3129
4269,1558
4270,3757
4272,84
4276,2559
4279,962
4280,1110
4283,169
4285,1033
4290,3870
4292,1307
4292,4658
4294,691
4299,3171
4300,384
4300,826
4301,433
4303,4801
4306,4186
4307,3278
4310,554
4312,4159
4317,4650
4318,4043
4319,1334
4320,215
4322,979
4324,1408
4326,2247
4327,2694
4331,3759
4332,1316
4333,553
4338,22
4339,2568
4340,4195
4341,493
4341,2628
4342,1745
4345,426
4345,2358
4345,2959
4345,2970
4345,3063
4345,3759
4346,602
4346,1761
4346,2470
4346,2839
4346,4557
4348,2010
4349,1792
4350,41
4352,2454
4353,840
4358,80
4361,524
4362,215
4364,1190
4365,925
4366,1676
4366,2473
4366,4203
4366,4234
4366,4866
4369,1547
4370,2714
4372,1828
4375,3872
4376,3189
4376,4930
4377,482
4377,651
4377,1667
4378,3931
4381,4692
4382,252
4383,1574
4384,8
4385,1185
4385,1568
4385,4561
4389,137
4392,2373
4392,4876
4398,2089
4399,746
4399,2456
4402,3654
4402,4943
4403,1138
4404,4328
4405,2539
4406,2455
4406,2868
4406,3939
4406,4379
4409,592
4410,992
4411,2491
4413,1661
4414,2775
4416,346
4417,254
4421,183
4421,1171
4421,4848
4422,434
4423,3940
4424,192
4424,393
4424,449
4424,696
4426,1700
4427,329
4427,390
4427,620
4427,1423
4427,3906
4427,4034
4429,87
4429,4330
4430,700
4430,2946
4432,614
4432,877
4432,2017
4434,2684
4435,2709
4435,4756
4437,3970
4438,1745
4440,2572
4441,543
4448,1125
4450,3983
4452,2045
4454,3541
4455,794
4455,1180
4456,384
4459,1023
4459,1099
4459,2811
4459,4933
4461,2905
4464,734
4465,462
4466,2128
4467,2229
4470,1315
4473,2459
4475,1241
4476,4589
4476,4638
4478,2176
4478,4542
4479,1684
4479,4628
4482,1516
4483,3943
4485,433
4486,2741
4489,4386
4491,227
4492,1196
4493,430
4496,112
4498,367
4499,327
4502,772
4503,655
4505,20
4505,3249
4507,1955
4508,1936
4508,3553
4509,1634
4509,3044
4511,170
4513,1704
4514,295
4514,1292
4514,2238
4516,923
4517,4529
4518,3048
4520,838
4524,2466
4524,4532
4525,2122
4525,3423
4526,754
4526,3635
4528,1091
4529,625
4535,449
4536,2232
4536,2256
4536,2479
4536,2738
4537,98
4537,441
4537,449
4537,3458
4537,4636
4539,4215
4540,1081
4543,1255
4545,1847
4547,252
4551,393
4555,1241
4556,1033
4558,872
4562,213
4563,779
4566,1748
4570,84
4573,313
4577,1408
4578,875
4580,2790
4582,346
4583,654
4583,3699
4585,4297
4586,3000
4592,3735
4593,815
4593,2134
4593,2539
4593,2745
4593,4366
4597,813
4599,1184
4600,2863
4601,4094
4603,1605
4605,1965
4606,706
4607,4497
4608,3260
4610,1463
4612,2317
4613,1030
4613,1229
4613,2014
4613,4351
4615,2375
4616,739
4616,2543
4616,3739
4616,3920
4616,4324
4617,2732
4618,4034
4620,877
4621,2086
4621,4989
4629,4589
4630,692
4631,666
4631,894
4631,3410
4632,2702
4633,414
4634,219
4634,2118
4634,4097
4634,4210
4634,4337
4634,4993
4635,1097
4637,3346
4645,180
4648,3397
4650,616
4650,2859
4650,3847
4652,3287
4653,430
4653,4938
4656,1240
4663,3529
4663,4697
4665,1168
4666,2190
4668,4774
4670,3102
4673,2232
4677,436
4677,1599
4679,3739
4681,4654
4684,3641
4686,2772
4688,4680
4689,257
4689,1172
4689,2103
4689,4080
4689,4390
4689,4450
4689,4481
4690,1553
4691,171
4692,4288
4693,779
4694,3587
4695,2007
4696,1226
4697,226
4697,656
4697,1301
4699,1328
4699,1420
4699,3616
4700,1248
4705,3751
4706,1333
4708,3716
4708,4094
4708,4308
4709,1654
4711,772
4712,1716
4712,2201
4713,3673
4715,3899
4716,40
4716,2158
4717,60
4719,215
4719,1639
4719,2867
4719,4219
4720,1959
4721,692
4724,1187
4726,497
4728,2654
4729,339
4729,1298
4730,2812
4733,2039
4733,2421
4733,3529
4733,3633
4735,223
4736,1324
4738,403
4738,2126
4739,826
4740,3490
4741,2043
4742,186
4742,413
4744,3056
4745,9
4746,1417
4747,1465
4748,157
4748,437
4748,783
4748,2539
4750,41
4751,1403
4752,2885
4755,246
4755,479
4755,674
4755,1532
4755,3709
4755,4241
4758,1918
4758,2416
4759,2380
4764,2134
4766,2145
4766,4830
4767,1071
4769,4790
4770,174
4770,473
4770,3258
4777,4215
4781,4108
4783,1507
4784,1808
4786,529
4788,227
4789,1273
4790,1917
4792,2542
4798,4625
4799,2204
4800,409
4800,2136
4800,2883
4800,4667
4801,1186
4802,1281
4805,484
4808,289
4809,107
4816,4393
4817,941
4818,517
4820,1315
4820,4935
4825,1694
4825,2399
4826,748
4831,827
4831,1945
4832,4774
4834,2784
4834,4966
4835,686
4835,1897
4837,174
4837,291
4837,1177
4837,4189
4837,4553
4838,1095
4840,3283
4841,371
4842,3762
4844,580
4845,3116
4847,1574
4850,4976
4852,2736
4854,399
4857,701
4860,3721
4862,3751
4863,4480
4865,4445
4866,2595
4866,3217
4866,3522
4870,490
4871,4735
4877,1328
4880,2944
4881,2434
4882,3704
4884,826
4887,1960
4890,211
4891,2801
4892,474
4893,1970
4894,1813
4895,198
4896,310
4898,3054
4899,3099
4903,2854
4905,38
4906,1315
4906,3127
4908,1917
4909,2090
4913,1380
4914,1748
4915,2144
4916,186
4917,2039
4919,1353
4920,3539
4922,330
4923,1176
4924,2096
4925,2145
4929,197
4929,1289
4929,2942
4934,633
4936,3346
4938,4803
4939,1167
4944,1256
4946,1918
4947,2204
4951,2063
4953,2045
4955,2063
4956,2055
4957,3125
4958,2994
4959,19
4962,3344
4963,1524
4965,4058
4965,4644
4967,109
4967,216
4967,237
4967,296
4967,352
4967,412
4967,542
4967,573
4967,822
4967,836
4967,926
4967,968
4967,1027
4967,1097
4967,1273
4967,1406
4967,1468
4967,1684
4967,1731
4967,1739
4967,2800
4967,2931
4967,3620
4967,4530
4967,4614
4969,144
4970,792
4971,1579
4972,2867
4973,2712
4974,4738
4975,324
4979,3569
4980,2830
4983,3939
4984,911
4984,1519
4984,1743
4984,1943
4984,2375
4984,3262
4984,4261
4984,4469
4985,2491
4986,1315
4988,840
4990,1107
4991,1860
4993,439
4993,1514
4993,2950
4993,2979
4993,3381
4993,3598
4993,3696
4994,452
4994,1910
4995,4102
4995,4187
4997,3868
4999,2833
