,S1,S1_conf
init_infection,0.020924040713806245,0.02827392800563778
beta,0.8960035474628472,0.07003036631924629
DWM_q,0.004225727767746048,0.009877288329092892
DWM_dt,0.01006699194473738,0.011130138591390143
