,S2,S2_conf
"('init_infection', 'beta')",0.06397672957859746,0.04591257761826107
"('init_infection', 'DWM_q')",-0.014514928624276887,0.05245863709637736
"('init_infection', 'DWM_dt')",-0.018458455461245506,0.051636972562061054
"('beta', 'DWM_q')",-0.007704156808593656,0.07971067053449915
"('beta', 'DWM_dt')",-0.012735509008125045,0.08149113107053743
"('DWM_q', 'DWM_dt')",-0.0021245186229419573,0.016142359854773896
