,S1,S1_conf
init_infection,0.6615529195593083,0.07645985504675372
beta,0.1870612054200742,0.055004716990061424
DWM_q,-0.0028638493875981622,0.006074612447507709
DWM_dt,-0.0037555613632511567,0.005754828716635987
